 300.00000	  35.19256
 305.00000	  33.23470
 310.00000	  31.73709
 315.00000	  29.09011
 320.00000	  27.49435
 325.00000	  25.81347
 330.00000	  25.25296
 335.00000	  24.28527
 340.00000	  23.16191
 345.00000	  22.20494
 350.00000	  21.32368
 355.00000	  20.66304
 360.00000	  20.08058
 365.00000	  19.53754
 370.00000	  18.65464
 375.00000	  17.85055
 380.00000	  17.16926
 385.00000	  16.62218
 390.00000	  16.08396
 395.00000	  15.55460
 400.00000	  14.88867
 405.00000	  14.24204
 410.00000	  13.67602
 415.00000	  13.25274
 420.00000	  12.83232
 425.00000	  12.35996
 430.00000	  11.77499
 435.00000	  11.17069
 440.00000	  10.84681
 445.00000	  10.47047
 450.00000	   9.95073
 455.00000	   9.63825
 460.00000	   9.33757
 465.00000	   8.93148
 470.00000	   8.51199
 475.00000	   8.22321
 480.00000	   7.94900
 485.00000	   7.70076
 490.00000	   7.44855
 495.00000	   7.14889
 500.00000	   6.90069
 505.00000	   6.72691
 510.00000	   6.55535
 515.00000	   6.41874
 520.00000	   6.29283
 525.00000	   6.16816
 530.00000	   6.05236
 535.00000	   5.95564
 540.00000	   5.85970
 545.00000	   5.76454
 550.00000	   5.68723
 555.00000	   5.63840
 560.00000	   5.58978
 565.00000	   5.54137
 570.00000	   5.49317
 575.00000	   5.44518
 580.00000	   5.42340
 585.00000	   5.41181
 590.00000	   5.40023
 595.00000	   5.38867
 600.00000	   5.37711
 605.00000	   5.36557
 610.00000	   5.35404
 615.00000	   5.34252
 620.00000	   5.34108
 625.00000	   5.34096
 630.00000	   5.34084
 635.00000	   5.34072
 640.00000	   5.34060
 645.00000	   5.34047
 650.00000	   5.34035
 655.00000	   5.34023
 660.00000	   5.34010
 665.00000	   5.33997
 670.00000	   5.33985
 675.00000	   5.34478
 680.00000	   5.38318
 685.00000	   5.42171
 690.00000	   5.46037
 695.00000	   5.49841
 700.00000	   5.53616
 705.00000	   5.57404
 710.00000	   5.61205
 715.00000	   5.65019
 720.00000	   5.70088
 725.00000	   5.75382
 730.00000	   5.80699
 735.00000	   5.86041
 740.00000	   5.91407
 745.00000	   5.96798
 750.00000	   6.02212
 755.00000	   6.07723
 760.00000	   6.15936
 765.00000	   6.24204
 770.00000	   6.32527
 775.00000	   6.40905
 780.00000	   6.49338
 785.00000	   6.57827
 790.00000	   6.66123
 795.00000	   6.70692
 800.00000	   6.75277
