 300.00000	   5.93243	   0.03450
 305.00000	   5.76505	   0.03330
 310.00000	   5.63366	   0.03250
 315.00000	   5.39362	   0.03187
 320.00000	   5.24360	   0.03124
 325.00000	   5.08079	   0.03081
 330.00000	   5.02533	   0.03049
 335.00000	   4.92810	   0.03017
 340.00000	   4.81278	   0.02985
 345.00000	   4.71230	   0.02955
 350.00000	   4.61785	   0.02927
 355.00000	   4.54575	   0.02899
 360.00000	   4.48123	   0.02871
 365.00000	   4.42022	   0.02843
 370.00000	   4.31919	   0.02803
 375.00000	   4.22508	   0.02764
 380.00000	   4.14367	   0.02724
 385.00000	   4.07712	   0.02673
 390.00000	   4.01057	   0.02622
 395.00000	   3.94402	   0.02571
 400.00000	   3.85867	   0.02529
 405.00000	   3.77394	   0.02489
 410.00000	   3.69819	   0.02449
 415.00000	   3.64051	   0.02404
 420.00000	   3.58230	   0.02349
 425.00000	   3.51575	   0.02294
 430.00000	   3.43154	   0.02239
 435.00000	   3.34233	   0.02179
 440.00000	   3.29352	   0.02120
 445.00000	   3.23588	   0.02060
 450.00000	   3.15454	   0.01999
 455.00000	   3.10461	   0.01936
 460.00000	   3.05580	   0.01873
 465.00000	   2.98861	   0.01816
 470.00000	   2.91759	   0.01771
 475.00000	   2.86767	   0.01725
 480.00000	   2.81945	   0.01673
 485.00000	   2.77507	   0.01606
 490.00000	   2.72925	   0.01540
 495.00000	   2.67378	   0.01492
 500.00000	   2.62696	   0.01452
 505.00000	   2.59367	   0.01412
 510.00000	   2.56038	   0.01372
 515.00000	   2.53356	   0.01339
 520.00000	   2.50859	   0.01320
 525.00000	   2.48361	   0.01302
 530.00000	   2.46019	   0.01283
 535.00000	   2.44045	   0.01264
 540.00000	   2.42071	   0.01246
 545.00000	   2.40098	   0.01227
 550.00000	   2.38482	   0.01221
 555.00000	   2.37456	   0.01218
 560.00000	   2.36430	   0.01215
 565.00000	   2.35404	   0.01213
 570.00000	   2.34378	   0.01210
 575.00000	   2.33352	   0.01207
 580.00000	   2.32885	   0.01214
 585.00000	   2.32636	   0.01225
 590.00000	   2.32387	   0.01235
 595.00000	   2.32138	   0.01246
 600.00000	   2.31889	   0.01257
 605.00000	   2.31640	   0.01271
 610.00000	   2.31392	   0.01285
 615.00000	   2.31143	   0.01300
 620.00000	   2.31112	   0.01314
 625.00000	   2.31109	   0.01328
 630.00000	   2.31106	   0.01342
 635.00000	   2.31104	   0.01361
 640.00000	   2.31101	   0.01381
 645.00000	   2.31099	   0.01401
 650.00000	   2.31096	   0.01421
 655.00000	   2.31094	   0.01441
 660.00000	   2.31091	   0.01468
 665.00000	   2.31089	   0.01499
 670.00000	   2.31086	   0.01530
 675.00000	   2.31193	   0.01561
 680.00000	   2.32022	   0.01592
 685.00000	   2.32851	   0.01623
 690.00000	   2.33680	   0.01654
 695.00000	   2.34493	   0.01685
 700.00000	   2.35297	   0.01719
 705.00000	   2.36101	   0.01754
 710.00000	   2.36904	   0.01790
 715.00000	   2.37708	   0.01825
 720.00000	   2.38773	   0.01873
 725.00000	   2.39879	   0.01923
 730.00000	   2.40985	   0.01973
 735.00000	   2.42091	   0.02024
 740.00000	   2.43198	   0.02077
 745.00000	   2.44304	   0.02130
 750.00000	   2.45410	   0.02194
 755.00000	   2.46531	   0.02260
 760.00000	   2.48191	   0.02325
 765.00000	   2.49852	   0.02382
 770.00000	   2.51513	   0.02439
 775.00000	   2.53173	   0.02495
 780.00000	   2.54834	   0.02541
 785.00000	   2.56494	   0.02588
 790.00000	   2.58107	   0.02648
 795.00000	   2.58992	   0.02722
 800.00000	   2.59876	   0.02796
