2.637999999999999545e+02	1.633708799999999783e+01
2.651999999999999886e+02	1.692755000000000010e+01
2.666000000000000227e+02	1.749174599999999913e+01
2.681000000000000227e+02	1.815240000000000009e+01
2.695000000000000000e+02	1.874202000000000012e+01
2.710000000000000000e+02	1.960650000000000048e+01
2.725000000000000000e+02	2.046659999999999968e+01
2.740000000000000000e+02	2.140518999999999750e+01
2.755000000000000000e+02	2.247103600000000156e+01
2.771000000000000227e+02	2.375069999999999837e+01
2.786000000000000227e+02	2.491119600000000034e+01
2.801999999999999886e+02	2.643697999999999837e+01
2.818000000000000114e+02	2.801699400000000040e+01
2.833999999999999773e+02	2.975163200000000074e+01
2.850000000000000000e+02	3.145287199999999928e+01
2.866999999999999886e+02	3.304660799999999909e+01
2.883000000000000114e+02	3.529088000000000136e+01
2.900000000000000000e+02	3.739439200000000341e+01
2.916999999999999886e+02	3.925612799999999680e+01
2.935000000000000000e+02	4.124227199999999982e+01
2.952000000000000455e+02	4.277537600000000140e+01
2.970000000000000000e+02	4.358220599999999934e+01
2.988000000000000114e+02	4.381295999999999680e+01
3.005999999999999659e+02	4.375404000000000337e+01
3.023999999999999773e+02	4.315687999999999391e+01
3.043000000000000114e+02	4.241538400000000308e+01
3.060999999999999659e+02	4.148840000000000572e+01
3.080000000000000000e+02	4.044629599999999670e+01
3.100000000000000000e+02	3.947270400000000024e+01
3.119000000000000341e+02	3.844065000000000509e+01
3.139000000000000341e+02	3.752795199999999909e+01
3.159000000000000341e+02	3.668531999999999726e+01
3.179000000000000341e+02	3.579557600000000406e+01
3.200000000000000000e+02	3.513688799999999901e+01
3.220000000000000000e+02	3.445041599999999704e+01
3.241000000000000227e+02	3.393764999999999787e+01
3.262999999999999545e+02	3.336058799999999991e+01
3.284000000000000341e+02	3.280663599999999747e+01
3.306000000000000227e+02	3.253333599999999848e+01
3.328000000000000114e+02	3.204952399999999813e+01
3.351000000000000227e+02	3.177645000000000408e+01
3.373999999999999773e+02	3.139353600000000100e+01
3.396999999999999886e+02	3.112588799999999978e+01
3.420000000000000000e+02	3.088362599999999958e+01
3.443999999999999773e+02	3.062767600000000101e+01
3.468000000000000114e+02	3.054059999999999775e+01
3.493000000000000114e+02	3.023654399999999853e+01
3.516999999999999886e+02	3.040581600000000151e+01
3.541999999999999886e+02	3.015586999999999662e+01
3.568000000000000114e+02	3.031589199999999806e+01
3.593999999999999773e+02	3.040833600000000203e+01
3.620000000000000000e+02	3.039838999999999913e+01
3.647000000000000455e+02	3.059090999999999738e+01
3.673999999999999773e+02	3.061128000000000071e+01
3.700999999999999659e+02	3.040047999999999817e+01
3.729000000000000341e+02	2.967109199999999802e+01
3.756999999999999886e+02	2.870164799999999872e+01
3.785999999999999659e+02	2.647980599999999995e+01
3.815000000000000000e+02	2.399627999999999872e+01
3.844000000000000341e+02	2.079448800000000119e+01
3.875000000000000000e+02	1.758782199999999918e+01
3.905000000000000000e+02	1.471009800000000034e+01
3.936000000000000227e+02	1.209818399999999805e+01
3.966999999999999886e+02	1.016475599999999879e+01
3.998999999999999773e+02	8.475367999999999569e+00
4.031999999999999886e+02	7.099200000000000621e+00
4.065000000000000000e+02	5.986632000000000176e+00
4.098999999999999773e+02	5.095800000000000551e+00
4.133000000000000114e+02	4.469598000000000404e+00
4.168000000000000114e+02	3.903203999999999674e+00
4.203000000000000114e+02	3.420900000000000052e+00
4.238999999999999773e+02	3.044939999999999536e+00
4.275000000000000000e+02	2.696704000000000434e+00
4.312000000000000455e+02	2.473295999999999939e+00
4.350000000000000000e+02	2.123819999999999819e+00
4.389000000000000341e+02	1.953160000000000007e+00
4.428000000000000114e+02	1.770707999999999727e+00
4.467999999999999545e+02	1.445400000000000018e+00
4.509000000000000341e+02	1.360532000000000075e+00
4.550000000000000000e+02	1.249494000000000105e+00
4.591999999999999886e+02	1.121328000000000102e+00
4.635000000000000000e+02	1.024920000000000053e+00
4.678999999999999773e+02	9.773919999999999275e-01
4.723000000000000114e+02	8.380799999999999361e-01
4.768999999999999773e+02	7.937799999999999301e-01
4.815000000000000000e+02	6.773959999999999981e-01
4.862000000000000455e+02	6.436859999999999804e-01
4.910000000000000000e+02	5.671260000000000190e-01
4.959000000000000341e+02	5.004159999999999719e-01
5.009000000000000341e+02	4.522680000000000033e-01
5.061000000000000227e+02	4.400000000000000577e-01
5.112999999999999545e+02	3.758199999999999874e-01
5.165999999999999091e+02	3.126239999999999575e-01
5.220000000000000000e+02	3.018400000000000527e-01
5.275999999999999091e+02	2.656080000000000108e-01
5.332999999999999545e+02	2.554799999999999849e-01
5.391000000000000227e+02	2.201159999999999783e-01
5.450000000000000000e+02	2.104000000000000314e-01
5.510000000000000000e+02	1.758119999999999961e-01
5.572000000000000455e+02	1.665599999999999858e-01
5.636000000000000227e+02	1.491119999999999945e-01
5.700000000000000000e+02	1.483560000000000156e-01
5.767000000000000455e+02	1.066779999999999951e-01
5.835000000000000000e+02	1.142959999999999948e-01
5.904000000000000909e+02	9.753599999999999770e-02
5.975000000000000000e+02	1.052479999999999943e-01
6.047999999999999545e+02	8.865339999999999332e-02
6.122999999999999545e+02	8.025999999999999801e-02
6.198999999999999773e+02	6.390400000000000247e-02
6.278000000000000682e+02	5.570600000000000551e-02
6.358000000000000682e+02	5.546800000000000341e-02
6.441000000000000227e+02	5.525800000000000156e-02
6.525000000000000000e+02	6.296000000000000207e-02
6.612000000000000455e+02	5.483799999999999786e-02
6.702000000000000455e+02	4.683239999999999625e-02
6.793999999999999773e+02	4.670160000000000283e-02
6.887999999999999545e+02	4.654799999999999910e-02
6.985000000000000000e+02	4.640400000000000080e-02
7.085000000000000000e+02	3.857000000000000012e-02
7.187000000000000455e+02	3.078399999999999886e-02
7.292999999999999545e+02	1.534400000000000000e-02
7.401999999999999318e+02	9.942399999999998808e-03
7.513999999999999773e+02	7.631999999999999895e-03
7.630000000000000000e+02	1.141500000000000153e-02
7.748999999999999773e+02	1.518399999999999958e-02
7.872000000000000455e+02	1.136399999999999910e-02
7.999000000000000909e+02	1.133400000000000032e-02
8.130000000000000000e+02	1.583399999999999738e-02
8.266000000000000227e+02	1.502800000000000143e-02
