2.479999999999999913e-02	1.000000000000000000e+00
3.099999999999999978e-02	1.000000000000000000e+00
4.132999999999999868e-02	1.000000000000000000e+00
6.198999999999999649e-02	1.002000999999999697e+00
1.239999999999999991e-01	9.999999999999988898e-01
1.549999999999999989e-01	9.999999999999931166e-01
2.066000000000000059e-01	9.998000099999244661e-01
3.099999999999999978e-01	9.996000399985839335e-01
6.199000000000000066e-01	9.998000096937500469e-01
8.266000000000000014e-01	9.999999977342399760e-01
9.536999999999999922e-01	9.999999997749999814e-01
9.840000000000000968e-01	9.999999999335774659e-01
9.919000000000000039e-01	9.998000099497319493e-01
1.033000000000000140e+00	9.999999999200763767e-01
1.239999999999999991e+00	9.998000096540400339e-01
1.550000000000000044e+00	9.992001580551901352e-01
2.066000000000000281e+00	9.980009806790000049e-01
2.479999999999999982e+00	9.974016192440001705e-01
2.754999999999999893e+00	9.968024193749999151e-01
3.100000000000000089e+00	9.954049962360000947e-01
3.541999999999999815e+00	9.948061022789999042e-01
4.133000000000000007e+00	9.926121274999998301e-01
4.958999999999999631e+00	9.896224175000000178e-01
6.198999999999999844e+00	9.846427250999999492e-01
6.887999999999999901e+00	9.822511199999999221e-01
7.748999999999999666e+00	9.782682578999999379e-01
8.266000000000000014e+00	9.762750244000000244e-01
8.551000000000000156e+00	9.742880874999999552e-01
8.855999999999999872e+00	9.720959999999999601e-01
9.183999999999999275e+00	9.698934499999999348e-01
9.537000000000000810e+00	9.692549099999999695e-01
9.919000000000000483e+00	9.694030500000000439e-01
1.033000000000000007e+01	9.691616000000000675e-01
1.077999999999999936e+01	9.681395199999999202e-01
1.127000000000000135e+01	9.657199200000000650e-01
1.180999999999999872e+01	9.628360000000000252e-01
1.240000000000000036e+01	9.626240100000000854e-01
1.305000000000000071e+01	9.669014400000000009e-01
1.378000000000000114e+01	9.711069999999999425e-01
1.392999999999999972e+01	9.724412000000000056e-01
1.408999999999999986e+01	9.730534399999999362e-01
1.425000000000000000e+01	9.730534399999999362e-01
1.441999999999999993e+01	9.730400399999999950e-01
1.475999999999999979e+01	9.749537500000000634e-01
1.511999999999999922e+01	9.749049600000000426e-01
1.550000000000000000e+01	9.728729999999999878e-01
1.590000000000000036e+01	9.707972399999998947e-01
1.631000000000000227e+01	9.665420399999999912e-01
1.675000000000000000e+01	9.699397499999999894e-01
1.721999999999999886e+01	9.812972399999999595e-01
1.771000000000000085e+01	9.971591100000000152e-01
1.823000000000000043e+01	1.007494909999999688e+00
1.879000000000000270e+01	1.013966360000000178e+00
1.936999999999999744e+01	1.014197760000000059e+00
2.000000000000000000e+01	1.014350040000000064e+00
2.066000000000000014e+01	1.014391189999999998e+00
2.101000000000000156e+01	1.014383000000000035e+00
2.137999999999999901e+01	1.016416359999999797e+00
2.175000000000000000e+01	1.018427189999999927e+00
2.214000000000000057e+01	1.020373759999999796e+00
2.233999999999999986e+01	1.022446559999999893e+00
2.254000000000000270e+01	1.024520639999999982e+00
2.275000000000000000e+01	1.024584959999999878e+00
2.296000000000000085e+01	1.026587990000000117e+00
2.316999999999999815e+01	1.028568509999999714e+00
2.339000000000000057e+01	1.032744509999999893e+00
2.361999999999999744e+01	1.034818559999999943e+00
2.383999999999999986e+01	1.036947239999999937e+00
2.407000000000000028e+01	1.039016160000000077e+00
2.430999999999999872e+01	1.041159359999999756e+00
2.454999999999999716e+01	1.045092589999999877e+00
2.480000000000000071e+01	1.059161110000000017e+00
2.489999999999999858e+01	1.079852760000000078e+00
2.500000000000000000e+01	1.101357560000000069e+00
2.510000000000000142e+01	1.108696640000000011e+00
2.519999999999999929e+01	1.081575793600000113e+00
2.530000000000000071e+01	1.067064793599999728e+00
2.555999999999999872e+01	1.046504398399999758e+00
2.582999999999999829e+01	1.036298799599999931e+00
2.695000000000000284e+01	1.007980359100000056e+00
2.817999999999999972e+01	9.939619404000000769e-01
2.951999999999999957e+01	9.780668303999999758e-01
3.100000000000000000e+01	9.642458543999999909e-01
3.263000000000000256e+01	9.505209599999999703e-01
3.443999999999999773e+01	9.349590399999999635e-01
3.646999999999999886e+01	9.194821899999999770e-01
3.875000000000000000e+01	9.022628400000000104e-01
4.132999999999999829e+01	8.814353899999998188e-01
4.428000000000000114e+01	8.533918400000001236e-01
4.769000000000000483e+01	8.202009599999999789e-01
5.165999999999999659e+01	7.821360000000000534e-01
5.635999999999999943e+01	7.392598400000000014e-01
6.199000000000000199e+01	6.903843600000000302e-01
6.887999999999999545e+01	6.314603899999999825e-01
7.749000000000000909e+01	5.428083599999999898e-01
8.265999999999999659e+01	4.704734399999999650e-01
8.856000000000000227e+01	4.024150000000000227e-01
9.536999999999999034e+01	3.167999999999999705e-01
1.032999999999999972e+02	2.065039999999999931e-01
1.078000000000000114e+02	1.382520000000000415e-01
1.126999999999999886e+02	5.487299999999999817e-02
1.180999999999999943e+02	-7.551599999999998591e-02
1.240000000000000000e+02	-2.437737100000000046e-01
1.305000000000000000e+02	-4.138341899999999907e-01
1.378000000000000114e+02	-6.142281100000001048e-01
1.459000000000000057e+02	-8.501143600000001799e-01
1.550000000000000000e+02	-1.110375000000000112e+00
1.653000000000000114e+02	-1.392074999999999951e+00
1.698000000000000114e+02	-1.483658999999999839e+00
1.745999999999999943e+02	-1.579044000000000114e+00
1.796999999999999886e+02	-1.678464000000000178e+00
1.850999999999999943e+02	-1.782899000000000234e+00
1.907000000000000171e+02	-1.893290999999999613e+00
1.968000000000000114e+02	-2.038631000000000082e+00
2.033000000000000114e+02	-2.192543999999999826e+00
2.101000000000000227e+02	-2.414000000000000146e+00
2.175000000000000000e+02	-2.674958999999999421e+00
2.214000000000000057e+02	-3.015055999999999958e+00
2.480000000000000000e+02	-3.987678999999999974e+00
3.100000000000000000e+02	-6.899475999999999054e+00
4.133000000000000114e+02	-1.336174400000000162e+01
6.198999999999999773e+02	-3.280167600000000050e+01
8.266000000000000227e+02	-6.273591900000000265e+01
1.240000000000000000e+03	-1.548579910000000268e+02
1.378000000000000000e+03	-1.874398239999999873e+02
1.550000000000000000e+03	-1.718736389999999972e+02
1.771000000000000000e+03	2.139999999999999147e+01
1.907000000000000000e+03	-3.041919000000021356e+00
2.066000000000000000e+03	-5.037376400000000132e+01
2.254000000000000000e+03	-1.312503639999999905e+02
2.480000000000000000e+03	-1.957589189999999633e+02
2.755000000000000000e+03	-2.566768640000000232e+02
3.100000000000000000e+03	-3.434172389999999950e+02
3.542000000000000000e+03	-4.363046389999999519e+02
4.133000000000000000e+03	-5.394557440000000952e+02
4.959000000000000000e+03	-6.781500000000000909e+02
6.199000000000000000e+03	-8.317200000000000273e+02
8.266000000000000000e+03	-1.056550000000000182e+03
1.240000000000000000e+04	-1.814999999999999545e+03
2.480000000000000000e+04	-2.705950000000000273e+03
