2.479999999999999913e-02	1.075999999999999955e-10
3.099999999999999978e-02	2.699999999999999982e-10
4.132999999999999868e-02	9.599999999999999936e-10
6.198999999999999649e-02	4.084079999999999405e-09
1.239999999999999991e-01	6.660000000000000080e-08
1.549999999999999989e-01	1.654000000000000120e-07
2.066000000000000059e-01	5.499449999999999922e-07
3.099999999999999978e-01	2.379524000000000073e-06
6.199000000000000066e-01	3.499649999999999604e-05
8.266000000000000014e-01	9.519999999999999654e-05
9.536999999999999922e-01	3.000000000000000076e-05
9.840000000000000968e-01	1.629999999999999979e-05
9.919000000000000039e-01	1.417858199999999916e-05
1.033000000000000140e+00	1.788000000000000160e-05
1.239999999999999991e+00	3.719628000000000024e-05
1.550000000000000044e+00	8.816472000000000111e-05
2.066000000000000281e+00	2.777219999999999949e-04
2.479999999999999982e+00	5.313084000000000036e-04
2.754999999999999893e+00	7.487999999999999864e-04
3.100000000000000089e+00	1.081506799999999930e-03
3.541999999999999815e+00	1.617782799999999957e-03
4.133000000000000007e+00	2.490749999999999909e-03
4.958999999999999631e+00	4.277640000000000088e-03
6.198999999999999844e+00	8.077321999999999627e-03
6.887999999999999901e+00	1.050566000000000000e-02
7.748999999999999666e+00	1.406500200000000006e-02
8.266000000000000014e+00	1.612579199999999990e-02
8.551000000000000156e+00	1.747167000000000164e-02
8.855999999999999872e+00	1.972000000000000142e-02
9.183999999999999275e+00	2.284967999999999722e-02
9.537000000000000810e+00	2.658419999999999880e-02
9.919000000000000483e+00	2.993488000000000052e-02
1.033000000000000007e+01	3.268872000000000444e-02
1.077999999999999936e+01	3.483714000000000255e-02
1.127000000000000135e+01	3.793994000000000533e-02
1.180999999999999872e+01	4.416749999999999843e-02
1.240000000000000036e+01	5.260840000000000655e-02
1.305000000000000071e+01	6.099559999999999704e-02
1.378000000000000114e+01	6.507600000000000884e-02
1.392999999999999972e+01	6.650358000000000658e-02
1.408999999999999986e+01	6.593159999999999299e-02
1.425000000000000000e+01	6.593159999999999299e-02
1.441999999999999993e+01	6.632639999999999370e-02
1.475999999999999979e+01	6.817200000000001037e-02
1.511999999999999922e+01	6.955519999999999758e-02
1.550000000000000000e+01	7.106399999999998829e-02
1.590000000000000036e+01	7.375280000000000724e-02
1.631000000000000227e+01	8.147519999999999762e-02
1.675000000000000000e+01	9.367000000000000326e-02
1.721999999999999886e+01	1.043584000000000039e-01
1.771000000000000085e+01	1.066000000000000003e-01
1.823000000000000043e+01	1.011029999999999845e-01
1.879000000000000270e+01	9.233280000000000654e-02
1.936999999999999744e+01	8.709120000000000750e-02
2.000000000000000000e+01	8.346240000000000603e-02
2.066000000000000014e+01	8.245439999999999714e-02
2.101000000000000156e+01	8.265600000000000724e-02
2.137999999999999901e+01	8.233440000000000203e-02
2.175000000000000000e+01	8.261799999999999700e-02
2.214000000000000057e+01	8.451959999999998641e-02
2.233999999999999986e+01	8.338879999999999904e-02
2.254000000000000270e+01	8.225559999999998428e-02
2.275000000000000000e+01	8.063479999999999259e-02
2.296000000000000085e+01	8.132280000000000064e-02
2.316999999999999815e+01	8.262099999999998612e-02
2.339000000000000057e+01	7.993619999999999892e-02
2.361999999999999744e+01	7.899680000000000590e-02
2.383999999999999986e+01	7.662879999999999692e-02
2.407000000000000028e+01	7.588799999999999712e-02
2.430999999999999872e+01	7.310359999999999081e-02
2.454999999999999716e+01	7.754339999999999844e-02
2.480000000000000071e+01	8.590200000000000613e-02
2.489999999999999858e+01	8.694399999999999351e-02
2.500000000000000000e+01	7.098000000000000143e-02
2.510000000000000142e+01	2.232359999999999900e-02
2.519999999999999929e+01	1.023360000000000068e-02
2.530000000000000071e+01	1.016471999999999862e-02
2.555999999999999872e+01	1.014815999999999982e-02
2.582999999999999829e+01	1.022072000000000085e-02
2.695000000000000284e+01	1.198776000000000008e-02
2.817999999999999972e+01	1.367883999999999940e-02
2.951999999999999957e+01	1.455808000000000102e-02
3.100000000000000000e+01	1.736176000000000039e-02
3.263000000000000256e+01	1.989000000000000143e-02
3.443999999999999773e+01	2.204760000000000053e-02
3.646999999999999886e+01	2.704379999999999978e-02
3.875000000000000000e+01	2.926000000000000129e-02
4.132999999999999829e+01	3.173819999999999419e-02
4.428000000000000114e+01	3.622079999999999744e-02
4.769000000000000483e+01	4.566239999999999882e-02
5.165999999999999659e+01	5.841000000000000358e-02
5.635999999999999943e+01	7.817880000000000662e-02
6.199000000000000199e+01	9.862719999999999820e-02
6.887999999999999545e+01	1.166676000000000102e-01
7.749000000000000909e+01	1.173744000000000037e-01
8.265999999999999659e+01	1.267743999999999815e-01
8.856000000000000227e+01	1.429680000000000117e-01
9.536999999999999034e+01	1.465579999999999938e-01
1.032999999999999972e+02	1.383299999999999808e-01
1.078000000000000114e+02	1.276639999999999997e-01
1.126999999999999886e+02	1.031359999999999916e-01
1.180999999999999943e+02	6.511999999999999733e-02
1.240000000000000000e+02	7.215540000000000842e-02
1.305000000000000000e+02	8.941539999999999211e-02
1.378000000000000114e+02	1.128558000000000061e-01
1.459000000000000057e+02	1.589016000000000040e-01
1.550000000000000000e+02	2.438000000000000167e-01
1.653000000000000114e+02	3.689000000000000057e-01
1.698000000000000114e+02	4.206600000000000339e-01
1.745999999999999943e+02	4.673599999999999977e-01
1.796999999999999886e+02	5.082800000000000651e-01
1.850999999999999943e+02	5.373000000000001108e-01
1.907000000000000171e+02	5.476600000000000357e-01
1.968000000000000114e+02	5.385599999999999277e-01
2.033000000000000114e+02	4.946800000000000086e-01
2.101000000000000227e+02	4.368000000000000771e-01
2.175000000000000000e+02	3.968799999999999550e-01
2.214000000000000057e+02	3.897599999999999953e-01
2.480000000000000000e+02	4.440000000000000058e-01
3.100000000000000000e+02	6.943200000000000482e-01
4.133000000000000114e+02	1.346880000000000077e+00
6.198999999999999773e+02	4.385360000000000369e+00
8.266000000000000227e+02	1.259271999999999991e+01
1.240000000000000000e+03	7.672320000000000562e+01
1.378000000000000000e+03	1.385039999999999907e+02
1.550000000000000000e+03	2.563389999999999986e+02
1.771000000000000000e+03	2.284799999999999613e+02
1.907000000000000000e+03	1.582096400000000074e+02
2.066000000000000000e+03	1.130049599999999970e+02
2.254000000000000000e+03	1.023335999999999899e+02
2.480000000000000000e+03	1.325646000000000129e+02
2.755000000000000000e+03	1.698816000000000201e+02
3.100000000000000000e+03	2.366910000000000025e+02
3.542000000000000000e+03	3.338435999999999808e+02
4.133000000000000000e+03	4.777032000000000380e+02
4.959000000000000000e+03	7.084800000000000182e+02
6.199000000000000000e+03	9.910399999999999636e+02
8.266000000000000000e+03	1.421279999999999973e+03
1.240000000000000000e+04	2.322880000000000109e+03
2.480000000000000000e+04	3.648120000000000346e+03
