6.670000000000000000e+02	1.930417889936559916e+01
7.140000000000000000e+02	2.040312991190831937e+01
7.690000000000000000e+02	2.109589157530140113e+01
8.330000000000000000e+02	2.274870654443520124e+01
9.090000000000000000e+02	2.411537142645287801e+01
1.000000000000000000e+03	2.638856987692343736e+01
1.050000000000000000e+03	2.762071741981482020e+01
1.110000000000000000e+03	2.909518375273271928e+01
1.180000000000000000e+03	3.076879658156432029e+01
1.250000000000000000e+03	3.265270773240216329e+01
1.330000000000000000e+03	3.477285712510200710e+01
1.430000000000000000e+03	3.717481679387893934e+01
1.540000000000000000e+03	3.993077616892019677e+01
1.670000000000000000e+03	4.314880805714880552e+01
1.820000000000000000e+03	4.698660340759606413e+01
2.000000000000000000e+03	5.167429712357580485e+01
2.110000000000000000e+03	5.443796308358900404e+01
2.220000000000000000e+03	5.755506545212232083e+01
2.350000000000000000e+03	6.109855324192079706e+01
2.500000000000000000e+03	6.516154987468864590e+01
2.670000000000000000e+03	6.986492580971483335e+01
2.860000000000000000e+03	7.536853779897454331e+01
3.080000000000000000e+03	8.188851091133220450e+01
3.330000000000000000e+03	8.972440418552599795e+01
3.640000000000000000e+03	9.930383144079281976e+01
4.000000000000000000e+03	1.112587158867600010e+02
4.440000000000000000e+03	1.265626325073329923e+02
5.000000000000000000e+03	1.467945798014688137e+02
5.710000000000000000e+03	1.746854090137839819e+02
6.670000000000000000e+03	2.153659947500873670e+02
8.000000000000000000e+03	2.796031835535312098e+02
1.000000000000000000e+04	3.944557521614393636e+02
1.110000000000000000e+04	4.696057494041099858e+02
1.250000000000000000e+04	5.739905181518771542e+02
1.430000000000000000e+04	7.283689527869964877e+02
1.670000000000000000e+04	9.726030531219499835e+02
2.000000000000000000e+04	1.395181942601399896e+03
2.220000000000000000e+04	1.733106895063544016e+03
2.500000000000000000e+04	2.222274334968105904e+03
2.860000000000000000e+04	2.963996806395632120e+03
3.330000000000000000e+04	4.153518212836103885e+03
4.000000000000000000e+04	6.193557185427654986e+03
4.440000000000000000e+04	7.775517621759300710e+03
5.000000000000000000e+04	9.956418771501119409e+03
5.710000000000000000e+04	1.293475420263691922e+04
6.670000000000000000e+04	1.720554104842716333e+04
8.000000000000000000e+04	2.378919901882859995e+04
1.000000000000000000e+05	3.470011759428199730e+04
1.250000000000000000e+05	4.992422414773600030e+04
1.540000000000000000e+05	6.773841357210620481e+04
2.000000000000000000e+05	9.551197011086580460e+04
2.860000000000000000e+05	1.459645800841760065e+05
