2.360000000000000320e+00	9.966406908000000620e-01
3.160000000000000142e+00	9.961424480000000692e-01
4.469999999999999751e+00	9.886915358110001106e-01
6.760000000000000675e+00	9.735698675000000746e-01
1.140000000000000036e+01	9.315211695999999764e-01
1.354999999999999893e+01	9.080601599999998941e-01
1.714000000000000057e+01	8.268255100000000413e-01
2.429999999999999716e+01	5.846280000000000365e-01
2.562999999999999901e+01	5.832000000000000517e-01
3.037999999999999901e+01	7.504000000000000670e-01
3.270000000000000284e+01	7.365590000000000748e-01
3.568000000000000682e+01	7.625750000000000028e-01
3.792999999999999972e+01	7.338240000000000318e-01
4.059000000000000341e+01	6.855029999999999735e-01
4.478000000000000114e+01	6.069729999999998737e-01
4.607000000000000028e+01	5.843040000000001566e-01
4.895000000000000284e+01	5.831840000000000357e-01
5.390999999999999659e+01	5.335200000000001053e-01
5.842999999999999972e+01	5.006350000000000522e-01
6.162999999999999545e+01	5.456639999999999269e-01
6.714000000000000057e+01	4.839680000000000648e-01
7.184999999999999432e+01	4.704119999999999413e-01
7.359000000000000341e+01	3.943840000000000678e-01
7.437000000000000455e+01	3.887320000000000220e-01
8.345000000000000284e+01	4.204950000000000077e-01
8.779999999999999716e+01	4.330559999999998855e-01
9.198000000000000398e+01	4.048169999999999824e-01
9.321000000000000796e+01	4.362929999999999864e-01
9.887999999999999545e+01	5.068349999999999245e-01
1.025799999999999983e+02	5.281049999999999356e-01
1.048199999999999932e+02	4.284269999999998357e-01
1.066700000000000017e+02	4.290389999999999482e-01
1.085699999999999932e+02	4.179999999999999272e-01
1.135000000000000000e+02	3.957749999999998769e-01
1.200699999999999932e+02	3.888640000000000985e-01
1.215699999999999932e+02	6.370560000000000667e-01
