2.065999999999999943e+02	4.105095196488035114e+00
2.108950831900000082e+02	4.234814871989465601e+00
2.152794584390000239e+02	4.387343941485085885e+00
2.197549820749999867e+02	4.562982851752186875e+00
2.243235490120000009e+02	4.760791042572740217e+00
2.289870935639999914e+02	4.978300916238213247e+00
2.337475902550000058e+02	5.211350420396316352e+00
2.386070546569999919e+02	5.454110054749965464e+00
2.435675442480000186e+02	5.699354563477443847e+00
2.486311592760000053e+02	5.938982681120461571e+00
2.538000436549999677e+02	6.164731385965153798e+00
2.590763858669999991e+02	6.368981106993081731e+00
2.644624198930000034e+02	6.545521318546189349e+00
2.699604261560000396e+02	6.690150773799249606e+00
2.755727324880000424e+02	6.801021498796441023e+00
2.813017151159999685e+02	6.878689389322372172e+00
2.871497996649999891e+02	6.925890984357188529e+00
2.931194621889999894e+02	6.947111152651645583e+00
2.992132302170000457e+02	6.948031142726817322e+00
3.054336838240000134e+02	6.934949068869491917e+00
3.117834567230000289e+02	6.914249829470957565e+00
3.182652373809999631e+02	6.891976278110874432e+00
3.248817701539999803e+02	6.873526047925825999e+00
3.316358564540000202e+02	6.863474750092797727e+00
3.385303559319999636e+02	6.865509587860522345e+00
3.455681876890000126e+02	6.882448436627913502e+00
3.527523315119999552e+02	6.916317054187325120e+00
3.600858291360000294e+02	6.968459333998795024e+00
3.675717855330000248e+02	7.039660338050963695e+00
3.752133702229999699e+02	7.130267522825172399e+00
3.830138186209999844e+02	7.240300938469430569e+00
3.909764334019999978e+02	7.369547599679982852e+00
3.991045859030000429e+02	7.517638481690917196e+00
4.074017175479999651e+02	7.684108737889553176e+00
4.158713413060000335e+02	7.868442961520806911e+00
4.245170431799999733e+02	8.070107862351621364e+00
4.333424837219999972e+02	8.288574822823271404e+00
4.423513995839999779e+02	8.523334622326665055e+00
4.515476051040000129e+02	8.773906311259642266e+00
4.609349939130000280e+02	9.039841860058750456e+00
4.705175405919999889e+02	9.320727868584260278e+00
4.802993023489999587e+02	9.616185314770330450e+00
4.902844207400000300e+02	9.925868070190274395e+00
5.004771234199999412e+02	1.024946070301173862e+01
5.108817259350000199e+02	1.058667593662973516e+01
5.215026335489999383e+02	1.093725200988100177e+01
5.323443431069999860e+02	1.130095010001097400e+01
5.434114449429999922e+02	1.167755190849666924e+01
5.547086248179999757e+02	1.206685746402793136e+01
5.662406659099999615e+02	1.246868316886308037e+01
5.780124508349999815e+02	1.288286009590967751e+01
5.900289637150000317e+02	1.330923252765728115e+01
6.022952922890000309e+02	1.374765672567565211e+01
6.148166300679999949e+02	1.419799990974413006e+01
6.275982785319999948e+02	1.466013942776256762e+01
6.406456493740000724e+02	1.513396209493560285e+01
6.539642667949999577e+02	1.561936368144731091e+01
6.675597698389999550e+02	1.611624852927615947e+01
6.814379147839999860e+02	1.662452928048686474e+01
6.956045775750000075e+02	1.714412669865792438e+01
7.100657563150000442e+02	1.767496957041113248e+01
7.248275738060000322e+02	1.821699467190034838e+01
7.398962801349999836e+02	1.877014678858884977e+01
7.552782553289999896e+02	1.933437877782818504e+01
7.709800120469999456e+02	1.990965166480421189e+01
7.870081983459999719e+02	2.049593476374351297e+01
8.033696004889999358e+02	2.109320581757033963e+01
8.200711458239999274e+02	2.170145115024203264e+01
8.371199057119999907e+02	2.232066582727437876e+01
8.545230985230000442e+02	2.295085381900889132e+01
8.722880926929999532e+02	2.359202816649310464e+01
8.904224098449999474e+02	2.424421114479229189e+01
9.089337279679999710e+02	2.490743442294874654e+01
9.278298846739999135e+02	2.558173922067089379e+01
9.471188805139998976e+02	2.626717645951376312e+01
9.668088823649999313e+02	2.696380690959934512e+01
9.869082268869999552e+02	2.767170133169106805e+01
1.007425424060000068e+03	2.839094061564738070e+01
1.028369160760000113e+03	2.912161591574907504e+01
1.049748304499999904e+03	2.986382878527387064e+01
1.071571907089999968e+03	3.061769130997116051e+01
1.093849208569999973e+03	3.138332624408978688e+01
1.116589641029999939e+03	3.216086714966735371e+01
1.139802832690000059e+03	3.295045854092956006e+01
1.163498611909999909e+03	3.375225603686600095e+01
1.187687011369999937e+03	3.456642652315274944e+01
1.212378272350000088e+03	3.539314832591456650e+01
1.237582849000000124e+03	3.623261140019847915e+01
1.263311412850000124e+03	3.708501753495713160e+01
1.289574857250000150e+03	3.795058057609052327e+01
1.316384302029999844e+03	3.882952667292573068e+01
1.343751098189999993e+03	3.972209454667883222e+01
1.371686832710000090e+03	4.062853578654780051e+01
1.400203333469999961e+03	4.154911517392257991e+01
1.429312674219999963e+03	4.248411103938398270e+01
1.459027179740000065e+03	4.343381565223173624e+01
1.489359431009999980e+03	4.439853564897980220e+01
1.520322270590000016e+03	4.537859249993487509e+01
1.551928807989999996e+03	4.637432301906185472e+01
1.584192425289999846e+03	4.738607991966322430e+01
1.617126782770000091e+03	4.841423241793572885e+01
1.650745824690000063e+03	4.945916688881841594e+01
1.685063785200000211e+03	5.052128757682921645e+01
1.720095194389999961e+03	5.160101736512116588e+01
1.755854884389999825e+03	5.269879860700298480e+01
1.792357995699999947e+03	5.381509402251122509e+01
1.829619983589999947e+03	5.495038766593036428e+01
1.867656624609999881e+03	5.610518596665288982e+01
1.906484023309999884e+03	5.728001884808824684e+01
1.946118619050000007e+03	5.847544092997564036e+01
1.986577192940000032e+03	5.969203281888167112e+01
2.027876874970000017e+03	6.093040249113644080e+01
2.070035151229999883e+03	6.219118677497502290e+01
2.113069871369999873e+03	6.347505293684979222e+01
2.156999256090000017e+03	6.478270037898234079e+01
2.201841904900000372e+03	6.611486245241617610e+01
2.247616803990000335e+03	6.747230839768738520e+01
2.294343334250000225e+03	6.885584541329129138e+01
2.342041279489999852e+03	7.026632086709130931e+01
2.390730834810000033e+03	7.170462465299551980e+01
2.440432615160000296e+03	7.317169170728175231e+01
2.491167664049999985e+03	7.466850468959989939e+01
2.542957462479999776e+03	7.619609684047199494e+01
2.595823938040000030e+03	7.775555502707723576e+01
2.649789474140000038e+03	7.934802298760516237e+01
2.704876919580000049e+03	8.097470478613142575e+01
2.761109598120000101e+03	8.263686849065499018e+01
2.818511318450000090e+03	8.433585009015740752e+01
2.877106384200000321e+03	8.607305766284694926e+01
2.936919604270000036e+03	8.784997581090755148e+01
2.997976303310000276e+03	8.966817038137506302e+01
3.060302332459999889e+03	9.152929348724060787e+01
3.123924080300000242e+03	9.343508884773231671e+01
3.188868484000000080e+03	9.538739746994309598e+01
3.255163040720000026e+03	9.738816368828211978e+01
3.322835819309999806e+03	9.943944159128675153e+01
3.391915472109999882e+03	1.015434018481526408e+02
3.462431247160000112e+03	1.037023389698639448e+02
3.534413000529999863e+03	1.059186790294870661e+02
3.607891208969999752e+03	1.081949878612219607e+02
3.682896982839999964e+03	1.105339797835883786e+02
3.759462079259999882e+03	1.129385268580658988e+02
3.837618915560000005e+03	1.154116687339537037e+02
3.917400582990000203e+03	1.179566231087540586e+02
3.998840860780000185e+03	1.205767968320320733e+02
4.081974230380000336e+03	1.232757977076880849e+02
4.166835890100000142e+03	1.260574470239878622e+02
4.253461769989999993e+03	1.289257928593605413e+02
4.341888547079999626e+03	1.318851242124802639e+02
4.432153660879999734e+03	1.349399859990551533e+02
4.524295329229999879e+03	1.380951949715262970e+02
4.618352564540000458e+03	1.413558566182234131e+02
4.714365190210000037e+03	1.447273830876702050e+02
4.812373857579999822e+03	1.482155122123169519e+02
4.912420063089999530e+03	1.518263276844217273e+02
5.014546165869999641e+03	1.555662804531852430e+02
5.118795405660000142e+03	1.594422114175439447e+02
5.225211921139999504e+03	1.634613754810464457e+02
5.333840768600000047e+03	1.676314670456193312e+02
5.444727941019999889e+03	1.719606470323873282e+02
5.557920387539999865e+03	1.764575715069073283e+02
5.673466033360000438e+03	1.811314219949048265e+02
5.791413799990000371e+03	1.859919375938472683e+02
5.911813626019999901e+03	1.910494489583291227e+02
6.034716488199999731e+03	1.963149142756585661e+02
6.160174423059999754e+03	2.017999573297674658e+02
6.288240548960000524e+03	2.075169077634789687e+02
6.418969088519999787e+03	2.134788436543670400e+02
6.552415391660000751e+03	2.196996365204666404e+02
6.688635958939999909e+03	2.261939988870809941e+02
6.827688465569999607e+03	2.329775345324318323e+02
6.969631785759999730e+03	2.400667915491737006e+02
7.114526017720000709e+03	2.474793183605544584e+02
7.262432509010000103e+03	2.552337228367367175e+02
7.413413882609999746e+03	2.633497346497007356e+02
7.567534063369999785e+03	2.718482710172361294e+02
7.724858305109999492e+03	2.807515060083196090e+02
7.885453218220000053e+03	2.900829435471320039e+02
8.049386797889999798e+03	2.998674942942008101e+02
8.216728452889999971e+03	3.101315565673497758e+02
8.387549034949999623e+03	3.209031014755379374e+02
8.561920868740000515e+03	3.322117624307460915e+02
8.739917782559999978e+03	3.440889292319508854e+02
8.921615139519999502e+03	3.565678468783974040e+02
9.107089869479999834e+03	3.696837193071120282e+02
9.296420501650000006e+03	3.834738182263164958e+02
9.489687197780000133e+03	3.979775972320198321e+02
9.686971786160000192e+03	4.132368113770343143e+02
9.888357796210000743e+03	4.292956423775228245e+02
1.009393049389999942e+04	4.462008296205949591e+02
1.030377691779999986e+04	4.640018071538095228e+02
1.051798591600000145e+04	4.827508468089125131e+02
1.073664818369999921e+04	5.025032076049423040e+02
1.095985630140000103e+04	5.233172916018689875e+02
1.118770477460000075e+04	5.452548062991633060e+02
1.142029007330000059e+04	5.683809337319252109e+02
1.165771067310000035e+04	5.927645063375316568e+02
1.190006709680000131e+04	6.184781896845740903e+02
1.214746195720000105e+04	6.455986721351247297e+02
1.240000000000000000e+04	6.742068614398481259e+02
