221	1.3209
221.43	1.36
223.42	1.3706
225.45	1.36
227.52	1.3494
229.63	1.36
231.78	1.43
233.96	1.53
236.19	1.6363
238.46	1.77
240.78	1.96
243.14	2.16
245.54	2.3169
248	2.48
250.51	2.685
253.06	2.92
255.67	3.1975
258.33	3.48
261.05	3.7388
263.83	3.96
266.67	4.1225
269.57	4.22
272.53	4.225
275.56	4.18
278.65	4.1094
281.82	4.04
285.06	4.01
288.37	4.01
291.76	4.0356
295.24	4.11
298.8	4.2681
302.44	4.47
306.17	4.6906
310	4.92
313.92	5.1606
317.95	5.35
322.08	5.4219
326.32	5.39
330.67	5.2094
335.14	4.99
339.73	4.845
344.44	4.72
349.3	4.5944
354.29	4.48
359.42	4.3856
364.71	4.3
370.15	4.2163
375.76	4.13
381.54	4.0294
387.5	3.93
393.65	3.845
400	3.77
406.56	3.7052
413.33	3.6493
420.34	3.6013
427.59	3.5603
435.09	3.5253
442.86	3.4955
450.91	3.4699
459.26	3.4475
467.92	3.4274
476.92	3.4088
486.27	3.3905
496	3.3718
506.12	3.3516
516.67	3.329
527.66	3.3013
539.13	3.273
551.11	3.2481
563.64	3.225
576.74	3.2034
590.48	3.183
604.88	3.1634
620	3.145
635.9	3.128
652.63	3.112
670.27	3.0966
688.89	3.082
708.57	3.0686
729.41	3.056
751.52	3.0438
775	3.032
800	3.0208
826.67	3.01
855.17	2.9997
885.71	2.99
918.52	2.9813
953.85	2.973
992	2.9648
1033.3	2.957
1078.3	2.9498
1127.3	2.943
1181	2.9363
1240	2.93
1305.3	2.9243
1377.8	2.919
1458.8	2.9138
1550	2.909
1653.3	2.9048
1771.4	2.901
1907.7	2.8974
2066.7	2.894
2254.6	2.8909
2480	2.888
