6.670000000000000000e+02	-8.645700000000001495e+00
7.140000000000000000e+02	-9.788800000000000168e+00
7.690000000000000000e+02	-1.242000000000000171e+01
8.330000000000000000e+02	-1.593090000000000117e+01
9.090000000000000000e+02	-2.015790000000000504e+01
1.000000000000000000e+03	-2.581799999999999784e+01
1.050000000000000000e+03	-2.931390000000000029e+01
1.110000000000000000e+03	-3.343400000000000460e+01
1.180000000000000000e+03	-3.841809999999999548e+01
1.250000000000000000e+03	-4.422359999999999758e+01
1.330000000000000000e+03	-5.124569999999999936e+01
1.430000000000000000e+03	-5.962950000000000017e+01
1.540000000000000000e+03	-6.990479999999999450e+01
1.670000000000000000e+03	-8.251039999999998997e+01
1.820000000000000000e+03	-9.784839999999999804e+01
2.000000000000000000e+03	-1.201038999999999817e+02
2.110000000000000000e+03	-1.306898999999999944e+02
2.220000000000000000e+03	-1.464700000000000273e+02
2.350000000000000000e+03	-1.627295999999999765e+02
2.500000000000000000e+03	-1.803276000000000181e+02
2.670000000000000000e+03	-2.032735999999999876e+02
2.860000000000000000e+03	-2.278363999999999976e+02
3.080000000000000000e+03	-2.596178999999999633e+02
3.330000000000000000e+03	-2.953098999999999705e+02
3.640000000000000000e+03	-3.359216000000000122e+02
4.000000000000000000e+03	-3.857183999999999742e+02
4.440000000000000000e+03	-4.533036000000000740e+02
5.000000000000000000e+03	-5.336796000000000504e+02
5.710000000000000000e+03	-6.188399999999999181e+02
6.670000000000000000e+03	-7.237600000000001046e+02
8.000000000000000000e+03	-8.601300000000002228e+02
1.000000000000000000e+04	-9.936500000000002046e+02
1.110000000000000000e+04	-1.041570000000000164e+03
1.250000000000000000e+04	-1.112510000000000218e+03
1.430000000000000000e+04	-1.152089999999999691e+03
1.670000000000000000e+04	-1.183680000000000064e+03
2.000000000000000000e+04	-1.281690000000000055e+03
2.220000000000000000e+04	-1.349600000000000136e+03
2.500000000000000000e+04	-1.424159999999999854e+03
2.860000000000000000e+04	-1.505250000000000000e+03
3.330000000000000000e+04	-1.532159999999998945e+03
4.000000000000000000e+04	-1.515329999999999927e+03
4.440000000000000000e+04	-1.500959999999999127e+03
5.000000000000000000e+04	-1.471960000000000036e+03
5.710000000000000000e+04	-1.456909999999998945e+03
6.670000000000000000e+04	-1.517119999999998981e+03
8.000000000000000000e+04	-1.731440000000000509e+03
1.000000000000000000e+05	-2.420750000000000000e+03
1.330000000000000000e+05	-3.645000000000000000e+03
2.000000000000000000e+05	-7.015000000000000000e+03
4.000000000000000000e+05	-1.501500000000000000e+04
6.670000000000000000e+05	-1.824000000000000000e+04
