9.537250000000000449e-01	9.999095999999999540e-01
9.551939999999999875e-01	9.998995600000000206e-01
9.566680000000000739e-01	9.998936600000000174e-01
9.581469999999999709e-01	9.998892200000000230e-01
9.596300000000000940e-01	9.998843400000000381e-01
9.611179999999999168e-01	9.998809300000000011e-01
9.626100000000000767e-01	9.998777500000000096e-01
9.641069999999999363e-01	9.998750899999999664e-01
9.656089999999999396e-01	9.998726100000000505e-01
9.671150000000000579e-01	9.998701899999999920e-01
9.686259999999999870e-01	9.998679499999999498e-01
9.701420000000000599e-01	9.998657300000000081e-01
9.716629999999999434e-01	9.998637999999999693e-01
9.731880000000000530e-01	9.998620499999999467e-01
9.747179999999999733e-01	9.998603600000000036e-01
9.762529999999999264e-01	9.998587700000000078e-01
9.777930000000000232e-01	9.998570199999999852e-01
9.793379999999999308e-01	9.998555999999999555e-01
9.808880000000000932e-01	9.998544999999999794e-01
9.824420000000000375e-01	9.998530399999999707e-01
9.840010000000000145e-01	9.998513199999999879e-01
9.855660000000000531e-01	9.998495499999999758e-01
9.871350000000000957e-01	9.998482899999999729e-01
9.887100000000000888e-01	9.998473500000000236e-01
9.902890000000000859e-01	9.998461499999999891e-01
9.918730000000001157e-01	9.998446100000000225e-01
9.934629999999999850e-01	9.998431700000000033e-01
9.950579999999999981e-01	9.998417899999999525e-01
9.966570000000000151e-01	9.998404899999999706e-01
9.982619999999999827e-01	9.998394099999999840e-01
9.998719999999999830e-01	9.998381899999999600e-01
1.001487999999999934e+00	9.998371600000000026e-01
1.003107999999999889e+00	9.998361300000000451e-01
1.004734000000000016e+00	9.998348999999999709e-01
1.006364999999999954e+00	9.998337800000000053e-01
1.008002000000000065e+00	9.998326499999999895e-01
1.009642999999999846e+00	9.998314700000000554e-01
1.011290000000000022e+00	9.998302599999999707e-01
1.012943000000000149e+00	9.998292300000000132e-01
1.014600999999999864e+00	9.998282499999999740e-01
1.016264000000000056e+00	9.998272000000000270e-01
1.017932999999999977e+00	9.998261800000000088e-01
1.019607000000000152e+00	9.998252899999999777e-01
1.021287000000000056e+00	9.998243799999999570e-01
1.022971999999999992e+00	9.998232299999999517e-01
1.024663000000000102e+00	9.998220799999999464e-01
1.026358999999999799e+00	9.998207199999999961e-01
1.028061000000000114e+00	9.998194299999999535e-01
1.029768999999999934e+00	9.998187400000000391e-01
1.031482000000000010e+00	9.998179200000000266e-01
1.033201999999999954e+00	9.998166699999999629e-01
1.034926000000000013e+00	9.998155800000000371e-01
1.036657000000000162e+00	9.998144900000000002e-01
1.038394000000000039e+00	9.998135999999999690e-01
1.040136000000000172e+00	9.998127999999999460e-01
1.041884000000000032e+00	9.998116200000000120e-01
1.043637999999999844e+00	9.998106399999999727e-01
1.045397999999999827e+00	9.998097799999999813e-01
1.047163999999999984e+00	9.998087100000000449e-01
1.048936000000000091e+00	9.998076900000000267e-01
1.050713000000000008e+00	9.998068100000000458e-01
1.052496999999999794e+00	9.998058600000000462e-01
1.054287000000000196e+00	9.998047599999999591e-01
1.056082999999999883e+00	9.998036999999999619e-01
1.057886000000000104e+00	9.998026700000000044e-01
1.059693999999999914e+00	9.998017900000000235e-01
1.061508000000000118e+00	9.998006999999999866e-01
1.063328999999999969e+00	9.997993600000000258e-01
1.065155999999999992e+00	9.997984399999999550e-01
1.066990000000000105e+00	9.997974800000000162e-01
1.068829000000000029e+00	9.997966000000000353e-01
1.070675000000000043e+00	9.997955499999999773e-01
1.072527999999999926e+00	9.997943000000000247e-01
1.074386000000000063e+00	9.997935000000000016e-01
1.076251999999999986e+00	9.997925399999999518e-01
1.078123000000000165e+00	9.997914399999999757e-01
1.080002000000000129e+00	9.997903599999999891e-01
1.081885999999999903e+00	9.997893500000000211e-01
1.083778000000000130e+00	9.997881499999999866e-01
1.085676000000000085e+00	9.997869000000000339e-01
1.087580999999999909e+00	9.997860600000000320e-01
1.089492000000000127e+00	9.997850099999999740e-01
1.091409999999999991e+00	9.997837299999999816e-01
1.093334999999999946e+00	9.997829000000000299e-01
1.095266999999999991e+00	9.997819999999999485e-01
1.097204999999999986e+00	9.997810099999999700e-01
1.099150999999999989e+00	9.997800999999999494e-01
1.101102999999999943e+00	9.997789400000000049e-01
1.103061999999999987e+00	9.997778400000000287e-01
1.105028000000000121e+00	9.997768900000000292e-01
1.107002000000000042e+00	9.997757900000000530e-01
1.108981999999999912e+00	9.997746600000000372e-01
1.110969000000000095e+00	9.997738999999999931e-01
1.112963999999999842e+00	9.997730400000000017e-01
1.114965999999999902e+00	9.997719400000000256e-01
1.116975000000000051e+00	9.997706899999999619e-01
1.118990999999999847e+00	9.997694099999999695e-01
1.121013999999999955e+00	9.997682599999999642e-01
1.123045000000000071e+00	9.997675000000000312e-01
1.125083000000000055e+00	9.997666299999999895e-01
1.127128999999999825e+00	9.997651600000000416e-01
1.129182000000000130e+00	9.997641299999999731e-01
1.131242999999999999e+00	9.997633200000000109e-01
1.133310999999999957e+00	9.997622000000000453e-01
1.135386000000000006e+00	9.997611400000000481e-01
1.137469999999999981e+00	9.997599299999999634e-01
1.139561000000000046e+00	9.997588200000000480e-01
1.141658999999999979e+00	9.997577899999999795e-01
1.143766000000000060e+00	9.997565999999999953e-01
1.145880000000000010e+00	9.997553700000000321e-01
1.148001999999999967e+00	9.997541100000000291e-01
1.150132000000000154e+00	9.997528799999999549e-01
1.152268999999999988e+00	9.997520199999999635e-01
1.154414999999999969e+00	9.997512200000000515e-01
1.156569000000000180e+00	9.997500599999999960e-01
1.158731000000000178e+00	9.997487099999999849e-01
1.160900999999999961e+00	9.997475900000000193e-01
1.163078999999999974e+00	9.997464499999999532e-01
1.165264999999999995e+00	9.997449899999999445e-01
1.167459000000000024e+00	9.997434499999999780e-01
1.169661999999999979e+00	9.997425699999999971e-01
1.171872999999999942e+00	9.997420099999999588e-01
1.174093000000000053e+00	9.997408700000000037e-01
1.176320999999999950e+00	9.997394499999999740e-01
1.178557000000000077e+00	9.997379899999999653e-01
1.180801999999999907e+00	9.997366699999999939e-01
1.183054999999999968e+00	9.997355199999999886e-01
1.185316999999999954e+00	9.997345600000000498e-01
1.187588000000000088e+00	9.997335200000000421e-01
1.189867000000000008e+00	9.997317300000000406e-01
1.192155999999999993e+00	9.997306000000000248e-01
1.194452999999999987e+00	9.997297400000000334e-01
1.196758999999999906e+00	9.997279300000000424e-01
1.199072999999999833e+00	9.997266000000000208e-01
1.201397000000000048e+00	9.997256900000000002e-01
1.203730000000000189e+00	9.997245700000000346e-01
1.206072000000000033e+00	9.997232999999999814e-01
1.208423000000000025e+00	9.997218399999999727e-01
1.210782999999999943e+00	9.997203000000000062e-01
1.213152999999999926e+00	9.997192200000000195e-01
1.215530999999999917e+00	9.997184300000000468e-01
1.217918999999999974e+00	9.997168100000000113e-01
1.220317000000000096e+00	9.997152599999999945e-01
1.222723999999999922e+00	9.997143699999999633e-01
1.225139999999999896e+00	9.997130800000000317e-01
1.227565999999999935e+00	9.997116799999999914e-01
1.230002000000000040e+00	9.997102700000000119e-01
1.232447000000000070e+00	9.997089399999999904e-01
1.234901999999999944e+00	9.997077199999999664e-01
1.237367000000000106e+00	9.997060500000000127e-01
1.239841999999999889e+00	9.997046099999999935e-01
1.242327000000000181e+00	9.997034700000000385e-01
1.244820999999999955e+00	9.997021699999999456e-01
1.247325999999999935e+00	9.997008499999999742e-01
1.249840999999999980e+00	9.996994799999999737e-01
1.252366000000000090e+00	9.996981999999999813e-01
1.254901000000000044e+00	9.996964400000000195e-01
1.257446000000000064e+00	9.996953299999999931e-01
1.260002000000000066e+00	9.996943000000000357e-01
1.262567999999999913e+00	9.996924099999999758e-01
1.265144999999999964e+00	9.996907200000000326e-01
1.267731999999999859e+00	9.996893500000000321e-01
1.270329999999999959e+00	9.996882499999999450e-01
1.272937999999999903e+00	9.996869600000000133e-01
1.275557000000000052e+00	9.996856200000000525e-01
1.278186999999999962e+00	9.996844299999999572e-01
1.280827999999999856e+00	9.996827799999999931e-01
1.283479999999999954e+00	9.996810299999999705e-01
1.286143000000000036e+00	9.996794599999999642e-01
1.288817000000000101e+00	9.996775199999999861e-01
1.291501999999999928e+00	9.996759299999999904e-01
1.294198000000000182e+00	9.996746699999999874e-01
1.296906000000000114e+00	9.996730400000000127e-01
1.299625000000000030e+00	9.996713799999999983e-01
1.302355000000000151e+00	9.996699999999999475e-01
1.305097000000000174e+00	9.996687300000000054e-01
1.307849999999999957e+00	9.996672599999999465e-01
1.310615000000000085e+00	9.996656299999999717e-01
1.313392000000000115e+00	9.996638100000000415e-01
1.316179999999999906e+00	9.996620699999999582e-01
1.318981000000000181e+00	9.996606700000000290e-01
1.321792999999999996e+00	9.996591400000000016e-01
1.324616999999999933e+00	9.996572700000000422e-01
1.327454000000000134e+00	9.996552600000000455e-01
1.330302000000000096e+00	9.996539199999999736e-01
1.333163000000000098e+00	9.996525499999999731e-01
1.336036999999999919e+00	9.996507700000000218e-01
1.338921999999999946e+00	9.996490599999999782e-01
1.341820000000000013e+00	9.996471999999999580e-01
1.344731000000000121e+00	9.996455899999999728e-01
1.347653999999999908e+00	9.996441600000000038e-01
1.350589999999999957e+00	9.996425100000000397e-01
1.353539000000000048e+00	9.996407699999999563e-01
1.356500999999999957e+00	9.996391599999999711e-01
1.359476000000000129e+00	9.996375800000000256e-01
1.362464000000000119e+00	9.996359799999999796e-01
1.365464999999999929e+00	9.996340099999999618e-01
1.368479000000000001e+00	9.996321299999999521e-01
1.371505999999999892e+00	9.996303199999999611e-01
1.374547999999999881e+00	9.996285900000000391e-01
1.377601999999999993e+00	9.996276200000000500e-01
1.380670000000000064e+00	9.996260099999999538e-01
1.382209000000000021e+00	9.996246100000000245e-01
1.383752000000000093e+00	9.996233399999999714e-01
1.385298000000000140e+00	9.996224099999999613e-01
1.386848000000000081e+00	9.996214100000000435e-01
1.388400999999999996e+00	9.996203099999999564e-01
1.389957000000000109e+00	9.996192000000000411e-01
1.391517000000000115e+00	9.996183800000000286e-01
1.393081000000000014e+00	9.996175200000000372e-01
1.394648000000000110e+00	9.996163399999999921e-01
1.396217999999999959e+00	9.996155199999999796e-01
1.397791999999999923e+00	9.996143699999999743e-01
1.399370000000000003e+00	9.996130899999999819e-01
1.400951000000000057e+00	9.996121799999999613e-01
1.402536000000000005e+00	9.996112600000000015e-01
1.404124000000000150e+00	9.996101699999999646e-01
1.405715999999999966e+00	9.996091099999999674e-01
1.407311999999999896e+00	9.996083999999999525e-01
1.408911000000000024e+00	9.996072799999999869e-01
1.410514000000000046e+00	9.996060799999999524e-01
1.412120999999999960e+00	9.996051900000000323e-01
1.413731000000000071e+00	9.996041500000000246e-01
1.415344999999999853e+00	9.996029499999999901e-01
1.416961999999999833e+00	9.996023099999999939e-01
1.418582999999999927e+00	9.996016199999999685e-01
1.420208000000000137e+00	9.996003500000000264e-01
1.421837000000000018e+00	9.995994900000000349e-01
1.423468999999999873e+00	9.995982100000000425e-01
1.425105999999999984e+00	9.995970100000000080e-01
1.426746000000000070e+00	9.995959599999999501e-01
1.428388999999999909e+00	9.995952000000000170e-01
1.430037000000000003e+00	9.995945800000000103e-01
1.431688000000000072e+00	9.995935400000000026e-01
1.433342999999999812e+00	9.995922999999999892e-01
1.435001999999999889e+00	9.995910999999999547e-01
1.436664999999999859e+00	9.995902599999999527e-01
1.438332000000000166e+00	9.995891999999999555e-01
1.440002000000000004e+00	9.995881399999999584e-01
1.441676999999999875e+00	9.995870599999999717e-01
1.443354999999999944e+00	9.995859400000000061e-01
1.445036999999999905e+00	9.995848400000000300e-01
1.446722999999999981e+00	9.995838200000000118e-01
1.448412999999999951e+00	9.995825999999999878e-01
1.450107000000000035e+00	9.995814800000000222e-01
1.451805000000000012e+00	9.995805800000000518e-01
1.453506999999999882e+00	9.995795499999999834e-01
1.455212999999999868e+00	9.995783900000000388e-01
1.456922999999999968e+00	9.995769700000000091e-01
1.458636999999999961e+00	9.995757499999999851e-01
1.460355999999999987e+00	9.995749400000000229e-01
1.462077999999999989e+00	9.995738600000000362e-01
1.463803999999999883e+00	9.995730699999999525e-01
1.465534000000000114e+00	9.995722999999999692e-01
1.467268000000000017e+00	9.995714199999999883e-01
1.469006999999999952e+00	9.995700800000000275e-01
1.470750000000000002e+00	9.995683899999999733e-01
1.472496000000000027e+00	9.995674900000000029e-01
1.474246999999999863e+00	9.995665599999999928e-01
1.476001999999999814e+00	9.995653700000000086e-01
1.477760999999999880e+00	9.995641800000000243e-01
1.479524999999999979e+00	9.995628800000000425e-01
1.481292999999999971e+00	9.995617399999999764e-01
1.483064000000000160e+00	9.995608999999999744e-01
1.484841000000000077e+00	9.995598599999999667e-01
1.486620999999999970e+00	9.995586899999999719e-01
1.488406000000000118e+00	9.995575500000000169e-01
1.490194999999999936e+00	9.995565299999999986e-01
1.491988000000000092e+00	9.995552800000000460e-01
1.493785000000000140e+00	9.995538600000000162e-01
1.495587000000000000e+00	9.995527800000000296e-01
1.497393999999999892e+00	9.995515999999999845e-01
1.499203999999999981e+00	9.995505000000000084e-01
1.501018999999999881e+00	9.995490900000000289e-01
1.502839000000000036e+00	9.995478199999999758e-01
1.504661999999999944e+00	9.995468899999999657e-01
1.506491000000000025e+00	9.995455800000000446e-01
1.508323000000000080e+00	9.995443400000000311e-01
1.510161000000000087e+00	9.995432100000000153e-01
1.512001999999999846e+00	9.995419700000000018e-01
1.513847999999999860e+00	9.995407600000000281e-01
1.515698999999999907e+00	9.995394800000000357e-01
1.517553999999999848e+00	9.995382400000000223e-01
1.519414000000000042e+00	9.995369699999999691e-01
1.521278000000000130e+00	9.995358100000000245e-01
1.523147000000000029e+00	9.995345799999999503e-01
1.525021000000000182e+00	9.995332799999999684e-01
1.526899000000000006e+00	9.995321600000000029e-01
1.528782000000000085e+00	9.995309599999999683e-01
1.530668999999999835e+00	9.995296399999999970e-01
1.532561000000000062e+00	9.995282800000000467e-01
1.534458000000000100e+00	9.995270299999999830e-01
1.536359000000000030e+00	9.995260200000000150e-01
1.538264999999999993e+00	9.995247600000000121e-01
1.540175999999999989e+00	9.995233100000000537e-01
1.542091999999999796e+00	9.995219600000000426e-01
1.544011999999999940e+00	9.995205499999999521e-01
1.545937000000000117e+00	9.995192999999999994e-01
1.547868000000000022e+00	9.995180599999999860e-01
1.549802000000000124e+00	9.995168800000000520e-01
1.551741999999999955e+00	9.995155300000000409e-01
1.553687000000000040e+00	9.995139800000000241e-01
1.555636000000000019e+00	9.995127999999999791e-01
1.557590000000000030e+00	9.995115799999999551e-01
1.559549999999999992e+00	9.995102500000000445e-01
1.561513999999999847e+00	9.995090800000000497e-01
1.563482999999999956e+00	9.995076299999999803e-01
1.565456999999999876e+00	9.995061899999999611e-01
1.567436000000000051e+00	9.995049000000000294e-01
1.569420000000000037e+00	9.995034699999999495e-01
1.571409000000000056e+00	9.995021299999999886e-01
1.573402999999999885e+00	9.995007399999999986e-01
1.575402999999999887e+00	9.994993399999999584e-01
1.577407000000000004e+00	9.994979499999999684e-01
1.579415999999999931e+00	9.994965199999999994e-01
1.581430999999999809e+00	9.994951899999999778e-01
1.583450999999999942e+00	9.994939299999999749e-01
1.585475999999999885e+00	9.994925799999999638e-01
1.587506000000000084e+00	9.994911800000000346e-01
1.589541000000000093e+00	9.994898500000000130e-01
1.591580999999999912e+00	9.994884000000000546e-01
1.593627000000000127e+00	9.994868799999999665e-01
1.595677999999999930e+00	9.994853500000000501e-01
1.597733999999999988e+00	9.994838799999999912e-01
1.599795999999999996e+00	9.994825000000000514e-01
1.601863000000000037e+00	9.994810600000000322e-01
1.603934999999999889e+00	9.994795400000000551e-01
1.606013000000000135e+00	9.994780899999999857e-01
1.608095999999999970e+00	9.994766699999999560e-01
1.610184000000000060e+00	9.994752500000000373e-01
1.612277999999999878e+00	9.994738800000000367e-01
1.614376999999999951e+00	9.994723599999999486e-01
1.616481999999999974e+00	9.994707699999999528e-01
1.618592999999999948e+00	9.994693000000000049e-01
1.620708000000000037e+00	9.994678299999999460e-01
1.622829999999999995e+00	9.994664100000000273e-01
1.624956999999999985e+00	9.994648400000000210e-01
1.627089000000000008e+00	9.994631499999999669e-01
1.629226999999999981e+00	9.994616100000000003e-01
1.631370999999999905e+00	9.994600300000000548e-01
1.633520000000000083e+00	9.994585099999999667e-01
1.635674999999999990e+00	9.994572299999999743e-01
1.637835999999999848e+00	9.994557899999999551e-01
1.640001999999999960e+00	9.994543200000000072e-01
1.642175000000000162e+00	9.994527500000000009e-01
1.644353000000000176e+00	9.994513000000000424e-01
1.646536000000000000e+00	9.994498600000000232e-01
1.648726000000000136e+00	9.994482099999999480e-01
1.650921000000000083e+00	9.994466300000000025e-01
1.653121999999999980e+00	9.994450999999999752e-01
1.655329999999999968e+00	9.994435699999999478e-01
1.657542999999999989e+00	9.994420000000000526e-01
1.659761999999999960e+00	9.994403699999999668e-01
1.661985999999999963e+00	9.994387999999999606e-01
1.664217000000000057e+00	9.994372200000000150e-01
1.666453999999999880e+00	9.994355600000000006e-01
1.668697000000000097e+00	9.994338699999999465e-01
1.670946000000000042e+00	9.994322199999999823e-01
1.673200999999999938e+00	9.994306400000000368e-01
1.675462000000000007e+00	9.994290200000000013e-01
1.677729000000000026e+00	9.994274100000000161e-01
1.680002999999999913e+00	9.994258299999999595e-01
1.682282000000000055e+00	9.994240399999999580e-01
1.684568000000000065e+00	9.994223899999999938e-01
1.686860000000000026e+00	9.994208300000000378e-01
1.689158000000000159e+00	9.994190299999999860e-01
1.691462000000000021e+00	9.994172599999999740e-01
1.693772999999999973e+00	9.994157099999999572e-01
1.696089999999999876e+00	9.994140799999999825e-01
1.698414000000000090e+00	9.994123099999999704e-01
1.700742999999999894e+00	9.994106799999999957e-01
1.703079000000000010e+00	9.994088899999999942e-01
1.705421999999999993e+00	9.994070499999999635e-01
1.707771000000000150e+00	9.994053999999999993e-01
1.710127000000000175e+00	9.994036400000000375e-01
1.712488999999999928e+00	9.994019299999999939e-01
1.714857000000000076e+00	9.994002800000000297e-01
1.717233000000000009e+00	9.993984700000000387e-01
1.719613999999999976e+00	9.993966100000000186e-01
1.722002999999999950e+00	9.993948499999999457e-01
1.724398000000000097e+00	9.993930300000000155e-01
1.726798999999999973e+00	9.993912200000000245e-01
1.729208000000000078e+00	9.993895200000000312e-01
1.731623000000000134e+00	9.993878200000000378e-01
1.734045000000000059e+00	9.993861000000000550e-01
1.736473000000000155e+00	9.993842400000000348e-01
1.738909000000000038e+00	9.993823699999999643e-01
1.741350999999999871e+00	9.993805199999999944e-01
1.743800000000000017e+00	9.993786000000000058e-01
1.746256000000000030e+00	9.993767099999999459e-01
1.748718999999999912e+00	9.993746900000000100e-01
1.751189000000000107e+00	9.993727599999999711e-01
1.753666000000000169e+00	9.993711199999999462e-01
1.756149999999999878e+00	9.993693500000000451e-01
1.758641000000000121e+00	9.993674200000000063e-01
1.761139000000000010e+00	9.993654699999999780e-01
1.763643999999999989e+00	9.993635699999999789e-01
1.766156999999999977e+00	9.993617299999999481e-01
1.768676000000000137e+00	9.993598299999999490e-01
1.771203000000000083e+00	9.993578800000000317e-01
1.773737000000000119e+00	9.993559699999999824e-01
1.776278000000000024e+00	9.993540100000000148e-01
1.778826000000000018e+00	9.993520000000000181e-01
1.781382000000000021e+00	9.993500600000000400e-01
1.783945000000000114e+00	9.993481100000000117e-01
1.786515999999999993e+00	9.993460199999999460e-01
1.789093999999999962e+00	9.993439299999999914e-01
1.791679000000000022e+00	9.993419599999999736e-01
1.794271999999999867e+00	9.993401899999999616e-01
1.796872000000000025e+00	9.993381999999999543e-01
1.799479999999999968e+00	9.993360199999999915e-01
1.802095999999999920e+00	9.993339100000000474e-01
1.804718999999999962e+00	9.993320500000000273e-01
1.807350000000000012e+00	9.993300299999999803e-01
1.809987999999999930e+00	9.993279699999999544e-01
1.812634000000000079e+00	9.993258699999999495e-01
1.815288000000000013e+00	9.993236599999999470e-01
1.817949999999999955e+00	9.993216000000000321e-01
1.820619000000000209e+00	9.993196199999999640e-01
1.823296999999999946e+00	9.993177399999999544e-01
1.825981999999999994e+00	9.993157099999999682e-01
1.828675000000000050e+00	9.993134700000000370e-01
1.831376000000000115e+00	9.993113500000000426e-01
1.834085999999999883e+00	9.993091299999999899e-01
1.836802999999999964e+00	9.993068600000000190e-01
1.839528000000000052e+00	9.993047600000000141e-01
1.842260999999999926e+00	9.993026099999999801e-01
1.845002999999999949e+00	9.993003099999999694e-01
1.847752000000000061e+00	9.992981800000000359e-01
1.850510000000000099e+00	9.992960300000000018e-01
1.853276000000000145e+00	9.992938399999999888e-01
1.856051000000000117e+00	9.992917000000000050e-01
1.858832999999999958e+00	9.992894799999999522e-01
1.861624000000000168e+00	9.992873500000000186e-01
1.864423999999999859e+00	9.992850699999999975e-01
1.867232000000000003e+00	9.992827399999999471e-01
1.870047999999999933e+00	9.992804899999999657e-01
1.872873000000000010e+00	9.992781800000000159e-01
1.875706000000000095e+00	9.992759300000000344e-01
1.878548000000000107e+00	9.992737800000000004e-01
1.881399000000000044e+00	9.992715300000000189e-01
1.884257999999999988e+00	9.992691500000000504e-01
1.887126000000000081e+00	9.992668599999999790e-01
1.890002999999999878e+00	9.992646299999999870e-01
1.892887999999999904e+00	9.992623800000000056e-01
1.895782999999999996e+00	9.992600600000000055e-01
1.898685999999999874e+00	9.992576499999999973e-01
1.901597999999999900e+00	9.992554000000000158e-01
1.904518999999999851e+00	9.992531900000000133e-01
1.907449000000000172e+00	9.992506500000000180e-01
1.910387999999999975e+00	9.992479600000000461e-01
1.913336000000000148e+00	9.992454100000000006e-01
1.916292999999999802e+00	9.992429999999999923e-01
1.919260000000000188e+00	9.992405300000000157e-01
1.922234999999999916e+00	9.992379099999999514e-01
1.925220000000000153e+00	9.992354500000000250e-01
1.928213999999999873e+00	9.992331700000000039e-01
1.931217999999999879e+00	9.992305599999999899e-01
1.934231000000000034e+00	9.992278700000000180e-01
1.937252999999999892e+00	9.992253300000000227e-01
1.940284999999999815e+00	9.992225799999999714e-01
1.943325999999999887e+00	9.992201200000000449e-01
1.946377000000000024e+00	9.992178600000000133e-01
1.949437000000000086e+00	9.992150899999999725e-01
1.952506999999999993e+00	9.992124000000000006e-01
1.955586999999999964e+00	9.992097800000000474e-01
1.958675999999999862e+00	9.992071000000000147e-01
1.961774999999999824e+00	9.992045999999999983e-01
1.964884000000000075e+00	9.992019800000000451e-01
1.968002999999999947e+00	9.991993999999999598e-01
1.971132000000000106e+00	9.991967699999999564e-01
1.974271000000000109e+00	9.991941699999999926e-01
1.977418999999999816e+00	9.991913900000000126e-01
1.980578000000000172e+00	9.991885799999999929e-01
1.983747000000000149e+00	9.991858000000000128e-01
1.986925999999999970e+00	9.991831700000000094e-01
1.990115000000000300e+00	9.991805799999999849e-01
1.993314999999999948e+00	9.991778199999999943e-01
1.996524999999999883e+00	9.991749699999999956e-01
1.999744999999999884e+00	9.991722899999999630e-01
2.002975999999999868e+00	9.991695200000000332e-01
2.006216999999999917e+00	9.991666000000000158e-01
2.009468000000000032e+00	9.991637799999999459e-01
2.012729999999999908e+00	9.991609900000000266e-01
2.016002999999999989e+00	9.991581200000000385e-01
2.019285999999999692e+00	9.991550999999999627e-01
2.022580999999999740e+00	9.991522400000000248e-01
2.025884999999999714e+00	9.991494899999999735e-01
2.029201000000000032e+00	9.991465600000000169e-01
2.032528000000000112e+00	9.991436799999999785e-01
2.035864999999999814e+00	9.991407300000000324e-01
2.039214000000000304e+00	9.991378300000000046e-01
2.042572999999999972e+00	9.991348500000000188e-01
2.045943999999999985e+00	9.991318500000000435e-01
2.049325000000000063e+00	9.991288799999999970e-01
2.052717999999999599e+00	9.991257700000000241e-01
2.056122999999999923e+00	9.991227200000000197e-01
2.059537999999999869e+00	9.991197699999999626e-01
2.062965000000000160e+00	9.991167399999999477e-01
2.066403000000000212e+00	9.991135899999999959e-01
2.069853000000000165e+00	9.991105999999999598e-01
2.073314000000000323e+00	9.991075400000000162e-01
2.076786999999999939e+00	9.991044199999999931e-01
2.080272000000000343e+00	9.991013699999999886e-01
2.083768000000000065e+00	9.990982499999999655e-01
2.087275999999999687e+00	9.990952199999999506e-01
2.090795999999999655e+00	9.990919200000000222e-01
2.094326999999999828e+00	9.990886199999999828e-01
2.097871000000000041e+00	9.990854900000000205e-01
2.101426999999999712e+00	9.990822599999999998e-01
2.104995000000000172e+00	9.990790600000000188e-01
2.108575000000000088e+00	9.990759399999999957e-01
2.112166999999999906e+00	9.990725700000000487e-01
2.115770999999999624e+00	9.990689799999999954e-01
2.119387999999999828e+00	9.990655699999999584e-01
2.123016999999999932e+00	9.990623299999999984e-01
2.126657999999999937e+00	9.990591399999999567e-01
2.130311999999999983e+00	9.990558999999999967e-01
2.133978999999999626e+00	9.990525199999999995e-01
2.137658000000000058e+00	9.990491999999999706e-01
2.141350000000000087e+00	9.990459000000000422e-01
2.145054999999999712e+00	9.990423999999999971e-01
2.148773000000000266e+00	9.990388700000000233e-01
2.152503000000000277e+00	9.990351200000000542e-01
2.156247000000000025e+00	9.990316399999999986e-01
2.160003000000000117e+00	9.990282400000000118e-01
2.163772999999999946e+00	9.990249199999999830e-01
2.167556000000000260e+00	9.990214400000000383e-01
2.171352000000000171e+00	9.990177700000000272e-01
2.175161000000000122e+00	9.990141399999999949e-01
2.178984000000000254e+00	9.990106600000000503e-01
2.182819999999999983e+00	9.990071200000000262e-01
2.186669999999999892e+00	9.990033299999999672e-01
2.190533000000000285e+00	9.989996199999999771e-01
2.194409999999999972e+00	9.989962100000000511e-01
2.198301000000000283e+00	9.989925400000000399e-01
2.202205999999999886e+00	9.989885699999999646e-01
2.206123999999999974e+00	9.989849200000000540e-01
2.210056999999999938e+00	9.989813600000000404e-01
2.214002999999999943e+00	9.989778900000000350e-01
2.217963999999999825e+00	9.989742200000000238e-01
2.221938999999999886e+00	9.989701399999999509e-01
2.225927999999999685e+00	9.989663600000000532e-01
2.229931000000000108e+00	9.989625800000000444e-01
2.233948999999999963e+00	9.989587300000000170e-01
2.237981999999999694e+00	9.989549300000000187e-01
2.242029000000000050e+00	9.989510400000000123e-01
2.246090000000000142e+00	9.989470900000000375e-01
2.250166999999999806e+00	9.989431500000000019e-01
2.254257999999999651e+00	9.989390599999999898e-01
2.258364000000000260e+00	9.989348700000000303e-01
2.262484999999999857e+00	9.989306999999999492e-01
2.266620999999999775e+00	9.989265000000000505e-01
2.270772999999999708e+00	9.989222199999999718e-01
2.274939000000000267e+00	9.989179799999999831e-01
2.279120999999999952e+00	9.989138199999999523e-01
2.283317999999999959e+00	9.989097999999999589e-01
2.287530999999999981e+00	9.989060199999999501e-01
2.291758999999999880e+00	9.989023000000000208e-01
2.296003000000000238e+00	9.988989200000000235e-01
2.300262999999999725e+00	9.988955699999999549e-01
2.304539000000000115e+00	9.988917400000000280e-01
2.308829999999999938e+00	9.988876399999999656e-01
2.313138000000000361e+00	9.988834399999999558e-01
2.317460999999999771e+00	9.988794800000000418e-01
2.321801000000000226e+00	9.988754499999999981e-01
2.326157000000000252e+00	9.988710899999999615e-01
2.330529999999999990e+00	9.988664299999999718e-01
2.334919000000000189e+00	9.988615899999999659e-01
2.339323999999999959e+00	9.988567999999999891e-01
2.343745999999999885e+00	9.988519900000000229e-01
2.348184999999999967e+00	9.988471199999999772e-01
2.352640999999999760e+00	9.988423300000000005e-01
2.357114000000000154e+00	9.988375400000000237e-01
2.361603999999999814e+00	9.988327599999999862e-01
2.366109999999999935e+00	9.988284499999999788e-01
2.370635000000000048e+00	9.988237199999999705e-01
2.375176000000000176e+00	9.988187699999999669e-01
2.379735000000000156e+00	9.988140699999999983e-01
2.384311000000000291e+00	9.988094600000000378e-01
2.388905000000000278e+00	9.988044999999999840e-01
2.393517000000000117e+00	9.987996199999999991e-01
2.398147000000000251e+00	9.987948500000000118e-01
2.402794000000000096e+00	9.987901300000000537e-01
2.407460000000000377e+00	9.987851699999999999e-01
2.412144000000000066e+00	9.987801699999999672e-01
2.416846000000000050e+00	9.987751599999999952e-01
2.421565999999999885e+00	9.987701900000000022e-01
2.426305000000000156e+00	9.987652900000000278e-01
2.431061999999999834e+00	9.987601699999999472e-01
2.435839000000000087e+00	9.987550400000000383e-01
2.440634000000000192e+00	9.987500200000000161e-01
2.445446999999999704e+00	9.987450599999999623e-01
2.450279999999999792e+00	9.987398499999999846e-01
2.455131999999999870e+00	9.987344900000000303e-01
2.460004000000000079e+00	9.987293299999999707e-01
2.464894000000000140e+00	9.987240699999999638e-01
2.469805000000000028e+00	9.987187600000000387e-01
2.474734000000000211e+00	9.987135299999999605e-01
2.479683999999999777e+00	9.987083199999999827e-01
2.484652999999999778e+00	9.987029400000000390e-01
2.489641999999999911e+00	9.986973599999999784e-01
2.494651999999999870e+00	9.986919600000000452e-01
2.499681000000000264e+00	9.986867200000000278e-01
2.504731000000000041e+00	9.986811100000000385e-01
2.509800999999999949e+00	9.986751999999999851e-01
2.514892000000000127e+00	9.986694799999999983e-01
2.520004000000000133e+00	9.986640900000000043e-01
2.525135999999999825e+00	9.986586899999999600e-01
2.530289999999999928e+00	9.986531199999999497e-01
2.535463999999999718e+00	9.986474499999999921e-01
2.540659999999999918e+00	9.986417699999999842e-01
2.545877000000000390e+00	9.986358199999999519e-01
2.551115000000000244e+00	9.986298500000000411e-01
2.556375000000000064e+00	9.986239599999999772e-01
2.561657000000000295e+00	9.986179299999999870e-01
2.566959999999999908e+00	9.986121399999999815e-01
2.572286000000000072e+00	9.986062900000000075e-01
2.577634000000000203e+00	9.986004499999999728e-01
2.583003999999999856e+00	9.985943999999999932e-01
2.588396000000000363e+00	9.985882999999999843e-01
2.593811000000000089e+00	9.985826799999999448e-01
2.599248999999999921e+00	9.985765100000000283e-01
2.604710000000000303e+00	9.985702100000000137e-01
2.610192999999999763e+00	9.985641400000000445e-01
2.615699999999999914e+00	9.985578800000000088e-01
2.621230000000000171e+00	9.985514500000000071e-01
2.626784000000000230e+00	9.985455199999999643e-01
2.632360999999999951e+00	9.985393399999999975e-01
2.637960999999999778e+00	9.985326799999999503e-01
2.643585999999999991e+00	9.985264700000000548e-01
2.649235000000000007e+00	9.985202199999999584e-01
2.654908000000000268e+00	9.985134900000000036e-01
2.660604999999999887e+00	9.985069600000000545e-01
2.666326999999999892e+00	9.985003300000000470e-01
2.672073000000000143e+00	9.984933900000000362e-01
2.677843999999999891e+00	9.984868799999999656e-01
2.683640000000000025e+00	9.984803100000000375e-01
2.689462000000000241e+00	9.984730400000000339e-01
2.695307999999999815e+00	9.984661599999999915e-01
2.701181000000000054e+00	9.984593499999999677e-01
2.707078000000000095e+00	9.984521200000000540e-01
2.713001999999999914e+00	9.984453800000000490e-01
2.718950999999999674e+00	9.984385700000000252e-01
2.724926999999999655e+00	9.984314300000000086e-01
2.730929000000000162e+00	9.984241099999999758e-01
2.736958000000000002e+00	9.984166399999999664e-01
2.743012999999999924e+00	9.984091999999999967e-01
2.749095000000000066e+00	9.984019100000000035e-01
2.755203999999999986e+00	9.983945800000000315e-01
2.761340000000000128e+00	9.983870500000000536e-01
2.767504000000000186e+00	9.983798699999999471e-01
2.773695000000000022e+00	9.983724200000000382e-01
2.779914999999999914e+00	9.983648800000000101e-01
2.786162000000000027e+00	9.983569199999999810e-01
2.792437000000000058e+00	9.983486799999999883e-01
2.798740000000000006e+00	9.983405300000000038e-01
2.805072000000000010e+00	9.983319699999999575e-01
2.811433000000000071e+00	9.983233500000000538e-01
2.817822000000000049e+00	9.983124799999999466e-01
2.824240999999999779e+00	9.983046199999999759e-01
2.830689000000000011e+00	9.983003700000000480e-01
2.837166999999999994e+00	9.982940399999999936e-01
2.843674000000000035e+00	9.982872900000000493e-01
2.850211000000000272e+00	9.982798200000000399e-01
2.856778999999999957e+00	9.982724499999999779e-01
2.863376000000000143e+00	9.982647799999999627e-01
2.870003999999999778e+00	9.982570400000000399e-01
2.876662999999999748e+00	9.982492699999999664e-01
2.883353000000000055e+00	9.982412099999999899e-01
2.890073999999999810e+00	9.982330900000000451e-01
2.896827000000000041e+00	9.982250499999999471e-01
2.903611000000000164e+00	9.982167600000000363e-01
2.910427000000000319e+00	9.982085000000000541e-01
2.917275000000000063e+00	9.982003400000000193e-01
2.924154999999999838e+00	9.981920499999999974e-01
2.931068000000000229e+00	9.981834299999999827e-01
2.938013999999999903e+00	9.981747600000000498e-01
2.944992999999999750e+00	9.981661899999999532e-01
2.952003999999999628e+00	9.981575799999999887e-01
2.959049999999999958e+00	9.981487500000000290e-01
2.966129000000000016e+00	9.981398700000000401e-01
2.973241999999999940e+00	9.981311200000000383e-01
2.980388999999999733e+00	9.981223399999999968e-01
2.987570999999999977e+00	9.981135599999999553e-01
2.994787000000000088e+00	9.981046199999999979e-01
3.002037999999999762e+00	9.980954600000000454e-01
3.009325000000000028e+00	9.980862200000000239e-01
3.016646999999999856e+00	9.980771299999999790e-01
3.024005000000000276e+00	9.980680800000000241e-01
3.031397999999999815e+00	9.980587699999999840e-01
3.038828000000000085e+00	9.980494800000000444e-01
3.046295000000000197e+00	9.980401300000000253e-01
3.053798000000000012e+00	9.980306100000000402e-01
3.061337999999999671e+00	9.980210400000000259e-01
3.068916000000000199e+00	9.980114199999999824e-01
3.076531000000000127e+00	9.980014799999999964e-01
3.084183999999999592e+00	9.979917000000000371e-01
3.091874999999999929e+00	9.979821800000000520e-01
3.099604999999999944e+00	9.979721299999999573e-01
3.107372999999999941e+00	9.979619100000000076e-01
3.115180999999999756e+00	9.979521599999999770e-01
3.123026999999999997e+00	9.979417600000000110e-01
3.130913999999999753e+00	9.979314200000000135e-01
3.138840000000000074e+00	9.979210400000000369e-01
3.146807000000000354e+00	9.979105700000000523e-01
3.154814000000000007e+00	9.979001499999999858e-01
3.162861999999999618e+00	9.978893699999999978e-01
3.170951000000000075e+00	9.978783700000000145e-01
3.179082000000000185e+00	9.978677400000000031e-01
3.187254000000000254e+00	9.978571099999999916e-01
3.195468999999999671e+00	9.978461800000000270e-01
3.203726000000000074e+00	9.978351899999999830e-01
3.212026000000000270e+00	9.978242200000000395e-01
3.220368999999999815e+00	9.978129300000000423e-01
3.228754999999999598e+00	9.978015300000000476e-01
3.237185000000000201e+00	9.977903099999999581e-01
3.245659000000000294e+00	9.977789000000000241e-01
3.254178000000000015e+00	9.977673200000000131e-01
3.262741999999999809e+00	9.977557000000000231e-01
3.271351000000000120e+00	9.977438299999999982e-01
3.280005000000000059e+00	9.977320100000000025e-01
3.288704999999999767e+00	9.977204499999999809e-01
3.297452000000000272e+00	9.977085300000000379e-01
3.306245000000000100e+00	9.976962499999999512e-01
3.315085000000000282e+00	9.976841300000000023e-01
3.323973000000000066e+00	9.976720300000000430e-01
3.332907999999999760e+00	9.976597799999999960e-01
3.341892000000000085e+00	9.976474899999999701e-01
3.350924000000000014e+00	9.976347899999999935e-01
3.360005000000000130e+00	9.976220500000000380e-01
3.369136000000000131e+00	9.976095499999999561e-01
3.378316000000000319e+00	9.975967900000000110e-01
3.387545999999999946e+00	9.975838700000000392e-01
3.396827000000000041e+00	9.975711200000000334e-01
3.406159000000000159e+00	9.975581900000000113e-01
3.415542000000000300e+00	9.975453600000000476e-01
3.424977999999999856e+00	9.975318600000000480e-01
3.434464999999999879e+00	9.975186000000000330e-01
3.444004999999999761e+00	9.975053499999999573e-01
3.453599000000000085e+00	9.974915899999999835e-01
3.463245000000000129e+00	9.974777299999999514e-01
3.472946000000000311e+00	9.974640399999999962e-01
3.482701999999999742e+00	9.974500699999999664e-01
3.492512000000000061e+00	9.974360599999999577e-01
3.502378000000000213e+00	9.974218900000000332e-01
3.512299999999999756e+00	9.974074899999999522e-01
3.522278000000000020e+00	9.973933099999999774e-01
3.532312999999999814e+00	9.973790700000000342e-01
3.542405000000000026e+00	9.973645399999999661e-01
3.552556000000000047e+00	9.973500199999999483e-01
3.562764000000000042e+00	9.973353000000000357e-01
3.573030999999999846e+00	9.973202399999999690e-01
3.583358000000000043e+00	9.973052799999999607e-01
3.593745000000000189e+00	9.972899699999999701e-01
3.604191000000000145e+00	9.972746000000000111e-01
3.614698999999999884e+00	9.972593400000000496e-01
3.625268999999999853e+00	9.972439800000000298e-01
3.635899999999999910e+00	9.972283600000000359e-01
3.646593999999999891e+00	9.972126000000000046e-01
3.657351000000000241e+00	9.971971899999999556e-01
3.668171000000000070e+00	9.971812899999999980e-01
3.679056000000000104e+00	9.971651900000000346e-01
3.690005999999999897e+00	9.971492699999999765e-01
3.701020999999999894e+00	9.971329100000000389e-01
3.712101000000000095e+00	9.971166299999999483e-01
3.723249000000000031e+00	9.971001999999999921e-01
3.734462999999999866e+00	9.970837299999999459e-01
3.745746000000000020e+00	9.970676899999999510e-01
3.757096999999999909e+00	9.970509300000000019e-01
3.768515999999999977e+00	9.970344199999999768e-01
3.780005999999999755e+00	9.970173799999999531e-01
3.791565000000000296e+00	9.970000700000000160e-01
3.803195999999999799e+00	9.969828800000000157e-01
3.814898000000000344e+00	9.969653800000000121e-01
3.826672000000000295e+00	9.969479100000000482e-01
3.838520000000000376e+00	9.969304700000000130e-01
3.850441000000000003e+00	9.969127199999999744e-01
3.862435999999999758e+00	9.968950800000000445e-01
3.874505999999999784e+00	9.968767099999999992e-01
3.886651999999999774e+00	9.968583600000000544e-01
3.898874000000000173e+00	9.968403000000000125e-01
3.911173000000000233e+00	9.968223200000000395e-01
3.923549999999999649e+00	9.968047300000000277e-01
3.936005999999999894e+00	9.967863099999999532e-01
3.948540999999999634e+00	9.967673700000000414e-01
3.961156000000000343e+00	9.967496000000000134e-01
3.973851999999999940e+00	9.967316099999999901e-01
3.986629999999999896e+00	9.967131700000000372e-01
3.999489999999999768e+00	9.966946899999999943e-01
4.012433000000000582e+00	9.966757699999999609e-01
4.025460999999999956e+00	9.966578000000000381e-01
4.038573000000000413e+00	9.966399099999999622e-01
4.051771000000000456e+00	9.966207299999999547e-01
4.065055000000000085e+00	9.966015599999999974e-01
4.078426999999999580e+00	9.965809799999999496e-01
4.091886999999999830e+00	9.965598900000000038e-01
4.105437000000000225e+00	9.965390200000000531e-01
4.119075999999999738e+00	9.965177899999999589e-01
4.132806000000000424e+00	9.964955500000000077e-01
4.146628000000000647e+00	9.964735700000000307e-01
4.160542999999999658e+00	9.964525100000000135e-01
4.174551999999999374e+00	9.964294500000000498e-01
4.188655000000000683e+00	9.964055400000000340e-01
4.202853999999999424e+00	9.963808400000000454e-01
4.217149000000000036e+00	9.963535799999999609e-01
4.231541999999999248e+00	9.963250399999999951e-01
4.246033999999999864e+00	9.962843399999999905e-01
4.260624999999999218e+00	9.962139800000000545e-01
4.275317000000000256e+00	9.961404099999999762e-01
4.290109999999999424e+00	9.961031299999999478e-01
4.305006999999999806e+00	9.960853299999999910e-01
4.320006999999999486e+00	9.960686399999999496e-01
4.335111000000000381e+00	9.960465299999999855e-01
4.350322000000000244e+00	9.959491799999999895e-01
4.365639999999999965e+00	9.959044500000000522e-01
4.373339999999999783e+00	9.959339299999999673e-01
4.381066999999999823e+00	9.959346100000000535e-01
4.388821000000000083e+00	9.959323900000000007e-01
4.396602000000000565e+00	9.959289300000000456e-01
4.404411999999999772e+00	9.959228300000000367e-01
4.412249000000000088e+00	9.959152700000000191e-01
4.420113999999999876e+00	9.959067299999999623e-01
4.428007000000000026e+00	9.958976699999999571e-01
4.435927999999999649e+00	9.958880199999999849e-01
4.443877999999999773e+00	9.958780299999999697e-01
4.451855999999999369e+00	9.958675700000000353e-01
4.459862999999999467e+00	9.958563900000000357e-01
4.467899000000000065e+00	9.958448300000000142e-01
4.475963000000000136e+00	9.958332899999999821e-01
4.484056999999999960e+00	9.958221400000000223e-01
4.492180999999999536e+00	9.958103900000000452e-01
4.500332999999999473e+00	9.957981700000000380e-01
4.508515999999999302e+00	9.957868899999999801e-01
4.516728000000000520e+00	9.957745999999999542e-01
4.524969999999999715e+00	9.957624800000000054e-01
4.533243000000000578e+00	9.957499899999999737e-01
4.541545000000000165e+00	9.957370800000000521e-01
4.549878000000000533e+00	9.957244400000000439e-01
4.558241999999999905e+00	9.957116799999999879e-01
4.566637000000000057e+00	9.956989600000000218e-01
4.575061999999999962e+00	9.956860299999999997e-01
4.583518999999999899e+00	9.956729199999999613e-01
4.592007000000000616e+00	9.956606300000000465e-01
4.600525999999999449e+00	9.956483600000000100e-01
4.609078000000000230e+00	9.956354600000000277e-01
4.617661000000000016e+00	9.956222399999999917e-01
4.626276000000000721e+00	9.956084400000000389e-01
4.634922999999999682e+00	9.955950199999999972e-01
4.643602999999999703e+00	9.955822899999999809e-01
4.652314999999999756e+00	9.955687399999999521e-01
4.661059999999999981e+00	9.955553099999999711e-01
4.669838000000000378e+00	9.955422699999999514e-01
4.678649000000000058e+00	9.955285400000000173e-01
4.687492999999999910e+00	9.955147800000000435e-01
4.696371000000000073e+00	9.955008300000000032e-01
4.705281999999999520e+00	9.954861799999999983e-01
4.714228000000000307e+00	9.954713699999999665e-01
4.723207000000000377e+00	9.954570099999999755e-01
4.732221000000000011e+00	9.954429200000000089e-01
4.741268999999999956e+00	9.954284599999999594e-01
4.750352000000000352e+00	9.954134500000000330e-01
4.759470000000000312e+00	9.953986799999999802e-01
4.768622999999999834e+00	9.953841799999999518e-01
4.777810999999999808e+00	9.953691799999999645e-01
4.787034000000000233e+00	9.953534699999999624e-01
4.796294000000000501e+00	9.953384600000000360e-01
4.805588999999999444e+00	9.953234600000000487e-01
4.814920000000000755e+00	9.953080499999999997e-01
4.824286999999999992e+00	9.952931999999999890e-01
4.833692000000000100e+00	9.952781299999999831e-01
4.843131999999999771e+00	9.952619400000000116e-01
4.852610000000000312e+00	9.952461799999999803e-01
4.862124999999999808e+00	9.952304899999999677e-01
4.871677000000000035e+00	9.952148800000000239e-01
4.881267000000000245e+00	9.951995000000000147e-01
4.890895000000000437e+00	9.951838200000000523e-01
4.900561000000000611e+00	9.951687999999999645e-01
4.910264999999999880e+00	9.951528600000000280e-01
4.920007000000000019e+00	9.951363800000000426e-01
4.929789000000000421e+00	9.951198300000000385e-01
4.939608999999999916e+00	9.951038599999999512e-01
4.949468999999999674e+00	9.950876600000000405e-01
4.959367000000000303e+00	9.950722899999999704e-01
4.969305999999999557e+00	9.950561199999999884e-01
4.979284999999999961e+00	9.950386700000000140e-01
4.989302999999999599e+00	9.950214600000000242e-01
4.999362000000000528e+00	9.950041800000000158e-01
5.009462000000000081e+00	9.949870299999999945e-01
5.019603000000000037e+00	9.949700500000000503e-01
5.029784000000000255e+00	9.949528199999999600e-01
5.040008000000000266e+00	9.949349299999999952e-01
5.050271999999999650e+00	9.949177000000000159e-01
5.060578999999999716e+00	9.949012200000000306e-01
5.070927999999999436e+00	9.948836199999999685e-01
5.081318999999999697e+00	9.948647000000000462e-01
5.091752999999999751e+00	9.948461699999999741e-01
5.102230000000000487e+00	9.948277399999999604e-01
5.112750000000000128e+00	9.948093700000000261e-01
5.123314000000000590e+00	9.947912700000000052e-01
5.133920999999999957e+00	9.947738099999999806e-01
5.144572000000000145e+00	9.947550299999999845e-01
5.155268000000000406e+00	9.947354999999999947e-01
5.166007999999999711e+00	9.947168400000000466e-01
5.176792999999999978e+00	9.946986700000000070e-01
5.187622999999999429e+00	9.946800799999999665e-01
5.198497999999999841e+00	9.946599499999999594e-01
5.209420000000000606e+00	9.946402399999999533e-01
5.220386999999999666e+00	9.946196800000000060e-01
5.231399999999999828e+00	9.946004400000000301e-01
5.242460000000000342e+00	9.945810899999999455e-01
5.253566999999999432e+00	9.945614000000000399e-01
5.264720999999999762e+00	9.945423599999999587e-01
5.275922999999999696e+00	9.945226900000000425e-01
5.287171999999999983e+00	9.945021699999999631e-01
5.298470000000000013e+00	9.944821400000000144e-01
5.309814999999999507e+00	9.944614200000000404e-01
5.321209999999999773e+00	9.944401400000000280e-01
5.332652999999999643e+00	9.944206799999999458e-01
5.344146000000000285e+00	9.943999199999999927e-01
5.355687999999999782e+00	9.943788399999999861e-01
5.367281000000000191e+00	9.943566700000000536e-01
5.378924000000000483e+00	9.943354199999999699e-01
5.390617000000000658e+00	9.943144699999999503e-01
5.402360999999999969e+00	9.942943800000000332e-01
5.414157000000000330e+00	9.942760999999999960e-01
5.426003999999999827e+00	9.942559399999999492e-01
5.437903000000000375e+00	9.942358900000000110e-01
5.449853999999999310e+00	9.942144899999999508e-01
5.461858000000000324e+00	9.941936500000000398e-01
5.473916000000000004e+00	9.941725399999999935e-01
5.486025999999999847e+00	9.941516500000000534e-01
5.498190000000000133e+00	9.941303099999999615e-01
5.510407999999999973e+00	9.941090799999999783e-01
5.522680999999999507e+00	9.940886899999999970e-01
5.535008000000000372e+00	9.940677999999999459e-01
5.547390999999999295e+00	9.940475500000000020e-01
5.559828999999999688e+00	9.940278099999999561e-01
5.572322999999999915e+00	9.940035299999999685e-01
5.584872999999999976e+00	9.939800199999999641e-01
5.597480000000000011e+00	9.939611600000000102e-01
5.610144000000000020e+00	9.939406600000000314e-01
5.622866000000000142e+00	9.939191000000000553e-01
5.635645000000000238e+00	9.938973300000000233e-01
5.648481999999999559e+00	9.938761499999999582e-01
5.661378000000000021e+00	9.938552899999999468e-01
5.674333999999999989e+00	9.938315199999999683e-01
5.687348000000000070e+00	9.938099000000000238e-01
5.700422000000000544e+00	9.937936400000000337e-01
5.713556999999999775e+00	9.937729600000000385e-01
5.726752000000000287e+00	9.937502000000000280e-01
5.740008999999999695e+00	9.937288699999999864e-01
5.753326999999999636e+00	9.937074299999999472e-01
5.766706000000000110e+00	9.936864699999999884e-01
5.780148999999999759e+00	9.936664499999999789e-01
5.793654000000000082e+00	9.936460400000000082e-01
5.807222000000000328e+00	9.936222099999999502e-01
5.820854000000000639e+00	9.936001599999999545e-01
5.834550000000000125e+00	9.935809799999999470e-01
5.848310999999999815e+00	9.935597600000000140e-01
5.862136999999999709e+00	9.935363900000000470e-01
5.876027999999999807e+00	9.935137099999999943e-01
5.889985000000000248e+00	9.934948799999999691e-01
5.904009000000000285e+00	9.934764900000000454e-01
5.918099999999999916e+00	9.934546800000000344e-01
5.932258000000000031e+00	9.934333300000000033e-01
5.946483999999999881e+00	9.934135099999999996e-01
5.960777999999999466e+00	9.933908599999999867e-01
5.975141999999999953e+00	9.933665200000000306e-01
5.989574000000000176e+00	9.933417399999999731e-01
6.004076999999999664e+00	9.933210099999999487e-01
6.018650000000000055e+00	9.933019199999999493e-01
6.033293999999999713e+00	9.932771999999999712e-01
6.048009000000000412e+00	9.932529599999999625e-01
6.062795999999999630e+00	9.932329199999999636e-01
6.077656000000000169e+00	9.932065500000000213e-01
6.092589000000000254e+00	9.931820799999999672e-01
6.107595000000000773e+00	9.931647700000000301e-01
6.122675999999999341e+00	9.931411599999999673e-01
6.137831000000000259e+00	9.931171100000000251e-01
6.153060999999999225e+00	9.930927299999999791e-01
6.168367999999999185e+00	9.930656399999999717e-01
6.183749999999999858e+00	9.930457599999999996e-01
6.199208999999999747e+00	9.930191000000000434e-01
6.214745999999999881e+00	9.929867900000000080e-01
6.230361000000000260e+00	9.929674299999999842e-01
6.246055000000000135e+00	9.929409799999999731e-01
6.261827999999999506e+00	9.929048600000000002e-01
6.277680000000000149e+00	9.928754400000000535e-01
6.293614000000000708e+00	9.928544500000000550e-01
6.309628000000000014e+00	9.928237899999999838e-01
6.325723999999999236e+00	9.927878599999999665e-01
6.341902000000000150e+00	9.927617300000000089e-01
6.358163000000000231e+00	9.927282299999999893e-01
6.374508000000000507e+00	9.926853599999999611e-01
6.390937000000000090e+00	9.926567099999999977e-01
6.407452000000000147e+00	9.926388499999999615e-01
6.424051000000000400e+00	9.926133099999999709e-01
6.440737000000000378e+00	9.925738899999999587e-01
6.457509999999999195e+00	9.925425700000000129e-01
6.474370000000000402e+00	9.925157500000000299e-01
6.491318999999999839e+00	9.924724099999999716e-01
6.508356000000000030e+00	9.924382600000000165e-01
6.525483999999999618e+00	9.924045799999999806e-01
6.542701000000000100e+00	9.923649199999999837e-01
6.560010000000000119e+00	9.923110899999999512e-01
6.577409999999999535e+00	9.922285400000000477e-01
6.594904000000000543e+00	9.921852899999999975e-01
6.608964999999999534e+00	9.921876899999999555e-01
6.623086999999999946e+00	9.921790299999999618e-01
6.637269000000000752e+00	9.921642099999999909e-01
6.651512000000000313e+00	9.921473499999999834e-01
6.665816999999999659e+00	9.921298400000000406e-01
6.680183000000000426e+00	9.921101700000000134e-01
6.694610999999999201e+00	9.920898000000000216e-01
6.709101000000000425e+00	9.920689999999999786e-01
6.723653999999999797e+00	9.920478999999999825e-01
6.738270999999999233e+00	9.920258199999999471e-01
6.752951000000000370e+00	9.920031799999999844e-01
6.767695999999999934e+00	9.919801999999999786e-01
6.782505000000000450e+00	9.919575299999999762e-01
6.797379000000000282e+00	9.919341999999999882e-01
6.812318000000000318e+00	9.919102699999999828e-01
6.827322999999999809e+00	9.918871799999999794e-01
6.842393999999999643e+00	9.918630200000000396e-01
6.857531999999999961e+00	9.918390000000000262e-01
6.872738000000000014e+00	9.918152799999999658e-01
6.888009999999999522e+00	9.917910599999999466e-01
6.903351000000000681e+00	9.917675500000000532e-01
6.918760000000000687e+00	9.917440600000000384e-01
6.934238999999999820e+00	9.917202400000000306e-01
6.949786000000000463e+00	9.916964499999999516e-01
6.965403999999999485e+00	9.916724199999999989e-01
6.981092000000000297e+00	9.916480300000000137e-01
6.996849999999999348e+00	9.916237300000000365e-01
7.012680000000000469e+00	9.915986199999999862e-01
7.028582000000000107e+00	9.915726200000000157e-01
7.044556000000000040e+00	9.915453199999999523e-01
7.060603000000000407e+00	9.915166199999999597e-01
7.076723000000000319e+00	9.914877199999999613e-01
7.092916999999999916e+00	9.914580800000000194e-01
7.109184999999999199e+00	9.914272100000000032e-01
7.125528000000000084e+00	9.913959300000000363e-01
7.141945999999999906e+00	9.913652699999999651e-01
7.158440000000000580e+00	9.913334700000000499e-01
7.175011000000000472e+00	9.913023199999999591e-01
7.191658000000000328e+00	9.912720600000000104e-01
7.208382999999999541e+00	9.912435600000000235e-01
7.225185999999999886e+00	9.912161999999999917e-01
7.242066999999999588e+00	9.911904000000000270e-01
7.259027000000000562e+00	9.911662799999999551e-01
7.276066999999999396e+00	9.911430900000000044e-01
7.293186999999999642e+00	9.911222100000000035e-01
7.310388000000000552e+00	9.911040100000000352e-01
7.327670999999999601e+00	9.910869100000000431e-01
7.345034999999999314e+00	9.910714099999999860e-01
7.362480999999999831e+00	9.910584000000000060e-01
7.380010999999999655e+00	9.910472099999999562e-01
7.397624999999999673e+00	9.910374400000000472e-01
7.415322000000000635e+00	9.910299200000000086e-01
7.433104999999999407e+00	9.910244000000000275e-01
7.450972999999999402e+00	9.910193999999999948e-01
7.468926999999999872e+00	9.910152800000000539e-01
7.486968000000000067e+00	9.910118799999999561e-01
7.505095999999999989e+00	9.910100800000000154e-01
7.523311999999999777e+00	9.910095399999999666e-01
7.541616999999999571e+00	9.910088599999999914e-01
7.560011000000000259e+00	9.910081699999999660e-01
7.578495999999999455e+00	9.910072199999999665e-01
7.597070000000000434e+00	9.910069200000000134e-01
7.615736000000000061e+00	9.910071400000000086e-01
7.634494000000000113e+00	9.910062600000000277e-01
7.653344999999999843e+00	9.910046099999999525e-01
7.672288999999999248e+00	9.910026400000000457e-01
7.691327000000000247e+00	9.909997600000000073e-01
7.710459000000000174e+00	9.909966700000000239e-01
7.729687000000000197e+00	9.909915900000000333e-01
7.749011999999999567e+00	9.909859199999999646e-01
7.768432999999999922e+00	9.909813499999999831e-01
7.787951000000000512e+00	9.909751399999999766e-01
7.807567999999999842e+00	9.909669500000000131e-01
7.827284999999999826e+00	9.909589800000000448e-01
7.847099999999999298e+00	9.909484100000000018e-01
7.867017000000000593e+00	9.909386500000000320e-01
7.887035000000000906e+00	9.909287199999999851e-01
7.907155000000000378e+00	9.909150700000000089e-01
7.927378000000000924e+00	9.908987500000000503e-01
7.947703999999999880e+00	9.908816400000000080e-01
7.968134999999999302e+00	9.908629100000000411e-01
7.988672000000000217e+00	9.908437399999999728e-01
8.009313999999999822e+00	9.908258599999999472e-01
8.030063999999999425e+00	9.908041300000000051e-01
8.050921000000000660e+00	9.907783100000000509e-01
8.071887000000000256e+00	9.907525299999999646e-01
8.092962999999999241e+00	9.907264799999999649e-01
8.114148000000000138e+00	9.907000400000000040e-01
8.135445000000000704e+00	9.906719000000000497e-01
8.156853999999999161e+00	9.906436899999999657e-01
8.178376000000000090e+00	9.906155599999999506e-01
8.200011999999999190e+00	9.905873699999999671e-01
8.221762999999999266e+00	9.905629500000000531e-01
8.243629000000000318e+00	9.905363299999999649e-01
8.265612000000000847e+00	9.905093900000000451e-01
8.287713000000000108e+00	9.904854400000000503e-01
8.309932000000001651e+00	9.904590100000000286e-01
8.332271000000000427e+00	9.904316899999999757e-01
8.354729999999999990e+00	9.904022599999999787e-01
8.377310000000001367e+00	9.903715800000000291e-01
8.400012999999999508e+00	9.903402399999999828e-01
8.422838999999999743e+00	9.903026499999999510e-01
8.445788999999999547e+00	9.902544199999999686e-01
8.468865000000000975e+00	9.901964899999999847e-01
8.492067999999999728e+00	9.901463099999999740e-01
8.515396999999998329e+00	9.901131699999999869e-01
8.538855999999999113e+00	9.900808100000000334e-01
8.562444000000001054e+00	9.900369599999999659e-01
8.586163000000000878e+00	9.899847699999999584e-01
8.610013000000000361e+00	9.899302300000000221e-01
8.633995999999999782e+00	9.898788200000000481e-01
8.658113999999999422e+00	9.898335400000000117e-01
8.682366000000000028e+00	9.897968600000000006e-01
8.706754999999999356e+00	9.897678899999999835e-01
8.731281000000000958e+00	9.897371000000000363e-01
8.755944999999998757e+00	9.897021099999999683e-01
8.780750000000001165e+00	9.896630499999999886e-01
8.805695000000000050e+00	9.896119799999999467e-01
8.830783000000000271e+00	9.895417499999999977e-01
8.856012999999999025e+00	9.894583000000000128e-01
8.881389000000000422e+00	9.893720999999999766e-01
8.906909999999999883e+00	9.892885900000000232e-01
8.932577999999999463e+00	9.892184499999999714e-01
8.958394999999999442e+00	9.891638600000000059e-01
8.984360999999999819e+00	9.891244999999999621e-01
9.010479000000000127e+00	9.891030499999999837e-01
9.036748000000001113e+00	9.890944299999999689e-01
9.063171999999999784e+00	9.890933499999999823e-01
9.089750000000000441e+00	9.890987500000000265e-01
9.116483999999999810e+00	9.891067599999999738e-01
9.143376999999999200e+00	9.891129499999999908e-01
9.170427999999999358e+00	9.891134599999999999e-01
9.197639999999999816e+00	9.891097899999999887e-01
9.225013999999999825e+00	9.890916699999999784e-01
9.252550999999998638e+00	9.890623200000000503e-01
9.280253999999999337e+00	9.890294499999999767e-01
9.308122000000000895e+00	9.889752899999999514e-01
9.336159000000000319e+00	9.888930400000000009e-01
9.364364999999999384e+00	9.887181800000000020e-01
9.392740999999999119e+00	9.886677999999999855e-01
9.421291000000000082e+00	9.887641000000000346e-01
9.450013999999999470e+00	9.887881899999999558e-01
9.478913000000000366e+00	9.888059000000000154e-01
9.507989999999999498e+00	9.888249500000000358e-01
9.537245000000000417e+00	9.888434099999999782e-01
9.566681000000000878e+00	9.888734099999999527e-01
9.596299000000000134e+00	9.889020499999999769e-01
9.626101999999999492e+00	9.889348399999999817e-01
9.656088999999999700e+00	9.889799700000000415e-01
9.686264999999998793e+00	9.890309800000000040e-01
9.716628999999999294e+00	9.890882399999999519e-01
9.747184999999999988e+00	9.891479499999999980e-01
9.777933000000000874e+00	9.891960699999999829e-01
9.808875999999999706e+00	9.892377100000000478e-01
9.840015000000001066e+00	9.893032299999999779e-01
9.871352999999999156e+00	9.893557699999999677e-01
9.902889999999999304e+00	9.894074200000000374e-01
9.934630000000000294e+00	9.894750399999999724e-01
9.966575000000000628e+00	9.895304900000000403e-01
9.998725000000000307e+00	9.895809800000000545e-01
1.003108299999999886e+01	9.896208699999999858e-01
1.006365199999999938e+01	9.896517500000000522e-01
1.009643200000000007e+01	9.896844099999999589e-01
1.012942699999999974e+01	9.897141600000000095e-01
1.016263799999999939e+01	9.897444399999999476e-01
1.019606800000000035e+01	9.897638100000000216e-01
1.022971800000000009e+01	9.897862499999999786e-01
1.026359200000000094e+01	9.898139700000000429e-01
1.029768999999999934e+01	9.898260500000000128e-01
1.033201599999999942e+01	9.898326299999999911e-01
1.036657100000000042e+01	9.898241300000000242e-01
1.040135800000000010e+01	9.898033999999999999e-01
1.043637900000000052e+01	9.897745999999999489e-01
1.047163700000000119e+01	9.897078099999999656e-01
1.050713500000000167e+01	9.896132600000000501e-01
1.054287300000000016e+01	9.895486399999999794e-01
1.057885600000000004e+01	9.894800000000000262e-01
1.061508500000000055e+01	9.893955500000000125e-01
1.065156200000000020e+01	9.893232400000000482e-01
1.068829200000000057e+01	9.892381900000000172e-01
1.072527600000000092e+01	9.891301900000000202e-01
1.076251599999999975e+01	9.890210200000000285e-01
1.080001600000000117e+01	9.889118700000000262e-01
1.083777900000000116e+01	9.887856200000000317e-01
1.087580600000000075e+01	9.886570500000000372e-01
1.091410100000000050e+01	9.885153800000000546e-01
1.095266699999999993e+01	9.883626100000000303e-01
1.099150599999999933e+01	9.882006899999999927e-01
1.103062200000000104e+01	9.879813200000000517e-01
1.107001700000000000e+01	9.876366199999999651e-01
1.111965799999999938e+01	9.875605499999999815e-01
1.113963899999999896e+01	9.876957499999999834e-01
1.115969300000000075e+01	9.877382399999999896e-01
1.117981900000000017e+01	9.877565699999999449e-01
1.120001699999999900e+01	9.877531400000000295e-01
1.122028800000000004e+01	9.877433799999999486e-01
1.124063299999999899e+01	9.877267899999999656e-01
1.126105200000000117e+01	9.877029999999999976e-01
1.128154600000000052e+01	9.876778899999999473e-01
1.130211399999999955e+01	9.876513999999999571e-01
1.132275699999999929e+01	9.876210100000000214e-01
1.134347600000000078e+01	9.875810400000000211e-01
1.136426999999999943e+01	9.875416200000000089e-01
1.138514099999999907e+01	9.874997199999999697e-01
1.140608899999999970e+01	9.874635000000000495e-01
1.142711399999999955e+01	9.874256099999999536e-01
1.144821699999999964e+01	9.873837600000000547e-01
1.146939799999999998e+01	9.873448299999999511e-01
1.149065699999999879e+01	9.873062599999999911e-01
1.151199500000000064e+01	9.872639600000000515e-01
1.153341299999999947e+01	9.872262800000000116e-01
1.155490999999999957e+01	9.871950299999999734e-01
1.157648799999999945e+01	9.871613500000000485e-01
1.159814699999999910e+01	9.871349499999999555e-01
1.161988599999999927e+01	9.871128900000000206e-01
1.164170800000000128e+01	9.870906699999999478e-01
1.166361100000000128e+01	9.870723099999999528e-01
1.168559700000000134e+01	9.870525300000000390e-01
1.170766599999999968e+01	9.870359300000000058e-01
1.172981900000000088e+01	9.870276100000000552e-01
1.175205599999999961e+01	9.870190300000000194e-01
1.177437700000000120e+01	9.870101900000000095e-01
1.179678299999999957e+01	9.870110899999999798e-01
1.181927400000000006e+01	9.870117400000000263e-01
1.184185199999999938e+01	9.870140299999999867e-01
1.186451600000000006e+01	9.870228199999999674e-01
1.188726600000000033e+01	9.870309000000000443e-01
1.191010399999999869e+01	9.870331100000000468e-01
1.193303099999999972e+01	9.870385600000000093e-01
1.195604499999999959e+01	9.870507400000000375e-01
1.197914899999999960e+01	9.870518000000000347e-01
1.200234099999999948e+01	9.870628599999999864e-01
1.202562400000000054e+01	9.870783100000000143e-01
1.204899799999999921e+01	9.870839700000000327e-01
1.207246200000000158e+01	9.870916899999999661e-01
1.209601800000000082e+01	9.871025900000000020e-01
1.211966599999999872e+01	9.871198300000000314e-01
1.214340699999999984e+01	9.871456600000000359e-01
1.216724100000000064e+01	9.871643300000000343e-01
1.219116900000000037e+01	9.871823899999999652e-01
1.221519100000000080e+01	9.872186499999999754e-01
1.223930800000000119e+01	9.872542699999999893e-01
1.226351999999999975e+01	9.872818199999999766e-01
1.228782800000000108e+01	9.873165400000000202e-01
1.231223300000000087e+01	9.873605600000000537e-01
1.233673499999999912e+01	9.874181600000000447e-01
1.236133499999999863e+01	9.874933000000000183e-01
1.238603299999999940e+01	9.875801699999999794e-01
1.241082999999999892e+01	9.877112399999999903e-01
1.243572599999999895e+01	9.879511399999999499e-01
1.247325799999999951e+01	9.880450800000000200e-01
1.249840599999999924e+01	9.879361100000000340e-01
1.252365499999999976e+01	9.879268300000000336e-01
1.254900699999999958e+01	9.879453700000000449e-01
1.257446099999999944e+01	9.879701499999999914e-01
1.260001899999999964e+01	9.880089199999999572e-01
1.262568100000000015e+01	9.880642499999999773e-01
1.265144799999999847e+01	9.881186400000000480e-01
1.267731999999999992e+01	9.881758699999999562e-01
1.270329800000000020e+01	9.882330299999999568e-01
1.272938300000000034e+01	9.882936599999999627e-01
1.275557500000000033e+01	9.883692600000000272e-01
1.278187499999999943e+01	9.884582499999999827e-01
1.280828400000000045e+01	9.885512800000000322e-01
1.283480199999999982e+01	9.886476199999999492e-01
1.286143000000000036e+01	9.887537100000000079e-01
1.288816899999999954e+01	9.888638899999999676e-01
1.291501999999999839e+01	9.889880500000000074e-01
1.294198199999999943e+01	9.891196799999999456e-01
1.296905700000000117e+01	9.892565800000000520e-01
1.299624599999999930e+01	9.894023100000000071e-01
1.302354900000000093e+01	9.895503599999999622e-01
1.305096699999999998e+01	9.897049599999999669e-01
1.307850099999999927e+01	9.898717999999999684e-01
1.310615100000000055e+01	9.900424199999999786e-01
1.313391799999999954e+01	9.901647900000000169e-01
1.316180299999999903e+01	9.902334999999999887e-01
1.318980700000000006e+01	9.903011900000000534e-01
1.321792999999999907e+01	9.903960299999999828e-01
1.324617399999999989e+01	9.904944500000000263e-01
1.327453800000000150e+01	9.905905200000000299e-01
1.330302400000000063e+01	9.906801200000000529e-01
1.333163300000000007e+01	9.907540299999999522e-01
1.336036500000000160e+01	9.908354700000000514e-01
1.338922099999999915e+01	9.909247799999999495e-01
1.341820200000000085e+01	9.910150800000000482e-01
1.344730899999999885e+01	9.911059599999999525e-01
1.347654199999999847e+01	9.911969299999999761e-01
1.350590299999999999e+01	9.912966899999999804e-01
1.353539199999999987e+01	9.913832000000000200e-01
1.356501000000000090e+01	9.914705400000000113e-01
1.359475700000000131e+01	9.915655700000000072e-01
1.362463600000000064e+01	9.916528599999999694e-01
1.365464599999999962e+01	9.917519900000000277e-01
1.368478899999999854e+01	9.918563799999999819e-01
1.371506500000000095e+01	9.919554400000000216e-01
1.374547500000000078e+01	9.920569999999999666e-01
1.377602100000000007e+01	9.921821600000000352e-01
1.380670200000000136e+01	9.923187900000000061e-01
1.383752100000000063e+01	9.925002899999999517e-01
1.386847700000000039e+01	9.927287700000000381e-01
1.389957300000000018e+01	9.929866699999999602e-01
1.393080799999999897e+01	9.932908000000000293e-01
1.396218299999999957e+01	9.936183100000000046e-01
1.399370100000000150e+01	9.938623800000000452e-01
1.402536100000000019e+01	9.939530100000000257e-01
1.405716400000000021e+01	9.939706400000000164e-01
1.408911200000000008e+01	9.939939899999999939e-01
1.412120600000000081e+01	9.940312100000000539e-01
1.415344600000000064e+01	9.940714099999999886e-01
1.418583399999999983e+01	9.941128299999999474e-01
1.421836999999999840e+01	9.941602400000000284e-01
1.425105600000000017e+01	9.942221900000000057e-01
1.428389300000000084e+01	9.942921200000000015e-01
1.431688100000000041e+01	9.943617900000000231e-01
1.435002200000000094e+01	9.944271599999999767e-01
1.438331600000000066e+01	9.945029499999999967e-01
1.441676599999999908e+01	9.945803300000000124e-01
1.445037100000000052e+01	9.946530000000000094e-01
1.448413399999999918e+01	9.947351199999999727e-01
1.451805500000000038e+01	9.948131399999999847e-01
1.455213500000000160e+01	9.948866499999999835e-01
1.458637500000000031e+01	9.949614399999999748e-01
1.462077700000000036e+01	9.950451799999999736e-01
1.465534099999999995e+01	9.951337300000000496e-01
1.469006999999999863e+01	9.952146600000000287e-01
1.472496300000000069e+01	9.952862999999999571e-01
1.476002199999999931e+01	9.953525300000000131e-01
1.479524900000000009e+01	9.954246900000000009e-01
1.483064400000000127e+01	9.954954900000000384e-01
1.486620999999999881e+01	9.955572999999999784e-01
1.490194599999999880e+01	9.956207799999999830e-01
1.493785399999999974e+01	9.956845399999999513e-01
1.497393600000000013e+01	9.957341400000000453e-01
1.501019199999999998e+01	9.957806200000000052e-01
1.504662499999999881e+01	9.958273199999999603e-01
1.508323399999999914e+01	9.958585199999999693e-01
1.512002299999999977e+01	9.958883699999999672e-01
1.515699099999999966e+01	9.959165100000000326e-01
1.519414100000000012e+01	9.959379900000000507e-01
1.523147300000000115e+01	9.959566600000000491e-01
1.526898899999999948e+01	9.959691299999999803e-01
1.530668999999999969e+01	9.959757399999999983e-01
1.534457799999999850e+01	9.959808900000000076e-01
1.538265400000000049e+01	9.959889800000000237e-01
1.542091899999999960e+01	9.959927499999999823e-01
1.545937499999999964e+01	9.959910299999999994e-01
1.549802299999999988e+01	9.959781199999999668e-01
1.553686599999999984e+01	9.959628900000000451e-01
1.557590300000000028e+01	9.959425299999999925e-01
1.561513699999999893e+01	9.959093599999999658e-01
1.565456900000000040e+01	9.958606100000000350e-01
1.569420100000000140e+01	9.957930299999999679e-01
1.573403400000000119e+01	9.957165300000000441e-01
1.577407000000000181e+01	9.956273500000000221e-01
1.581431000000000076e+01	9.955252500000000282e-01
1.585475500000000082e+01	9.953996699999999587e-01
1.589540899999999901e+01	9.952528999999999959e-01
1.593627099999999785e+01	9.951029999999999598e-01
1.597734400000000043e+01	9.949402499999999705e-01
1.601862900000000067e+01	9.947551399999999822e-01
1.606012799999999885e+01	9.945621599999999729e-01
1.610184300000000235e+01	9.943637400000000515e-01
1.614377400000000051e+01	9.941600699999999513e-01
1.618592500000000101e+01	9.939359800000000522e-01
1.622829699999999775e+01	9.936972200000000477e-01
1.627089099999999888e+01	9.934714900000000126e-01
1.631370899999999935e+01	9.932559899999999775e-01
1.635675300000000121e+01	9.930514700000000472e-01
1.640002499999999941e+01	9.928645000000000387e-01
1.644352599999999853e+01	9.927172100000000166e-01
1.648725900000000166e+01	9.926167799999999763e-01
1.653122499999999917e+01	9.925689800000000451e-01
1.657542600000000022e+01	9.925750199999999746e-01
1.661986400000000330e+01	9.926395399999999869e-01
1.666454099999999983e+01	9.927808299999999475e-01
1.670945899999999895e+01	9.930154399999999715e-01
1.675462000000000273e+01	9.933243899999999460e-01
1.680002499999999799e+01	9.936605600000000260e-01
1.684567799999999949e+01	9.940432200000000051e-01
1.689157900000000012e+01	9.944495399999999652e-01
1.693773099999999943e+01	9.949077899999999586e-01
1.698413500000000198e+01	9.953882400000000352e-01
1.703079500000000124e+01	9.959588499999999511e-01
1.710126700000000000e+01	9.970662799999999715e-01
1.714857399999999998e+01	9.978224900000000064e-01
1.719614299999999929e+01	9.985367600000000232e-01
1.724397599999999997e+01	9.992548100000000488e-01
1.729207600000000156e+01	9.999460100000000518e-01
1.734044600000000003e+01	1.000647800000000087e+00
1.738908699999999996e+01	1.001359000000000110e+00
1.743800099999999986e+01	1.002075000000000049e+00
1.748719099999999926e+01	1.002798000000000078e+00
1.753665999999999769e+01	1.003526499999999988e+00
1.758641000000000076e+01	1.004222299999999901e+00
1.763644199999999884e+01	1.004866000000000037e+00
1.768675999999999959e+01	1.005498699999999968e+00
1.773736600000000152e+01	1.006133500000000014e+00
1.778826199999999957e+01	1.006766400000000061e+00
1.783945100000000039e+01	1.007387999999999950e+00
1.789093599999999995e+01	1.007969499999999963e+00
1.794271900000000031e+01	1.008515899999999910e+00
1.799480199999999996e+01	1.009053100000000036e+00
1.804718900000000303e+01	1.009591799999999928e+00
1.809988100000000344e+01	1.010112099999999957e+00
1.815288199999999819e+01	1.010603799999999941e+00
1.820619500000000102e+01	1.011050100000000063e+00
1.825982099999999875e+01	1.011452999999999935e+00
1.831376500000000007e+01	1.011864700000000061e+00
1.836802800000000246e+01	1.012227599999999894e+00
1.842261300000000190e+01	1.012534599999999951e+00
1.847752399999999895e+01	1.012829200000000096e+00
1.853276299999999921e+01	1.013112699999999977e+00
1.858833400000000324e+01	1.013373599999999985e+00
1.864423899999999890e+01	1.013581400000000077e+00
1.870048099999999991e+01	1.013757999999999937e+00
1.875706300000000226e+01	1.013938400000000017e+00
1.881398899999999941e+01	1.014098699999999909e+00
1.887126100000000051e+01	1.014234000000000080e+00
1.892888400000000004e+01	1.014363499999999974e+00
1.898685899999999904e+01	1.014481399999999978e+00
1.904519000000000162e+01	1.014586200000000105e+00
1.910388100000000122e+01	1.014680000000000026e+00
1.916293499999999739e+01	1.014774700000000029e+00
1.922235500000000030e+01	1.014864800000000011e+00
1.928214400000000239e+01	1.014939100000000094e+00
1.934230699999999814e+01	1.015002600000000088e+00
1.940284600000000026e+01	1.015062799999999932e+00
1.946376599999999968e+01	1.015122000000000080e+00
1.952506899999999845e+01	1.015168499999999918e+00
1.958675899999999714e+01	1.015193299999999965e+00
1.964884100000000089e+01	1.015208200000000005e+00
1.971131799999999856e+01	1.015220999999999929e+00
1.977419300000000035e+01	1.015226299999999915e+00
1.983746999999999971e+01	1.015221099999999987e+00
1.990115400000000179e+01	1.015203800000000101e+00
1.996524800000000255e+01	1.015195000000000070e+00
2.002975599999999901e+01	1.015195700000000034e+00
2.009468199999999882e+01	1.015201199999999915e+00
2.016002999999999901e+01	1.015213600000000049e+00
2.022580500000000114e+01	1.015228999999999937e+00
2.029201099999999869e+01	1.015233199999999947e+00
2.035865099999999828e+01	1.015213700000000108e+00
2.042573099999999897e+01	1.015168599999999977e+00
2.049325400000000030e+01	1.015093400000000035e+00
2.056122500000000031e+01	1.014992200000000011e+00
2.062964799999999954e+01	1.014883500000000049e+00
2.069852900000000062e+01	1.014783299999999944e+00
2.076787099999999953e+01	1.014696999999999960e+00
2.083767900000000139e+01	1.014626500000000098e+00
2.090795699999999968e+01	1.014568200000000031e+00
2.097871200000000158e+01	1.014521900000000088e+00
2.104994699999999952e+01	1.014489900000000056e+00
2.112166699999999864e+01	1.014470800000000006e+00
2.119387799999999800e+01	1.014464699999999997e+00
2.126658400000000171e+01	1.014473699999999923e+00
2.133979100000000173e+01	1.014480899999999908e+00
2.141350399999999965e+01	1.014471499999999970e+00
2.148772700000000313e+01	1.014440199999999903e+00
2.156246699999999805e+01	1.014391400000000054e+00
2.163772900000000021e+01	1.014338799999999985e+00
2.171351800000000054e+01	1.014295600000000075e+00
2.178984000000000165e+01	1.014269400000000099e+00
2.186669999999999803e+01	1.014269499999999935e+00
2.194410399999999939e+01	1.014306500000000000e+00
2.202205800000000124e+01	1.014382200000000012e+00
2.210056800000000266e+01	1.014491500000000102e+00
2.217963999999999913e+01	1.014648400000000006e+00
2.225928000000000040e+01	1.014881600000000050e+00
2.233949299999999738e+01	1.015194500000000000e+00
2.242028700000000185e+01	1.015568400000000038e+00
2.250166700000000120e+01	1.015943999999999958e+00
2.258364100000000008e+01	1.016214200000000067e+00
2.266621300000000261e+01	1.016294299999999984e+00
2.274939200000000028e+01	1.016210000000000058e+00
2.283318399999999926e+01	1.016043599999999936e+00
2.291759499999999861e+01	1.015794099999999922e+00
2.300263199999999841e+01	1.015447299999999942e+00
2.308830299999999980e+01	1.015101000000000031e+00
2.317461399999999827e+01	1.014890000000000070e+00
2.326157399999999953e+01	1.014869500000000091e+00
2.334918800000000161e+01	1.014983699999999933e+00
2.343746499999999955e+01	1.015128699999999995e+00
2.352641099999999952e+01	1.015265000000000084e+00
2.361603600000000114e+01	1.015384199999999959e+00
2.370634599999999992e+01	1.015452599999999928e+00
2.379734900000000053e+01	1.015589700000000040e+00
2.388905300000000054e+01	1.016005800000000070e+00
2.398146799999999956e+01	1.016746600000000056e+00
2.407460000000000022e+01	1.017568000000000028e+00
2.416845800000000111e+01	1.017935299999999987e+00
2.426304999999999978e+01	1.017660000000000009e+00
2.435838700000000046e+01	1.017289399999999899e+00
2.445447499999999863e+01	1.017346199999999978e+00
2.455132400000000104e+01	1.018194299999999997e+00
2.464894400000000019e+01	1.020706899999999973e+00
2.474734300000000076e+01	1.026711399999999941e+00
2.479683700000000002e+01	1.028243400000000030e+00
2.485898500000000055e+01	1.027829899999999963e+00
2.492144500000000207e+01	1.030503699999999911e+00
2.498421899999999951e+01	1.033717400000000008e+00
2.504731100000000055e+01	1.031651799999999897e+00
2.511072199999999910e+01	1.026342599999999994e+00
2.517445399999999722e+01	1.023280100000000026e+00
2.523851100000000258e+01	1.021235499999999963e+00
2.530289499999999947e+01	1.019649999999999945e+00
2.536760899999999808e+01	1.018330500000000027e+00
2.543265399999999943e+01	1.017186900000000005e+00
2.549803299999999950e+01	1.016171200000000052e+00
2.556374999999999886e+01	1.015251399999999915e+00
2.562980600000000209e+01	1.014410199999999929e+00
2.569620499999999907e+01	1.013635300000000017e+00
2.576294800000000151e+01	1.012916300000000103e+00
2.583003899999999931e+01	1.012244900000000003e+00
2.589748000000000161e+01	1.011611700000000003e+00
2.596527499999999833e+01	1.011010500000000034e+00
2.603342499999999760e+01	1.010431700000000044e+00
2.610193399999999997e+01	1.009880099999999947e+00
2.617080499999999788e+01	1.009352699999999992e+00
2.624004000000000048e+01	1.008843399999999946e+00
2.630964200000000019e+01	1.008350899999999939e+00
2.637961400000000012e+01	1.007873500000000089e+00
2.644996000000000080e+01	1.007409599999999905e+00
2.652068200000000076e+01	1.006958000000000020e+00
2.659178299999999950e+01	1.006517300000000059e+00
2.666326600000000013e+01	1.006086599999999942e+00
2.673513499999999965e+01	1.005665000000000031e+00
2.680739200000000011e+01	1.005251600000000023e+00
2.688004100000000207e+01	1.004845699999999953e+00
2.695308399999999693e+01	1.004446799999999973e+00
2.702652599999999694e+01	1.004054100000000060e+00
2.710036900000000060e+01	1.003667300000000040e+00
2.717461600000000033e+01	1.003285800000000005e+00
2.724927200000000127e+01	1.002909199999999945e+00
2.732433899999999838e+01	1.002537100000000070e+00
2.739981999999999829e+01	1.002169300000000041e+00
2.747571999999999903e+01	1.001805300000000010e+00
2.755204200000000014e+01	1.001444900000000082e+00
2.762878800000000012e+01	1.001087899999999919e+00
2.770596399999999804e+01	1.000734000000000012e+00
2.778357099999999846e+01	1.000383000000000022e+00
2.786161500000000046e+01	1.000034700000000054e+00
2.794009900000000002e+01	9.996889500000000206e-01
2.801902499999999918e+01	9.993455300000000374e-01
2.809839900000000057e+01	9.990043199999999457e-01
2.817822400000000016e+01	9.986651699999999909e-01
2.825850399999999851e+01	9.983279499999999640e-01
2.833924299999999974e+01	9.979925400000000391e-01
2.842044399999999982e+01	9.976609100000000119e-01
2.850211200000000034e+01	9.973288000000000153e-01
2.858425100000000185e+01	9.969981700000000169e-01
2.866686400000000035e+01	9.966689399999999477e-01
2.874995699999999843e+01	9.963410099999999714e-01
2.883353199999999816e+01	9.960142899999999688e-01
2.891759500000000216e+01	9.956886999999999821e-01
2.900214900000000284e+01	9.953641699999999926e-01
2.908719900000000180e+01	9.950406200000000423e-01
2.917275000000000063e+01	9.947179600000000121e-01
2.925880499999999884e+01	9.943961300000000447e-01
2.934536999999999907e+01	9.940750499999999601e-01
2.943244800000000083e+01	9.937546600000000119e-01
2.952004500000000320e+01	9.934348800000000201e-01
2.960816399999999859e+01	9.931156300000000270e-01
2.969681100000000029e+01	9.927968600000000032e-01
2.978599100000000277e+01	9.924784899999999910e-01
2.987570799999999949e+01	9.921604400000000323e-01
2.996596699999999913e+01	9.918426500000000479e-01
3.005677299999999974e+01	9.915250399999999686e-01
3.014813100000000290e+01	9.912075500000000483e-01
3.024004599999999954e+01	9.908900899999999456e-01
3.033252300000000190e+01	9.905725899999999751e-01
3.042556700000000092e+01	9.902549699999999566e-01
3.051918500000000023e+01	9.899371700000000329e-01
3.061337999999999937e+01	9.896190900000000346e-01
3.070815800000000095e+01	9.893006699999999931e-01
3.080352499999999694e+01	9.889818099999999612e-01
3.089948599999999956e+01	9.886624400000000312e-01
3.099604699999999724e+01	9.883424800000000232e-01
3.109321300000000221e+01	9.880218400000000400e-01
3.119099100000000035e+01	9.877026100000000364e-01
3.128938500000000289e+01	9.873803799999999464e-01
3.138840200000000280e+01	9.870572100000000182e-01
3.148804799999999915e+01	9.867330300000000110e-01
3.158832799999999708e+01	9.864077399999999773e-01
3.168924900000000378e+01	9.860812599999999595e-01
3.179081700000000055e+01	9.857534999999999492e-01
3.189303899999999814e+01	9.854243700000000494e-01
3.199591899999999711e+01	9.850937899999999692e-01
3.209946599999999961e+01	9.847616599999999831e-01
3.220368500000000012e+01	9.844279099999999616e-01
3.230858299999999872e+01	9.840924399999999572e-01
3.241416699999999906e+01	9.837551599999999619e-01
3.252044300000000021e+01	9.834159999999999568e-01
3.262741799999999870e+01	9.830748599999999948e-01
3.273509899999999817e+01	9.827316699999999461e-01
3.284349300000000227e+01	9.823863400000000246e-01
3.295260799999999790e+01	9.820387800000000000e-01
3.306244999999999834e+01	9.816889300000000151e-01
3.317302699999999760e+01	9.813366900000000115e-01
3.328434599999999932e+01	9.809819899999999704e-01
3.339641400000000004e+01	9.806247500000000450e-01
3.350924000000000547e+01	9.802648999999999946e-01
3.362283000000000044e+01	9.799023700000000225e-01
3.373719399999999524e+01	9.795370700000000097e-01
3.385233800000000315e+01	9.791689500000000379e-01
3.396827100000000144e+01	9.787979399999999774e-01
3.408499999999999375e+01	9.784239599999999815e-01
3.420253399999999999e+01	9.780491999999999519e-01
3.432088199999999745e+01	9.776691100000000079e-01
3.444005200000000144e+01	9.772858700000000010e-01
3.456005199999999888e+01	9.768994199999999628e-01
3.468089200000000005e+01	9.765096800000000465e-01
3.480257900000000149e+01	9.761166199999999904e-01
3.492512299999999925e+01	9.757201599999999475e-01
3.504853399999999652e+01	9.753202600000000499e-01
3.517281900000000405e+01	9.749168599999999962e-01
3.529798900000000117e+01	9.745099000000000400e-01
3.542405400000000526e+01	9.740993399999999802e-01
3.555102099999999865e+01	9.736851100000000203e-01
3.567890299999999826e+01	9.732671800000000095e-01
3.580770799999999809e+01	9.728454800000000402e-01
3.593744600000000133e+01	9.724199799999999616e-01
3.606812699999999694e+01	9.719906000000000379e-01
3.619976300000000435e+01	9.715573199999999465e-01
3.633236300000000085e+01	9.711200599999999516e-01
3.646593699999999671e+01	9.706787799999999633e-01
3.660049800000000175e+01	9.702334400000000025e-01
3.673605600000000493e+01	9.697839600000000004e-01
3.687262100000000231e+01	9.693302999999999781e-01
3.701020499999999913e+01	9.688723900000000278e-01
3.714882000000000062e+01	9.684101899999999485e-01
3.728847700000000032e+01	9.679436200000000046e-01
3.742918900000000093e+01	9.674726299999999446e-01
3.757096599999999853e+01	9.669994899999999616e-01
3.771382100000000293e+01	9.665194599999999969e-01
3.785776700000000261e+01	9.660347999999999713e-01
3.800281600000000282e+01	9.655454300000000378e-01
3.814898099999999914e+01	9.650512700000000166e-01
3.829627399999999682e+01	9.645522399999999497e-01
3.844470900000000313e+01	9.640482500000000510e-01
3.859429999999999694e+01	9.635392200000000296e-01
3.874505899999999770e+01	9.630250399999999988e-01
3.889699999999999847e+01	9.625056199999999507e-01
3.905013799999999691e+01	9.619808600000000487e-01
3.920448599999999573e+01	9.614506299999999728e-01
3.936006000000000427e+01	9.609148400000000478e-01
3.951687199999999933e+01	9.603733599999999537e-01
3.967493999999999943e+01	9.598260600000000364e-01
3.983427700000000016e+01	9.592728299999999653e-01
3.999489900000000375e+01	9.587135100000000465e-01
4.015682199999999824e+01	9.581479800000000102e-01
4.032006099999999549e+01	9.575760899999999909e-01
4.048463300000000231e+01	9.569976799999999617e-01
4.065055300000000216e+01	9.564126200000000466e-01
4.081783899999999932e+01	9.558207300000000073e-01
4.098650800000000061e+01	9.552218500000000390e-01
4.115657699999999863e+01	9.546182600000000518e-01
4.132806199999999563e+01	9.540049299999999732e-01
4.150098299999999796e+01	9.533840999999999566e-01
4.167535700000000531e+01	9.527556000000000358e-01
4.185120299999999816e+01	9.521192400000000333e-01
4.202853799999999751e+01	9.514748600000000334e-01
4.220738300000000010e+01	9.508222499999999799e-01
4.238775599999999599e+01	9.501612600000000075e-01
4.256967799999999613e+01	9.494916799999999490e-01
4.275316800000000228e+01	9.488133399999999495e-01
4.293824699999999694e+01	9.481260599999999927e-01
4.312493500000000068e+01	9.474296700000000016e-01
4.331325300000000311e+01	9.467239899999999597e-01
4.350322400000000300e+01	9.460088599999999515e-01
4.369486799999999960e+01	9.452841100000000107e-01
4.388820799999999878e+01	9.445495999999999892e-01
4.408326699999999931e+01	9.438051800000000213e-01
4.428006700000000251e+01	9.430507000000000195e-01
4.447863199999999750e+01	9.422860600000000364e-01
4.467898599999999476e+01	9.415111400000000241e-01
4.488115400000000221e+01	9.407258299999999851e-01
4.508515899999999732e+01	9.399325899999999567e-01
4.529102699999999970e+01	9.391263100000000197e-01
4.549878400000000056e+01	9.383094600000000396e-01
4.570845599999999820e+01	9.374820000000000375e-01
4.592006899999999803e+01	9.366439199999999632e-01
4.613365100000000041e+01	9.357952400000000281e-01
4.634922900000000112e+01	9.349359699999999496e-01
4.656683100000000053e+01	9.340661700000000289e-01
4.678648600000000357e+01	9.331859099999999518e-01
4.700822300000000098e+01	9.322952700000000092e-01
4.723207099999999770e+01	9.313943500000000375e-01
4.745806200000000530e+01	9.304832499999999840e-01
4.768622599999999778e+01	9.295620799999999573e-01
4.791659399999999636e+01	9.286309400000000158e-01
4.814919899999999586e+01	9.276898900000000170e-01
4.838407300000000077e+01	9.267389499999999503e-01
4.862124999999999631e+01	9.257780500000000190e-01
4.886076400000000319e+01	9.248069599999999557e-01
4.910264800000000207e+01	9.238252399999999920e-01
4.934693999999999647e+01	9.228319600000000067e-01
4.959367499999999751e+01	9.218272299999999975e-01
