3.099599999999999866e+01	5.343617686820000268e-01
3.102500000000000213e+01	5.323568796359999800e-01
3.105499999999999972e+01	5.303378239880000011e-01
3.108399999999999963e+01	5.283078554160000051e-01
3.111400000000000077e+01	5.262684761920000120e-01
3.114400000000000190e+01	5.242211651399999450e-01
3.117299999999999827e+01	5.221703618559999649e-01
3.120300000000000296e+01	5.201157743600000050e-01
3.123300000000000054e+01	5.180624175579999768e-01
3.126299999999999812e+01	5.160129281999998874e-01
3.129300000000000281e+01	5.139664169500000046e-01
3.132299999999999685e+01	5.119266659960000077e-01
3.135299999999999798e+01	5.098969050999999642e-01
3.138300000000000267e+01	5.078779579200000116e-01
3.141300000000000381e+01	5.058741861900000192e-01
3.144299999999999784e+01	5.038858148379999902e-01
3.147300000000000253e+01	5.019136263680000765e-01
3.150300000000000367e+01	4.999637182940000479e-01
3.153399999999999892e+01	4.980332865000000053e-01
3.156400000000000006e+01	4.961278369999999605e-01
3.159499999999999886e+01	4.942475365400000320e-01
3.162500000000000000e+01	4.923954288799999857e-01
3.165599999999999525e+01	4.905722045320000113e-01
3.168700000000000117e+01	4.887797632899999467e-01
3.171700000000000230e+01	4.870187695839999775e-01
3.174799999999999756e+01	4.852921942000000266e-01
3.177900000000000347e+01	4.835990293759999670e-01
3.180999999999999872e+01	4.819450815180000292e-01
3.184100000000000108e+01	4.803263182080000360e-01
3.187199999999999633e+01	4.787486514240000268e-01
3.190300000000000225e+01	4.772108872959999193e-01
3.193399999999999750e+01	4.757141296319999935e-01
3.196499999999999986e+01	4.742596255860000443e-01
3.199599999999999511e+01	4.728484538100000689e-01
3.202799999999999869e+01	4.714811426520000293e-01
3.205899999999999750e+01	4.701594442420000131e-01
3.209100000000000108e+01	4.688821007000000263e-01
3.212199999999999989e+01	4.676536724959999836e-01
3.215400000000000347e+01	4.664705851280000481e-01
3.218499999999999517e+01	4.653345560799999614e-01
3.221700000000000585e+01	4.642488751380000056e-01
3.224900000000000233e+01	4.632111866720000637e-01
3.228099999999999881e+01	4.622219492419999409e-01
3.231300000000000239e+01	4.612838977040000232e-01
3.234400000000000119e+01	4.603934330320000323e-01
3.237600000000000477e+01	4.595539878159999869e-01
3.240899999999999892e+01	4.587652851599999804e-01
3.244099999999999540e+01	4.580261867600000647e-01
3.247299999999999898e+01	4.573364120399999733e-01
3.250500000000000256e+01	4.566993691300000324e-01
3.253799999999999670e+01	4.561114529280000385e-01
3.257000000000000028e+01	4.555753562420000180e-01
3.260199999999999676e+01	4.550874781199999441e-01
3.263499999999999801e+01	4.546512146419999789e-01
3.266700000000000159e+01	4.542662752259999936e-01
3.270000000000000284e+01	4.539297711920000089e-01
3.273299999999999699e+01	4.536426437680000090e-01
3.276600000000000534e+01	4.534047935699999643e-01
3.279800000000000182e+01	4.532171627380000012e-01
3.283099999999999596e+01	4.530791329259999389e-01
3.286399999999999721e+01	4.529881712699999619e-01
3.289700000000000557e+01	4.529454062400000147e-01
3.293100000000000449e+01	4.529517900800000274e-01
3.296399999999999864e+01	4.530054997079999701e-01
3.299699999999999989e+01	4.531047181739999430e-01
3.302999999999999403e+01	4.532516238599999525e-01
3.306400000000000006e+01	4.534449303999999459e-01
3.309700000000000131e+01	4.536845668199999126e-01
3.313100000000000023e+01	4.539670045140000165e-01
3.316400000000000148e+01	4.542966917999999854e-01
3.319800000000000040e+01	4.546690602719999919e-01
3.323199999999999932e+01	4.550839083000000063e-01
3.326500000000000057e+01	4.555441157399999774e-01
3.329899999999999949e+01	4.560444587160000229e-01
3.333299999999999841e+01	4.565888762500000531e-01
3.336699999999999733e+01	4.571726917140000457e-01
3.340100000000000335e+01	4.577987925299999983e-01
3.343500000000000227e+01	4.584647716019999986e-01
3.346999999999999886e+01	4.591695450539999834e-01
3.350399999999999778e+01	4.599129785759999978e-01
3.353799999999999670e+01	4.606957136720000179e-01
3.357300000000000040e+01	4.615153784999999620e-01
3.360699999999999932e+01	4.623736934399999554e-01
3.364199999999999591e+01	4.632666904139999819e-01
3.367599999999999483e+01	4.641966334720000198e-01
3.371099999999999852e+01	4.651601050799999970e-01
3.374599999999999511e+01	4.661593818840000791e-01
3.378099999999999881e+01	4.671927740120000450e-01
3.381599999999999540e+01	4.682603096640000073e-01
3.385099999999999909e+01	4.693603075839999916e-01
3.388600000000000279e+01	4.704910914600000105e-01
3.392099999999999937e+01	4.716544117319999563e-01
3.395600000000000307e+01	4.728474404159999644e-01
3.399099999999999966e+01	4.740719379499999664e-01
3.402700000000000102e+01	4.753262460959999380e-01
3.406200000000000472e+01	4.766081531019999984e-01
3.409800000000000608e+01	4.779205401599999625e-01
3.413299999999999557e+01	4.792594940319999663e-01
3.416899999999999693e+01	4.806250787499999344e-01
3.420499999999999829e+01	4.820196326399999731e-01
3.424000000000000199e+01	4.834375392079999778e-01
3.427600000000000335e+01	4.848828526600000299e-01
3.431200000000000472e+01	4.863516662340000019e-01
3.434799999999999898e+01	4.878457619020000191e-01
3.438400000000000034e+01	4.893629490520000069e-01
3.442000000000000171e+01	4.909038735999999847e-01
3.445700000000000074e+01	4.924674859960000428e-01
3.449300000000000210e+01	4.940515880100000423e-01
3.452899999999999636e+01	4.956591312539999628e-01
3.456600000000000250e+01	4.972873395599999857e-01
3.460200000000000387e+01	4.989351769379999912e-01
3.463900000000000290e+01	5.006021495400000410e-01
3.467600000000000193e+01	5.022895225919999929e-01
3.471300000000000097e+01	5.039956254599999852e-01
3.475000000000000000e+01	5.057189056780000413e-01
3.478599999999999426e+01	5.074616910959999228e-01
3.482300000000000040e+01	5.092195476600001047e-01
3.486100000000000421e+01	5.109959881200000220e-01
3.489799999999999613e+01	5.127888032800000939e-01
3.493500000000000227e+01	5.145963779600000176e-01
3.497200000000000131e+01	5.164194095280000285e-01
3.500999999999999801e+01	5.182556818559999057e-01
3.504700000000000415e+01	5.201087071180000576e-01
3.508500000000000085e+01	5.219740612200000074e-01
3.512300000000000466e+01	5.238529406399999866e-01
3.515999999999999659e+01	5.257448248639999822e-01
3.519800000000000040e+01	5.276493235200000465e-01
3.523600000000000421e+01	5.295659171200000070e-01
3.527400000000000091e+01	5.314940782320000112e-01
3.531200000000000472e+01	5.334328032319999302e-01
3.535000000000000142e+01	5.353821836500000098e-01
3.538899999999999579e+01	5.373433991599999571e-01
3.542699999999999960e+01	5.393113906700000015e-01
3.546500000000000341e+01	5.412920188920000708e-01
3.550399999999999778e+01	5.432795935540000176e-01
3.554199999999999449e+01	5.452759131459999908e-01
3.558100000000000307e+01	5.472810604319999772e-01
3.561999999999999744e+01	5.492933984300000239e-01
3.565900000000000603e+01	5.513123660159999773e-01
3.569700000000000273e+01	5.533386794779999729e-01
3.573599999999999710e+01	5.553724179200000277e-01
3.577600000000000335e+01	5.574130131919999842e-01
3.581499999999999773e+01	5.594577380720000548e-01
3.585399999999999920e+01	5.615088133200000220e-01
3.589300000000000068e+01	5.635641576960001009e-01
3.593299999999999983e+01	5.656259871359999858e-01
3.597199999999999420e+01	5.676898378500000453e-01
3.601200000000000045e+01	5.697592295679999586e-01
3.605199999999999960e+01	5.718318372779999104e-01
3.609100000000000108e+01	5.739083804160000080e-01
3.613100000000000023e+01	5.759882562779999882e-01
3.617099999999999937e+01	5.780697860119999865e-01
3.621099999999999852e+01	5.801530208399999777e-01
3.625099999999999767e+01	5.822397481679999487e-01
3.629199999999999449e+01	5.843282834619999422e-01
3.633200000000000074e+01	5.864162621099999750e-01
3.637199999999999989e+01	5.885061398240000186e-01
3.641300000000000381e+01	5.905972862720000327e-01
3.645299999999999585e+01	5.926879992000000374e-01
3.649399999999999977e+01	5.947800600820000172e-01
3.653499999999999659e+01	5.968706995400000492e-01
3.657600000000000051e+01	5.989620787080000008e-01
3.661599999999999966e+01	6.010514190719999927e-01
3.665800000000000125e+01	6.031398114000000588e-01
3.669900000000000517e+01	6.052279735920000903e-01
3.674000000000000199e+01	6.073134909699999806e-01
3.678099999999999881e+01	6.093963845400000023e-01
3.682300000000000040e+01	6.114784314940000520e-01
3.686400000000000432e+01	6.135561387000000311e-01
3.690599999999999881e+01	6.156330403299999920e-01
3.694700000000000273e+01	6.177056351959999692e-01
3.698900000000000432e+01	6.197749958399999537e-01
3.703099999999999881e+01	6.218411332000000069e-01
3.707300000000000040e+01	6.239029967999999426e-01
3.711500000000000199e+01	6.259616566040000496e-01
3.715700000000000358e+01	6.280146413760000490e-01
3.719900000000000517e+01	6.300633710799999898e-01
3.724199999999999733e+01	6.321064268639999817e-01
3.728399999999999892e+01	6.341445191299999173e-01
3.732699999999999818e+01	6.361776479200000889e-01
3.736899999999999977e+01	6.382043775999999280e-01
3.741199999999999903e+01	6.402261351600000427e-01
3.745500000000000540e+01	6.422404148160000270e-01
3.749799999999999756e+01	6.442489878960000471e-01
3.754099999999999682e+01	6.462500591520000670e-01
3.758399999999999608e+01	6.482454020000000261e-01
3.762700000000000244e+01	6.502324894559999846e-01
3.767100000000000648e+01	6.522120282479999531e-01
3.771399999999999864e+01	6.541850658719999823e-01
3.775800000000000267e+01	6.561479931299999402e-01
3.780100000000000193e+01	6.581043771519999863e-01
3.784499999999999886e+01	6.600513327539999642e-01
3.788899999999999579e+01	6.619909680999999102e-01
3.793299999999999983e+01	6.639203872200000189e-01
3.797699999999999676e+01	6.658413638719999916e-01
3.802100000000000080e+01	6.677513241119999998e-01
3.806500000000000483e+01	6.696520403439999436e-01
3.810899999999999466e+01	6.715442212600000182e-01
3.815400000000000347e+01	6.734252807999999701e-01
3.819800000000000040e+01	6.752969954299999911e-01
3.824300000000000210e+01	6.771556936039999641e-01
3.828800000000000381e+01	6.790060437000000615e-01
3.833299999999999841e+01	6.808440385600000866e-01
3.837800000000000011e+01	6.826717859159999735e-01
3.842300000000000182e+01	6.844855912039999879e-01
3.846800000000000352e+01	6.862898092779999848e-01
3.851299999999999812e+01	6.880818189419999342e-01
3.855900000000000460e+01	6.898615714760000239e-01
3.860399999999999920e+01	6.916271818560000284e-01
3.864999999999999858e+01	6.933815148399999906e-01
3.869500000000000028e+01	6.951223543800000293e-01
3.874099999999999966e+01	6.968499750000000104e-01
3.878699999999999903e+01	6.985650795500000232e-01
3.883299999999999841e+01	7.002668573600000501e-01
3.887899999999999778e+01	7.019541631200000298e-01
3.892600000000000193e+01	7.036254163139999962e-01
3.897200000000000131e+01	7.052839264800000452e-01
3.901899999999999835e+01	7.069281152759999687e-01
3.906500000000000483e+01	7.085575900000000704e-01
3.911200000000000188e+01	7.101726214179999719e-01
3.915899999999999892e+01	7.117701877320000703e-01
3.920599999999999596e+01	7.133531807880000297e-01
3.925300000000000011e+01	7.149215387859999549e-01
3.930000000000000426e+01	7.164722272000000336e-01
3.934700000000000131e+01	7.180081480440000385e-01
3.939399999999999835e+01	7.195273642799999703e-01
3.944200000000000017e+01	7.210298056120000298e-01
3.948999999999999488e+01	7.225146321859999832e-01
3.953700000000000614e+01	7.239825408599999124e-01
3.958500000000000085e+01	7.254334602160000811e-01
3.963300000000000267e+01	7.268665475200000170e-01
3.968100000000000449e+01	7.282817289359999613e-01
3.972899999999999920e+01	7.296797023459999920e-01
3.977799999999999869e+01	7.310596223999999976e-01
3.982600000000000051e+01	7.324206414480000094e-01
3.987500000000000000e+01	7.337615591039999829e-01
3.992300000000000182e+01	7.350841929600000491e-01
3.997200000000000131e+01	7.363884675840000060e-01
4.002100000000000080e+01	7.376716280700000850e-01
4.007000000000000028e+01	7.389374041499999768e-01
4.011899999999999977e+01	7.401807731160000570e-01
4.016799999999999926e+01	7.414058281500000014e-01
4.021799999999999642e+01	7.426102217040000397e-01
4.026699999999999591e+01	7.437942338960000788e-01
4.031700000000000017e+01	7.449566438080000852e-01
4.036699999999999733e+01	7.460985109700000173e-01
4.041700000000000159e+01	7.472186100600000103e-01
4.046700000000000585e+01	7.483160787900000610e-01
4.051699999999999591e+01	7.493946880920000497e-01
4.056700000000000017e+01	7.504493515200000298e-01
4.061699999999999733e+01	7.514822877800000356e-01
4.066799999999999926e+01	7.524922598959999931e-01
4.071799999999999642e+01	7.534803423399999422e-01
4.076899999999999835e+01	7.544460713400000795e-01
4.082000000000000028e+01	7.553889708419999627e-01
4.087099999999999511e+01	7.563066274299999892e-01
4.092199999999999704e+01	7.572012878800000735e-01
4.097299999999999898e+01	7.580744291400000057e-01
4.102499999999999858e+01	7.589224655920000506e-01
4.107600000000000051e+01	7.597460897119999723e-01
4.112800000000000011e+01	7.605452164799999526e-01
4.117999999999999972e+01	7.613189838800000775e-01
4.123199999999999932e+01	7.620692693400000772e-01
4.128399999999999892e+01	7.627940319999999552e-01
4.133599999999999852e+01	7.634951545600000555e-01
4.138799999999999812e+01	7.641686232999999051e-01
4.144099999999999540e+01	7.648182901880000717e-01
4.149300000000000210e+01	7.654413303059999230e-01
4.154599999999999937e+01	7.660396377920000166e-01
4.159899999999999665e+01	7.666099575200000515e-01
4.165200000000000102e+01	7.671546119219999627e-01
4.170499999999999829e+01	7.676730948199999016e-01
4.175800000000000267e+01	7.681657621679999215e-01
4.181099999999999994e+01	7.686313289120000336e-01
4.186500000000000199e+01	7.690689429360000329e-01
4.191799999999999926e+01	7.694812915700000033e-01
4.197200000000000131e+01	7.698627710279999370e-01
4.202600000000000335e+01	7.702208324200000567e-01
4.207999999999999829e+01	7.705478740960000072e-01
4.213400000000000034e+01	7.708485883839998332e-01
4.218900000000000006e+01	7.711221378199999421e-01
4.224300000000000210e+01	7.713672210719999534e-01
4.229800000000000182e+01	7.715850040080000083e-01
4.235300000000000153e+01	7.717734128519999626e-01
4.240700000000000358e+01	7.719323777280000520e-01
4.246300000000000097e+01	7.720630771419999538e-01
4.251800000000000068e+01	7.721662172700001214e-01
4.257300000000000040e+01	7.722409718399999567e-01
4.262899999999999778e+01	7.722852619019998643e-01
4.268399999999999750e+01	7.723018100999999858e-01
4.274000000000000199e+01	7.722890319599998721e-01
4.279599999999999937e+01	7.722476360640000426e-01
4.285200000000000387e+01	7.721768064100000828e-01
4.290800000000000125e+01	7.720752202239999917e-01
4.296399999999999864e+01	7.719461256439998920e-01
4.302099999999999369e+01	7.717866853199999433e-01
4.307799999999999585e+01	7.715983680000000344e-01
4.313400000000000034e+01	7.713796101599998956e-01
4.319100000000000250e+01	7.711311232020000572e-01
4.324800000000000466e+01	7.708541504400000521e-01
4.330599999999999739e+01	7.705466102399999295e-01
4.336299999999999955e+01	7.702112615999999745e-01
4.342099999999999937e+01	7.698465648720000942e-01
4.347800000000000153e+01	7.694504386920000272e-01
4.353600000000000136e+01	7.690235975480000929e-01
4.359400000000000119e+01	7.685701154879999164e-01
4.365200000000000102e+01	7.680843602239999512e-01
4.371099999999999852e+01	7.675711679580000668e-01
4.376900000000000546e+01	7.670292032000000093e-01
4.382799999999999585e+01	7.664562096560000315e-01
4.388700000000000045e+01	7.658543980319999500e-01
4.394599999999999795e+01	7.652215216219999672e-01
4.400500000000000256e+01	7.645611149100000059e-01
4.406400000000000006e+01	7.638716882160000443e-01
4.412300000000000466e+01	7.631539735000001379e-01
4.418299999999999983e+01	7.624058897280000524e-01
4.424299999999999500e+01	7.616295004859998663e-01
4.430300000000000438e+01	7.608254119199999721e-01
4.436299999999999955e+01	7.599930171240000254e-01
4.442299999999999471e+01	7.591308531800000647e-01
4.448300000000000409e+01	7.582403834899998918e-01
4.454399999999999693e+01	7.573222364399999629e-01
4.460499999999999687e+01	7.563764256619999182e-01
4.466599999999999682e+01	7.554036900540000987e-01
4.472700000000000387e+01	7.544033184699999728e-01
4.478800000000000381e+01	7.533753279500000621e-01
4.484899999999999665e+01	7.523190170719998848e-01
4.491100000000000136e+01	7.512379382799999616e-01
4.497299999999999898e+01	7.501285849019999619e-01
4.503499999999999659e+01	7.489951734999998889e-01
4.509700000000000131e+01	7.478335467479999554e-01
4.515899999999999892e+01	7.466465429219999450e-01
4.522099999999999653e+01	7.454348697479999952e-01
4.528399999999999892e+01	7.441971789200000353e-01
4.534700000000000131e+01	7.429356080580000743e-01
4.540999999999999659e+01	7.416473895640000036e-01
4.547299999999999898e+01	7.403374784159999500e-01
4.553600000000000136e+01	7.390010081280000698e-01
4.560000000000000142e+01	7.376422367999999619e-01
4.566300000000000381e+01	7.362605187940000073e-01
4.572699999999999676e+01	7.348551982900000112e-01
4.579099999999999682e+01	7.334270409600001095e-01
4.585499999999999687e+01	7.319789119499999774e-01
4.592000000000000171e+01	7.305059553120000215e-01
4.598399999999999466e+01	7.290131462699999121e-01
4.604899999999999949e+01	7.274991691959999951e-01
4.611400000000000432e+01	7.259654695260000512e-01
4.617899999999999494e+01	7.244093093159998942e-01
4.624399999999999977e+01	7.228364206139999970e-01
4.630999999999999517e+01	7.212412124999999508e-01
4.637500000000000000e+01	7.196301065279999687e-01
4.644100000000000250e+01	7.179982625519999440e-01
4.650699999999999790e+01	7.163506721500000340e-01
4.657300000000000040e+01	7.146846170500000817e-01
4.664000000000000057e+01	7.130001771239998787e-01
4.670599999999999596e+01	7.113016759520000010e-01
4.677300000000000324e+01	7.095849538580000226e-01
4.683999999999999631e+01	7.078550046720001321e-01
4.690699999999999648e+01	7.061077895819999339e-01
4.697500000000000142e+01	7.043496408700000710e-01
4.704200000000000159e+01	7.025750687399999750e-01
4.710999999999999943e+01	7.007869475200000364e-01
4.717799999999999727e+01	6.989874884720000958e-01
4.724600000000000222e+01	6.971761230480000293e-01
4.731400000000000006e+01	6.953529441700000424e-01
4.738300000000000267e+01	6.935180447600000075e-01
4.745199999999999818e+01	6.916721682779999325e-01
4.752000000000000313e+01	6.898190068799998631e-01
4.759000000000000341e+01	6.879544009200000421e-01
4.765899999999999892e+01	6.860805702140001516e-01
4.772800000000000153e+01	6.841997351540000105e-01
4.779800000000000182e+01	6.823119890159999867e-01
4.786800000000000210e+01	6.804152972400000499e-01
4.793800000000000239e+01	6.785140071000000939e-01
4.800900000000000034e+01	6.766082107740000184e-01
4.807899999999999352e+01	6.746952380999999832e-01
4.814999999999999858e+01	6.727779454479999588e-01
4.822099999999999653e+01	6.708585505360000756e-01
4.829200000000000159e+01	6.689350156260001068e-01
4.836399999999999721e+01	6.670095568159999377e-01
4.843500000000000227e+01	6.650816365700000787e-01
4.850700000000000500e+01	6.631513472039999302e-01
4.857900000000000063e+01	6.612221503559999602e-01
4.865099999999999625e+01	6.592928848900000416e-01
4.872400000000000375e+01	6.573642579560000643e-01
4.879599999999999937e+01	6.554378604779999007e-01
4.886899999999999977e+01	6.535122679799999501e-01
4.894200000000000017e+01	6.515918095919999153e-01
4.901599999999999824e+01	6.496738259999998988e-01
4.908899999999999864e+01	6.477590087760000115e-01
4.916299999999999670e+01	6.458489475899998888e-01
4.923700000000000188e+01	6.439449332700000195e-01
4.931099999999999994e+01	6.420479430340001459e-01
4.938600000000000279e+01	6.401565317280000222e-01
4.945999999999999375e+01	6.382722855179999710e-01
4.953500000000000369e+01	6.363979934819999906e-01
4.960999999999999943e+01	6.345321959899998809e-01
4.968599999999999994e+01	6.326737545019999187e-01
4.976100000000000279e+01	6.308275632680000466e-01
4.983699999999999619e+01	6.289936747400000083e-01
4.991299999999999670e+01	6.271700238000000871e-01
4.998899999999999721e+01	6.253566615920000960e-01
5.006600000000000250e+01	6.235599783680000341e-01
5.014300000000000068e+01	6.217736747039999123e-01
5.021999999999999886e+01	6.200047180480000586e-01
5.029700000000000415e+01	6.182477453879999807e-01
5.037400000000000233e+01	6.165087713919999990e-01
5.045199999999999818e+01	6.147860678200000040e-01
5.053000000000000114e+01	6.130787221100000295e-01
5.060799999999999699e+01	6.113909704640000387e-01
5.068599999999999994e+01	6.097228276239999856e-01
5.076500000000000057e+01	6.080716241600000460e-01
5.084400000000000119e+01	6.064400564659999660e-01
5.092300000000000182e+01	6.048302327360000064e-01
5.100300000000000011e+01	6.032400541200000355e-01
5.108200000000000074e+01	6.016737191740000323e-01
5.116199999999999903e+01	6.001291223200000413e-01
5.124200000000000443e+01	5.986068275880001011e-01
5.132300000000000040e+01	5.971104392039999764e-01
5.140299999999999869e+01	5.956363201500000093e-01
5.148400000000000176e+01	5.941907243999999810e-01
5.156499999999999773e+01	5.927688709799999733e-01
5.164699999999999847e+01	5.913733882499999650e-01
5.172800000000000153e+01	5.900042399999999576e-01
5.181000000000000227e+01	5.886661206659998813e-01
5.189300000000000068e+01	5.873542463879999342e-01
5.197500000000000142e+01	5.860706531679999998e-01
5.205799999999999983e+01	5.848200088699999633e-01
5.214099999999999824e+01	5.835975279499999724e-01
5.222399999999999665e+01	5.824084247520000535e-01
5.230700000000000216e+01	5.812499878700000400e-01
5.239099999999999824e+01	5.801236565459999550e-01
5.247500000000000142e+01	5.790310293599999492e-01
5.256000000000000227e+01	5.779709007159999912e-01
5.264400000000000546e+01	5.769473153380000330e-01
5.272899999999999920e+01	5.759592224399999738e-01
5.281400000000000006e+01	5.750054042100000151e-01
5.289900000000000091e+01	5.740889321700000103e-01
5.298499999999999943e+01	5.732096916960000010e-01
5.307099999999999795e+01	5.723670083920000540e-01
5.315700000000000358e+01	5.715633727880000681e-01
5.324399999999999977e+01	5.707992110799998686e-01
5.333100000000000307e+01	5.700753268559999309e-01
5.341799999999999926e+01	5.693906422079999530e-01
5.350499999999999545e+01	5.687491081340000365e-01
5.359300000000000352e+01	5.681485254300000509e-01
5.368099999999999739e+01	5.675892978120000709e-01
5.376899999999999835e+01	5.670721962499999380e-01
5.385699999999999932e+01	5.666007609000000000e-01
5.394599999999999795e+01	5.661742609440000296e-01
5.403499999999999659e+01	5.657904868599999970e-01
5.412500000000000000e+01	5.654533241280000899e-01
5.421399999999999864e+01	5.651636972879999776e-01
5.430399999999999494e+01	5.649202991040001010e-01
5.439499999999999602e+01	5.647240499319999829e-01
5.448499999999999943e+01	5.645747532000000568e-01
5.457600000000000051e+01	5.644762451999999486e-01
5.466700000000000159e+01	5.644262945580000856e-01
5.475900000000000034e+01	5.644272634380000930e-01
5.485099999999999909e+01	5.644789326000000385e-01
5.494299999999999784e+01	5.645816428140000287e-01
5.503500000000000369e+01	5.647366148840000655e-01
5.512800000000000011e+01	5.649467463640001075e-01
5.522099999999999653e+01	5.652072335680000670e-01
5.531500000000000483e+01	5.655244087799999875e-01
5.540800000000000125e+01	5.658940321879999402e-01
5.550200000000000244e+01	5.663204221500000024e-01
5.559700000000000131e+01	5.668019088379999681e-01
5.569099999999999540e+01	5.673410870399999695e-01
5.578600000000000136e+01	5.679374245320000236e-01
5.588100000000000023e+01	5.685926588320000530e-01
5.597699999999999676e+01	5.693059613440000222e-01
5.607300000000000040e+01	5.700802037999999072e-01
5.616899999999999693e+01	5.709131529919999615e-01
5.626599999999999824e+01	5.718065304200000698e-01
5.636300000000000665e+01	5.727632099840000990e-01
5.646000000000000085e+01	5.737823520120000076e-01
5.655799999999999983e+01	5.748617302480000246e-01
5.665599999999999881e+01	5.760067765199999856e-01
5.675399999999999778e+01	5.772146908799999920e-01
5.685300000000000153e+01	5.784871818739999449e-01
5.695200000000000529e+01	5.798251807919999612e-01
5.705099999999999483e+01	5.812303983700000121e-01
5.715100000000000335e+01	5.827031852640000009e-01
5.725100000000000477e+01	5.842413561600000582e-01
5.735099999999999909e+01	5.858491738499999046e-01
5.745200000000000529e+01	5.875250674039999010e-01
5.755299999999999727e+01	5.892707600640000321e-01
5.765399999999999636e+01	5.910866415300000121e-01
5.775600000000000023e+01	5.929756631040000725e-01
5.785799999999999699e+01	5.949325325300000022e-01
5.796099999999999852e+01	5.969627708800000487e-01
5.806400000000000006e+01	5.990661992640000655e-01
5.816700000000000159e+01	6.012413434259999967e-01
5.827000000000000313e+01	6.034925239599999713e-01
5.837400000000000233e+01	6.058182998300000177e-01
5.847900000000000631e+01	6.082179079680000156e-01
5.858300000000000551e+01	6.106937658959999959e-01
5.868900000000000006e+01	6.132464197579999832e-01
5.879399999999999693e+01	6.158751414299999949e-01
5.889999999999999858e+01	6.185824176399999930e-01
5.900600000000000023e+01	6.213675860299999743e-01
5.911299999999999955e+01	6.242318751600000049e-01
5.921999999999999886e+01	6.271740112540000744e-01
5.932699999999999818e+01	6.301959799100000925e-01
5.943500000000000227e+01	6.332990548760000227e-01
5.954299999999999926e+01	6.364827146939999736e-01
5.965199999999999392e+01	6.397477088799999878e-01
5.976100000000000279e+01	6.430922416319999613e-01
5.986999999999999744e+01	6.465196863839999253e-01
5.997999999999999687e+01	6.500308774080000296e-01
6.008999999999999631e+01	6.536247901160000540e-01
6.020100000000000051e+01	6.572997402119999943e-01
6.031199999999999761e+01	6.610592359279999775e-01
6.042299999999999471e+01	6.649030606400000432e-01
6.053499999999999659e+01	6.688308060720000725e-01
6.064699999999999847e+01	6.728423231119999848e-01
6.075999999999999801e+01	6.769375199999999593e-01
6.087299999999999756e+01	6.811179467960000178e-01
6.098599999999999710e+01	6.853824290500000194e-01
6.110000000000000142e+01	6.897314250540000913e-01
6.121399999999999864e+01	6.941661481119999477e-01
6.132900000000000063e+01	6.986848415759999709e-01
6.144399999999999551e+01	7.032880606500000464e-01
6.155999999999999517e+01	7.079752574640000296e-01
6.167600000000000193e+01	7.127485573980000266e-01
6.179299999999999926e+01	7.176048657600000436e-01
6.190899999999999892e+01	7.225437512079999625e-01
6.202700000000000102e+01	7.275674698499999815e-01
6.214499999999999602e+01	7.326741164400000228e-01
6.226299999999999812e+01	7.378630610039998983e-01
6.238199999999999790e+01	7.431343231679999883e-01
6.250099999999999767e+01	7.484865695839999500e-01
6.261999999999999744e+01	7.539187862800000861e-01
6.274100000000000676e+01	7.594334661599999592e-01
6.286099999999999710e+01	7.650259092800000271e-01
6.298199999999999932e+01	7.706970423040000462e-01
6.310399999999999210e+01	7.764448845780000941e-01
6.322600000000000620e+01	7.822683195000000866e-01
6.334799999999999898e+01	7.881685446960000618e-01
6.347099999999999653e+01	7.941415755419999334e-01
6.359400000000000119e+01	8.001875905700001068e-01
6.371799999999999642e+01	8.063047123559999863e-01
6.384299999999999642e+01	8.124912351559999690e-01
6.396699999999999875e+01	8.187480415639999398e-01
6.409300000000000352e+01	8.250686616239999438e-01
6.421899999999999409e+01	8.314551416400000061e-01
6.434499999999999886e+01	8.379056332159999787e-01
6.447200000000000841e+01	8.444165107839999296e-01
6.459900000000000375e+01	8.509849236719999599e-01
6.472700000000000387e+01	8.576110763099999978e-01
6.485499999999998977e+01	8.642930104479999986e-01
6.498399999999999466e+01	8.710270897919999422e-01
6.511299999999999955e+01	8.778094962480000873e-01
6.524299999999999500e+01	8.846421427899999745e-01
6.537399999999999523e+01	8.915192802200000433e-01
6.550400000000000489e+01	8.984370813600000005e-01
6.563599999999999568e+01	9.053973322880000119e-01
6.576799999999998647e+01	9.123922784339999481e-01
6.590000000000000568e+01	9.194236586639999986e-01
6.603300000000000125e+01	9.264864851000000900e-01
6.616700000000000159e+01	9.335766474840000440e-01
6.630100000000000193e+01	9.406957767479999788e-01
6.643599999999999284e+01	9.478348535159999422e-01
6.657100000000001216e+01	9.549944017499999438e-01
6.670700000000000784e+01	9.621720801680000434e-01
6.684300000000000352e+01	9.693624657000000644e-01
6.698000000000000398e+01	9.765650460799999433e-01
6.711699999999999022e+01	9.837752580899999932e-01
6.725499999999999545e+01	9.909904767399999592e-01
6.739399999999999125e+01	9.982099802079998918e-01
6.753300000000000125e+01	1.005428999812000068e+00
6.767300000000000182e+01	1.012642776000000078e+00
6.781300000000000239e+01	1.019854348811999989e+00
6.795399999999999352e+01	1.027054819648000050e+00
6.809499999999999886e+01	1.034247136639999898e+00
6.823700000000000898e+01	1.041427259880000067e+00
6.837999999999999545e+01	1.048592008864000169e+00
6.852299999999999613e+01	1.055739331240000078e+00
6.866700000000000159e+01	1.062869927349999744e+00
6.881099999999999284e+01	1.069982614920000019e+00
6.895600000000000307e+01	1.077074033619999982e+00
6.910200000000000387e+01	1.084143848220000095e+00
6.924800000000000466e+01	1.091192784455999876e+00
6.939499999999999602e+01	1.098220474290000137e+00
6.954299999999999216e+01	1.105226528448000067e+00
6.969100000000000250e+01	1.112210537759999784e+00
6.984000000000000341e+01	1.119175207444000009e+00
6.998899999999999011e+01	1.126121048514000078e+00
7.013900000000001000e+01	1.133049849167999890e+00
7.029000000000000625e+01	1.139963231231999830e+00
7.044100000000000250e+01	1.146864870858000041e+00
7.059300000000000352e+01	1.153756604753999992e+00
7.074600000000000932e+01	1.160644213519999912e+00
7.089900000000000091e+01	1.167531655359999920e+00
7.105300000000001148e+01	1.174422725975999837e+00
7.120799999999999841e+01	1.181324663944000042e+00
7.136299999999999955e+01	1.188239273182000177e+00
7.151900000000000546e+01	1.195180139675999786e+00
7.167600000000000193e+01	1.202148235749999960e+00
7.183299999999999841e+01	1.209154281748000104e+00
7.199099999999999966e+01	1.216208885516000038e+00
7.215000000000000568e+01	1.223318544519999884e+00
7.231000000000000227e+01	1.230495423647999909e+00
7.247000000000001307e+01	1.237748298072000042e+00
7.263100000000000023e+01	1.245088372067999938e+00
7.279200000000000159e+01	1.252531444430000196e+00
7.295500000000001251e+01	1.260085673340000101e+00
7.311800000000000921e+01	1.267768316959999808e+00
7.328100000000000591e+01	1.275593243287999945e+00
7.344599999999999795e+01	1.283573777279999772e+00
7.361099999999999000e+01	1.291724350307999813e+00
7.377700000000000102e+01	1.300062924593999858e+00
7.394400000000000261e+01	1.308609166237999943e+00
7.411199999999999477e+01	1.317372593117999813e+00
7.428000000000000114e+01	1.326376703640000043e+00
7.444899999999999807e+01	1.335638528889999899e+00
7.461899999999999977e+01	1.345174423840000077e+00
7.478899999999998727e+01	1.355004448320000110e+00
7.496099999999999852e+01	1.365145568585999891e+00
7.513300000000000978e+01	1.375617883640000150e+00
7.530599999999999739e+01	1.386438118884000037e+00
7.548000000000000398e+01	1.397622734140000045e+00
7.565399999999999636e+01	1.409189523904000207e+00
7.582899999999999352e+01	1.421157032650000041e+00
7.600600000000000023e+01	1.433534061503999979e+00
7.618300000000000693e+01	1.446342560768000052e+00
7.635999999999999943e+01	1.459585412010000027e+00
7.653900000000000148e+01	1.473278667999999847e+00
7.671899999999999409e+01	1.487426214845999795e+00
7.689900000000000091e+01	1.502033503692000060e+00
7.707999999999999829e+01	1.517096732611999954e+00
7.726200000000000045e+01	1.532618441199999904e+00
7.744499999999999318e+01	1.548588048371999815e+00
7.762900000000000489e+01	1.564989189279999637e+00
7.781399999999999295e+01	1.581808388703999979e+00
7.799899999999999523e+01	1.599013615583999792e+00
7.818500000000000227e+01	1.616577001600000063e+00
7.837300000000000466e+01	1.634456104481999850e+00
7.856100000000000705e+01	1.652598117839999770e+00
7.875000000000000000e+01	1.670952203849999984e+00
7.893999999999999773e+01	1.689446542990000077e+00
7.913100000000000023e+01	1.708001503704000168e+00
7.932300000000000750e+01	1.726536608855999910e+00
7.951600000000000534e+01	1.744946523731999877e+00
7.971000000000000796e+01	1.763125349136000164e+00
7.990399999999999636e+01	1.780958106174000077e+00
8.010000000000000853e+01	1.798318695200000095e+00
8.029600000000000648e+01	1.815065763816000155e+00
8.049399999999999977e+01	1.831058471424000134e+00
8.069299999999999784e+01	1.846155389447999839e+00
8.089200000000001012e+01	1.860198799801999980e+00
8.109300000000000352e+01	1.873041730464000132e+00
8.129400000000001114e+01	1.884527123424000195e+00
8.149699999999999989e+01	1.894517204579999836e+00
8.169999999999998863e+01	1.902864360216000028e+00
8.190500000000000114e+01	1.909445023524000140e+00
8.210999999999999943e+01	1.914141712079999946e+00
8.231700000000000728e+01	1.916852565516000029e+00
8.252500000000000568e+01	1.917500589125999966e+00
8.273300000000000409e+01	1.916021265201999890e+00
8.294299999999999784e+01	1.912380081221999983e+00
8.315400000000001057e+01	1.906557941774000176e+00
8.336599999999999966e+01	1.898567638854000039e+00
8.357899999999999352e+01	1.888443657523999786e+00
8.379300000000000637e+01	1.876240542863999883e+00
8.400799999999999557e+01	1.862035874819999881e+00
8.422399999999998954e+01	1.845926747159999826e+00
8.444200000000000728e+01	1.828032660959999944e+00
8.465999999999999659e+01	1.808483829119999831e+00
8.487999999999999545e+01	1.787423368962000270e+00
8.510099999999999909e+01	1.764997080255999773e+00
8.532299999999999329e+01	1.741366552627999997e+00
8.554599999999999227e+01	1.716695261467999778e+00
8.576999999999999602e+01	1.691138606850000059e+00
8.599600000000000932e+01	1.664855084383999984e+00
8.622199999999999420e+01	1.638004040123999916e+00
8.645000000000000284e+01	1.610730260915999912e+00
8.667900000000000205e+01	1.583178460128000120e+00
8.690900000000000603e+01	1.555477959103999996e+00
8.714099999999999113e+01	1.527751966103999992e+00
8.737399999999999523e+01	1.500114466879999942e+00
8.760800000000000409e+01	1.472670947999999980e+00
8.784300000000000352e+01	1.445511215616000156e+00
8.807900000000000773e+01	1.418721563519999895e+00
8.831700000000000728e+01	1.392375432281999892e+00
8.855599999999999739e+01	1.366538031180000168e+00
8.879699999999999704e+01	1.341263843219999918e+00
8.903800000000001091e+01	1.316601353391999796e+00
8.928100000000000591e+01	1.292592648957999968e+00
8.952599999999999625e+01	1.269272968944000102e+00
8.977100000000000080e+01	1.246667146506000190e+00
9.001800000000000068e+01	1.224802982499999970e+00
9.026699999999999591e+01	1.203693924840000262e+00
9.051699999999999591e+01	1.183357629999999938e+00
9.076800000000000068e+01	1.163804027224000004e+00
9.102000000000001023e+01	1.145042418815999996e+00
9.127400000000000091e+01	1.127075198616000140e+00
9.153000000000000114e+01	1.109902332904000088e+00
9.178600000000000136e+01	1.093532524458000088e+00
9.204500000000000171e+01	1.077960535379999918e+00
9.230400000000000205e+01	1.063184195303999990e+00
9.256600000000000250e+01	1.049207254603999884e+00
9.282799999999998875e+01	1.036019968455999862e+00
9.309199999999999875e+01	1.023622293876000011e+00
9.335799999999998988e+01	1.012011632680000162e+00
9.362500000000000000e+01	1.001183641948000025e+00
9.389400000000000546e+01	9.911372658960000415e-01
9.416400000000000148e+01	9.818690360039999954e-01
9.443600000000000705e+01	9.733760372799999949e-01
9.470900000000000318e+01	9.656565698879999715e-01
9.498399999999999466e+01	9.587109121800000411e-01
9.526099999999999568e+01	9.525377743599999780e-01
9.553900000000000148e+01	9.471379052799999698e-01
9.581900000000000261e+01	9.425140993800000810e-01
9.610099999999999909e+01	9.386621495700000484e-01
9.638400000000000034e+01	9.355917547159999792e-01
9.666900000000001114e+01	9.332988227200000875e-01
9.695499999999999829e+01	9.317911121099999860e-01
9.724299999999999500e+01	9.310717072799999938e-01
9.753300000000000125e+01	9.311432591580001139e-01
9.782499999999998863e+01	9.320107776199999527e-01
9.811799999999999500e+01	9.336823790120000188e-01
9.841299999999999670e+01	9.361571303679999678e-01
9.871000000000000796e+01	9.394442452980000802e-01
9.900900000000000034e+01	9.435454485119999513e-01
9.931000000000000227e+01	9.484633780740000519e-01
9.961200000000000898e+01	9.542009105759999832e-01
9.991600000000001103e+01	9.607587675840000285e-01
1.002220000000000084e+02	9.681347816139999063e-01
1.005300000000000011e+02	9.763242211339999699e-01
1.008400000000000034e+02	9.853233821199999243e-01
1.011520000000000010e+02	9.951211376339998971e-01
1.014659999999999940e+02	1.005703790208000159e+00
1.017819999999999965e+02	1.017054487680000063e+00
1.020989999999999895e+02	1.029146470696000071e+00
1.024189999999999969e+02	1.041951626489999949e+00
1.027409999999999997e+02	1.055435309928000054e+00
1.030640000000000072e+02	1.069557824649999933e+00
1.033900000000000006e+02	1.084264160448000114e+00
1.037180000000000035e+02	1.099501343200000036e+00
1.040480000000000018e+02	1.115204088160000051e+00
1.043799999999999955e+02	1.131297903807999994e+00
1.047139999999999986e+02	1.147705518671999991e+00
1.050500000000000114e+02	1.164338474423999958e+00
1.053879999999999910e+02	1.181106281739999986e+00
1.057289999999999992e+02	1.197912281974000015e+00
1.060720000000000027e+02	1.214659431022000025e+00
1.064170000000000016e+02	1.231244436464000058e+00
1.067639999999999958e+02	1.247571840959999845e+00
1.071140000000000043e+02	1.263543885463999983e+00
1.074660000000000082e+02	1.279074194559999933e+00
1.078199999999999932e+02	1.294087796716000049e+00
1.081759999999999877e+02	1.308515161760000156e+00
1.085350000000000108e+02	1.322301998642000154e+00
1.088969999999999914e+02	1.335411278343999975e+00
1.092599999999999909e+02	1.347823206588000033e+00
1.096260000000000048e+02	1.359535056963999899e+00
1.099949999999999903e+02	1.370556211500000066e+00
1.103659999999999997e+02	1.380915970320000019e+00
1.107400000000000091e+02	1.390658670162000066e+00
1.111159999999999997e+02	1.399840237757999928e+00
1.114949999999999903e+02	1.408527596744000077e+00
1.118760000000000048e+02	1.416787318943999896e+00
1.122600000000000051e+02	1.424699925947999990e+00
1.126460000000000008e+02	1.432343751055999759e+00
1.130360000000000014e+02	1.439786034719999996e+00
1.134270000000000067e+02	1.447103058048000213e+00
1.138220000000000027e+02	1.454354790139999798e+00
1.142199999999999989e+02	1.461591483716000006e+00
1.146200000000000045e+02	1.468855201915999720e+00
1.150229999999999961e+02	1.476173928848000028e+00
1.154290000000000020e+02	1.483562055816000091e+00
1.158369999999999891e+02	1.491019221888000068e+00
1.162490000000000094e+02	1.498531946550000216e+00
1.166640000000000015e+02	1.506071319791999930e+00
1.170810000000000031e+02	1.513592687178000107e+00
1.175019999999999953e+02	1.521046315866000143e+00
1.179249999999999972e+02	1.528357117877999771e+00
1.183520000000000039e+02	1.535446302600000035e+00
1.187819999999999965e+02	1.542226178340000198e+00
1.192139999999999986e+02	1.548596906975999943e+00
1.196500000000000057e+02	1.554454462608000131e+00
1.200900000000000034e+02	1.559682369999999985e+00
1.205319999999999965e+02	1.564168010159999733e+00
1.209780000000000086e+02	1.567800804997999897e+00
1.214269999999999925e+02	1.570457915840000052e+00
1.218790000000000049e+02	1.572027192694000153e+00
1.223349999999999937e+02	1.572400441794000070e+00
1.227939999999999969e+02	1.571480080423999892e+00
1.232570000000000050e+02	1.569168167021999905e+00
1.237229999999999990e+02	1.565381609823999876e+00
1.241929999999999978e+02	1.560054186600000170e+00
1.246659999999999968e+02	1.553127020699999861e+00
1.251430000000000007e+02	1.544560368673999928e+00
1.256240000000000094e+02	1.534325620130000178e+00
1.261080000000000041e+02	1.522416158956000132e+00
1.265959999999999894e+02	1.508841226156000026e+00
1.270880000000000081e+02	1.493618339470000000e+00
1.275829999999999984e+02	1.476790822364000055e+00
1.280829999999999984e+02	1.458416797548000021e+00
1.285860000000000127e+02	1.438557639144000033e+00
1.290939999999999941e+02	1.417301261640000032e+00
1.296049999999999898e+02	1.394735965088000018e+00
1.301209999999999809e+02	1.370965219935999846e+00
1.306400000000000148e+02	1.346103079631999933e+00
1.311640000000000157e+02	1.320254238659999801e+00
1.316920000000000073e+02	1.293549159240000135e+00
1.322240000000000180e+02	1.266096993986000063e+00
1.327609999999999957e+02	1.238029783231999970e+00
1.333019999999999925e+02	1.209459117129999983e+00
1.338469999999999800e+02	1.180503341290000119e+00
1.343969999999999914e+02	1.151279455871999868e+00
1.349519999999999982e+02	1.121890327560000067e+00
1.355109999999999957e+02	1.092440154072000125e+00
1.360740000000000123e+02	1.063024684099999950e+00
1.366430000000000007e+02	1.033734147839999951e+00
1.372160000000000082e+02	1.004649309935999879e+00
1.377940000000000111e+02	9.758409236400000797e-01
1.383770000000000095e+02	9.473770535039999219e-01
1.389650000000000034e+02	9.193184284479999357e-01
1.395569999999999879e+02	8.917196600839999432e-01
1.401550000000000011e+02	8.646181062480000623e-01
1.407579999999999814e+02	8.380588665999999520e-01
1.413669999999999902e+02	8.120703356480000190e-01
1.419799999999999898e+02	7.866853754039999647e-01
1.425989999999999895e+02	7.619159157120000136e-01
1.432229999999999848e+02	7.377839290520000759e-01
1.438530000000000086e+02	7.143024641399999819e-01
1.444890000000000043e+02	6.914732461779999895e-01
1.451299999999999955e+02	6.693073273980000293e-01
1.457759999999999820e+02	6.477965911280000322e-01
1.464290000000000020e+02	6.269504295960000029e-01
1.470869999999999891e+02	6.067555158419999373e-01
1.477510000000000048e+02	5.872051716959999501e-01
1.484219999999999970e+02	5.682952350400000130e-01
1.490980000000000132e+02	5.500139498699999629e-01
1.497810000000000059e+02	5.323464357119999102e-01
1.504699999999999989e+02	5.152826570779999171e-01
1.511649999999999920e+02	4.988101737919999890e-01
1.518669999999999902e+02	4.829114300320000441e-01
1.525749999999999886e+02	4.675729798440000362e-01
1.532900000000000205e+02	4.527775563360000310e-01
1.540120000000000005e+02	4.385139527999999398e-01
1.547399999999999807e+02	4.247608472639999855e-01
1.554759999999999991e+02	4.115074259520000166e-01
1.562179999999999893e+02	3.987320442419999833e-01
1.569679999999999893e+02	3.864230900639999966e-01
1.577249999999999943e+02	3.745623019000000054e-01
1.584890000000000043e+02	3.631380915360000183e-01
1.592600000000000193e+02	3.521322592980000166e-01
1.600389999999999873e+02	3.415297589399999834e-01
1.608259999999999934e+02	3.313158087060000256e-01
1.616209999999999809e+02	3.214783748339999914e-01
1.624230000000000018e+02	3.120028000000000246e-01
1.632339999999999804e+02	3.028741075839999630e-01
1.640519999999999925e+02	2.940808681600000085e-01
1.648789999999999907e+02	2.856080883200000087e-01
1.657139999999999986e+02	2.774475825000000118e-01
1.665580000000000211e+02	2.695816141000000332e-01
1.674099999999999966e+02	2.620050634079999496e-01
1.682719999999999914e+02	2.547003670160000177e-01
1.691419999999999959e+02	2.476627118600000232e-01
1.700210000000000150e+02	2.408777781520000105e-01
1.709089999999999918e+02	2.343375060600000059e-01
1.718069999999999879e+02	2.280308342419999634e-01
1.727139999999999986e+02	2.219534969999999996e-01
1.736299999999999955e+02	2.160878545080000268e-01
1.745569999999999879e+02	2.104328480800000123e-01
1.754930000000000234e+02	2.049776901120000105e-01
1.764400000000000261e+02	1.997115477840000208e-01
1.773959999999999866e+02	1.946334985979999987e-01
1.783640000000000043e+02	1.897295191619999821e-01
1.793420000000000130e+02	1.849957157719999967e-01
1.803299999999999841e+02	1.804276393920000165e-01
1.813299999999999841e+02	1.760150055180000062e-01
1.823400000000000034e+02	1.717538174319999944e-01
1.833619999999999948e+02	1.676367352160000046e-01
1.843960000000000150e+02	1.636599573599999968e-01
1.854410000000000025e+02	1.598163463360000036e-01
1.864979999999999905e+02	1.560987223099999932e-01
1.875680000000000121e+02	1.525066468640000061e-01
1.886490000000000009e+02	1.490329187459999982e-01
1.897439999999999998e+02	1.456738208200000217e-01
1.908509999999999991e+02	1.424255707400000071e-01
1.919710000000000036e+02	1.392814700200000200e-01
1.931039999999999850e+02	1.362376286039999884e-01
1.942500000000000000e+02	1.332904584419999927e-01
1.954110000000000014e+02	1.304394249679999840e-01
1.965850000000000080e+02	1.276777858160000056e-01
1.977729999999999961e+02	1.250019498899999915e-01
1.989759999999999991e+02	1.224115343360000080e-01
2.001940000000000168e+02	1.198998105679999898e-01
2.014269999999999925e+02	1.174632682959999841e-01
2.026749999999999829e+02	1.151045267720000043e-01
2.039380000000000166e+02	1.128171666059999967e-01
2.052170000000000130e+02	1.105975203000000157e-01
2.065130000000000052e+02	1.084453894679999891e-01
2.078250000000000171e+02	1.063572222000000039e-01
2.091539999999999964e+02	1.043327721119999968e-01
2.104989999999999952e+02	1.023685283999999918e-01
2.118629999999999995e+02	1.004672642399999927e-01
2.132439999999999998e+02	9.862244176399999340e-02
2.146430000000000007e+02	9.683996994000000635e-02
2.160610000000000070e+02	9.511639130000000553e-02
2.174969999999999857e+02	9.345436533999999795e-02
2.189530000000000030e+02	9.185964642400000491e-02
2.204280000000000257e+02	9.033498436799999864e-02
2.219230000000000018e+02	8.888591079999999534e-02
2.234389999999999930e+02	8.752719456400000209e-02
2.249759999999999991e+02	8.626741632000001214e-02
2.265340000000000202e+02	8.512712830599999947e-02
2.281129999999999995e+02	8.413290393600000860e-02
2.297150000000000034e+02	8.331103886400000047e-02
2.313400000000000034e+02	8.270574904000001226e-02
2.329869999999999948e+02	8.236707024600001259e-02
2.346590000000000202e+02	8.236267457599999453e-02
2.363540000000000134e+02	8.276901450400001026e-02
2.380740000000000123e+02	8.369210514000000045e-02
2.398190000000000168e+02	8.524051509600000243e-02
2.415900000000000034e+02	8.755880317599999685e-02
2.433880000000000052e+02	9.078566194600000416e-02
2.452120000000000175e+02	9.506693171999999747e-02
2.470639999999999930e+02	1.005207860800000075e-01
2.489439999999999884e+02	1.071864562999999965e-01
2.508529999999999802e+02	1.149840547919999956e-01
2.527920000000000300e+02	1.236503730959999936e-01
2.547599999999999909e+02	1.327036164020000131e-01
2.567599999999999909e+02	1.414671236760000061e-01
2.587909999999999968e+02	1.491777662399999815e-01
2.608550000000000182e+02	1.551660400639999771e-01
2.629509999999999650e+02	1.590198396799999969e-01
2.650819999999999936e+02	1.606619430779999969e-01
2.672479999999999905e+02	1.603123289499999993e-01
2.694490000000000123e+02	1.583931187400000051e-01
2.716870000000000118e+02	1.553844963179999983e-01
2.739619999999999891e+02	1.517271141120000166e-01
2.762760000000000105e+02	1.477906187519999748e-01
2.786290000000000191e+02	1.438461368720000133e-01
2.810219999999999914e+02	1.400784526000000141e-01
2.834569999999999936e+02	1.366089283800000220e-01
2.859350000000000023e+02	1.335154937799999941e-01
2.884560000000000173e+02	1.308391414800000041e-01
2.910219999999999914e+02	1.286046084340000117e-01
2.936340000000000146e+02	1.268208691199999849e-01
2.962939999999999827e+02	1.254991872520000162e-01
2.990020000000000095e+02	1.246413802579999924e-01
3.017599999999999909e+02	1.242521618800000172e-01
3.045699999999999932e+02	1.243419631999999886e-01
3.074319999999999595e+02	1.249215781160000066e-01
3.103480000000000132e+02	1.260049079479999834e-01
3.133210000000000264e+02	1.276063836319999978e-01
3.163509999999999991e+02	1.297410812400000002e-01
3.194399999999999977e+02	1.324071227039999854e-01
3.225899999999999750e+02	1.356041263320000023e-01
3.258029999999999973e+02	1.392941320520000026e-01
3.290799999999999841e+02	1.433987981400000056e-01
3.324239999999999782e+02	1.477785143679999913e-01
3.358369999999999891e+02	1.521946876139999849e-01
3.393199999999999932e+02	1.562835193919999976e-01
3.428770000000000095e+02	1.595480001839999773e-01
3.465079999999999814e+02	1.613578634079999852e-01
3.502179999999999609e+02	1.610337630840000256e-01
3.540079999999999814e+02	1.579881638820000156e-01
3.578810000000000286e+02	1.519081742360000042e-01
3.618389999999999986e+02	1.429316813999999825e-01
3.658859999999999673e+02	1.316698431040000117e-01
3.700249999999999773e+02	1.190581426300000023e-01
3.742579999999999814e+02	1.061133456599999969e-01
3.785889999999999986e+02	9.369910150800001003e-02
3.830219999999999914e+02	8.240517599999999665e-02
3.875600000000000023e+02	7.252470207000000224e-02
3.922060000000000173e+02	6.412979319999999317e-02
3.969650000000000318e+02	5.714111304600000274e-02
4.018419999999999845e+02	5.140722655199999463e-02
4.068389999999999986e+02	4.674058823999999862e-02
4.119619999999999891e+02	4.296190304800000248e-02
4.172159999999999513e+02	3.991006492600000094e-02
4.226059999999999945e+02	3.743649676799999659e-02
4.281370000000000005e+02	3.542346943199999737e-02
4.338149999999999977e+02	3.377509830000000046e-02
4.396449999999999818e+02	3.240794337000000441e-02
4.456339999999999577e+02	3.126334971200000340e-02
4.517880000000000109e+02	3.028888083999999731e-02
4.581150000000000091e+02	2.944757813399999716e-02
4.646209999999999809e+02	2.870559471599999982e-02
4.713149999999999977e+02	2.804139038799999956e-02
4.782049999999999841e+02	2.743347480799999960e-02
4.852989999999999782e+02	2.687256701399999906e-02
4.926070000000000277e+02	2.634338160000000359e-02
5.001379999999999768e+02	2.583970659000000419e-02
5.079030000000000200e+02	2.535540585600000105e-02
5.159130000000000109e+02	2.488736175200000067e-02
5.241799999999999500e+02	2.442945544599999658e-02
5.327150000000000318e+02	2.398160968999999559e-02
5.415339999999999918e+02	2.353774644000000346e-02
5.506490000000000009e+02	2.310081248999999726e-02
5.600769999999999982e+02	2.267075927999999754e-02
5.698330000000000837e+02	2.224152960599999618e-02
5.799339999999999691e+02	2.181609099000000190e-02
5.904009999999999536e+02	2.139440405200000034e-02
