3.260000000000000000e+02	1.399999999999999911e+00
3.350000000000000000e+02	1.449999999999999956e+00
3.440000000000000000e+02	1.500000000000000000e+00
3.540000000000000000e+02	1.550000000000000044e+00
3.650000000000000000e+02	1.610000000000000098e+00
3.760000000000000000e+02	1.659999999999999920e+00
3.870000000000000000e+02	1.719999999999999973e+00
4.000000000000000000e+02	1.780000000000000027e+00
4.130000000000000000e+02	1.840000000000000080e+00
4.280000000000000000e+02	1.899999999999999911e+00
4.430000000000000000e+02	1.989999999999999991e+00
4.590000000000000000e+02	2.080000000000000071e+00
4.770000000000000000e+02	2.189999999999999947e+00
4.960000000000000000e+02	2.330000000000000071e+00
5.170000000000000000e+02	2.430000000000000160e+00
5.390000000000000000e+02	2.580000000000000071e+00
5.640000000000000000e+02	2.689999999999999947e+00
5.900000000000000000e+02	2.859999999999999876e+00
6.200000000000000000e+02	3.040000000000000036e+00
6.530000000000000000e+02	3.220000000000000195e+00
6.890000000000000000e+02	3.419999999999999929e+00
7.290000000000000000e+02	3.620000000000000107e+00
7.750000000000000000e+02	3.879999999999999893e+00
8.270000000000000000e+02	4.139999999999999680e+00
8.860000000000000000e+02	4.429999999999999716e+00
9.540000000000000000e+02	4.809999999999999609e+00
1.033000000000000000e+03	5.200000000000000178e+00
1.127000000000000000e+03	5.700000000000000178e+00
1.240000000000000000e+03	6.280000000000000249e+00
1.378000000000000000e+03	6.980000000000000426e+00
1.550000000000000000e+03	7.870000000000000107e+00
1.771000000000000000e+03	8.990000000000000213e+00
2.066000000000000000e+03	1.050000000000000000e+01
