6.670000000000000000e+02	3.591222000000000136e+00
7.140000000000000000e+02	3.541708799999999879e+00
7.690000000000000000e+02	3.426628899999999867e+00
8.330000000000000000e+02	3.299162700000000115e+00
9.090000000000000000e+02	3.495641800000000021e+00
1.000000000000000000e+03	3.996829899999999824e+00
1.050000000000000000e+03	4.324523499999999743e+00
1.110000000000000000e+03	4.713600099999999848e+00
1.180000000000000000e+03	5.148628900000000286e+00
1.250000000000000000e+03	5.623039399999999688e+00
1.330000000000000000e+03	6.175106600000000334e+00
1.430000000000000000e+03	6.799380400000000435e+00
1.540000000000000000e+03	7.492662900000000015e+00
1.670000000000000000e+03	8.283845299999999412e+00
1.820000000000000000e+03	9.251340199999999570e+00
2.000000000000000000e+03	1.039653500000000008e+01
2.110000000000000000e+03	1.106412000000000084e+01
2.220000000000000000e+03	1.182131399999999921e+01
2.350000000000000000e+03	1.266766900000000007e+01
2.500000000000000000e+03	1.360709499999999927e+01
2.670000000000000000e+03	1.465414200000000022e+01
2.860000000000000000e+03	1.582883700000000005e+01
3.080000000000000000e+03	1.717719599999999858e+01
3.330000000000000000e+03	1.876945200000000114e+01
3.640000000000000000e+03	2.064978299999999933e+01
4.000000000000000000e+03	2.285078899999999891e+01
4.440000000000000000e+03	2.550016600000000011e+01
5.000000000000000000e+03	2.878889799999999966e+01
5.710000000000000000e+03	3.292613999999999663e+01
6.670000000000000000e+03	3.827560799999999830e+01
8.000000000000000000e+03	4.552309999999999945e+01
1.000000000000000000e+04	5.582281499999999852e+01
1.110000000000000000e+04	6.109415200000000112e+01
1.250000000000000000e+04	6.754946200000000545e+01
1.430000000000000000e+04	7.501077300000000037e+01
1.670000000000000000e+04	8.412279300000000148e+01
2.000000000000000000e+04	9.565935500000000502e+01
2.220000000000000000e+04	1.026674100000000038e+02
2.500000000000000000e+04	1.107900000000000063e+02
2.860000000000000000e+04	1.203519900000000007e+02
3.330000000000000000e+04	1.318154499999999985e+02
4.000000000000000000e+04	1.458398799999999937e+02
4.440000000000000000e+04	1.540861600000000067e+02
5.000000000000000000e+04	1.633257700000000057e+02
5.710000000000000000e+04	1.736533399999999858e+02
6.670000000000000000e+04	1.863964799999999968e+02
8.000000000000000000e+04	2.029117500000000121e+02
1.000000000000000000e+05	2.247448500000000138e+02
1.250000000000000000e+05	2.488850099999999941e+02
1.540000000000000000e+05	2.761872000000000185e+02
