108.8	0.7492
110.7	0.64288
112.7	0.50342
114.8	0.32885
117	0.12906
119.2	-0.03828
121.6	-0.20556
124	-0.38127
126.5	-0.56228
129.1	-0.75455
131.9	-0.94687
134.8	-1.1136
137.8	-1.3438
140.9	-1.5695
144.2	-1.7989
147.6	-2.0306
151.2	-2.2709
155	-2.5237
156.9	-2.6471
159	-2.7706
161	-2.8954
163.1	-3.055
165.3	-3.1149
167.5	-3.1496
169.8	-3.1757
172.2	-3.2594
174.6	-3.3471
177.1	-3.5248
179.7	-3.7007
182.3	-3.8797
185.1	-4.1487
187.9	-4.4108
190.7	-4.6769
193.7	-4.9471
196.8	-5.2681
200	-5.589
203.3	-5.906
206.6	-6.2471
210.1	-6.6363
213.8	-7.039
217.5	-7.4983
221.4	-8.0204
225.4	-8.5481
229.6	-9.1164
233.9	-9.6792
238.4	-10.208
243.1	-10.692
248	-10.973
253	-11.098
258.3	-11.075
263.8	-10.906
269.5	-10.502
275.5	-10.093
281.8	-9.3423
288.3	-8.1915
295.2	-6.54
302.4	-5.0008
310	-3.26
317.9	-2.3184
326.3	-1.7145
335.1	-1.4513
344.4	-1.1951
354.2	-0.9405
364.7	-0.8125
375.7	-0.7488
387.5	-0.8099
400	-1.1875
413.3	-1.4513
427.5	-1.7864
442.8	-2.21
459.2	-2.5232
476.9	-2.6637
495.9	-2.6233
516.6	-1.4003
539.1	1.332
563.6	2.5095
590.4	1.6399
619.9	1.152
652.6	1.1712
688.8	1.6997
729.3	2.4255
774.9	2.5848
826.6	1.5709
885.6	-1.6375
953.7	-6.3147
