108.8	0.802
110.7	0.782
112.7	0.774
114.8	0.791
117	0.835
119.2	0.881
121.6	0.93
124	0.987
126.5	1.05
129.1	1.12
131.9	1.19
134.8	1.25
137.8	1.33
140.9	1.41
144.2	1.49
147.6	1.57
151.2	1.65
155	1.73
156.9	1.77
159	1.81
161	1.85
163.1	1.9
165.3	1.93
167.5	1.95
169.8	1.96
172.2	1.98
174.6	2
177.1	2.04
179.7	2.08
182.3	2.12
185.1	2.18
187.9	2.24
190.7	2.3
193.7	2.36
196.8	2.43
200	2.5
203.3	2.57
206.6	2.64
210.1	2.72
213.8	2.8
217.5	2.89
221.4	2.99
225.4	3.09
229.6	3.2
233.9	3.31
238.4	3.42
243.1	3.53
248	3.62
253	3.7
258.3	3.76
263.8	3.81
269.5	3.84
275.5	3.87
281.8	3.88
288.3	3.86
295.2	3.77
302.4	3.67
310	3.51
317.9	3.4
326.3	3.31
335.1	3.27
344.4	3.24
354.2	3.21
364.7	3.19
375.7	3.18
387.5	3.18
400	3.22
413.3	3.27
427.5	3.33
442.8	3.42
459.2	3.51
476.9	3.61
495.9	3.73
516.6	3.78
539.1	3.61
563.6	3.41
590.4	3.45
619.9	3.52
652.6	3.58
688.8	3.58
729.3	3.51
774.9	3.41
826.6	3.3
885.6	3.4
953.7	3.74
