7.700000000000000000e+01	4.700000000000000011e-02
7.800000000000000000e+01	5.199999999999999761e-02
7.900000000000000000e+01	5.999999999999999778e-02
8.000000000000000000e+01	7.499999999999999722e-02
8.100000000000000000e+01	9.299999999999999933e-02
8.200000000000000000e+01	1.199999999999999956e-01
8.260000000000000853e+01	1.380000000000000115e-01
8.350000000000000000e+01	1.799999999999999933e-01
8.679999999999999716e+01	3.900000000000000133e-01
9.200000000000000000e+01	5.600000000000000533e-01
9.640000000000000568e+01	6.800000000000000488e-01
1.048000000000000114e+02	8.800000000000000044e-01
1.135000000000000000e+02	9.699999999999999734e-01
