7.700000000000000000e+01	3.669999999999999929e-01
7.800000000000000000e+01	3.390000000000000235e-01
7.900000000000000000e+01	3.019999999999999907e-01
8.000000000000000000e+01	2.550000000000000044e-01
8.100000000000000000e+01	2.069999999999999896e-01
8.200000000000000000e+01	1.610000000000000042e-01
8.260000000000000853e+01	1.150000000000000050e-01
8.350000000000000000e+01	9.199999999999999845e-02
8.679999999999999716e+01	5.299999999999999850e-02
9.200000000000000000e+01	4.399999999999999745e-02
9.640000000000000568e+01	3.799999999999999906e-02
1.048000000000000114e+02	3.099999999999999978e-02
1.135000000000000000e+02	2.599999999999999881e-02
