2.360000000000000320e+00	9.921095999999999249e-01	4.880644999999999428e-03
3.160000000000000142e+00	9.902891034999999897e-01	7.582966800000000285e-03
4.469999999999999751e+00	9.854501264999999677e-01	1.572484320000000144e-02
6.760000000000000675e+00	9.725972499999998577e-01	2.722187999999999691e-02
1.140000000000000036e+01	9.066932700000001066e-01	3.676264000000000615e-02
1.354999999999999893e+01	8.341763700000000004e-01	5.885516000000000358e-02
1.714000000000000057e+01	7.728960000000000274e-01	1.949200000000000099e-01
2.429999999999999716e+01	7.308479999999999421e-01	3.902860000000000218e-01
2.562999999999999901e+01	6.871589999999999643e-01	3.938800000000000079e-01
3.037999999999999901e+01	6.932789999999998676e-01	1.864800000000000069e-01
3.270000000000000284e+01	5.285929999999999795e-01	2.951759999999999939e-01
3.568000000000000682e+01	4.449249999999999594e-01	3.121319999999999650e-01
3.792999999999999972e+01	3.246480000000000476e-01	4.495140000000000802e-01
4.059000000000000341e+01	2.752750000000000474e-01	4.631879999999999886e-01
4.478000000000000114e+01	1.370399999999999952e-01	6.448820000000000663e-01
4.607000000000000028e+01	6.890400000000007630e-02	7.039899999999998936e-01
4.895000000000000284e+01	5.487999999999881862e-03	9.411840000000000206e-01
5.390999999999999659e+01	-5.215600000000009118e-02	1.176000000000000156e+00
5.842999999999999972e+01	-1.591229999999999034e-01	1.459436000000000178e+00
6.162999999999999545e+01	-1.281359999999999166e-01	1.418410000000000171e+00
6.714000000000000057e+01	2.292000000000005144e-02	1.823977999999999877e+00
7.184999999999999432e+01	1.941389999999998395e-01	1.917860000000000120e+00
7.359000000000000341e+01	3.600000000000000977e-01	1.983800000000000230e+00
7.437000000000000455e+01	4.631709999999996663e-01	2.132099999999999884e+00
8.345000000000000284e+01	4.013310000000001043e-01	1.933660000000000156e+00
8.779999999999999716e+01	2.935240000000000071e-01	1.804559999999999942e+00
9.198000000000000398e+01	3.383000000000000451e-01	1.965600000000000236e+00
9.321000000000000796e+01	3.932039999999998869e-01	2.217199999999999616e+00
9.887999999999999545e+01	4.142909999999998538e-01	2.191899999999999515e+00
1.025799999999999983e+02	5.472000000000001307e-01	2.570400000000000240e+00
1.048199999999999932e+02	4.879559999999999453e-01	2.390959999999999752e+00
1.066700000000000017e+02	3.894839999999999414e-01	2.175119999999999720e+00
1.085699999999999932e+02	4.563509999999999511e-01	2.187759999999999927e+00
1.135000000000000000e+02	4.825589999999998492e-01	2.155279999999999863e+00
1.200699999999999932e+02	6.675840000000000662e-01	2.364999999999999769e+00
1.215699999999999932e+02	6.232760000000001632e-01	2.474639999999999951e+00
