2.360000000000000320e+00	2.449999999999999921e-03
3.160000000000000142e+00	3.810000000000000019e-03
4.469999999999999751e+00	7.919999999999999957e-03
6.760000000000000675e+00	1.379999999999999977e-02
1.140000000000000036e+01	1.930000000000000118e-02
1.354999999999999893e+01	3.219999999999999946e-02
1.714000000000000057e+01	1.100000000000000006e-01
2.429999999999999716e+01	2.210000000000000020e-01
2.562999999999999901e+01	2.290000000000000091e-01
3.037999999999999901e+01	1.110000000000000014e-01
3.270000000000000284e+01	1.960000000000000075e-01
3.568000000000000682e+01	2.220000000000000029e-01
3.792999999999999972e+01	3.390000000000000235e-01
4.059000000000000341e+01	3.629999999999999893e-01
4.478000000000000114e+01	5.110000000000000098e-01
4.607000000000000028e+01	5.649999999999999467e-01
4.895000000000000284e+01	6.840000000000000524e-01
5.390999999999999659e+01	7.840000000000000302e-01
5.842999999999999972e+01	9.020000000000000240e-01
6.162999999999999545e+01	8.810000000000000053e-01
6.714000000000000057e+01	9.489999999999999547e-01
7.184999999999999432e+01	9.310000000000000497e-01
7.359000000000000341e+01	9.100000000000000311e-01
7.437000000000000455e+01	9.270000000000000462e-01
8.345000000000000284e+01	8.870000000000000107e-01
8.779999999999999716e+01	8.760000000000000009e-01
9.198000000000000398e+01	9.100000000000000311e-01
9.321000000000000796e+01	9.639999999999999680e-01
9.887999999999999545e+01	9.529999999999999583e-01
1.025799999999999983e+02	1.020000000000000018e+00
1.048199999999999932e+02	9.879999999999999893e-01
1.066700000000000017e+02	9.539999999999999591e-01
1.085699999999999932e+02	9.429999999999999494e-01
1.135000000000000000e+02	9.290000000000000480e-01
1.200699999999999932e+02	9.459999999999999520e-01
1.215699999999999932e+02	9.819999999999999840e-01
