2.065999999999999943e+02	1.010000000000000009e+00	2.908999999999999808e+00
2.101000000000000227e+02	1.082999999999999963e+00	2.982000000000000206e+00
2.137999999999999829e+02	1.133000000000000007e+00	3.044999999999999929e+00
2.175000000000000000e+02	1.185999999999999943e+00	3.120000000000000107e+00
2.214000000000000057e+02	1.247000000000000108e+00	3.205999999999999961e+00
2.253999999999999773e+02	1.340000000000000080e+00	3.302000000000000046e+00
2.295999999999999943e+02	1.471000000000000085e+00	3.366000000000000103e+00
2.339000000000000057e+02	1.578999999999999959e+00	3.353000000000000203e+00
2.384000000000000057e+02	1.588999999999999968e+00	3.354000000000000092e+00
2.431000000000000227e+02	1.570999999999999952e+00	3.428999999999999826e+00
2.480000000000000000e+02	1.570000000000000062e+00	3.564999999999999947e+00
2.530000000000000000e+02	1.596999999999999975e+00	3.749000000000000110e+00
2.582999999999999545e+02	1.657999999999999918e+00	3.979000000000000092e+00
2.637999999999999545e+02	1.764000000000000012e+00	4.277999999999999581e+00
2.695000000000000000e+02	1.987999999999999989e+00	4.677999999999999936e+00
2.755000000000000000e+02	2.451999999999999957e+00	5.081999999999999851e+00
2.818000000000000114e+02	3.120000000000000107e+00	5.344000000000000306e+00
2.883000000000000114e+02	4.086999999999999744e+00	5.394999999999999574e+00
2.952000000000000455e+02	4.887999999999999901e+00	4.639000000000000234e+00
3.023999999999999773e+02	5.019999999999999574e+00	3.979000000000000092e+00
3.100000000000000000e+02	5.009999999999999787e+00	3.585999999999999854e+00
3.179000000000000341e+02	5.016000000000000014e+00	3.346000000000000085e+00
3.262999999999999545e+02	5.065000000000000391e+00	3.181999999999999940e+00
3.351000000000000227e+02	5.155999999999999694e+00	3.057999999999999829e+00
3.443999999999999773e+02	5.296000000000000263e+00	2.987000000000000099e+00
3.541999999999999886e+02	5.610000000000000320e+00	3.013999999999999790e+00
3.647000000000000455e+02	6.522000000000000242e+00	2.705000000000000071e+00
3.756999999999999886e+02	6.708999999999999631e+00	1.320000000000000062e+00
3.875000000000000000e+02	6.062000000000000277e+00	6.300000000000000044e-01
3.998999999999999773e+02	5.570000000000000284e+00	3.870000000000000107e-01
4.133000000000000114e+02	5.222000000000000419e+00	2.690000000000000169e-01
4.275000000000000000e+02	4.961000000000000298e+00	2.030000000000000138e-01
4.428000000000000114e+02	4.753000000000000114e+00	1.630000000000000060e-01
4.591999999999999886e+02	4.583000000000000185e+00	1.300000000000000044e-01
4.768999999999999773e+02	4.442000000000000171e+00	8.999999999999999667e-02
4.959000000000000341e+02	4.320000000000000284e+00	7.299999999999999545e-02
5.165999999999999091e+02	4.214999999999999858e+00	5.999999999999999778e-02
5.391000000000000227e+02	4.123000000000000220e+00	4.800000000000000100e-02
5.636000000000000227e+02	4.041999999999999815e+00	3.200000000000000067e-02
5.904000000000000909e+02	3.968999999999999861e+00	2.999999999999999889e-02
6.198999999999999773e+02	3.906000000000000139e+00	2.199999999999999872e-02
6.525000000000000000e+02	3.846999999999999975e+00	1.600000000000000033e-02
6.887999999999999545e+02	3.795999999999999819e+00	1.299999999999999940e-02
7.292999999999999545e+02	3.751999999999999780e+00	1.000000000000000021e-02
7.748999999999999773e+02	3.713999999999999968e+00	8.000000000000000167e-03
8.266000000000000227e+02	3.673000000000000043e+00	5.000000000000000104e-03
