4.429999999999999716e+01	8.344000000000000306e-01	1.640000000000000069e-01
4.510000000000000142e+01	8.367999999999999883e-01	1.729999999999999871e-01
4.590000000000000568e+01	8.373000000000000442e-01	1.829999999999999960e-01
4.680000000000000426e+01	8.377000000000000002e-01	1.950000000000000067e-01
4.770000000000000284e+01	8.383000000000000451e-01	2.079999999999999905e-01
4.859999999999999432e+01	8.404000000000000359e-01	2.230000000000000038e-01
4.960000000000000142e+01	8.471999999999999531e-01	2.399999999999999911e-01
5.060000000000000142e+01	8.551999999999999602e-01	2.500000000000000000e-01
5.170000000000000284e+01	8.605000000000000426e-01	2.590000000000000080e-01
5.279999999999999716e+01	8.625000000000000444e-01	2.680000000000000160e-01
5.390000000000000568e+01	8.616000000000000325e-01	2.790000000000000258e-01
5.510000000000000142e+01	8.608999999999999986e-01	2.969999999999999862e-01
5.639999999999999858e+01	8.641999999999999682e-01	3.190000000000000058e-01
5.770000000000000284e+01	8.691999999999999726e-01	3.400000000000000244e-01
5.900000000000000000e+01	8.776000000000000467e-01	3.659999999999999920e-01
6.050000000000000000e+01	8.930000000000000160e-01	3.920000000000000151e-01
6.200000000000000000e+01	9.103999999999999870e-01	4.159999999999999809e-01
6.360000000000000142e+01	9.308999999999999497e-01	4.400000000000000022e-01
6.529999999999999716e+01	9.536999999999999922e-01	4.640000000000000235e-01
6.700000000000000000e+01	9.818999999999999950e-01	4.919999999999999929e-01
6.890000000000000568e+01	1.023300000000000098e+00	5.170000000000000151e-01
7.079999999999999716e+01	1.067299999999999915e+00	5.280000000000000249e-01
7.290000000000000568e+01	1.112000000000000099e+00	5.330000000000000293e-01
7.380000000000001137e+01	1.131299999999999972e+00	5.340000000000000302e-01
7.509999999999999432e+01	1.157499999999999973e+00	5.310000000000000275e-01
7.750000000000000000e+01	1.200399999999999912e+00	5.240000000000000213e-01
8.000000000000000000e+01	1.238399999999999945e+00	5.100000000000000089e-01
8.269999999999998863e+01	1.273200000000000109e+00	5.000000000000000000e-01
8.550000000000000000e+01	1.321600000000000108e+00	4.989999999999999991e-01
8.859999999999999432e+01	1.389599999999999946e+00	4.680000000000000271e-01
9.180000000000001137e+01	1.416400000000000103e+00	3.800000000000000044e-01
9.300000000000000000e+01	1.409100000000000019e+00	3.599999999999999867e-01
9.540000000000000568e+01	1.400600000000000067e+00	3.390000000000000235e-01
9.920000000000000284e+01	1.401699999999999946e+00	3.180000000000000049e-01
1.032999999999999972e+02	1.409299999999999997e+00	2.909999999999999809e-01
1.078000000000000114e+02	1.402199999999999891e+00	2.510000000000000009e-01
1.100000000000000000e+02	1.392400000000000082e+00	2.439999999999999947e-01
1.126999999999999886e+02	1.384200000000000097e+00	2.389999999999999902e-01
1.140000000000000000e+02	1.380700000000000038e+00	2.389999999999999902e-01
1.180999999999999943e+02	1.381899999999999906e+00	2.439999999999999947e-01
1.210000000000000000e+02	1.396300000000000097e+00	2.469999999999999973e-01
1.240000000000000000e+02	1.409200000000000008e+00	2.240000000000000047e-01
1.272000000000000028e+02	1.402600000000000069e+00	1.950000000000000067e-01
1.295000000000000000e+02	1.380100000000000104e+00	1.739999999999999880e-01
1.305000000000000000e+02	1.362999999999999989e+00	1.719999999999999862e-01
1.318999999999999773e+02	1.341399999999999926e+00	1.799999999999999933e-01
1.333000000000000114e+02	1.323800000000000088e+00	1.940000000000000058e-01
1.348000000000000114e+02	1.306000000000000050e+00	2.129999999999999949e-01
1.361999999999999886e+02	1.290499999999999980e+00	2.429999999999999938e-01
1.370000000000000000e+02	1.288899999999999935e+00	2.710000000000000187e-01
1.378000000000000114e+02	1.289299999999999891e+00	2.889999999999999791e-01
1.386999999999999886e+02	1.301900000000000057e+00	3.340000000000000191e-01
1.393000000000000114e+02	1.320300000000000029e+00	3.439999999999999725e-01
1.409000000000000057e+02	1.362999999999999989e+00	3.820000000000000062e-01
1.425000000000000000e+02	1.418700000000000072e+00	4.010000000000000231e-01
1.435000000000000000e+02	1.458299999999999930e+00	4.064999999999999725e-01
1.441999999999999886e+02	1.490299999999999958e+00	4.050000000000000266e-01
1.450000000000000000e+02	1.521300000000000097e+00	3.890000000000000124e-01
1.459000000000000057e+02	1.553800000000000070e+00	3.770000000000000018e-01
1.468000000000000114e+02	1.577800000000000091e+00	3.449999999999999734e-01
1.476000000000000227e+02	1.596400000000000041e+00	3.320000000000000173e-01
1.480000000000000000e+02	1.606500000000000039e+00	3.150000000000000022e-01
1.485000000000000000e+02	1.611699999999999910e+00	2.979999999999999871e-01
1.494000000000000057e+02	1.619199999999999973e+00	2.740000000000000213e-01
1.511999999999999886e+02	1.625199999999999978e+00	2.280000000000000082e-01
1.531000000000000227e+02	1.633999999999999897e+00	1.980000000000000093e-01
1.540000000000000000e+02	1.636900000000000022e+00	1.719999999999999862e-01
1.550000000000000000e+02	1.638300000000000090e+00	1.559999999999999998e-01
1.569000000000000057e+02	1.637199999999999989e+00	1.100000000000000006e-01
1.580000000000000000e+02	1.632300000000000084e+00	8.300000000000000433e-02
1.589000000000000057e+02	1.622200000000000086e+00	5.800000000000000294e-02
1.610000000000000000e+02	1.582699999999999996e+00	2.199999999999999872e-02
1.625000000000000000e+02	1.556400000000000006e+00	1.000000000000000021e-02
1.648000000000000114e+02	1.524499999999999966e+00	3.000000000000000062e-03
1.669000000000000057e+02	1.503200000000000092e+00	1.000000000000000021e-03
1.691999999999999886e+02	1.485000000000000098e+00	2.999999999999999737e-04
1.713000000000000114e+02	1.472299999999999942e+00	1.100000000000000039e-04
1.736999999999999886e+02	1.459899999999999975e+00	3.000000000000000076e-05
1.756999999999999886e+02	1.451100000000000056e+00	1.000000000000000082e-05
1.779000000000000057e+02	1.442700000000000093e+00	3.000000000000000076e-06
1.801999999999999886e+02	1.435000000000000053e+00	9.999999999999999547e-07
1.809000000000000057e+02	1.432800000000000074e+00	6.999999999999999683e-07
1.821000000000000227e+02	1.429200000000000026e+00	3.999999999999999819e-07
1.832999999999999829e+02	1.425999999999999934e+00	1.999999999999999909e-07
1.842999999999999829e+02	1.423200000000000021e+00	9.999999999999999547e-08
1.850000000000000000e+02	1.421399999999999997e+00	6.376999999999999465e-08
1.860000000000000000e+02	1.419000000000000039e+00	3.749999999999999830e-08
1.870000000000000000e+02	1.416600000000000081e+00	2.799999999999999926e-08
1.880000000000000000e+02	1.414299999999999891e+00	2.399999999999999984e-08
1.890000000000000000e+02	1.412199999999999900e+00	2.199999999999999848e-08
1.900000000000000000e+02	1.410099999999999909e+00	1.900000000000000139e-08
1.910000000000000000e+02	1.408099999999999907e+00	1.750000000000000119e-08
1.930000000000000000e+02	1.404199999999999893e+00	1.640000000000000127e-08
1.950000000000000000e+02	1.400700000000000056e+00	1.590000000000000010e-08
2.100000000000000000e+02	1.379999999999999893e+00	1.324999999999999953e-08
2.500000000000000000e+02	1.350899999999999990e+00	8.623000000000000518e-09
3.000000000000000000e+02	1.333900000000000086e+00	5.504000000000000019e-09
3.500000000000000000e+02	1.324899999999999967e+00	3.765000000000000130e-09
4.000000000000000000e+02	1.319399999999999906e+00	2.709999999999999948e-09
4.100000000000000000e+02	1.318500000000000005e+00	2.509999999999999811e-09
4.200000000000000000e+02	1.317700000000000093e+00	2.260000000000000054e-09
4.300000000000000000e+02	1.316999999999999948e+00	2.079999999999999848e-09
4.400000000000000000e+02	1.316300000000000026e+00	1.909999999999999815e-09
4.500000000000000000e+02	1.315700000000000092e+00	1.540000000000000059e-09
4.600000000000000000e+02	1.315099999999999936e+00	1.530000000000000093e-09
4.700000000000000000e+02	1.314500000000000002e+00	1.550000000000000024e-09
4.800000000000000000e+02	1.314000000000000057e+00	1.639999999999999920e-09
4.900000000000000000e+02	1.313499999999999890e+00	1.780000000000000057e-09
5.000000000000000000e+02	1.312999999999999945e+00	1.909999999999999815e-09
5.100000000000000000e+02	1.312599999999999989e+00	2.140000000000000055e-09
5.200000000000000000e+02	1.312200000000000033e+00	2.260000000000000054e-09
5.300000000000000000e+02	1.311800000000000077e+00	2.539999999999999914e-09
5.400000000000000000e+02	1.311399999999999899e+00	2.930000000000000015e-09
5.500000000000000000e+02	1.310999999999999943e+00	3.109999999999999807e-09
5.600000000000000000e+02	1.310599999999999987e+00	3.290000000000000013e-09
5.700000000000000000e+02	1.310300000000000020e+00	3.519999999999999839e-09
5.800000000000000000e+02	1.310000000000000053e+00	4.040000000000000111e-09
5.900000000000000000e+02	1.309700000000000086e+00	4.879999999999999692e-09
6.000000000000000000e+02	1.309399999999999897e+00	5.729999999999999858e-09
6.100000000000000000e+02	1.309099999999999930e+00	6.889999999999999989e-09
6.200000000000000000e+02	1.308799999999999963e+00	8.579999999999999736e-09
6.300000000000000000e+02	1.308499999999999996e+00	1.040000000000000048e-08
6.400000000000000000e+02	1.308300000000000018e+00	1.220000000000000006e-08
6.500000000000000000e+02	1.308000000000000052e+00	1.430000000000000066e-08
6.600000000000000000e+02	1.307800000000000074e+00	1.659999999999999975e-08
6.700000000000000000e+02	1.307600000000000096e+00	1.890000000000000049e-08
6.800000000000000000e+02	1.307299999999999907e+00	2.089999999999999855e-08
6.900000000000000000e+02	1.307099999999999929e+00	2.399999999999999984e-08
7.000000000000000000e+02	1.306899999999999951e+00	2.900000000000000160e-08
7.100000000000000000e+02	1.306699999999999973e+00	3.439999999999999701e-08
7.200000000000000000e+02	1.306499999999999995e+00	4.029999999999999691e-08
7.300000000000000000e+02	1.306200000000000028e+00	4.300000000000000123e-08
7.400000000000000000e+02	1.306000000000000050e+00	4.919999999999999719e-08
7.500000000000000000e+02	1.305800000000000072e+00	5.870000000000000285e-08
7.600000000000000000e+02	1.305700000000000083e+00	7.079999999999999870e-08
7.700000000000000000e+02	1.305500000000000105e+00	8.580000000000000067e-08
7.800000000000000000e+02	1.305299999999999905e+00	1.020000000000000001e-07
7.900000000000000000e+02	1.305099999999999927e+00	1.179999999999999978e-07
8.000000000000000000e+02	1.304899999999999949e+00	1.340000000000000088e-07
8.100000000000000000e+02	1.304699999999999971e+00	1.400000000000000095e-07
8.200000000000000000e+02	1.304499999999999993e+00	1.429999999999999967e-07
8.300000000000000000e+02	1.304400000000000004e+00	1.449999999999999881e-07
8.400000000000000000e+02	1.304200000000000026e+00	1.509999999999999889e-07
8.500000000000000000e+02	1.304000000000000048e+00	1.830000000000000108e-07
8.600000000000000000e+02	1.303800000000000070e+00	2.150000000000000062e-07
8.700000000000000000e+02	1.303700000000000081e+00	2.650000000000000039e-07
8.800000000000000000e+02	1.303500000000000103e+00	3.350000000000000219e-07
8.900000000000000000e+02	1.303299999999999903e+00	3.920000000000000161e-07
9.000000000000000000e+02	1.303199999999999914e+00	4.200000000000000022e-07
9.100000000000000000e+02	1.302999999999999936e+00	4.440000000000000053e-07
9.200000000000000000e+02	1.302799999999999958e+00	4.739999999999999828e-07
9.300000000000000000e+02	1.302699999999999969e+00	5.109999999999999568e-07
9.400000000000000000e+02	1.302499999999999991e+00	5.530000000000000417e-07
9.500000000000000000e+02	1.302300000000000013e+00	6.020000000000000172e-07
9.600000000000000000e+02	1.302200000000000024e+00	7.549999999999999711e-07
9.700000000000000000e+02	1.302000000000000046e+00	9.260000000000000068e-07
9.800000000000000000e+02	1.301800000000000068e+00	1.120000000000000076e-06
9.900000000000000000e+02	1.301700000000000079e+00	1.329999999999999972e-06
1.000000000000000000e+03	1.301500000000000101e+00	1.619999999999999948e-06
1.010000000000000000e+03	1.301299999999999901e+00	1.999999999999999909e-06
1.020000000000000000e+03	1.301199999999999912e+00	2.250000000000000057e-06
1.030000000000000000e+03	1.300999999999999934e+00	2.330000000000000138e-06
1.040000000000000000e+03	1.300799999999999956e+00	2.330000000000000138e-06
1.050000000000000000e+03	1.300599999999999978e+00	2.169999999999999976e-06
1.060000000000000000e+03	1.300499999999999989e+00	1.959999999999999869e-06
1.070000000000000000e+03	1.300300000000000011e+00	1.810000000000000035e-06
1.080000000000000000e+03	1.300100000000000033e+00	1.740000000000000069e-06
1.090000000000000000e+03	1.300000000000000044e+00	1.729999999999999953e-06
1.100000000000000000e+03	1.299800000000000066e+00	1.700000000000000029e-06
1.110000000000000000e+03	1.299600000000000088e+00	1.760000000000000090e-06
1.120000000000000000e+03	1.299500000000000099e+00	1.819999999999999939e-06
1.130000000000000000e+03	1.299299999999999899e+00	2.039999999999999950e-06
1.140000000000000000e+03	1.299099999999999921e+00	2.250000000000000057e-06
1.150000000000000000e+03	1.298899999999999944e+00	2.290000000000000098e-06
1.160000000000000000e+03	1.298699999999999966e+00	3.040000000000000117e-06
1.170000000000000000e+03	1.298499999999999988e+00	3.839999999999999657e-06
1.180000000000000000e+03	1.298399999999999999e+00	4.770000000000000070e-06
1.190000000000000000e+03	1.298200000000000021e+00	5.759999999999999909e-06
1.200000000000000000e+03	1.298000000000000043e+00	6.710000000000000130e-06
1.210000000000000000e+03	1.297800000000000065e+00	8.660000000000000095e-06
1.220000000000000000e+03	1.297600000000000087e+00	1.020000000000000060e-05
1.230000000000000000e+03	1.297400000000000109e+00	1.130000000000000023e-05
1.240000000000000000e+03	1.297199999999999909e+00	1.220000000000000008e-05
1.250000000000000000e+03	1.296999999999999931e+00	1.290000000000000016e-05
1.260000000000000000e+03	1.296899999999999942e+00	1.320000000000000067e-05
1.270000000000000000e+03	1.296699999999999964e+00	1.349999999999999949e-05
1.280000000000000000e+03	1.296499999999999986e+00	1.329999999999999972e-05
1.290000000000000000e+03	1.296300000000000008e+00	1.320000000000000067e-05
1.300000000000000000e+03	1.296100000000000030e+00	1.320000000000000067e-05
1.310000000000000000e+03	1.295800000000000063e+00	1.309999999999999994e-05
1.320000000000000000e+03	1.295600000000000085e+00	1.320000000000000067e-05
1.330000000000000000e+03	1.295400000000000107e+00	1.320000000000000067e-05
1.340000000000000000e+03	1.295199999999999907e+00	1.340000000000000045e-05
1.350000000000000000e+03	1.294999999999999929e+00	1.390000000000000075e-05
1.360000000000000000e+03	1.294799999999999951e+00	1.419999999999999957e-05
1.370000000000000000e+03	1.294499999999999984e+00	1.480000000000000060e-05
1.380000000000000000e+03	1.294300000000000006e+00	1.580000000000000119e-05
1.390000000000000000e+03	1.294100000000000028e+00	1.739999999999999942e-05
1.400000000000000000e+03	1.293800000000000061e+00	1.980000000000000016e-05
1.410000000000000000e+03	1.293600000000000083e+00	2.500000000000000120e-05
1.420000000000000000e+03	1.293299999999999894e+00	5.399999999999999798e-05
1.430000000000000000e+03	1.292999999999999927e+00	1.039999999999999936e-04
1.440000000000000000e+03	1.292699999999999960e+00	2.030000000000000012e-04
1.449000000000000000e+03	1.292499999999999982e+00	2.708000000000000229e-04
1.460000000000000000e+03	1.292300000000000004e+00	3.511000000000000232e-04
1.471000000000000000e+03	1.292100000000000026e+00	4.298999999999999870e-04
1.481000000000000000e+03	1.291900000000000048e+00	5.180999999999999625e-04
1.493000000000000000e+03	1.291700000000000070e+00	5.854999999999999745e-04
1.504000000000000000e+03	1.291500000000000092e+00	5.898999999999999730e-04
1.515000000000000000e+03	1.291299999999999892e+00	5.634999999999999818e-04
1.527000000000000000e+03	1.291099999999999914e+00	5.479999999999999845e-04
1.538000000000000000e+03	1.290799999999999947e+00	5.266000000000000065e-04
1.563000000000000000e+03	1.290300000000000002e+00	4.394000000000000011e-04
1.587000000000000000e+03	1.289600000000000080e+00	3.700999999999999971e-04
1.613000000000000000e+03	1.288899999999999935e+00	3.372000000000000106e-04
1.650000000000000000e+03	1.287800000000000056e+00	2.410000000000000033e-04
1.680000000000000000e+03	1.286899999999999933e+00	1.890000000000000133e-04
1.700000000000000000e+03	1.286200000000000010e+00	1.659999999999999963e-04
1.730000000000000000e+03	1.285199999999999898e+00	1.450000000000000009e-04
1.760000000000000000e+03	1.284100000000000019e+00	1.279999999999999942e-04
1.800000000000000000e+03	1.282599999999999962e+00	1.029999999999999964e-04
1.830000000000000000e+03	1.281400000000000095e+00	8.600000000000000331e-05
1.840000000000000000e+03	1.280899999999999928e+00	8.220000000000000581e-05
1.850000000000000000e+03	1.280499999999999972e+00	8.030000000000000028e-05
1.855000000000000000e+03	1.280200000000000005e+00	8.500000000000000611e-05
1.860000000000000000e+03	1.280000000000000027e+00	9.899999999999999404e-05
1.870000000000000000e+03	1.279500000000000082e+00	1.499999999999999869e-04
1.890000000000000000e+03	1.278499999999999970e+00	2.950000000000000148e-04
1.905000000000000000e+03	1.277700000000000058e+00	4.687000000000000085e-04
1.923000000000000000e+03	1.276899999999999924e+00	7.615000000000000241e-04
1.942000000000000000e+03	1.276100000000000012e+00	1.010000000000000047e-03
1.961000000000000000e+03	1.275400000000000089e+00	1.312999999999999931e-03
1.980000000000000000e+03	1.274699999999999944e+00	1.539000000000000003e-03
2.000000000000000000e+03	1.274000000000000021e+00	1.588000000000000002e-03
2.020000000000000000e+03	1.273300000000000098e+00	1.539999999999999919e-03
2.041000000000000000e+03	1.272399999999999975e+00	1.412000000000000061e-03
2.062000000000000000e+03	1.271400000000000086e+00	1.244000000000000097e-03
2.083000000000000000e+03	1.270299999999999985e+00	1.067999999999999939e-03
2.105000000000000000e+03	1.268999999999999906e+00	8.413999999999999604e-04
2.130000000000000000e+03	1.267400000000000082e+00	5.649999999999999641e-04
2.150000000000000000e+03	1.265900000000000025e+00	4.319999999999999838e-04
2.170000000000000000e+03	1.264399999999999968e+00	3.499999999999999964e-04
2.190000000000000000e+03	1.262799999999999923e+00	2.869999999999999830e-04
2.220000000000000000e+03	1.260399999999999965e+00	2.210000000000000050e-04
2.240000000000000000e+03	1.258599999999999941e+00	2.030000000000000012e-04
2.245000000000000000e+03	1.258199999999999985e+00	2.010000000000000068e-04
2.250000000000000000e+03	1.257700000000000040e+00	2.030000000000000012e-04
2.260000000000000000e+03	1.256699999999999928e+00	2.139999999999999975e-04
2.270000000000000000e+03	1.255800000000000027e+00	2.320000000000000014e-04
2.290000000000000000e+03	1.253800000000000026e+00	2.889999999999999774e-04
2.310000000000000000e+03	1.251800000000000024e+00	3.809999999999999910e-04
2.330000000000000000e+03	1.249700000000000033e+00	4.620000000000000083e-04
2.350000000000000000e+03	1.247500000000000053e+00	5.479999999999999845e-04
2.370000000000000000e+03	1.245100000000000096e+00	6.179999999999999513e-04
2.390000000000000000e+03	1.242699999999999916e+00	6.800000000000000488e-04
2.410000000000000000e+03	1.239999999999999991e+00	7.299999999999999632e-04
2.430000000000000000e+03	1.237300000000000066e+00	7.820000000000000345e-04
2.460000000000000000e+03	1.232699999999999907e+00	8.480000000000000124e-04
2.500000000000000000e+03	1.225800000000000001e+00	9.250000000000000409e-04
2.520000000000000000e+03	1.221999999999999975e+00	9.200000000000000278e-04
2.550000000000000000e+03	1.215500000000000025e+00	8.919999999999999978e-04
2.565000000000000000e+03	1.211799999999999988e+00	8.700000000000000051e-04
2.580000000000000000e+03	1.207899999999999974e+00	8.899999999999999491e-04
2.590000000000000000e+03	1.205100000000000060e+00	9.300000000000000541e-04
2.600000000000000000e+03	1.202099999999999946e+00	1.010000000000000047e-03
2.620000000000000000e+03	1.195699999999999985e+00	1.350000000000000071e-03
2.675000000000000000e+03	1.174099999999999921e+00	3.419999999999999863e-03
2.725000000000000000e+03	1.147299999999999986e+00	7.919999999999999957e-03
2.778000000000000000e+03	1.107699999999999907e+00	2.000000000000000042e-02
2.817000000000000000e+03	1.067399999999999904e+00	3.799999999999999906e-02
2.833000000000000000e+03	1.047600000000000087e+00	5.199999999999999761e-02
2.849000000000000000e+03	1.026499999999999968e+00	6.800000000000000488e-02
2.865000000000000000e+03	1.003600000000000048e+00	9.229999999999999316e-02
2.882000000000000000e+03	9.819999999999999840e-01	1.270000000000000018e-01
2.899000000000000000e+03	9.649999999999999689e-01	1.690000000000000113e-01
2.915000000000000000e+03	9.596000000000000085e-01	2.210000000000000020e-01
2.933000000000000000e+03	9.727000000000000091e-01	2.760000000000000231e-01
2.950000000000000000e+03	9.917000000000000259e-01	3.119999999999999996e-01
2.967000000000000000e+03	1.006699999999999928e+00	3.469999999999999751e-01
2.985000000000000000e+03	1.021900000000000031e+00	3.880000000000000115e-01
3.003000000000000000e+03	1.042699999999999960e+00	4.380000000000000004e-01
3.021000000000000000e+03	1.076000000000000068e+00	4.929999999999999938e-01
3.040000000000000000e+03	1.129499999999999948e+00	5.540000000000000480e-01
3.058000000000000000e+03	1.212699999999999889e+00	6.119999999999999885e-01
3.077000000000000000e+03	1.325099999999999945e+00	6.250000000000000000e-01
3.096000000000000000e+03	1.425999999999999934e+00	5.929999999999999716e-01
3.115000000000000000e+03	1.496599999999999930e+00	5.390000000000000346e-01
3.135000000000000000e+03	1.550999999999999934e+00	4.909999999999999920e-01
3.155000000000000000e+03	1.599900000000000100e+00	4.380000000000000004e-01
3.175000000000000000e+03	1.636300000000000088e+00	3.719999999999999973e-01
3.195000000000000000e+03	1.650199999999999889e+00	2.999999999999999889e-01
3.215000000000000000e+03	1.642800000000000038e+00	2.379999999999999893e-01
3.236000000000000000e+03	1.626900000000000013e+00	1.930000000000000049e-01
3.257000000000000000e+03	1.612800000000000011e+00	1.580000000000000016e-01
3.279000000000000000e+03	1.592400000000000038e+00	1.209999999999999964e-01
3.300000000000000000e+03	1.573299999999999921e+00	1.029999999999999943e-01
3.322000000000000000e+03	1.557700000000000085e+00	8.359999999999999376e-02
3.345000000000000000e+03	1.541299999999999892e+00	6.679999999999999827e-02
3.367000000000000000e+03	1.526499999999999968e+00	5.399999999999999939e-02
3.390000000000000000e+03	1.511400000000000077e+00	4.220000000000000140e-02
3.413000000000000000e+03	1.497300000000000075e+00	3.420000000000000123e-02
3.436000000000000000e+03	1.484499999999999931e+00	2.740000000000000074e-02
3.460000000000000000e+03	1.472099999999999964e+00	2.199999999999999872e-02
3.484000000000000000e+03	1.461200000000000054e+00	1.859999999999999848e-02
3.509000000000000000e+03	1.451300000000000034e+00	1.519999999999999997e-02
3.534000000000000000e+03	1.442099999999999937e+00	1.260000000000000009e-02
3.559000000000000000e+03	1.433699999999999974e+00	1.060000000000000005e-02
3.624000000000000000e+03	1.415499999999999980e+00	8.019999999999999352e-03
3.732000000000000000e+03	1.394200000000000106e+00	6.850000000000000186e-03
3.775000000000000000e+03	1.387299999999999978e+00	6.599999999999999964e-03
3.847000000000000000e+03	1.377299999999999969e+00	6.960000000000000041e-03
3.969000000000000000e+03	1.364500000000000046e+00	9.159999999999999740e-03
4.099000000000000000e+03	1.354100000000000081e+00	1.110000000000000049e-02
4.239000000000000000e+03	1.344600000000000017e+00	1.450000000000000074e-02
4.348000000000000000e+03	1.338799999999999990e+00	2.000000000000000042e-02
4.387000000000000000e+03	1.338100000000000067e+00	2.299999999999999961e-02
4.444000000000000000e+03	1.338500000000000023e+00	2.599999999999999881e-02
4.505000000000000000e+03	1.340500000000000025e+00	2.900000000000000147e-02
4.547000000000000000e+03	1.342899999999999983e+00	2.929999999999999966e-02
4.560000000000000000e+03	1.344200000000000061e+00	2.999999999999999889e-02
4.580000000000000000e+03	1.346300000000000052e+00	2.850000000000000103e-02
4.719000000000000000e+03	1.344200000000000061e+00	1.729999999999999941e-02
4.904000000000000000e+03	1.334500000000000020e+00	1.290000000000000001e-02
5.000000000000000000e+03	1.328999999999999959e+00	1.200000000000000025e-02
5.100000000000000000e+03	1.323299999999999921e+00	1.250000000000000069e-02
5.200000000000000000e+03	1.318000000000000060e+00	1.340000000000000045e-02
5.263000000000000000e+03	1.314300000000000024e+00	1.400000000000000029e-02
5.400000000000000000e+03	1.306200000000000028e+00	1.750000000000000167e-02
5.556000000000000000e+03	1.297199999999999909e+00	2.400000000000000050e-02
5.714000000000000000e+03	1.288999999999999924e+00	3.500000000000000333e-02
5.747000000000000000e+03	1.287300000000000111e+00	3.799999999999999906e-02
5.780000000000000000e+03	1.286000000000000032e+00	4.200000000000000261e-02
5.814000000000000000e+03	1.285099999999999909e+00	4.599999999999999922e-02
5.848000000000000000e+03	1.285400000000000098e+00	5.199999999999999761e-02
5.882000000000000000e+03	1.288100000000000023e+00	5.700000000000000205e-02
6.061000000000000000e+03	1.301600000000000090e+00	6.900000000000000577e-02
6.135000000000000000e+03	1.308999999999999941e+00	7.000000000000000666e-02
6.250000000000000000e+03	1.317199999999999926e+00	6.700000000000000400e-02
6.289000000000000000e+03	1.318899999999999961e+00	6.500000000000000222e-02
6.329000000000000000e+03	1.320400000000000018e+00	6.400000000000000133e-02
6.369000000000000000e+03	1.322000000000000064e+00	6.199999999999999956e-02
6.410000000000000000e+03	1.322400000000000020e+00	5.899999999999999689e-02
6.452000000000000000e+03	1.321499999999999897e+00	5.700000000000000205e-02
6.494000000000000000e+03	1.320400000000000018e+00	5.600000000000000117e-02
6.579000000000000000e+03	1.318100000000000049e+00	5.500000000000000028e-02
6.667000000000000000e+03	1.317099999999999937e+00	5.700000000000000205e-02
6.757000000000000000e+03	1.318100000000000049e+00	5.800000000000000294e-02
6.897000000000000000e+03	1.319499999999999895e+00	5.700000000000000205e-02
7.042000000000000000e+03	1.319299999999999917e+00	5.500000000000000028e-02
7.143000000000000000e+03	1.318999999999999950e+00	5.500000000000000028e-02
7.246000000000000000e+03	1.319099999999999939e+00	5.399999999999999939e-02
7.353000000000000000e+03	1.318000000000000060e+00	5.199999999999999761e-02
7.463000000000000000e+03	1.316300000000000026e+00	5.199999999999999761e-02
7.576000000000000000e+03	1.315399999999999903e+00	5.199999999999999761e-02
7.692000000000000000e+03	1.315399999999999903e+00	5.199999999999999761e-02
7.812000000000000000e+03	1.315499999999999892e+00	5.000000000000000278e-02
7.937000000000000000e+03	1.314500000000000002e+00	4.700000000000000011e-02
8.064999999999999091e+03	1.311900000000000066e+00	4.299999999999999656e-02
8.197000000000000000e+03	1.306799999999999962e+00	3.899999999999999994e-02
8.333000000000000000e+03	1.299299999999999899e+00	3.699999999999999817e-02
8.475000000000000000e+03	1.292499999999999982e+00	3.899999999999999994e-02
8.696000000000000000e+03	1.283900000000000041e+00	4.000000000000000083e-02
8.929000000000000000e+03	1.274000000000000021e+00	4.200000000000000261e-02
9.091000000000000000e+03	1.267200000000000104e+00	4.399999999999999745e-02
9.259000000000000000e+03	1.259900000000000020e+00	4.499999999999999833e-02
9.524000000000000000e+03	1.245100000000000096e+00	4.599999999999999922e-02
9.804000000000000000e+03	1.222399999999999931e+00	4.700000000000000011e-02
1.000000000000000000e+04	1.199100000000000055e+00	5.099999999999999672e-02
1.020000000000000000e+04	1.171499999999999986e+00	6.500000000000000222e-02
1.031000000000000000e+04	1.155299999999999994e+00	7.499999999999999722e-02
1.042000000000000000e+04	1.137000000000000011e+00	8.799999999999999489e-02
1.053000000000000000e+04	1.118100000000000094e+00	1.079999999999999988e-01
1.064000000000000000e+04	1.101299999999999946e+00	1.340000000000000080e-01
1.075000000000000000e+04	1.090799999999999992e+00	1.680000000000000104e-01
1.087000000000000000e+04	1.087299999999999933e+00	2.039999999999999869e-01
1.100000000000000000e+04	1.092500000000000027e+00	2.479999999999999982e-01
1.111000000000000000e+04	1.106500000000000039e+00	2.800000000000000266e-01
1.136000000000000000e+04	1.147799999999999931e+00	3.410000000000000253e-01
1.163000000000000000e+04	1.201999999999999957e+00	3.790000000000000036e-01
1.190000000000000000e+04	1.258199999999999985e+00	4.089999999999999747e-01
1.220000000000000000e+04	1.323099999999999943e+00	4.219999999999999862e-01
1.250000000000000000e+04	1.385699999999999932e+00	4.219999999999999862e-01
1.282000000000000000e+04	1.444800000000000084e+00	4.030000000000000249e-01
1.299000000000000000e+04	1.471700000000000008e+00	3.890000000000000124e-01
1.316000000000000000e+04	1.496199999999999974e+00	3.739999999999999991e-01
1.333000000000000000e+04	1.516499999999999959e+00	3.539999999999999813e-01
1.351000000000000000e+04	1.533300000000000107e+00	3.350000000000000200e-01
1.370000000000000000e+04	1.548999999999999932e+00	3.150000000000000022e-01
1.389000000000000000e+04	1.562799999999999967e+00	2.939999999999999836e-01
1.408000000000000000e+04	1.573199999999999932e+00	2.710000000000000187e-01
1.429000000000000000e+04	1.580300000000000038e+00	2.459999999999999964e-01
1.471000000000000000e+04	1.579199999999999937e+00	1.980000000000000093e-01
1.515000000000000000e+04	1.566699999999999982e+00	1.640000000000000069e-01
1.538000000000000000e+04	1.558699999999999974e+00	1.519999999999999962e-01
1.563000000000000000e+04	1.550799999999999956e+00	1.419999999999999873e-01
1.612999999999999818e+04	1.538100000000000023e+00	1.280000000000000027e-01
1.639000000000000000e+04	1.532999999999999918e+00	1.250000000000000000e-01
1.667000000000000000e+04	1.532200000000000006e+00	1.229999999999999982e-01
1.695000000000000000e+04	1.533400000000000096e+00	1.160000000000000059e-01
1.724000000000000000e+04	1.532899999999999929e+00	1.069999999999999979e-01
1.818000000000000000e+04	1.516999999999999904e+00	7.900000000000000078e-02
1.887000000000000000e+04	1.500999999999999890e+00	7.199999999999999456e-02
1.923000000000000000e+04	1.496799999999999908e+00	7.599999999999999811e-02
1.961000000000000000e+04	1.499300000000000077e+00	7.499999999999999722e-02
2.000000000000000000e+04	1.501500000000000057e+00	6.700000000000000400e-02
2.041000000000000000e+04	1.498599999999999932e+00	5.500000000000000028e-02
2.083000000000000000e+04	1.490499999999999936e+00	4.499999999999999833e-02
2.222000000000000000e+04	1.460700000000000109e+00	2.900000000000000147e-02
2.260000000000000000e+04	1.451200000000000045e+00	2.750000000000000014e-02
2.305000000000000000e+04	1.442199999999999926e+00	2.699999999999999969e-02
2.360000000000000000e+04	1.431599999999999984e+00	2.730000000000000135e-02
2.460000000000000000e+04	1.413799999999999946e+00	2.889999999999999861e-02
2.500000000000000000e+04	1.406800000000000050e+00	2.999999999999999889e-02
2.600000000000000000e+04	1.389499999999999957e+00	3.400000000000000244e-02
2.857000000000000000e+04	1.348899999999999988e+00	5.299999999999999850e-02
3.100000000000000000e+04	1.310400000000000009e+00	7.549999999999999767e-02
3.333000000000000000e+04	1.264199999999999990e+00	1.059999999999999970e-01
3.448000000000000000e+04	1.236599999999999921e+00	1.350000000000000089e-01
3.564000000000000000e+04	1.216599999999999904e+00	1.761000000000000065e-01
3.700000000000000000e+04	1.202299999999999924e+00	2.228999999999999870e-01
3.824000000000000000e+04	1.196399999999999908e+00	2.746000000000000107e-01
3.960000000000000000e+04	1.199699999999999989e+00	3.280000000000000138e-01
4.114000000000000000e+04	1.208599999999999897e+00	3.906000000000000028e-01
4.276000000000000000e+04	1.221700000000000008e+00	4.642000000000000015e-01
4.358000000000000000e+04	1.241700000000000026e+00	5.247000000000000552e-01
4.458000000000000000e+04	1.281800000000000050e+00	5.731000000000000538e-01
4.550000000000000000e+04	1.327800000000000091e+00	6.361999999999999877e-01
4.615000000000000000e+04	1.386600000000000055e+00	6.838999999999999524e-01
4.671000000000000000e+04	1.464900000000000091e+00	7.090999999999999526e-01
4.736000000000000000e+04	1.553199999999999914e+00	6.790000000000000480e-01
4.800000000000000000e+04	1.603799999999999892e+00	6.250000000000000000e-01
4.878000000000000000e+04	1.618800000000000017e+00	5.654000000000000137e-01
5.003000000000000000e+04	1.629599999999999937e+00	5.433000000000000052e-01
5.128000000000000000e+04	1.657100000000000017e+00	5.292000000000000037e-01
5.275000000000000000e+04	1.698099999999999943e+00	5.070000000000000062e-01
5.350000000000000000e+04	1.720599999999999907e+00	4.883000000000000118e-01
5.424000000000000000e+04	1.748599999999999932e+00	4.707000000000000073e-01
5.500000000000000000e+04	1.767400000000000082e+00	4.203000000000000069e-01
5.574000000000000000e+04	1.764799999999999924e+00	3.770999999999999908e-01
5.640000000000000000e+04	1.750099999999999989e+00	3.376000000000000112e-01
5.700000000000000000e+04	1.723300000000000054e+00	3.055999999999999828e-01
5.746000000000000000e+04	1.684900000000000064e+00	2.834999999999999742e-01
5.840000000000000000e+04	1.624000000000000110e+00	3.170000000000000040e-01
5.929000000000000000e+04	1.596000000000000085e+00	3.517000000000000126e-01
6.000000000000000000e+04	1.585099999999999953e+00	3.901999999999999913e-01
6.100000000000000000e+04	1.599199999999999955e+00	4.509000000000000230e-01
6.125000000000000000e+04	1.614000000000000101e+00	4.671000000000000152e-01
6.250000000000000000e+04	1.666199999999999903e+00	4.778999999999999915e-01
6.378000000000000000e+04	1.706599999999999895e+00	4.889999999999999902e-01
6.467000000000000000e+04	1.737100000000000088e+00	4.899000000000000021e-01
6.558000000000000000e+04	1.768599999999999950e+00	4.873000000000000109e-01
6.655000000000000000e+04	1.803399999999999892e+00	4.766000000000000236e-01
6.760000000000000000e+04	1.832999999999999963e+00	4.507999999999999785e-01
6.900000000000000000e+04	1.856800000000000006e+00	4.193000000000000060e-01
7.053000000000000000e+04	1.874100000000000099e+00	3.880000000000000115e-01
7.300000000000000000e+04	1.891100000000000003e+00	3.432999999999999940e-01
7.500000000000000000e+04	1.899199999999999999e+00	3.118000000000000216e-01
7.629000000000000000e+04	1.904300000000000104e+00	2.934999999999999831e-01
8.000000000000000000e+04	1.903299999999999992e+00	2.349999999999999867e-01
8.297000000000000000e+04	1.887399999999999967e+00	1.980999999999999983e-01
8.500000000000000000e+04	1.875000000000000000e+00	1.864999999999999991e-01
8.680000000000000000e+04	1.866999999999999993e+00	1.771000000000000074e-01
9.080000000000000000e+04	1.853599999999999914e+00	1.620000000000000051e-01
9.517000000000000000e+04	1.842500000000000027e+00	1.489999999999999936e-01
1.000000000000000000e+05	1.832300000000000040e+00	1.390000000000000124e-01
1.200000000000000000e+05	1.819099999999999939e+00	1.199999999999999956e-01
1.500000000000000000e+05	1.822699999999999987e+00	9.619999999999999385e-02
1.670000000000000000e+05	1.829599999999999893e+00	8.300000000000000433e-02
