1500	0
1495	0
1490	0
1485	0
1480	0
1475	0
1470	0
1465	0
1460	0
1455	0
1450	0
1445	0
1440	0
1435	0
1430	0
1425	0
1420	0
1415	0
1410	0
1405	0
1400	0
1395	0
1390	0
1385	0
1380	0
1375	0
1370	0
1365	0
1360	0
1355	0
1350	0
1345	0
1340	0
1335	0
1330	0
1325	0
1320	0
1315	0
1310	0
1305	0
1300	0
1295	0
1290	0
1285	0
1280	0
1275	0
1270	0
1265	0
1260	0
1255	0
1250	0
1245	0
1240	0
1235	0
1230	0
1225	0
1220	0
1215	0
1210	0
1205	0
1200	0
1195	0
1190	0
1185	0
1180	0
1175	0
1170	0
1165	0
1160	0
1155	0
1150	0
1145	0
1140	0
1135	0
1130	0
1125	0
1120	0
1115	0
1110	0
1105	0
1100	0
1095	0
1090	0
1085	0
1080	0
1075	0
1070	0
1065	0
1060	0
1055	0
1050	0
1045	0
1040	0
1035	0
1030	0
1025	0
1020	0
1015	0
1010	0
1005	0
1000	0
995	0
990	0
985	0
980	0
975	0
970	0
965	0
960	0
955	0
950	0
945	0
940	0
935	0
930	0
925	0
920	0
915	0
910	0
905	0
900	0
895	0
890	0
885	0
880	0
875	0
870	0
865	0
860	0
855	0
850	0
845	0
840	0
835	0
830	0
825	0
820	0
815	0
810	0
805	0
800	0
795	0
790	0
785	0
780	0
775	0
770	0
765	0
760	0
755	0
750	0
745	0
740	0
735	0
730	0
725	0
720	0
715	0
710	0
705	0
700	0
695	0
690	0
685	0
680	0
675	0
670	0
665	0
660	0
655	0
650	0
645	0
640	0
635	0
630	0
625	0
620	0
615	0
610	0
605	0
600	0
595	0
590	0
585	0
580	0
575	0
570	0
565	0
560	0
555	0
550	0
545	0
540	0
535	0
530	0
525	0
520	0
515	0
510	0
505	0
500	0
495	0
490	8.9137e-05
485	0.0013106
480	0.0025245
475	0.0037309
470	0.0049298
465	0.0061183
460	0.0072963
455	0.0084653
450	0.0096257
445	0.010777
440	0.011921
435	0.013056
430	0.014183
425	0.01413
420	0.014023
415	0.013919
410	0.013816
405	0.013716
400	0.013618
395	0.013523
390	0.013434
385	0.016908
380	0.020767
375	0.024577
370	0.028341
365	0.031847
360	0.035212
355	0.039709
350	0.048647
345	0.057246
340	0.065601
335	0.073727
330	0.081253
325	0.1018
320	0.12162
315	0.14068
310	0.17782
305	0.2268
300	0.30108
295	0.40137
290	0.48556
285	0.73329
280	1.1468
275	1.8178
270	2.6979
265	3.2269
260	3.6049
255	3.7534
250	3.753
245	3.9356
240	4.127
235	4.2006
230	4.1356
225	4.0124
220	3.7763
215	3.5729
210	3.3116
205	3.085
200	2.8796
195	2.6927
190	2.6313
185	2.5663
180	2.4998
