2.065999999999999943e+02	1.247742926357106441e+01
2.108950831900000082e+02	1.276285083473229065e+01
2.152794584390000239e+02	1.303317558928711506e+01
2.197549820749999867e+02	1.328821636445244714e+01
2.243235490120000009e+02	1.352792029691433839e+01
2.289870935639999914e+02	1.375236062600542475e+01
2.337475902550000058e+02	1.396172785369567215e+01
2.386070546569999919e+02	1.415632054889685243e+01
2.435675442480000186e+02	1.433653605279183729e+01
2.486311592760000053e+02	1.450286131386194555e+01
2.538000436549999677e+02	1.465586404561756950e+01
2.590763858669999991e+02	1.479618437291876987e+01
2.644624198930000034e+02	1.492452709817292522e+01
2.699604261560000396e+02	1.504165469437629277e+01
2.755727324880000424e+02	1.514838110157156414e+01
2.813017151159999685e+02	1.524556638070001036e+01
2.871497996649999891e+02	1.533411225165215974e+01
2.931194621889999894e+02	1.541495852014706891e+01
2.992132302170000457e+02	1.548908037219255007e+01
3.054336838240000134e+02	1.555748648417329960e+01
3.117834567230000289e+02	1.562121786590336114e+01
3.182652373809999631e+02	1.568134730997566173e+01
3.248817701539999803e+02	1.573897926851605433e+01
3.316358564540000202e+02	1.579524991048694282e+01
3.385303559319999636e+02	1.585132702569326568e+01
3.455681876890000126e+02	1.590840933465875473e+01
3.527523315119999552e+02	1.596772463407933884e+01
3.600858291360000294e+02	1.603052606062622232e+01
3.675717855330000248e+02	1.609808560426425217e+01
3.752133702229999699e+02	1.617168385993550572e+01
3.830138186209999844e+02	1.625259491645013910e+01
3.909764334019999978e+02	1.634206527036033307e+01
3.991045859030000429e+02	1.644128579394876866e+01
4.074017175479999651e+02	1.655135610730578932e+01
4.158713413060000335e+02	1.667324126210600355e+01
4.245170431799999733e+02	1.680772143935988083e+01
4.333424837219999972e+02	1.695533636149998458e+01
4.423513995839999779e+02	1.711632723286913205e+01
4.515476051040000129e+02	1.729058010863221639e+01
4.609349939130000280e+02	1.747757547501603881e+01
4.705175405919999889e+02	1.767634930851443542e+01
4.802993023489999587e+02	1.788547081588273713e+01
4.902844207400000300e+02	1.810304135250884983e+01
5.004771234199999412e+02	1.832671766745466613e+01
5.108817259350000199e+02	1.855376076210181679e+01
5.215026335489999383e+02	1.878110946501269751e+01
5.323443431069999860e+02	1.900547560162596028e+01
5.434114449429999922e+02	1.922345565194014227e+01
5.547086248179999757e+02	1.943165230010173516e+01
5.662406659099999615e+02	1.962679845990994920e+01
5.780124508349999815e+02	1.980587629186312526e+01
5.900289637150000317e+02	1.996622437965942609e+01
6.022952922890000309e+02	2.010562748906491137e+01
6.148166300679999949e+02	2.022238500776103720e+01
6.275982785319999948e+02	2.031535604258881023e+01
6.406456493740000724e+02	2.038398102947653712e+01
6.539642667949999577e+02	2.042828140391673841e+01
6.675597698389999550e+02	2.044884026736831473e+01
6.814379147839999860e+02	2.044676799408375345e+01
6.956045775750000075e+02	2.042365734006638434e+01
7.100657563150000442e+02	2.038153287886420983e+01
7.248275738060000322e+02	2.032279956464400428e+01
7.398962801349999836e+02	2.025019500273405271e+01
7.552782553289999896e+02	2.016674969498307846e+01
7.709800120469999456e+02	2.007575922166185123e+01
7.870081983459999719e+02	1.998077211429862032e+01
8.033696004889999358e+02	1.988559714854750382e+01
8.200711458239999274e+02	1.979433399801737536e+01
8.371199057119999907e+02	1.971143165782634910e+01
8.545230985230000442e+02	1.964177970049702182e+01
8.722880926929999532e+02	1.959083801952949955e+01
8.904224098449999474e+02	1.956481060232501434e+01
9.089337279679999710e+02	1.957086658779226340e+01
9.278298846739999135e+02	1.961740437474628962e+01
9.471188805139998976e+02	1.971433613211399916e+01
9.668088823649999313e+02	1.987333140312271951e+01
9.869082268869999552e+02	2.010788797185524146e+01
1.007425424060000068e+03	2.043298983792119472e+01
1.028369160760000113e+03	2.086398553463286731e+01
1.049748304499999904e+03	2.141424889388885333e+01
1.071571907089999968e+03	2.209130934818073655e+01
1.093849208569999973e+03	2.289161519330058070e+01
1.116589641029999939e+03	2.379494348482047172e+01
1.139802832690000059e+03	2.476041139104173894e+01
1.163498611909999909e+03	2.572647721149707678e+01
1.187687011369999937e+03	2.661664224860697203e+01
1.212378272350000088e+03	2.735068818976754912e+01
1.237582849000000124e+03	2.785893091689531076e+01
1.263311412850000124e+03	2.809537362571300179e+01
1.289574857250000150e+03	2.804575623709709120e+01
1.316384302029999844e+03	2.772833152599294948e+01
1.343751098189999993e+03	2.718780164314762260e+01
1.371686832710000090e+03	2.648495850363526927e+01
1.400203333469999961e+03	2.568537245508719025e+01
1.429312674219999963e+03	2.484994149535370056e+01
1.459027179740000065e+03	2.402882037654234182e+01
1.489359431009999980e+03	2.325890545645074425e+01
1.520322270590000016e+03	2.256413500115806769e+01
1.551928807989999996e+03	2.195750630027773553e+01
1.584192425289999846e+03	2.144378696848295363e+01
1.617126782770000091e+03	2.102219299568427857e+01
1.650745824690000063e+03	2.068863648395287314e+01
1.685063785200000211e+03	2.043740757428597732e+01
1.720095194389999961e+03	2.026231702968525283e+01
1.755854884389999825e+03	2.015740127236445289e+01
1.792357995699999947e+03	2.011730914915154855e+01
1.829619983589999947e+03	2.013747669155726072e+01
1.867656624609999881e+03	2.021417194185154287e+01
1.906484023309999884e+03	2.034446737049404774e+01
1.946118619050000007e+03	2.052617722542461820e+01
1.986577192940000032e+03	2.075778238747564686e+01
2.027876874970000017e+03	2.103835536894557023e+01
2.070035151229999883e+03	2.136749182394925484e+01
2.113069871369999873e+03	2.174525121807468153e+01
2.156999256090000017e+03	2.217210724032432267e+01
2.201841904900000372e+03	2.264890748243257690e+01
2.247616803990000335e+03	2.317684144935913793e+01
2.294343334250000225e+03	2.375741582629828130e+01
2.342041279489999852e+03	2.439243595684322585e+01
2.390730834810000033e+03	2.508399259204191623e+01
2.440432615160000296e+03	2.583445310425301145e+01
2.491167664049999985e+03	2.664645648995749738e+01
2.542957462479999776e+03	2.752291160610414167e+01
2.595823938040000030e+03	2.846699819532383557e+01
2.649789474140000038e+03	2.948217033805368104e+01
2.704876919580000049e+03	3.057216204370435975e+01
2.761109598120000101e+03	3.174099476602875214e+01
2.818511318450000090e+03	3.299298665714610479e+01
2.877106384200000321e+03	3.433276343103365491e+01
2.936919604270000036e+03	3.576527073760399844e+01
2.997976303310000276e+03	3.729578796614579517e+01
3.060302332459999889e+03	3.892994342921814166e+01
3.123924080300000242e+03	4.067373088953821991e+01
3.188868484000000080e+03	4.253352741228768963e+01
3.255163040720000026e+03	4.451611252557264464e+01
3.322835819309999806e+03	4.662868869965414120e+01
3.391915472109999882e+03	4.887890314177003148e+01
3.462431247160000112e+03	5.127487093343552971e+01
3.534413000529999863e+03	5.382519951855726248e+01
3.607891208969999752e+03	5.653901457099890138e+01
3.682896982839999964e+03	5.942598727257394842e+01
3.759462079259999882e+03	6.249636302317674819e+01
3.837618915560000005e+03	6.576099161953573002e+01
3.917400582990000203e+03	6.923135892964354809e+01
3.998840860780000185e+03	7.291962010334822253e+01
4.081974230380000336e+03	7.683863434134875092e+01
4.166835890100000142e+03	8.100200125932836670e+01
4.253461769989999993e+03	8.542409887348823361e+01
4.341888547079999626e+03	9.012012323883283216e+01
4.432153660879999734e+03	9.510612975586897733e+01
4.524295329229999879e+03	1.003990761750209799e+02
4.618352564540000458e+03	1.060168673077732677e+02
4.714365190210000037e+03	1.119784014544210038e+02
4.812373857579999822e+03	1.183036185612074860e+02
4.912420063089999530e+03	1.250135500885959203e+02
5.014546165869999641e+03	1.321303706002560716e+02
5.118795405660000142e+03	1.396774510253013091e+02
5.225211921139999504e+03	1.476794135962493044e+02
5.333840768600000047e+03	1.561621883937523307e+02
5.444727941019999889e+03	1.651530714588504338e+02
5.557920387539999865e+03	1.746807844052378016e+02
5.673466033360000438e+03	1.847755354454460530e+02
5.791413799990000371e+03	1.954690817394549640e+02
5.911813626019999901e+03	2.067947929438474546e+02
6.034716488199999731e+03	2.187877158378042566e+02
6.160174423059999754e+03	2.314846398662854199e+02
6.288240548960000524e+03	2.449241634304083277e+02
6.418969088519999787e+03	2.591467607308435390e+02
6.552415391660000751e+03	2.741948489369080448e+02
6.688635958939999909e+03	2.901128554544309850e+02
6.827688465569999607e+03	3.069472849987372456e+02
6.969631785759999730e+03	3.247467862118388666e+02
7.114526017720000709e+03	3.435622174606754697e+02
7.262432509010000103e+03	3.634467115020974006e+02
7.413413882609999746e+03	3.844557386153380207e+02
7.567534063369999785e+03	4.066471678019619276e+02
7.724858305109999492e+03	4.300813256245721163e+02
7.885453218220000053e+03	4.548210522077388305e+02
8.049386797889999798e+03	4.809317539346753279e+02
8.216728452889999971e+03	5.084814523117394742e+02
8.387549034949999623e+03	5.375408284556322087e+02
8.561920868740000515e+03	5.681832626797992134e+02
8.739917782559999978e+03	6.004848685675766546e+02
8.921615139519999502e+03	6.345245209650310017e+02
9.107089869479999834e+03	6.703838772753779267e+02
9.296420501650000006e+03	7.081473914687934439e+02
9.489687197780000133e+03	7.479023201893545547e+02
9.686971786160000192e+03	7.897387203295843392e+02
9.888357796210000743e+03	8.337494375399755882e+02
1.009393049389999942e+04	8.800300850367395924e+02
1.030377691779999986e+04	9.286790122014718918e+02
1.051798591600000145e+04	9.797972624663921124e+02
1.073664818369999921e+04	1.033488519928524738e+03
1.095985630140000103e+04	1.089859044452256057e+03
1.118770477460000075e+04	1.149017594714541474e+03
1.142029007330000059e+04	1.211075339008254787e+03
1.165771067310000035e+04	1.276145753619543484e+03
1.190006709680000131e+04	1.344344508613762400e+03
1.214746195720000105e+04	1.415789341075338371e+03
1.240000000000000000e+04	1.490599915809911636e+03
