2.065999999999999943e+02	2.266518468610000170e+00	2.752554068359999828e+00
2.108950831900000082e+02	2.321140912889999797e+00	2.749262391579999854e+00
2.152794584390000239e+02	2.374346902960000172e+00	2.744581167359999796e+00
2.197549820749999867e+02	2.426068017590000014e+00	2.738632278259999886e+00
2.243235490120000009e+02	2.476245342029999907e+00	2.731538767039999982e+00
2.289870935639999914e+02	2.524829032119999983e+00	2.723424131109999813e+00
2.337475902550000058e+02	2.571777844140000102e+00	2.714411722129999927e+00
2.386070546569999919e+02	2.617058646269999844e+00	2.704624248500000050e+00
2.435675442480000186e+02	2.660645926149999951e+00	2.694183377029999882e+00
2.486311592760000053e+02	2.702521308580000170e+00	2.683209428880000136e+00
2.538000436549999677e+02	2.742673095649999837e+00	2.671821163969999802e+00
2.590763858669999991e+02	2.781095841640000010e+00	2.660135647140000170e+00
2.644624198930000034e+02	2.817789973680000060e+00	2.648268188469999895e+00
2.699604261560000396e+02	2.852761469259999849e+00	2.636332349629999960e+00
2.755727324880000424e+02	2.886021601119999946e+00	2.624440006910000012e+00
2.813017151159999685e+02	2.917586760219999853e+00	2.612701460769999873e+00
2.871497996649999891e+02	2.947478367430000024e+00	2.601225579989999925e+00
2.931194621889999894e+02	2.975722884920000144e+00	2.590119966860000122e+00
2.992132302170000457e+02	3.002351938419999922e+00	2.579491127269999851e+00
3.054336838240000134e+02	3.027402561490000199e+00	2.569444625910000113e+00
3.117834567230000289e+02	3.050917572579999959e+00	2.560085202939999860e+00
3.182652373809999631e+02	3.072946094519999782e+00	2.551516822560000008e+00
3.248817701539999803e+02	3.093544223469999910e+00	2.543842617330000166e+00
3.316358564540000202e+02	3.112775849879999779e+00	2.537164683909999940e+00
3.385303559319999636e+02	3.130713626369999947e+00	2.531583676669999949e+00
3.455681876890000126e+02	3.147440065810000132e+00	2.527198135949999980e+00
3.527523315119999552e+02	3.163048735759999897e+00	2.524103478639999842e+00
3.600858291360000294e+02	3.177645491649999876e+00	2.522390572319999968e+00
3.675717855330000248e+02	3.191349660379999786e+00	2.522143813340000040e+00
3.752133702229999699e+02	3.204295047590000056e+00	2.523438637789999994e+00
3.830138186209999844e+02	3.216630599740000207e+00	2.526338417249999857e+00
3.909764334019999978e+02	3.228520508339999928e+00	2.530890732790000097e+00
3.991045859030000429e+02	3.240143508830000130e+00	2.537123085620000218e+00
4.074017175479999651e+02	3.251691108939999797e+00	2.545038189790000072e+00
4.158713413060000335e+02	3.263364494659999782e+00	2.554609098889999874e+00
4.245170431799999733e+02	3.275369918160000005e+00	2.565774532239999850e+00
4.333424837219999972e+02	3.287912477899999963e+00	2.578434869460000112e+00
4.423513995839999779e+02	3.301188357100000026e+00	2.592449351770000021e+00
4.515476051040000129e+02	3.315375779880000096e+00	2.607635039979999902e+00
4.609349939130000280e+02	3.330625150589999972e+00	2.623768014229999945e+00
4.705175405919999889e+02	3.347049026960000173e+00	2.640587150970000074e+00
4.802993023489999587e+02	3.364712703969999996e+00	2.657800589449999862e+00
4.902844207400000300e+02	3.383626222949999818e+00	2.675094729690000062e+00
5.004771234199999412e+02	3.403738550659999973e+00	2.692145327069999983e+00
5.108817259350000199e+02	3.424934502280000181e+00	2.708630011719999953e+00
5.215026335489999383e+02	3.447034732460000139e+00	2.724241402060000095e+00
5.323443431069999860e+02	3.469798830259999800e+00	2.738699926329999812e+00
5.434114449429999922e+02	3.492931270820000211e+00	2.751765517479999978e+00
5.547086248179999757e+02	3.516089739659999935e+00	2.763247490659999972e+00
5.662406659099999615e+02	3.538895181410000035e+00	2.773012120140000203e+00
5.780124508349999815e+02	3.560942847120000199e+00	2.780987668459999895e+00
5.900289637150000317e+02	3.581813618530000021e+00	2.787166852619999968e+00
6.022952922890000309e+02	3.601084960730000173e+00	2.791606933510000221e+00
6.148166300679999949e+02	3.618340975939999815e+00	2.794427769829999963e+00
6.275982785319999948e+02	3.633181178680000123e+00	2.795808279780000127e+00
6.406456493740000724e+02	3.645227768169999827e+00	2.795981804959999817e+00
6.539642667949999577e+02	3.654131321649999986e+00	2.795230877839999906e+00
6.675597698389999550e+02	3.659574964469999969e+00	2.793881866870000064e+00
6.814379147839999860e+02	3.661277183390000189e+00	2.792299922939999846e+00
6.956045775750000075e+02	3.658993539959999985e+00	2.790884585750000202e+00
7.100657563150000442e+02	3.652517613020000109e+00	2.790066337559999887e+00
7.248275738060000322e+02	3.641681559679999847e+00	2.790304318430000041e+00
7.398962801349999836e+02	3.626356738790000200e+00	2.792085343690000165e+00
7.552782553289999896e+02	3.606454898379999996e+00	2.795924288979999783e+00
7.709800120469999456e+02	3.581930496840000089e+00	2.802365824709999842e+00
7.870081983459999719e+02	3.552784814259999813e+00	2.811987378760000045e+00
8.033696004889999358e+02	3.519072621889999919e+00	2.825403065690000215e+00
8.200711458239999274e+02	3.480912316289999975e+00	2.843268114709999850e+00
8.371199057119999907e+02	3.438500584749999867e+00	2.866283016680000184e+00
8.545230985230000442e+02	3.392132827390000216e+00	2.895196134699999924e+00
8.722880926929999532e+02	3.342230666979999931e+00	2.930802803809999801e+00
8.904224098449999474e+02	3.289377817890000166e+00	2.973937882099999985e+00
9.089337279679999710e+02	3.234365145449999979e+00	3.025457192939999818e+00
9.278298846739999135e+02	3.178244526369999878e+00	3.086201236560000005e+00
9.471188805139998976e+02	3.122388424399999973e+00	3.156932042479999811e+00
9.668088823649999313e+02	3.068546861529999781e+00	3.238231694009999995e+00
9.869082268869999552e+02	3.018884485480000102e+00	3.330350675650000092e+00
1.007425424060000068e+03	2.975967461469999797e+00	3.432999537540000201e+00
1.028369160760000113e+03	2.942656199500000014e+00	3.545093976350000009e+00
1.049748304499999904e+03	2.921855237409999972e+00	3.664495184380000214e+00
1.071571907089999968e+03	2.916091352070000031e+00	3.787828754490000005e+00
1.093849208569999973e+03	2.926945880699999947e+00	3.910495124670000155e+00
1.116589641029999939e+03	2.954446397019999893e+00	4.026971602669999761e+00
1.139802832690000059e+03	2.996588026059999965e+00	4.131434013569999841e+00
1.163498611909999909e+03	3.049161206139999969e+00	4.218615460489999691e+00
1.187687011369999937e+03	3.105994289279999876e+00	4.284721697730000223e+00
1.212378272350000088e+03	3.159602342329999924e+00	4.328185199660000038e+00
1.237582849000000124e+03	3.202118348630000000e+00	4.350078273780000337e+00
1.263311412850000124e+03	3.226313494909999857e+00	4.354098519879999962e+00
1.289574857250000150e+03	3.226507382059999873e+00	4.346147849070000291e+00
1.316384302029999844e+03	3.199217549310000130e+00	4.333611437580000114e+00
1.343751098189999993e+03	3.143473681370000161e+00	4.324483739799999782e+00
1.371686832710000090e+03	3.060794330999999868e+00	4.326484506879999969e+00
1.400203333469999961e+03	2.954871235630000204e+00	4.346276099169999796e+00
1.429312674219999963e+03	2.831025091329999910e+00	4.388859281300000248e+00
1.459027179740000065e+03	2.695503085909999985e+00	4.457205132160000360e+00
1.489359431009999980e+03	2.554705229430000113e+00	4.552170087670000420e+00
1.520322270590000016e+03	2.414457663679999921e+00	4.672712912009999719e+00
1.551928807989999996e+03	2.279467152110000061e+00	4.816368220080000206e+00
1.584192425289999846e+03	2.153053499819999939e+00	4.979854650680000105e+00
1.617126782770000091e+03	2.037168019390000140e+00	5.159661057800000172e+00
1.650745824690000063e+03	1.932618206459999932e+00	5.352489284949999870e+00
1.685063785200000211e+03	1.839382053030000019e+00	5.555509128899999816e+00
1.720095194389999961e+03	1.756914598270000072e+00	5.766449049270000238e+00
1.755854884389999825e+03	1.684393769299999954e+00	5.983577486379999755e+00
1.792357995699999947e+03	1.620892088850000023e+00	6.205628766880000313e+00
1.829619983589999947e+03	1.565483426699999958e+00	6.431711875100000420e+00
1.867656624609999881e+03	1.517301735240000005e+00	6.661223497069999944e+00
1.906484023309999884e+03	1.475568097330000050e+00	6.893774474829999832e+00
1.946118619050000007e+03	1.439598686000000072e+00	7.129131689630000324e+00
1.986577192940000032e+03	1.408802230520000087e+00	7.367174021230000314e+00
2.027876874970000017e+03	1.382672379029999954e+00	7.607859854590000026e+00
2.070035151229999883e+03	1.360778113440000103e+00	7.851203518380000190e+00
2.113069871369999873e+03	1.342753939869999913e+00	8.097258392769999702e+00
2.156999256090000017e+03	1.328290713609999951e+00	8.346104889970000329e+00
2.201841904900000372e+03	1.317127461819999956e+00	8.597841947330000067e+00
2.247616803990000335e+03	1.309044298219999902e+00	8.852581032159999808e+00
2.294343334250000225e+03	1.303856387990000032e+00	9.110441934069999803e+00
2.342041279489999852e+03	1.301408860270000023e+00	9.371549826309999887e+00
2.390730834810000033e+03	1.301572545570000017e+00	9.636033226660000395e+00
2.440432615160000296e+03	1.304240416200000086e+00	9.904022595589999867e+00
2.491167664049999985e+03	1.309324618039999999e+00	1.017564938549999987e+01
2.542957462479999776e+03	1.316753995920000087e+00	1.045104540840000062e+01
2.595823938040000030e+03	1.326472029410000086e+00	1.073034242870000021e+01
2.649789474140000038e+03	1.338435109089999964e+00	1.101367191349999963e+01
2.704876919580000049e+03	1.352611095209999892e+00	1.130116489209999919e+01
2.761109598120000101e+03	1.368978111049999891e+00	1.159295189230000034e+01
2.818511318450000090e+03	1.387523531280000055e+00	1.188916292709999922e+01
2.877106384200000321e+03	1.408243133050000040e+00	1.218992751510000083e+01
2.936919604270000036e+03	1.431140383160000029e+00	1.249537472299999941e+01
2.997976303310000276e+03	1.456225839330000049e+00	1.280563321940000066e+01
3.060302332459999889e+03	1.483516647529999899e+00	1.312083133480000008e+01
3.123924080300000242e+03	1.513036120390000017e+00	1.344109712300000048e+01
3.188868484000000080e+03	1.544813384430000047e+00	1.376655842089999915e+01
3.255163040720000026e+03	1.578883085650000018e+00	1.409734290339999951e+01
3.322835819309999806e+03	1.615285145110000098e+00	1.443357813349999930e+01
3.391915472109999882e+03	1.654064557129999891e+00	1.477539160459999934e+01
3.462431247160000112e+03	1.695271224300000101e+00	1.512291077629999947e+01
3.534413000529999863e+03	1.738959824029999934e+00	1.547626310130000071e+01
3.607891208969999752e+03	1.785189702400000078e+00	1.583557604409999975e+01
3.682896982839999964e+03	1.834024791710000102e+00	1.620097709179999868e+01
3.759462079259999882e+03	1.885533548529999992e+00	1.657259375519999978e+01
3.837618915560000005e+03	1.939788909530000049e+00	1.695055356190000140e+01
3.917400582990000203e+03	1.996868262800000071e+00	1.733498403959999834e+01
3.998840860780000185e+03	2.056853432590000086e+00	1.772601269200000118e+01
4.081974230380000336e+03	2.119830675739999837e+00	1.812376696420000144e+01
4.166835890100000142e+03	2.185890688090000200e+00	1.852837420019999826e+01
4.253461769989999993e+03	2.255128619570000215e+00	1.893996159070000118e+01
4.341888547079999626e+03	2.327644096629999826e+00	1.935865611270000031e+01
4.432153660879999734e+03	2.403541250840000032e+00	1.978458445900000129e+01
4.524295329229999879e+03	2.482928752609999901e+00	2.021787295940000106e+01
4.618352564540000458e+03	2.565919849020000143e+00	2.065864749209999829e+01
4.714365190210000037e+03	2.652632404719999837e+00	2.110703338600000123e+01
4.812373857579999822e+03	2.743188945220000008e+00	2.156315531370000116e+01
4.912420063089999530e+03	2.837716701370000205e+00	2.202713717480000000e+01
5.014546165869999641e+03	2.936347654570000021e+00	2.249910197020000169e+01
5.118795405660000142e+03	3.039218581460000124e+00	2.297917166559999913e+01
5.225211921139999504e+03	3.146471097650000104e+00	2.346746704690000129e+01
5.333840768600000047e+03	3.258251699410000146e+00	2.396410756450000079e+01
5.444727941019999889e+03	3.374711802549999806e+00	2.446921116849999933e+01
5.557920387539999865e+03	3.496007777700000041e+00	2.498289413419999860e+01
5.673466033360000438e+03	3.622300981139999987e+00	2.550527087720000097e+01
5.791413799990000371e+03	3.753757780259999954e+00	2.603645375940000051e+01
5.911813626019999901e+03	3.890549572779999909e+00	2.657655288480000166e+01
6.034716488199999731e+03	4.032852798869999589e+00	2.712567588619999981e+01
6.160174423059999754e+03	4.180848945260000171e+00	2.768392770190000007e+01
6.288240548960000524e+03	4.334724540309999874e+00	2.825141034370000170e+01
6.418969088519999787e+03	4.494671139230000279e+00	2.882822265560000119e+01
6.552415391660000751e+03	4.660885298320000203e+00	2.941446006359999998e+01
6.688635958939999909e+03	4.833568537369999696e+00	3.001021431799999917e+01
6.827688465569999607e+03	5.012927289110000295e+00	3.061557322659999869e+01
6.969631785759999730e+03	5.199172834859999703e+00	3.123062038200000146e+01
7.114526017720000709e+03	5.392521225160000320e+00	3.185543488060000072e+01
7.262432509010000103e+03	5.593193184489999581e+00	3.249009103689999733e+01
7.413413882609999746e+03	5.801413999090000218e+00	3.313465809160000219e+01
7.567534063369999785e+03	6.017413386770000372e+00	3.378919991570000292e+01
7.724858305109999492e+03	6.241425347869999918e+00	3.445377471119999768e+01
7.885453218220000053e+03	6.473687996319999804e+00	3.512843470880000041e+01
8.049386797889999798e+03	6.714443369899999681e+00	3.581322586550000153e+01
8.216728452889999971e+03	6.963937218909999949e+00	3.650818756169999801e+01
8.387549034949999623e+03	7.222418772350000182e+00	3.721335229919999676e+01
8.561920868740000515e+03	7.490140480950000068e+00	3.792874540369999892e+01
8.739917782559999978e+03	7.767357736380000155e+00	3.865438473079999682e+01
8.921615139519999502e+03	8.054328566040000581e+00	3.939028037920000003e+01
9.107089869479999834e+03	8.351313303090000417e+00	4.013643441130000156e+01
9.296420501650000006e+03	8.658574231290000256e+00	4.089284058509999653e+01
9.489687197780000133e+03	8.976375204580000045e+00	4.165948409819999654e+01
9.686971786160000192e+03	9.304981241260000147e+00	4.243634134519999890e+01
9.888357796210000743e+03	9.644658093029999435e+00	4.322337969360000187e+01
1.009393049389999942e+04	9.995671789150000208e+00	4.402055727719999823e+01
1.030377691779999986e+04	1.035828815620000043e+01	4.482782281189999907e+01
1.051798591600000145e+04	1.073277231460000003e+01	4.564511543460000098e+01
1.073664818369999921e+04	1.111938815160000082e+01	4.647236456889999801e+01
1.095985630140000103e+04	1.151839777410000032e+01	4.730948981910000128e+01
1.118770477460000075e+04	1.193006094050000065e+01	4.815640089539999735e+01
1.142029007330000059e+04	1.235463447439999918e+01	4.901299757259999978e+01
1.165771067310000035e+04	1.279237166230000078e+01	4.987916968439999721e+01
1.190006709680000131e+04	1.324352163680000061e+01	5.075479715600000219e+01
1.214746195720000105e+04	1.370832874849999961e+01	5.163975007639999859e+01
1.240000000000000000e+04	1.418703192829999971e+01	5.253388881280000078e+01
