4.132999999999999868e-02	3.289999999999999754e-11
6.198999999999999649e-02	2.170000000000000003e-10
8.265999999999999737e-02	7.199999999999999952e-10
1.377999999999999781e-01	5.000000000000000105e-09
1.771000000000000074e-01	1.339999999999999922e-08
2.479999999999999982e-01	5.379999999999999868e-08
4.133000000000000007e-01	4.479999999999999882e-07
6.199000000000000066e-01	2.409999999999999796e-06
8.266000000000000014e-01	8.620000000000000478e-06
1.239999999999999991e+00	4.220000000000000254e-05
1.550000000000000044e+00	9.849999999999999544e-05
2.066000000000000281e+00	3.319999999999999926e-04
2.479999999999999982e+00	5.689999999999999529e-04
2.754999999999999893e+00	8.390000000000000105e-04
3.541999999999999815e+00	2.129999999999999949e-03
3.647000000000000242e+00	2.360000000000000119e-03
3.757000000000000117e+00	2.769999999999999893e-03
3.875000000000000000e+00	3.680000000000000111e-03
3.999000000000000110e+00	4.969999999999999592e-03
4.133000000000000007e+00	3.540000000000000178e-03
4.275000000000000355e+00	7.940000000000000009e-04
4.591999999999999638e+00	2.059999999999999928e-04
4.958999999999999631e+00	2.719999999999999979e-04
6.198999999999999844e+00	5.850000000000000165e-04
6.887999999999999901e+00	8.480000000000000124e-04
7.748999999999999666e+00	1.209999999999999921e-03
8.855999999999999872e+00	1.930000000000000075e-03
9.537000000000000810e+00	2.350000000000000092e-03
1.033000000000000007e+01	2.820000000000000024e-03
1.127000000000000135e+01	3.769999999999999914e-03
1.240000000000000036e+01	5.190000000000000169e-03
1.305000000000000071e+01	6.130000000000000032e-03
1.378000000000000114e+01	7.250000000000000368e-03
1.458999999999999986e+01	8.580000000000000820e-03
1.550000000000000000e+01	1.020000000000000073e-02
1.653000000000000114e+01	1.209999999999999964e-02
1.771000000000000085e+01	1.499999999999999944e-02
1.907000000000000028e+01	2.000000000000000042e-02
2.066000000000000014e+01	2.699999999999999969e-02
2.254000000000000270e+01	3.500000000000000333e-02
2.480000000000000071e+01	4.499999999999999833e-02
2.695000000000000284e+01	5.800000000000000294e-02
2.817999999999999972e+01	6.300000000000000044e-02
2.951999999999999957e+01	6.500000000000000222e-02
3.100000000000000000e+01	7.299999999999999545e-02
3.263000000000000256e+01	8.599999999999999312e-02
3.443999999999999773e+01	1.019999999999999934e-01
3.646999999999999886e+01	1.089999999999999997e-01
3.875000000000000000e+01	1.179999999999999938e-01
4.132999999999999829e+01	1.400000000000000133e-01
4.428000000000000114e+01	1.660000000000000087e-01
4.769000000000000483e+01	2.069999999999999896e-01
5.165999999999999659e+01	2.550000000000000044e-01
5.635999999999999943e+01	3.140000000000000013e-01
6.199000000000000199e+01	4.510000000000000120e-01
6.887999999999999545e+01	6.310000000000000053e-01
7.749000000000000909e+01	9.030000000000000249e-01
7.999000000000000909e+01	9.379999999999999449e-01
8.265999999999999659e+01	9.549999999999999600e-01
8.551000000000000512e+01	9.599999999999999645e-01
8.856000000000000227e+01	9.559999999999999609e-01
9.184000000000000341e+01	9.340000000000000524e-01
9.536999999999999034e+01	8.940000000000000169e-01
9.918999999999999773e+01	8.509999999999999787e-01
1.032999999999999972e+02	7.860000000000000320e-01
1.078000000000000114e+02	7.299999999999999822e-01
1.126999999999999886e+02	6.690000000000000391e-01
1.180999999999999943e+02	5.819999999999999618e-01
1.240000000000000000e+02	4.490000000000000102e-01
1.305000000000000000e+02	3.340000000000000191e-01
1.378000000000000114e+02	2.230000000000000038e-01
1.459000000000000057e+02	1.439999999999999891e-01
1.550000000000000000e+02	8.690000000000000502e-02
1.653000000000000114e+02	1.010000000000000064e-01
1.770999999999999943e+02	1.580000000000000016e-01
1.907000000000000171e+02	2.800000000000000266e-01
2.065999999999999943e+02	4.149999999999999800e-01
2.253999999999999773e+02	6.099999999999999867e-01
2.480000000000000000e+02	7.540000000000000036e-01
2.755000000000000000e+02	7.640000000000000124e-01
3.100000000000000000e+02	7.229999999999999760e-01
3.541999999999999886e+02	6.810000000000000497e-01
4.133000000000000114e+02	6.780000000000000471e-01
4.959000000000000341e+02	6.959999999999999520e-01
6.198999999999999773e+02	7.389999999999999902e-01
8.266000000000000227e+02	8.159999999999999476e-01
1.240000000000000000e+03	1.040000000000000036e+00
2.480000000000000000e+03	1.179999999999999938e+00
3.100000000000000000e+03	1.219999999999999973e+00
4.133000000000000000e+03	1.290000000000000036e+00
6.199000000000000000e+03	1.510000000000000009e+00
1.240000000000000000e+04	2.790000000000000036e+00
1.550000000000000000e+04	3.560000000000000053e+00
2.066000000000000000e+04	4.650000000000000355e+00
3.100000000000000000e+04	6.860000000000000320e+00
4.133000000000000000e+04	9.310000000000000497e+00
4.959000000000000000e+04	1.119999999999999929e+01
6.199000000000000000e+04	1.240000000000000036e+01
8.266000000000000000e+04	1.309999999999999964e+01
1.240000000000000000e+05	1.919999999999999929e+01
