177.1	4.8216
182.3	5.0592
187.9	5.3928
193.7	5.895
200	6.5688
206.6	7.4202
213.8	8.476
221.4	9.6654
229.6	10.72
238.4	11.318
248	11.616
258.3	11.693
269.5	12.237
281.8	12.954
295.2	12.778
310	12.302
317.9	12
326.3	11.81
335.1	11.622
344.4	11.542
354.2	11.557
364.7	11.71
375.7	11.956
387.5	12.397
399.9	12.896
413.3	13.454
435	14.448
450.9	15.215
467.9	15.892
486.2	16.527
506.1	16.762
527.6	16.819
551	16.818
576.7	16.761
604.8	16.589
635.8	16.13
670.2	15.548
708.5	15.189
751.4	14.774
799.9	14.491
855.1	14.352
918.4	14.538
991.9	15.279
1078	16.058
1181	16.877
1305	18.09
1459	20.898
1653	25.38
1907	33.284
2254	46.482
2755	71.136
