177.1	1.23
182.3	1.24
187.9	1.26
193.7	1.31
200	1.38
206.6	1.49
213.8	1.63
221.4	1.81
229.6	2
238.4	2.16
248	2.26
258.3	2.32
269.5	2.39
281.8	2.53
295.2	2.64
310	2.64
317.9	2.62
326.3	2.59
335.1	2.56
344.4	2.52
354.2	2.48
364.7	2.46
375.7	2.44
387.5	2.45
399.9	2.48
413.3	2.51
435	2.58
450.9	2.66
467.9	2.74
486.2	2.83
506.1	2.89
527.6	2.92
551	2.93
576.7	2.92
604.8	2.89
635.8	2.82
670.2	2.69
708.5	2.54
751.4	2.36
799.9	2.15
855.1	1.95
918.4	1.76
991.9	1.65
1078	1.55
1181	1.44
1305	1.35
1459	1.35
1653	1.41
1907	1.57
2254	1.83
2755	2.28
