2.065999999999999943e+02	2.112000000000000099e+00
2.101000000000000227e+02	2.084000000000000075e+00
2.137999999999999829e+02	2.101999999999999869e+00
2.175000000000000000e+02	2.162999999999999812e+00
2.214000000000000057e+02	2.248000000000000220e+00
2.253999999999999773e+02	2.343999999999999861e+00
2.295999999999999943e+02	2.448999999999999844e+00
2.339000000000000057e+02	2.555000000000000160e+00
2.384000000000000057e+02	2.645999999999999908e+00
2.431000000000000227e+02	2.732000000000000206e+00
2.480000000000000000e+02	2.870999999999999996e+00
2.530000000000000000e+02	3.080999999999999961e+00
2.582999999999999545e+02	3.349000000000000199e+00
2.637999999999999545e+02	3.575000000000000178e+00
2.695000000000000000e+02	3.580999999999999961e+00
2.755000000000000000e+02	3.444999999999999840e+00
2.818000000000000114e+02	3.041999999999999815e+00
2.883000000000000114e+02	2.478000000000000203e+00
2.952000000000000455e+02	2.099000000000000199e+00
3.023999999999999773e+02	1.903000000000000025e+00
3.100000000000000000e+02	1.798999999999999932e+00
3.179000000000000341e+02	1.743000000000000105e+00
3.262999999999999545e+02	1.719000000000000083e+00
3.351000000000000227e+02	1.715000000000000080e+00
3.443999999999999773e+02	1.727999999999999980e+00
3.541999999999999886e+02	1.754000000000000004e+00
3.647000000000000455e+02	1.790000000000000036e+00
3.756999999999999886e+02	1.836000000000000076e+00
3.875000000000000000e+02	1.891000000000000014e+00
3.998999999999999773e+02	1.957000000000000073e+00
4.133000000000000114e+02	2.033999999999999808e+00
4.275000000000000000e+02	2.129000000000000004e+00
4.428000000000000114e+02	2.208000000000000185e+00
4.591999999999999886e+02	2.016000000000000014e+00
4.768999999999999773e+02	1.885000000000000009e+00
4.959000000000000341e+02	1.786000000000000032e+00
5.165999999999999091e+02	1.282999999999999918e+00
5.391000000000000227e+02	9.909999999999999920e-01
5.636000000000000227e+02	8.219999999999999529e-01
5.904000000000000909e+02	7.119999999999999662e-01
6.198999999999999773e+02	6.340000000000000080e-01
6.525000000000000000e+02	5.719999999999999529e-01
6.887999999999999545e+02	5.300000000000000266e-01
7.292999999999999545e+02	4.929999999999999938e-01
7.748999999999999773e+02	4.630000000000000226e-01
8.266000000000000227e+02	4.319999999999999951e-01
