200	1.21
200.65	1.21
201.3	1.21
201.95	1.21
202.61	1.21
203.28	1.21
203.95	1.21
204.62	1.2099
205.3	1.2099
205.98	1.2099
206.67	1.2116
207.36	1.2144
208.05	1.2169
208.75	1.2194
209.46	1.2216
210.17	1.2233
210.88	1.2249
211.6	1.2266
212.33	1.2277
213.06	1.2287
213.79	1.2295
214.53	1.2302
215.28	1.2308
216.03	1.2309
216.78	1.2312
217.54	1.2312
218.31	1.2314
219.08	1.2312
219.86	1.2313
220.64	1.2312
221.43	1.2311
222.22	1.2309
223.02	1.2307
223.83	1.2309
224.64	1.231
225.45	1.2311
226.28	1.2313
227.11	1.2319
227.94	1.2326
228.78	1.2334
229.63	1.2343
230.48	1.2355
231.34	1.2369
232.21	1.2387
233.08	1.2408
233.96	1.2428
234.85	1.2453
235.74	1.2483
236.64	1.2513
237.55	1.2548
238.46	1.2583
239.38	1.2623
240.31	1.2666
241.25	1.2709
242.19	1.2758
243.14	1.2807
244.09	1.2859
245.06	1.2914
246.03	1.297
247.01	1.303
248	1.309
249	1.3151
250	1.3212
251.01	1.3274
252.03	1.3338
253.06	1.3401
254.1	1.3466
255.14	1.3529
256.2	1.3595
257.26	1.3657
258.33	1.3717
259.41	1.3778
260.5	1.3839
261.6	1.3898
262.71	1.3952
263.83	1.4008
264.96	1.406
266.09	1.4113
267.24	1.4161
268.4	1.4207
269.57	1.4252
270.74	1.4293
271.93	1.4336
273.13	1.4373
274.34	1.4411
275.56	1.4443
276.79	1.4478
278.03	1.451
279.28	1.4539
280.54	1.4567
281.82	1.4595
283.11	1.4623
284.4	1.465
285.71	1.4677
287.04	1.4701
288.37	1.4727
289.72	1.4753
291.08	1.4781
292.45	1.4808
293.84	1.4836
295.24	1.4865
296.65	1.4897
298.08	1.4929
299.52	1.4963
300.97	1.4997
302.44	1.5033
303.92	1.5072
305.42	1.5111
306.93	1.5152
308.46	1.5196
310	1.5243
311.56	1.529
313.13	1.5339
314.72	1.5389
316.33	1.5442
317.95	1.5495
319.59	1.555
321.24	1.5609
322.92	1.5665
324.61	1.5727
326.32	1.5786
328.04	1.5849
329.79	1.5914
331.55	1.5977
333.33	1.6043
335.14	1.6112
336.96	1.6178
338.8	1.6248
340.66	1.6318
342.54	1.639
344.44	1.6464
346.37	1.6537
348.31	1.6614
350.28	1.669
352.27	1.6767
354.29	1.685
356.32	1.6932
358.38	1.7015
360.47	1.71
362.57	1.7187
364.71	1.7275
366.86	1.7366
369.05	1.7458
371.26	1.7551
373.49	1.7647
375.76	1.7744
378.05	1.7844
380.37	1.7942
382.72	1.8043
385.09	1.8146
387.5	1.8249
389.94	1.8352
392.41	1.8457
394.9	1.8563
397.44	1.8666
400	1.8772
402.6	1.8874
405.23	1.8979
407.89	1.908
410.6	1.9183
413.33	1.9282
416.11	1.9381
418.92	1.948
421.77	1.9574
424.66	1.9668
427.59	1.976
430.56	1.9849
433.57	1.9935
436.62	2.0021
439.72	2.0105
442.86	2.0186
446.04	2.0267
449.28	2.0345
452.55	2.0423
455.88	2.0498
459.26	2.057
462.69	2.0642
466.17	2.0714
469.7	2.0786
473.28	2.0855
476.92	2.0924
480.62	2.0993
484.38	2.1062
488.19	2.1128
492.06	2.1194
496	2.1258
500	2.1318
504.07	2.1379
508.2	2.1437
512.4	2.1491
516.67	2.154
521.01	2.1583
525.42	2.1622
529.91	2.1653
534.48	2.1677
539.13	2.1695
543.86	2.17
548.67	2.1696
553.57	2.1683
558.56	2.1656
563.64	2.1621
568.81	2.157
574.07	2.1512
579.44	2.1439
584.91	2.1359
590.48	2.1267
596.15	2.1165
601.94	2.1055
607.84	2.0938
613.86	2.0813
620	2.0685
626.26	2.0553
632.65	2.042
639.18	2.0286
645.83	2.0152
652.63	2.0019
659.57	1.9889
666.67	1.9768
673.91	1.965
681.32	1.955
688.89	1.9457
696.63	1.9371
704.55	1.9293
712.64	1.9218
720.93	1.9149
729.41	1.9083
738.1	1.9019
746.99	1.8961
756.1	1.8903
765.43	1.8849
775	1.8796
784.81	1.8747
794.87	1.8698
805.19	1.8654
815.79	1.8608
826.67	1.8567
837.84	1.8526
849.32	1.8485
861.11	1.8447
873.24	1.8412
885.71	1.8377
898.55	1.8341
911.76	1.8309
925.37	1.8276
939.39	1.8244
953.85	1.8214
968.75	1.8187
984.13	1.8158
1000	1.8131
1016.4	1.8104
1033.3	1.8077
1050.8	1.8053
1069	1.8028
1087.7	1.8007
1107.1	1.7983
1127.3	1.7961
1148.1	1.794
1169.8	1.7918
1192.3	1.79
1215.7	1.7878
1240	1.7862
1265.3	1.7841
1291.7	1.7825
1319.1	1.7806
1347.8	1.779
1441.9	1.7742
1476.2	1.7729
1512.2	1.7713
1550	1.77
1589.7	1.7686
1631.6	1.7673
1675.7	1.766
1722.2	1.7649
1771.4	1.7636
1823.5	1.7625
1878.8	1.7615
1937.5	1.7604
2000	1.7593
