29.992	0.12126
30.124	0.1219
30.256	0.12254
30.389	0.12419
30.522	0.12592
30.656	0.12764
30.791	0.12935
30.926	0.13104
31.062	0.13273
31.198	0.13441
31.335	0.13608
31.472	0.13774
31.611	0.13938
31.749	0.14102
31.889	0.14264
32.029	0.14425
32.169	0.14585
32.31	0.14744
32.452	0.14902
32.595	0.15058
32.738	0.15213
32.882	0.15367
33.026	0.15519
33.171	0.15671
33.317	0.15821
33.463	0.15969
33.61	0.16117
33.757	0.16263
33.905	0.16407
34.054	0.16551
34.204	0.16693
34.354	0.16834
34.505	0.16973
34.656	0.17111
34.808	0.17247
34.961	0.17383
35.115	0.17516
35.269	0.17649
35.424	0.1778
35.579	0.17909
35.735	0.18037
35.892	0.18164
36.05	0.18289
36.208	0.18413
36.367	0.18535
36.527	0.18655
36.687	0.18774
36.848	0.18892
37.01	0.19008
37.172	0.19122
37.336	0.19234
37.499	0.19345
37.664	0.19455
37.829	0.19562
37.995	0.19668
38.162	0.19772
38.33	0.19874
38.498	0.19975
38.667	0.20073
38.837	0.20169
39.007	0.20264
39.178	0.20356
39.35	0.20446
39.523	0.20534
39.697	0.2062
39.871	0.20703
40.046	0.20783
40.222	0.20861
40.398	0.20936
40.576	0.21007
40.754	0.21077
40.933	0.21151
41.112	0.21222
41.293	0.21291
41.474	0.21357
41.656	0.2142
41.839	0.2148
42.023	0.21535
42.207	0.21586
42.392	0.21633
42.579	0.21674
42.765	0.2171
42.953	0.2174
43.142	0.21763
43.331	0.21779
43.521	0.21785
43.713	0.21782
43.904	0.21766
44.097	0.21736
44.291	0.21687
44.485	0.21612
44.68	0.21489
44.877	0.21507
45.074	0.21589
45.271	0.21682
45.47	0.2177
45.67	0.2184
45.87	0.21879
46.072	0.21854
46.274	0.21918
46.477	0.22215
46.681	0.22628
46.886	0.23079
47.092	0.23545
47.299	0.24016
47.506	0.24483
47.715	0.24939
47.924	0.25378
48.135	0.25791
48.346	0.26166
48.558	0.26484
48.771	0.26708
48.985	0.26732
49.2	0.27166
49.416	0.28145
49.633	0.2936
49.851	0.30686
50.07	0.32077
50.29	0.33507
50.511	0.34956
50.732	0.36393
50.955	0.37814
51.179	0.39937
51.403	0.42219
51.629	0.43646
51.856	0.45352
52.083	0.47866
52.312	0.50234
52.542	0.52101
52.772	0.5376
53.004	0.55334
53.237	0.5687
53.47	0.58409
53.705	0.599
53.941	0.6119
54.178	0.62297
54.415	0.63314
54.654	0.64265
54.894	0.65165
55.135	0.66022
55.377	0.66841
55.62	0.67625
55.865	0.6838
56.11	0.69106
56.356	0.69807
56.604	0.70484
56.852	0.71139
57.102	0.71773
57.352	0.72388
57.604	0.72982
57.857	0.73558
58.111	0.74116
58.366	0.74659
58.622	0.75188
58.88	0.75702
59.138	0.76205
59.398	0.76699
59.658	0.77189
59.92	0.77671
60.183	0.77951
60.448	0.77971
60.713	0.77918
60.979	0.77805
61.247	0.7763
61.516	0.7778
61.786	0.78057
62.057	0.78345
62.33	0.78633
62.603	0.78921
62.878	0.79214
63.154	0.7912
63.431	0.7895
63.71	0.78743
63.99	0.78507
64.27	0.78243
64.553	0.77954
64.836	0.77641
65.121	0.77306
65.407	0.76949
65.694	0.76571
65.982	0.76174
66.272	0.75744
66.563	0.7526
66.855	0.7475
67.148	0.74217
67.443	0.7361
67.739	0.72968
68.036	0.72222
68.335	0.71382
68.635	0.70525
68.936	0.69678
69.239	0.68849
69.543	0.68049
69.848	0.67326
70.155	0.67152
70.463	0.67227
70.772	0.67268
71.083	0.67294
71.395	0.6732
71.708	0.67378
72.023	0.68159
72.339	0.69189
72.657	0.6935
72.976	0.68992
73.296	0.68648
73.618	0.6829
73.941	0.67898
74.266	0.674
74.592	0.66595
74.919	0.65569
75.248	0.64583
75.579	0.63622
75.91	0.6268
76.244	0.61759
76.578	0.60859
76.914	0.59984
77.252	0.59141
77.591	0.58357
77.932	0.57708
78.274	0.57183
78.618	0.56635
78.963	0.56078
79.309	0.55517
79.657	0.54955
80.007	0.54392
80.358	0.53832
80.711	0.53273
81.065	0.52718
81.421	0.52165
81.779	0.51615
82.138	0.51066
82.498	0.50509
82.86	0.49921
83.224	0.49328
83.589	0.48792
83.957	0.48336
84.325	0.47876
84.695	0.47422
85.067	0.46975
85.441	0.46538
85.816	0.46109
86.192	0.45686
86.571	0.45254
86.951	0.44753
87.332	0.44234
87.716	0.43834
88.101	0.43582
88.488	0.43609
88.876	0.44627
89.266	0.4592
89.658	0.45382
90.052	0.44245
90.447	0.43726
90.844	0.44642
91.243	0.45292
91.643	0.4559
92.046	0.45359
92.45	0.43996
92.856	0.42759
93.263	0.41568
93.673	0.40127
94.084	0.39012
94.497	0.3834
94.912	0.38267
95.328	0.39216
95.747	0.39545
96.167	0.39557
96.589	0.39499
97.013	0.39031
97.439	0.37716
97.867	0.38413
98.297	0.412
98.728	0.43027
99.161	0.4383
99.597	0.4612
100.03	0.50418
100.47	0.56116
100.91	0.60803
101.36	0.65332
101.8	0.693
102.25	0.74001
102.7	0.79133
103.15	0.83884
103.6	0.89875
104.06	0.9589
104.51	0.97299
104.97	0.88767
105.43	0.75041
105.9	0.61608
106.36	0.5304
106.83	0.49236
107.3	0.45993
107.77	0.42327
108.24	0.35898
108.72	0.26756
109.19	0.1785
109.67	0.13173
110.15	0.12405
110.64	0.11639
111.12	0.10877
111.61	0.10118
112.1	0.093629
112.59	0.086107
113.09	0.078618
113.58	0.071337
114.08	0.06495
114.58	0.058591
115.09	0.05226
115.59	0.045956
116.1	0.03968
116.61	0.033503
117.12	0.03164
117.63	0.029786
118.15	0.02794
118.67	0.026102
119.19	0.024272
119.71	0.022941
120.24	0.021625
120.77	0.020315
121.3	0.01901
121.83	0.017978
122.36	0.017231
122.9	0.016486
123.44	0.015745
123.98	0.013826
124.53	0.011427
125.07	0.009037
125.62	0.008738
126.18	0.008544
126.73	0.008351
127.29	0.008158
127.84	0.007966
128.4	0.007775
128.97	0.007585
129.54	0.007396
130.1	0.007279
130.67	0.007171
131.25	0.007064
131.82	0.006958
132.4	0.006851
132.98	0.006746
133.57	0.006619
134.15	0.006439
134.74	0.00626
135.34	0.006082
135.93	0.005904
136.53	0.005725
137.12	0.005547
137.73	0.00538
138.33	0.005527
138.94	0.005673
139.55	0.005819
140.16	0.005851
140.78	0.005798
141.39	0.005664
142.02	0.00546
142.64	0.005258
143.27	0.005056
143.89	0.004881
144.52	0.004884
145.16	0.004887
145.8	0.00489
146.44	0.004893
147.08	0.004881
147.73	0.004813
148.37	0.004744
149.03	0.004677
149.68	0.004609
150.34	0.004542
151	0.004475
151.66	0.004409
152.32	0.004378
152.99	0.004348
153.67	0.004318
154.34	0.004289
155.02	0.004259
155.7	0.004229
156.38	0.004169
157.07	0.004018
157.76	0.003868
158.45	0.003718
159.15	0.003569
159.84	0.003421
160.55	0.003289
161.25	0.003161
161.96	0.003033
162.67	0.002906
163.38	0.002795
164.1	0.002762
164.82	0.002729
165.54	0.002697
166.27	0.002665
167	0.002633
167.73	0.002601
168.47	0.002569
169.21	0.002537
169.95	0.002506
170.7	0.002475
171.45	0.002443
172.2	0.002412
172.96	0.002381
173.72	0.00235
174.48	0.00232
175.25	0.002289
176.02	0.002257
176.79	0.002226
177.56	0.002195
178.34	0.002164
179.13	0.002133
179.91	0.002103
180.7	0.002072
181.5	0.002041
182.29	0.002011
183.09	0.002
183.9	0.00199
184.7	0.00198
185.51	0.00197
186.33	0.00196
187.15	0.00195
187.97	0.001941
188.79	0.00193
189.62	0.001921
190.46	0.001912
191.29	0.001902
192.13	0.001893
192.97	0.001883
193.82	0.001873
194.67	0.001864
195.53	0.001855
196.39	0.001846
197.25	0.001837
198.11	0.001827
198.98	0.001818
199.86	0.001809
200.73	0.0018
201.61	0.001791
202.5	0.001783
203.39	0.001774
204.28	0.001766
205.18	0.001757
206.08	0.001748
206.98	0.001739
207.89	0.001731
208.8	0.001723
209.72	0.001714
210.64	0.001706
211.57	0.001697
212.5	0.00169
213.43	0.001681
214.36	0.001673
215.31	0.001665
216.25	0.001657
217.2	0.001649
218.15	0.00164
219.11	0.001633
220.07	0.001625
221.04	0.001617
222.01	0.001609
222.98	0.001602
223.96	0.001594
224.95	0.001586
225.93	0.001579
226.93	0.001571
227.92	0.001563
228.92	0.001555
229.93	0.001549
230.94	0.001541
231.95	0.001534
232.97	0.001526
233.99	0.001519
235.02	0.001512
236.05	0.001504
237.09	0.001498
238.13	0.00149
239.17	0.001483
240.22	0.001476
241.28	0.001469
242.34	0.001462
243.4	0.001455
244.47	0.001448
245.54	0.001442
246.62	0.001434
247.7	0.001428
248.79	0.001421
249.88	0.001414
250.98	0.001407
252.08	0.001401
253.19	0.001395
254.3	0.001387
255.42	0.001381
256.54	0.001375
257.66	0.001368
258.79	0.001361
259.93	0.001355
261.07	0.001349
262.22	0.001343
263.37	0.001336
264.53	0.00133
265.69	0.001324
266.85	0.001318
268.02	0.001312
269.2	0.001305
270.38	0.001299
271.57	0.001293
272.76	0.001287
273.96	0.001281
275.16	0.001276
276.37	0.001269
277.58	0.001263
278.8	0.001257
280.03	0.001252
281.25	0.001246
282.49	0.00124
283.73	0.001234
284.97	0.001229
286.23	0.001222
287.48	0.001217
288.74	0.001211
290.01	0.001206
291.29	0.0012
292.56	0.001195
293.85	0.001189
295.14	0.001184
296.43	0.001178
297.74	0.001173
299.04	0.001168
300.35	0.001162
301.67	0.001157
303	0.001151
304.33	0.001145
305.66	0.00114
307.01	0.001135
308.35	0.00113
309.71	0.001125
311.07	0.001119
312.43	0.001114
313.8	0.001109
315.18	0.001104
316.56	0.001099
317.95	0.001094
319.35	0.001089
320.75	0.001084
322.16	0.001079
323.58	0.001074
324.99	0.001069
326.42	0.001064
327.86	0.001059
329.29	0.001054
330.74	0.00105
332.19	0.001045
333.65	0.00104
335.11	0.001035
336.59	0.00103
338.06	0.001026
339.55	0.001022
341.04	0.001017
342.53	0.001013
344.04	0.001008
345.55	0.001003
347.07	0.000999
348.59	0.000994
350.12	0.00099
351.66	0.000985
353.2	0.00098
354.75	0.000976
356.31	0.000971
357.87	0.000967
359.44	0.000963
361.02	0.000958
362.61	0.000954
364.2	0.000949
365.8	0.000945
367.4	0.000942
369.02	0.000937
370.64	0.000933
372.26	0.000929
373.9	0.000924
375.54	0.00092
377.19	0.000916
378.84	0.000912
380.51	0.000907
382.18	0.000903
383.85	0.000899
385.54	0.000895
387.23	0.000892
388.93	0.000888
390.64	0.000883
392.35	0.000879
394.08	0.000875
395.81	0.000871
397.54	0.000867
399.29	0.000863
401.04	0.000859
402.8	0.000855
404.57	0.000852
406.35	0.000848
408.13	0.000844
409.92	0.00084
411.72	0.000837
413.53	0.000833
415.34	0.000829
417.17	0.000825
419	0.000821
420.84	0.000818
422.69	0.000815
424.54	0.000811
426.4	0.000807
428.28	0.000803
430.16	0.0008
432.05	0.000796
433.94	0.000792
435.85	0.000789
437.76	0.000786
439.68	0.000782
441.61	0.000779
443.55	0.000775
445.5	0.000771
447.45	0.000768
449.42	0.000764
451.39	0.000761
453.37	0.000758
455.36	0.000755
457.36	0.000751
459.37	0.000748
461.39	0.000744
463.41	0.000741
465.45	0.000737
467.49	0.000735
469.54	0.000731
471.6	0.000728
473.67	0.000725
475.75	0.000721
477.84	0.000718
479.94	0.000715
482.05	0.000711
484.16	0.000709
486.29	0.000706
488.42	0.000702
490.57	0.000699
492.72	0.000696
494.88	0.000693
497.06	0.000689
499.24	0.000687
501.43	0.000684
503.63	0.000681
505.84	0.000678
508.06	0.000674
510.29	0.000671
512.53	0.000668
514.78	0.000665
517.04	0.000663
519.31	0.00066
521.59	0.000657
523.88	0.000654
526.18	0.000651
528.49	0.000648
530.81	0.000645
533.14	0.000643
535.48	0.00064
537.83	0.000637
540.19	0.000634
542.56	0.000631
544.95	0.000628
547.34	0.000625
549.74	0.000622
552.15	0.00062
554.58	0.000617
557.01	0.000614
559.46	0.000611
561.91	0.000609
564.38	0.000606
566.86	0.000603
569.35	0.000601
571.85	0.000598
574.36	0.000596
576.88	0.000593
579.41	0.00059
581.95	0.000587
584.51	0.000585
587.07	0.000583
589.65	0.00058
592.24	0.000577
594.84	0.000575
597.45	0.000572
600.07	0.000569
602.71	0.000567
605.35	0.000564
608.01	0.000562
610.68	0.00056
613.36	0.000557
616.05	0.000555
618.76	0.000552
621.47	0.000549
624.2	0.000547
626.94	0.000545
629.7	0.000543
632.46	0.00054
635.24	0.000538
638.02	0.000535
640.82	0.000533
643.64	0.00053
646.46	0.000528
649.3	0.000526
652.15	0.000524
655.02	0.000521
657.89	0.000519
660.78	0.000516
663.68	0.000514
666.59	0.000512
669.52	0.00051
672.46	0.000508
675.41	0.000505
678.37	0.000503
681.35	0.000501
684.34	0.000498
687.35	0.000496
690.37	0.000494
693.4	0.000492
696.44	0.00049
699.5	0.000488
702.57	0.000486
705.65	0.000483
708.75	0.000481
711.86	0.000479
714.99	0.000477
718.13	0.000475
721.28	0.000473
724.45	0.000471
727.62	0.000469
730.82	0.000466
734.03	0.000464
737.25	0.000462
740.49	0.00046
743.74	0.000459
747	0.000457
750.28	0.000455
753.57	0.000452
756.88	0.00045
760.21	0.000448
763.54	0.000446
766.89	0.000444
770.26	0.000443
773.64	0.000441
777.04	0.000439
780.45	0.000437
783.88	0.000435
787.32	0.000433
790.77	0.000431
794.24	0.000429
797.73	0.000428
801.23	0.000426
804.75	0.000424
808.28	0.000422
811.83	0.00042
815.4	0.000418
818.98	0.000416
822.57	0.000414
826.18	0.000412
829.81	0.000411
833.45	0.000409
837.11	0.000407
840.79	0.000405
844.48	0.000403
848.18	0.000401
851.91	0.0004
855.65	0.000398
859.4	0.000396
863.18	0.000395
866.96	0.000393
870.77	0.000391
874.59	0.000389
878.43	0.000388
882.29	0.000386
886.16	0.000384
890.05	0.000382
893.96	0.000381
897.88	0.00038
901.82	0.000378
905.78	0.000376
909.76	0.000374
913.75	0.000373
917.77	0.000371
921.79	0.000369
925.84	0.000367
929.9	0.000366
933.99	0.000365
938.09	0.000363
942.2	0.000361
946.34	0.00036
950.5	0.000358
954.67	0.000356
958.86	0.000355
963.07	0.000353
967.3	0.000351
971.54	0.000351
975.81	0.000349
980.09	0.000347
984.39	0.000346
988.72	0.000344
993.06	0.000343
997.42	0.000341
1001.8	0.000339
1006.2	0.000338
1010.6	0.000336
1015.1	0.000336
1019.5	0.000334
1024	0.000333
1028.5	0.000331
1033	0.000329
1037.5	0.000328
1042.1	0.000326
1046.7	0.000325
1051.3	0.000323
1055.9	0.000322
1060.5	0.000321
1065.2	0.00032
1069.8	0.000318
1074.5	0.000317
1079.2	0.000315
1084	0.000314
1088.7	0.000312
1093.5	0.000311
1098.3	0.000309
1103.1	0.000308
1108	0.000306
1112.8	0.000306
1117.7	0.000305
1122.6	0.000303
1127.6	0.000302
1132.5	0.0003
1137.5	0.000299
1142.5	0.000298
1147.5	0.000296
1152.5	0.000295
1157.6	0.000293
1162.7	0.000292
1167.8	0.000292
1172.9	0.00029
1178.1	0.000289
1183.2	0.000288
1188.4	0.000286
1193.6	0.000285
1198.9	0.000284
1204.1	0.000282
1209.4	0.000281
1214.7	0.00028
1220.1	0.000278
1225.4	0.000278
1230.8	0.000277
1236.2	0.000275
1241.6	0.000274
1247.1	0.000273
1252.6	0.000271
1258.1	0.00027
1263.6	0.000269
1269.1	0.000268
1274.7	0.000266
1280.3	0.000265
1285.9	0.000264
1291.6	0.000263
1297.2	0.000262
1302.9	0.000261
1308.6	0.00026
1314.4	0.000259
1320.2	0.000258
1325.9	0.000256
1331.8	0.000255
1337.6	0.000254
1343.5	0.000253
1349.4	0.000252
1355.3	0.00025
1361.3	0.000249
1367.2	0.000249
1373.2	0.000248
1379.3	0.000247
1385.3	0.000246
1391.4	0.000244
1397.5	0.000243
1403.7	0.000242
1409.8	0.000241
1416	0.00024
1422.2	0.000239
1428.5	0.000238
1434.7	0.000236
1441	0.000235
1447.3	0.000235
1453.7	0.000234
1460.1	0.000233
1466.5	0.000232
1472.9	0.000231
1479.4	0.00023
1485.9	0.000229
1492.4	0.000228
1499	0.000227
1505.5	0.000225
1512.2	0.000224
1518.8	0.000223
1525.5	0.000222
1532.2	0.000221
1538.9	0.000221
1545.6	0.00022
1552.4	0.000219
1559.3	0.000218
1566.1	0.000217
1573	0.000216
1579.9	0.000215
1586.8	0.000214
1593.8	0.000213
1600.8	0.000212
1607.8	0.000211
1614.8	0.00021
1621.9	0.000209
1629.1	0.000208
1636.2	0.000208
1643.4	0.000207
1650.6	0.000206
1657.9	0.000205
1665.1	0.000204
1672.4	0.000203
1679.8	0.000202
1687.2	0.000201
1694.6	0.0002
1702	0.0002
1709.5	0.000199
1717	0.000198
1724.5	0.000197
1732.1	0.000196
1739.7	0.000195
1747.3	0.000194
1755	0.000194
1762.7	0.000193
1770.5	0.000192
1778.2	0.000191
1786	0.00019
1793.9	0.00019
1801.7	0.000189
1809.6	0.000188
1817.6	0.000187
1825.6	0.000186
1833.6	0.000185
1841.6	0.000184
1849.7	0.000183
1857.8	0.000183
1866	0.000182
1874.2	0.000181
1882.4	0.00018
1890.7	0.00018
1899	0.000179
1907.3	0.000178
1915.7	0.000178
1924.1	0.000177
1932.5	0.000176
1941	0.000175
1949.5	0.000174
1958.1	0.000173
1966.7	0.000173
1975.3	0.000172
1984	0.000171
1992.7	0.00017
2001.5	0.000169
