1.032999999999999891e-02	9.989999999999999991e-01	8.240000000000000432e-12
1.239999999999999956e-02	1.000999999999999890e+00	9.880000000000000714e-12
1.549999999999999989e-02	1.000000000000000000e+00	2.469999999999999936e-11
2.065999999999999781e-02	1.000999999999999890e+00	8.089999999999999981e-11
2.479999999999999913e-02	1.000999999999999890e+00	1.499999999999999990e-10
3.099999999999999978e-02	1.002000000000000002e+00	3.769999999999999906e-10
4.132999999999999868e-02	1.002000000000000002e+00	1.060000000000000062e-09
6.198999999999999649e-02	1.000999999999999890e+00	4.680000000000000382e-09
8.265999999999999737e-02	1.000000000000000000e+00	1.460000000000000004e-08
1.127000000000000085e-01	1.002000000000000002e+00	5.139999999999999704e-08
1.377999999999999781e-01	1.000000000000000000e+00	1.119999999999999970e-07
1.771000000000000074e-01	1.002999999999999892e+00	2.970000000000000257e-07
2.479999999999999982e-01	1.002000000000000002e+00	1.049999999999999900e-06
4.133000000000000007e-01	1.000999999999999890e+00	7.510000000000000094e-06
6.199000000000000066e-01	1.000000000000000000e+00	3.240000000000000150e-05
7.292999999999999483e-01	1.000000000000000000e+00	6.129999999999999924e-05
7.514000000000000679e-01	1.000000000000000000e+00	4.619999999999999812e-05
7.749000000000000332e-01	1.000000000000000000e+00	2.320000000000000149e-05
7.998999999999999444e-01	1.000000000000000000e+00	6.430000000000000270e-06
8.266000000000000014e-01	1.000000000000000000e+00	7.140000000000000249e-06
1.239999999999999991e+00	1.000000000000000000e+00	3.100000000000000135e-05
1.550000000000000044e+00	1.000000000000000000e+00	7.519999999999999829e-05
2.066000000000000281e+00	9.989999999999999991e-01	2.269999999999999882e-04
2.479999999999999982e+00	9.989999999999999991e-01	4.659999999999999971e-04
3.100000000000000089e+00	9.979999999999999982e-01	1.010000000000000047e-03
3.541999999999999815e+00	9.959999999999999964e-01	1.539999999999999919e-03
4.133000000000000007e+00	9.959999999999999964e-01	2.569999999999999802e-03
4.427999999999999936e+00	9.959999999999999964e-01	3.310000000000000008e-03
4.769000000000000128e+00	9.919999999999999929e-01	4.259999999999999898e-03
5.165999999999999481e+00	9.929999999999999938e-01	5.459999999999999576e-03
5.636000000000000121e+00	9.929999999999999938e-01	6.960000000000000041e-03
6.198999999999999844e+00	9.909999999999999920e-01	8.760000000000000425e-03
6.525000000000000355e+00	9.889999999999999902e-01	9.870000000000000301e-03
6.887999999999999901e+00	9.889999999999999902e-01	1.110000000000000049e-02
7.293000000000000149e+00	9.879999999999999893e-01	1.370000000000000037e-02
7.748999999999999666e+00	9.879999999999999893e-01	1.600000000000000033e-02
8.266000000000000014e+00	9.889999999999999902e-01	1.729999999999999941e-02
8.551000000000000156e+00	9.879999999999999893e-01	1.810000000000000150e-02
8.855999999999999872e+00	9.879999999999999893e-01	1.909999999999999892e-02
8.983999999999999986e+00	9.879999999999999893e-01	1.969999999999999876e-02
9.116000000000001435e+00	9.869999999999999885e-01	2.040000000000000147e-02
9.253000000000000114e+00	9.869999999999999885e-01	2.129999999999999949e-02
9.393000000000000682e+00	9.859999999999999876e-01	2.259999999999999856e-02
9.537000000000000810e+00	9.859999999999999876e-01	2.440000000000000155e-02
9.685999999999999943e+00	9.869999999999999885e-01	2.610000000000000167e-02
9.839999999999999858e+00	9.879999999999999893e-01	2.769999999999999893e-02
9.998999999999998778e+00	9.889999999999999902e-01	2.879999999999999921e-02
1.016000000000000014e+01	9.909999999999999920e-01	2.920000000000000026e-02
1.033000000000000007e+01	9.919999999999999929e-01	2.939999999999999905e-02
1.041999999999999993e+01	9.919999999999999929e-01	2.970000000000000070e-02
1.050999999999999979e+01	9.919999999999999929e-01	2.999999999999999889e-02
1.059999999999999964e+01	9.929999999999999938e-01	3.030000000000000054e-02
1.068999999999999950e+01	9.929999999999999938e-01	3.009999999999999828e-02
1.077999999999999936e+01	9.939999999999999947e-01	3.039999999999999994e-02
1.088000000000000078e+01	9.939999999999999947e-01	3.059999999999999873e-02
1.097000000000000064e+01	9.949999999999999956e-01	3.070000000000000159e-02
1.107000000000000028e+01	9.949999999999999956e-01	3.090000000000000038e-02
1.116999999999999993e+01	9.949999999999999956e-01	3.090000000000000038e-02
1.127000000000000135e+01	9.959999999999999964e-01	3.070000000000000159e-02
1.136999999999999922e+01	9.969999999999999973e-01	3.049999999999999933e-02
1.148000000000000043e+01	9.969999999999999973e-01	2.989999999999999949e-02
1.158999999999999986e+01	9.969999999999999973e-01	2.929999999999999966e-02
1.170000000000000107e+01	9.959999999999999964e-01	2.860000000000000042e-02
1.180999999999999872e+01	9.959999999999999964e-01	2.809999999999999998e-02
1.191999999999999993e+01	9.939999999999999947e-01	2.809999999999999998e-02
1.204000000000000092e+01	9.919999999999999929e-01	2.860000000000000042e-02
1.216000000000000014e+01	9.919999999999999929e-01	2.989999999999999949e-02
1.227999999999999936e+01	9.889999999999999902e-01	3.239999999999999825e-02
1.240000000000000036e+01	9.889999999999999902e-01	3.629999999999999893e-02
1.251999999999999957e+01	9.909999999999999920e-01	3.960000000000000325e-02
1.265000000000000036e+01	9.939999999999999947e-01	4.270000000000000184e-02
1.277999999999999936e+01	9.979999999999999982e-01	4.420000000000000318e-02
1.291999999999999993e+01	1.000999999999999890e+00	4.420000000000000318e-02
1.305000000000000071e+01	1.004999999999999893e+00	4.390000000000000152e-02
1.318999999999999950e+01	1.006999999999999895e+00	4.259999999999999898e-02
1.333000000000000007e+01	1.008999999999999897e+00	4.109999999999999765e-02
1.348000000000000043e+01	1.010999999999999899e+00	3.980000000000000204e-02
1.362000000000000099e+01	1.012000000000000011e+00	3.860000000000000236e-02
1.378000000000000114e+01	1.012999999999999901e+00	3.660000000000000059e-02
1.392999999999999972e+01	1.014000000000000012e+00	3.509999999999999926e-02
1.408999999999999986e+01	1.014000000000000012e+00	3.350000000000000200e-02
1.425000000000000000e+01	1.014000000000000012e+00	3.209999999999999659e-02
1.441999999999999993e+01	1.014000000000000012e+00	3.150000000000000022e-02
1.458999999999999986e+01	1.014000000000000012e+00	3.119999999999999857e-02
1.475999999999999979e+01	1.016000000000000014e+00	3.059999999999999873e-02
1.493999999999999950e+01	1.016999999999999904e+00	2.889999999999999861e-02
1.511999999999999922e+01	1.016999999999999904e+00	2.690000000000000030e-02
1.531000000000000050e+01	1.016000000000000014e+00	2.500000000000000139e-02
1.550000000000000000e+01	1.016000000000000014e+00	2.429999999999999868e-02
1.568999999999999950e+01	1.014999999999999902e+00	2.380000000000000171e-02
1.590000000000000036e+01	1.014000000000000012e+00	2.380000000000000171e-02
1.610000000000000142e+01	1.014999999999999902e+00	2.450000000000000094e-02
1.631000000000000227e+01	1.016000000000000014e+00	2.400000000000000050e-02
1.653000000000000114e+01	1.018000000000000016e+00	2.400000000000000050e-02
1.675000000000000000e+01	1.020999999999999908e+00	2.359999999999999945e-02
1.687000000000000099e+01	1.024999999999999911e+00	2.400000000000000050e-02
1.691000000000000014e+01	1.028000000000000025e+00	2.380000000000000171e-02
1.696000000000000085e+01	1.030000000000000027e+00	1.959999999999999937e-02
1.701000000000000156e+01	1.036000000000000032e+00	1.739999999999999880e-02
1.705000000000000071e+01	1.030999999999999917e+00	6.060000000000000282e-03
1.710000000000000142e+01	1.026000000000000023e+00	4.789999999999999987e-03
1.721999999999999886e+01	1.020999999999999908e+00	4.610000000000000382e-03
1.746000000000000085e+01	1.014999999999999902e+00	4.499999999999999660e-03
1.771000000000000085e+01	1.012000000000000011e+00	4.449999999999999963e-03
1.796999999999999886e+01	1.008999999999999897e+00	4.400000000000000265e-03
1.850999999999999801e+01	1.004999999999999893e+00	4.329999999999999648e-03
1.907000000000000028e+01	1.000999999999999890e+00	4.270000000000000358e-03
2.066000000000000014e+01	9.919999999999999929e-01	4.510000000000000120e-03
2.480000000000000071e+01	9.739999999999999769e-01	5.839999999999999705e-03
3.100000000000000000e+01	9.439999999999999503e-01	8.640000000000000110e-03
4.132999999999999829e+01	8.820000000000000062e-01	1.250000000000000069e-02
6.199000000000000199e+01	6.730000000000000426e-01	2.670000000000000151e-02
6.887999999999999545e+01	5.639999999999999458e-01	3.549999999999999684e-02
7.749000000000000909e+01	3.459999999999999742e-01	6.479999999999999649e-02
7.999000000000000909e+01	2.520000000000000018e-01	9.969999999999999696e-02
8.265999999999999659e+01	1.519999999999999962e-01	1.869999999999999996e-01
8.551000000000000512e+01	1.069999999999999979e-01	3.009999999999999898e-01
8.856000000000000227e+01	8.400000000000000522e-02	4.040000000000000258e-01
9.536999999999999034e+01	6.500000000000000222e-02	5.929999999999999716e-01
1.032999999999999972e+02	6.099999999999999867e-02	7.670000000000000151e-01
1.126999999999999886e+02	6.099999999999999867e-02	9.459999999999999520e-01
1.378000000000000114e+02	7.299999999999999545e-02	1.350000000000000089e+00
1.770999999999999943e+02	9.800000000000000377e-02	1.929999999999999938e+00
2.480000000000000000e+02	1.829999999999999960e-01	2.879999999999999893e+00
3.100000000000000000e+02	2.979999999999999871e-01	3.700000000000000178e+00
4.133000000000000114e+02	5.480000000000000426e-01	5.000000000000000000e+00
4.959000000000000341e+02	7.710000000000000187e-01	5.910000000000000142e+00
6.198999999999999773e+02	1.292000000000000037e+00	7.280000000000000249e+00
6.887999999999999545e+02	1.731000000000000094e+00	7.959999999999999964e+00
7.292999999999999545e+02	2.081999999999999851e+00	8.339999999999999858e+00
7.748999999999999773e+02	2.588000000000000078e+00	8.550000000000000711e+00
8.266000000000000227e+02	2.829000000000000181e+00	7.750000000000000000e+00
8.856000000000000227e+02	1.915999999999999925e+00	7.750000000000000000e+00
9.537000000000000455e+02	1.250000000000000000e+00	8.679999999999999716e+00
1.033000000000000000e+03	9.939999999999999947e-01	9.730000000000000426e+00
1.127000000000000000e+03	9.260000000000000453e-01	1.090000000000000036e+01
1.240000000000000000e+03	9.489999999999999547e-01	1.219999999999999929e+01
1.378000000000000000e+03	1.014999999999999902e+00	1.369999999999999929e+01
1.771000000000000000e+03	1.274000000000000021e+00	1.780000000000000071e+01
2.480000000000000000e+03	1.945999999999999952e+00	2.510000000000000142e+01
3.100000000000000000e+03	2.684000000000000163e+00	3.130000000000000071e+01
4.133000000000000000e+03	4.310999999999999943e+00	4.179999999999999716e+01
6.199000000000000000e+03	8.731999999999999318e+00	6.200000000000000000e+01
1.240000000000000000e+04	3.239999999999999858e+01	1.190000000000000000e+02
2.480000000000000000e+04	9.570000000000000284e+01	1.850000000000000000e+02
1.240000000000000000e+05	3.230000000000000000e+02	3.830000000000000000e+02
2.480000000000000000e+05	4.840000000000000000e+02	5.280000000000000000e+02
1.240000000000000000e+06	1.120000000000000000e+03	1.160000000000000000e+03
