 120.00000	  18.72637	  13.28039
 125.00000	  16.79779	   8.60788
 130.00000	  14.82031	   4.17313
 135.00000	  13.32990	   2.26295
 140.00000	  12.55893	   0.79744
 145.00000	  10.82212	   0.18724
 150.00000	   9.90667	   0.04123
 155.00000	   9.14216	   0.03795
 160.00000	   8.70594	   0.05601
 165.00000	   8.39187	   0.06223
 170.00000	   8.01852	   0.04754
 175.00000	   7.72924	   0.03269
 180.00000	   7.54400	   0.01622
 185.00000	   7.37786	   0.01231
 190.00000	   7.23784	   0.01766
 195.00000	   7.10248	   0.02600
 200.00000	   6.97418	   0.03447
 205.00000	   6.87398	   0.03823
 210.00000	   6.79295	   0.03839
 215.00000	   6.71310	   0.03859
 220.00000	   6.63700	   0.03960
 225.00000	   6.56134	   0.04059
 230.00000	   6.49993	   0.03658
 235.00000	   6.44672	   0.02876
 240.00000	   6.39373	   0.02101
 245.00000	   6.34230	   0.01333
 250.00000	   6.29210	   0.01329
 255.00000	   6.24210	   0.01349
 260.00000	   6.19229	   0.01368
 265.00000	   6.15688	   0.02291
 270.00000	   6.12468	   0.03595
 275.00000	   6.09255	   0.04892
 280.00000	   6.06048	   0.06182
 285.00000	   6.02858	   0.05856
 290.00000	   6.00296	   0.04838
 295.00000	   5.97825	   0.03825
 300.00000	   5.95359	   0.02816
 305.00000	   5.92897	   0.01811
 310.00000	   5.90439	   0.01439
 315.00000	   5.88468	   0.01324
 320.00000	   5.86840	   0.01209
 325.00000	   5.85215	   0.01095
 330.00000	   5.83592	   0.00981
 335.00000	   5.81971	   0.00980
 340.00000	   5.80352	   0.01085
 345.00000	   5.78871	   0.01190
 350.00000	   5.77884	   0.01295
 355.00000	   5.76899	   0.01400
 360.00000	   5.75914	   0.01505
 365.00000	   5.74929	   0.01610
 370.00000	   5.73946	   0.01671
 375.00000	   5.72964	   0.01680
 380.00000	   5.71982	   0.01689
 385.00000	   5.71207	   0.01698
 390.00000	   5.70749	   0.01707
 395.00000	   5.70291	   0.01717
 400.00000	   5.69833	   0.01726
 405.00000	   5.69376	   0.01736
 410.00000	   5.68918	   0.01745
 415.00000	   5.68461	   0.01753
 420.00000	   5.68004	   0.01760
 425.00000	   5.67547	   0.01768
 430.00000	   5.67091	   0.01775
 435.00000	   5.66634	   0.01782
 440.00000	   5.66165	   0.01789
 445.00000	   5.65655	   0.01797
 450.00000	   5.65145	   0.01804
 455.00000	   5.64635	   0.01811
 460.00000	   5.64125	   0.01818
 465.00000	   5.63616	   0.01825
 470.00000	   5.63107	   0.01831
 475.00000	   5.62598	   0.01837
 480.00000	   5.62089	   0.01842
 485.00000	   5.61580	   0.01847
 490.00000	   5.61072	   0.01853
 495.00000	   5.60564	   0.01858
 500.00000	   5.60056	   0.01863
 505.00000	   5.59549	   0.01869
 510.00000	   5.59042	   0.01874
 515.00000	   5.58676	   0.01880
 520.00000	   5.58676	   0.01886
 525.00000	   5.58676	   0.01892
 530.00000	   5.58676	   0.01898
 535.00000	   5.58676	   0.01903
 540.00000	   5.58676	   0.01907
 545.00000	   5.58676	   0.01912
 550.00000	   5.58676	   0.01916
 555.00000	   5.58676	   0.01921
 560.00000	   5.58676	   0.01926
 565.00000	   5.58676	   0.01930
 570.00000	   5.58676	   0.01935
 575.00000	   5.58676	   0.01939
 580.00000	   5.58676	   0.01944
 585.00000	   5.58676	   0.01948
 590.00000	   5.58676	   0.01953
 595.00000	   5.58676	   0.01957
 600.00000	   5.58676	   0.01962
 605.00000	   5.58676	   0.01966
 610.00000	   5.58676	   0.01971
 615.00000	   5.58676	   0.01976
 620.00000	   5.58625	   0.01980
 625.00000	   5.58309	   0.01984
 630.00000	   5.57993	   0.01988
 635.00000	   5.57678	   0.01991
 640.00000	   5.57362	   0.01994
 645.00000	   5.57047	   0.01996
 650.00000	   5.56731	   0.01999
 655.00000	   5.56416	   0.02001
 660.00000	   5.56101	   0.02004
 665.00000	   5.55786	   0.02006
 670.00000	   5.55471	   0.02009
 675.00000	   5.55156	   0.02011
 680.00000	   5.54841	   0.02013
 685.00000	   5.54527	   0.02016
 690.00000	   5.54212	   0.02018
 695.00000	   5.53898	   0.02021
 700.00000	   5.53583	   0.02023
 705.00000	   5.53269	   0.02026
 710.00000	   5.52955	   0.02028
 715.00000	   5.52640	   0.02031
 720.00000	   5.52326	   0.02033
 725.00000	   5.52012	   0.02035
 730.00000	   5.51698	   0.02038
 735.00000	   5.51385	   0.02040
 740.00000	   5.51071	   0.02043
 745.00000	   5.50757	   0.02045
 750.00000	   5.50444	   0.02048
 755.00000	   5.50130	   0.02050
 760.00000	   5.49817	   0.02052
 765.00000	   5.49504	   0.02055
 770.00000	   5.49190	   0.02057
 775.00000	   5.48877	   0.02060
 780.00000	   5.48601	   0.02062
 785.00000	   5.48544	   0.02065
 790.00000	   5.48486	   0.02068
 795.00000	   5.48428	   0.02071
 800.00000	   5.48370	   0.02073
