2.065999999999999943e+02	-5.522618999999999723e+00
2.101000000000000227e+02	-6.095879999999999299e+00
2.137999999999999829e+02	-6.791252000000000066e+00
2.175000000000000000e+02	-7.666991000000001222e+00
2.214000000000000057e+02	-8.785073000000000576e+00
2.253999999999999773e+02	-1.026428700000000127e+01
2.295999999999999943e+02	-1.196303699999999814e+01
2.339000000000000057e+02	-1.231422300000000192e+01
2.384000000000000057e+02	-9.408274999999999721e+00
2.431000000000000227e+02	-4.631660999999999362e+00
2.480000000000000000e+02	2.187600000000031741e-01
2.530000000000000000e+02	3.500171999999997396e+00
2.582999999999999545e+02	6.914628000000002217e+00
2.637999999999999545e+02	1.012581700000000140e+01
2.695000000000000000e+02	1.129512800000000183e+01
2.755000000000000000e+02	1.107208400000000026e+01
2.818000000000000114e+02	1.058558900000000236e+01
2.883000000000000114e+02	1.014389999999999858e+01
2.952000000000000455e+02	9.836546999999999485e+00
3.023999999999999773e+02	9.667503999999997433e+00
3.100000000000000000e+02	9.650859000000000520e+00
3.179000000000000341e+02	9.828291000000001887e+00
3.262999999999999545e+02	1.104257199999999983e+01
3.351000000000000227e+02	2.050479999999999947e+01
3.443999999999999773e+02	2.735341199999999517e+01
3.541999999999999886e+02	2.483173899999999890e+01
3.647000000000000455e+02	2.224937700000000262e+01
3.756999999999999886e+02	2.023084799999999817e+01
3.875000000000000000e+02	1.871335200000000398e+01
3.998999999999999773e+02	1.753079100000000068e+01
4.133000000000000114e+02	1.660438500000000417e+01
4.275000000000000000e+02	1.588661100000000204e+01
4.428000000000000114e+02	1.534463700000000053e+01
4.591999999999999886e+02	1.447729600000000083e+01
4.768999999999999773e+02	1.362335999999999814e+01
4.959000000000000341e+02	1.299598899999999979e+01
5.165999999999999091e+02	1.249620900000000034e+01
5.391000000000000227e+02	1.206867200000000118e+01
5.636000000000000227e+02	1.170324099999999845e+01
5.904000000000000909e+02	1.139062500000000000e+01
6.198999999999999773e+02	1.111555599999999977e+01
6.525000000000000000e+02	1.085702500000000015e+01
6.887999999999999545e+02	1.064064399999999999e+01
7.292999999999999545e+02	1.045875599999999928e+01
7.748999999999999773e+02	1.029768100000000075e+01
8.266000000000000227e+02	1.009968399999999988e+01
