2480	1.726	0
2066	1.736	0
1771	1.742	0
1550	1.746	0
1378	1.749	0
1240	1.751	0
1127	1.7526	0
1033	1.7542	0
953.7	1.7558	0
885.6	1.7574	0
826.6	1.759	0
774.9	1.7606	0
729.3	1.7622	0
688.8	1.7638	0
652.5	1.7654	0
619.9	1.767	0
590.4	1.768568	0
563.6	1.770144	0
539.1	1.771736	0
516.6	1.773352	0
495.9	1.775	0
476.9	1.776656	0
459.2	1.778368	0
442.8	1.780152	0
427.5	1.782024	0
413.3	1.784	0
399.9	1.786192	0
387.5	1.788496	0
375.7	1.790904	0
364.7	1.793408	0
354.2	1.796	0
344.4	1.798608	0
335.1	1.801304	0
326.3	1.804096	0
317.9	1.806992	0
310	1.81	0
302.4	1.813576	0
295.2	1.817168	0
288.3	1.820672	0
281.8	1.823984	0
275.5	1.827	0
269.5	1.829104	0
263.8	1.830832	0
258.3	1.832208	0
253	1.833256	0
248	1.834	0
243.1	1.834336	0
238.4	1.834448	0
233.9	1.834392	0
229.6	1.834224	0
225.4	1.834	0
221.4	1.833776	0
217.5	1.833608	0
213.8	1.833552	0
210.1	1.833664	0
206.6	1.834	0
177.1	1.939	0.007
155.0	2.074	0.032
137.8	2.338	0.108
124.0	2.519	0.629
