2480	1.726
2066	1.736
1771	1.742
1550	1.746
1378	1.749
1240	1.751
1127	1.7526
1033	1.7542
953.7	1.7558
885.6	1.7574
826.6	1.759
774.9	1.7606
729.3	1.7622
688.8	1.7638
652.5	1.7654
619.9	1.767
590.4	1.7686
563.6	1.7701
539.1	1.7717
516.6	1.7734
495.9	1.775
476.9	1.7767
459.2	1.7784
442.8	1.7802
427.5	1.782
413.3	1.784
399.9	1.7862
387.5	1.7885
375.7	1.7909
364.7	1.7934
354.2	1.796
344.4	1.7986
335.1	1.8013
326.3	1.8041
317.9	1.807
310	1.81
302.4	1.8136
295.2	1.8172
288.3	1.8207
281.8	1.824
275.5	1.827
269.5	1.8291
263.8	1.8308
258.3	1.8322
253	1.8333
248	1.834
243.1	1.8343
238.4	1.8344
233.9	1.8344
229.6	1.8342
225.4	1.834
221.4	1.8338
217.5	1.8336
213.8	1.8336
210.1	1.8337
206.6	1.834
177.1	1.939
155	2.074
137.8	2.338
124	2.519
