2.360000000000000320e+00	9.966699999999999449e-01	7.740000000000000352e-03
3.160000000000000142e+00	9.977000000000000313e-01	5.300000000000000024e-03
4.469999999999999751e+00	9.919799999999999729e-01	2.370000000000000145e-03
6.760000000000000675e+00	9.812999999999999501e-01	2.909999999999999826e-03
1.140000000000000036e+01	9.172000000000000153e-01	8.179999999999999771e-03
1.354999999999999893e+01	8.599999999999999867e-01	4.229999999999999732e-02
1.714000000000000057e+01	8.629999999999999893e-01	2.929999999999999827e-01
2.429999999999999716e+01	9.280000000000000471e-01	3.099999999999999978e-01
2.562999999999999901e+01	9.270000000000000462e-01	3.459999999999999742e-01
3.037999999999999901e+01	8.950000000000000178e-01	3.019999999999999907e-01
3.270000000000000284e+01	8.940000000000000169e-01	3.039999999999999925e-01
3.568000000000000682e+01	8.719999999999999973e-01	3.509999999999999787e-01
3.792999999999999972e+01	8.960000000000000187e-01	4.269999999999999907e-01
4.059000000000000341e+01	9.529999999999999583e-01	4.510000000000000120e-01
4.478000000000000114e+01	8.890000000000000124e-01	4.249999999999999889e-01
4.607000000000000028e+01	8.479999999999999760e-01	4.460000000000000075e-01
4.895000000000000284e+01	8.329999999999999627e-01	5.070000000000000062e-01
5.390999999999999659e+01	1.040000000000000036e+00	7.459999999999999964e-01
5.842999999999999972e+01	1.090000000000000080e+00	6.580000000000000293e-01
6.162999999999999545e+01	1.060000000000000053e+00	5.639999999999999458e-01
6.714000000000000057e+01	1.030000000000000027e+00	5.859999999999999654e-01
7.184999999999999432e+01	9.819999999999999840e-01	5.959999999999999742e-01
7.359000000000000341e+01	1.129999999999999893e+00	7.510000000000000009e-01
7.437000000000000455e+01	1.169999999999999929e+00	7.209999999999999742e-01
8.345000000000000284e+01	1.280000000000000027e+00	7.500000000000000000e-01
8.779999999999999716e+01	1.370000000000000107e+00	6.879999999999999449e-01
9.198000000000000398e+01	1.320000000000000062e+00	6.570000000000000284e-01
9.321000000000000796e+01	1.270000000000000018e+00	6.250000000000000000e-01
9.887999999999999545e+01	1.320000000000000062e+00	5.859999999999999654e-01
1.025799999999999983e+02	1.229999999999999982e+00	5.709999999999999520e-01
1.048199999999999932e+02	1.270000000000000018e+00	5.769999999999999574e-01
1.066700000000000017e+02	1.300000000000000044e+00	5.649999999999999467e-01
1.085699999999999932e+02	1.300000000000000044e+00	5.500000000000000444e-01
1.135000000000000000e+02	1.330000000000000071e+00	5.180000000000000160e-01
1.200699999999999932e+02	1.270000000000000018e+00	4.899999999999999911e-01
1.215699999999999932e+02	1.209999999999999964e+00	5.150000000000000133e-01
