2.637999999999999545e+02	-1.177760800000000074e+01
2.651999999999999886e+02	-1.214207999999999821e+01
2.666000000000000227e+02	-1.225515200000000249e+01
2.681000000000000227e+02	-1.280432000000000059e+01
2.695000000000000000e+02	-1.329240500000000225e+01
2.710000000000000000e+02	-1.348324800000000501e+01
2.725000000000000000e+02	-1.375305300000000130e+01
2.740000000000000000e+02	-1.412749499999999969e+01
2.755000000000000000e+02	-1.438272499999999710e+01
2.771000000000000227e+02	-1.453887599999999480e+01
2.786000000000000227e+02	-1.473696000000000161e+01
2.801999999999999886e+02	-1.484363300000000052e+01
2.818000000000000114e+02	-1.483894500000000072e+01
2.833999999999999773e+02	-1.482079499999999506e+01
2.850000000000000000e+02	-1.436701499999999854e+01
2.866999999999999886e+02	-1.403803499999999538e+01
2.883000000000000114e+02	-1.325570500000000074e+01
2.900000000000000000e+02	-1.249567600000000134e+01
2.916999999999999886e+02	-1.101759999999999629e+01
2.935000000000000000e+02	-9.318400000000000460e+00
2.952000000000000455e+02	-7.150054999999998273e+00
2.970000000000000000e+02	-4.689856000000002467e+00
2.988000000000000114e+02	-2.034290999999992522e+00
3.005999999999999659e+02	6.531000000000055650e-01
3.023999999999999773e+02	3.255699999999993821e+00
3.043000000000000114e+02	5.440593000000003343e+00
3.060999999999999659e+02	7.369775000000004184e+00
3.080000000000000000e+02	8.904776000000001801e+00
3.100000000000000000e+02	1.029985599999999657e+01
3.119000000000000341e+02	1.148554400000000086e+01
3.139000000000000341e+02	1.234519999999999840e+01
3.159000000000000341e+02	1.311846800000000179e+01
3.179000000000000341e+02	1.390795999999999744e+01
3.200000000000000000e+02	1.447262399999999971e+01
3.220000000000000000e+02	1.515847999999999729e+01
3.241000000000000227e+02	1.563048299999999990e+01
3.262999999999999545e+02	1.612621500000000196e+01
3.284000000000000341e+02	1.675600000000000023e+01
3.306000000000000227e+02	1.704916499999999857e+01
3.328000000000000114e+02	1.759405700000000294e+01
3.351000000000000227e+02	1.799637200000000092e+01
3.373999999999999773e+02	1.845911699999999911e+01
3.396999999999999886e+02	1.902054000000000045e+01
3.420000000000000000e+02	1.932032900000000097e+01
3.443999999999999773e+02	1.990745899999999580e+01
3.468000000000000114e+02	2.024645100000000042e+01
3.493000000000000114e+02	2.083700699999999983e+01
3.516999999999999886e+02	2.148991200000000035e+01
3.541999999999999886e+02	2.203594400000000419e+01
3.568000000000000114e+02	2.282427199999999345e+01
3.593999999999999773e+02	2.341323300000000174e+01
3.620000000000000000e+02	2.425019499999999795e+01
3.647000000000000455e+02	2.555628899999999604e+01
3.673999999999999773e+02	2.666112000000000393e+01
3.700999999999999659e+02	2.842932400000000115e+01
3.729000000000000341e+02	3.025522499999999937e+01
3.756999999999999886e+02	3.226510100000000136e+01
3.785999999999999659e+02	3.449739999999999895e+01
3.815000000000000000e+02	3.638206399999999263e+01
3.844000000000000341e+02	3.784032299999999083e+01
3.875000000000000000e+02	3.859097599999999773e+01
3.905000000000000000e+02	3.852190099999999262e+01
3.936000000000000227e+02	3.835271999999999792e+01
3.966999999999999886e+02	3.729826400000000319e+01
3.998999999999999773e+02	3.614426399999999973e+01
4.031999999999999886e+02	3.515509099999999165e+01
4.065000000000000000e+02	3.388914900000000330e+01
4.098999999999999773e+02	3.290289599999999837e+01
4.133000000000000114e+02	3.181657600000000130e+01
4.168000000000000114e+02	3.078420700000000210e+01
4.203000000000000114e+02	2.986430400000000418e+01
4.238999999999999773e+02	2.899312899999999615e+01
4.275000000000000000e+02	2.817988800000000182e+01
4.312000000000000455e+02	2.743766400000000161e+01
4.350000000000000000e+02	2.674420799999999687e+01
4.389000000000000341e+02	2.602105999999999852e+01
4.428000000000000114e+02	2.542894499999999525e+01
4.467999999999999545e+02	2.483330499999999930e+01
4.509000000000000341e+02	2.432633599999999774e+01
4.550000000000000000e+02	2.381201999999999686e+01
4.591999999999999886e+02	2.329991999999999663e+01
4.635000000000000000e+02	2.285010000000000119e+01
4.678999999999999773e+02	2.241692699999999761e+01
4.723000000000000114e+02	2.200404800000000449e+01
4.768999999999999773e+02	2.159329499999999769e+01
4.815000000000000000e+02	2.122501499999999908e+01
4.862000000000000455e+02	2.086836500000000072e+01
4.910000000000000000e+02	2.056104100000000301e+01
4.959000000000000341e+02	2.022682000000000357e+01
5.009000000000000341e+02	1.994066700000000125e+01
5.061000000000000227e+02	1.962117899999999793e+01
5.112999999999999545e+02	1.934817599999999871e+01
5.165999999999999091e+02	1.909469100000000097e+01
5.220000000000000000e+02	1.885119999999999507e+01
5.275999999999999091e+02	1.860020499999999544e+01
5.332999999999999545e+02	1.835992900000000105e+01
5.391000000000000227e+02	1.814657599999999604e+01
5.450000000000000000e+02	1.791738899999999646e+01
5.510000000000000000e+02	1.769800799999999796e+01
5.572000000000000455e+02	1.754728000000000065e+01
5.636000000000000227e+02	1.734678400000000309e+01
5.700000000000000000e+02	1.716404899999999856e+01
5.767000000000000455e+02	1.699048399999999859e+01
5.835000000000000000e+02	1.683431999999999817e+01
5.904000000000000909e+02	1.667879999999999541e+01
5.975000000000000000e+02	1.654836799999999641e+01
6.047999999999999545e+02	1.640719136000000233e+01
6.122999999999999545e+02	1.625688000000000244e+01
6.198999999999999773e+02	1.611205200000000204e+01
6.278000000000000682e+02	1.595988100000000109e+01
6.358000000000000682e+02	1.581642899999999941e+01
6.441000000000000227e+02	1.570522500000000043e+01
6.525000000000000000e+02	1.561818300000000015e+01
6.612000000000000455e+02	1.547627500000000111e+01
6.702000000000000455e+02	1.538984800000000064e+01
6.793999999999999773e+02	1.528023199999999804e+01
6.887999999999999545e+02	1.518655999999999828e+01
6.985000000000000000e+02	1.507608684000000032e+01
7.085000000000000000e+02	1.500861236999999804e+01
7.187000000000000455e+02	1.491502636000000059e+01
7.292999999999999545e+02	1.480709999999999837e+01
7.401999999999999318e+02	1.472256864000000220e+01
7.513999999999999773e+02	1.466123931000000269e+01
7.630000000000000000e+02	1.458475931000000081e+01
7.748999999999999773e+02	1.450085999999999764e+01
7.872000000000000455e+02	1.442480300000000071e+01
7.999000000000000909e+02	1.435652064000000117e+01
8.130000000000000000e+02	1.428839935999999966e+01
8.266000000000000227e+02	1.420535700000000112e+01
