200	0.73931
205	0.69061
210	0.64511
215	0.6027
220	0.56301
225	0.5259
230	0.49131
235	0.459
240	0.42869
245	0.40051
250	0.37411
255	0.34951
260	0.3265
265	0.30501
270	0.28491
275	0.26621
280	0.24869
285	0.23231
290	0.217
295	0.2027
300	0.1894
305	0.1769
310	0.1652
315	0.1544
320	0.1442
325	0.1347
330	0.1258
335	0.1176
340	0.1098
345	0.1026
350	0.095799
355	0.0895
360	0.083601
365	0.0781
370	0.072999
375	0.0682
380	0.0637
385	0.059501
390	0.0556
395	0.0519
400	0.0485
405	0.045301
410	0.0423
415	0.0395
420	0.036901
425	0.0345
430	0.0322
435	0.030099
440	0.0281
445	0.0263
450	0.0245
455	0.0229
460	0.0214
465	0.02
470	0.0187
475	0.0175
480	0.0163
485	0.0152
490	0.0142
495	0.0133
500	0.0124
505	0.0116
510	0.0108
515	0.0101
520	0.0095001
525	0.0087999
530	0.0082999
535	0.0076999
540	0.0071999
545	0.0067001
550	0.0063001
555	0.0059001
560	0.0055001
565	0.0051
570	0.0047999
575	0.0045
580	0.0042001
585	0.0039
590	0.0035999
595	0.0034001
600	0.0032
605	0.0030001
610	0.0028001
615	0.0026
620	0.0024
625	0.0023
630	0.0021
635	0.002
640	0.0018
645	0.0017
650	0.0016
655	0.0015
660	0.0014
665	0.0013
670	0.0012
675	0.0011
680	0.0011
685	0.001
690	0.0009
695	0.0009
700	0.00079999
705	0.00080001
710	0.00070001
715	0.00069999
720	0.00060001
725	0.0006
730	0.0005
735	0.0005
740	0.0005
745	0.00039999
750	0.00040001
755	0.0004
760	0.00039999
765	0.00030001
770	0.00029999
775	0.0003
780	0.00030001
785	0.0003
790	0.0002
795	0.0002
800	0.0002
