3.542405400000000526e+01	2.824269995580740988e-01
3.562763999999999953e+01	2.888300004177257185e-01
3.583357999999999777e+01	2.952329996094417153e-01
3.604191500000000303e+01	2.990269993219091260e-01
3.625268599999999708e+01	3.028069996571988165e-01
3.646593699999999671e+01	3.090020004068236847e-01
3.668171199999999743e+01	3.154049999674299887e-01
3.690005599999999930e+01	3.218079996726108671e-01
3.712101400000000240e+01	3.280890001003911038e-01
3.734463500000000380e+01	3.338360004292536543e-01
3.757096599999999853e+01	3.396559994780412040e-01
3.780005699999999536e+01	3.460590000099592611e-01
3.803195900000000051e+01	3.524620000938379349e-01
3.826672500000000099e+01	3.588650000844000321e-01
3.850440599999999591e+01	3.652680005844235467e-01
3.874505899999999770e+01	3.716709998289431938e-01
3.898873800000000500e+01	3.797340006264711132e-01
3.923550199999999677e+01	3.894100001035308289e-01
3.948541000000000167e+01	3.963189999341293346e-01
3.973852199999999613e+01	4.027210000478738117e-01
3.999489900000000375e+01	4.133889998185829584e-01
4.025460599999999545e+01	4.241550007937514577e-01
4.051770799999999895e+01	4.349200003854274965e-01
4.078427200000000141e+01	4.460080000155105528e-01
4.105436699999999917e+01	4.581340002964678360e-01
4.132806199999999563e+01	4.707279999942631243e-01
4.160543200000000041e+01	4.836699994732017727e-01
4.188654999999999973e+01	4.977559997048759399e-01
4.217149200000000064e+01	5.122359998544315784e-01
4.246033800000000014e+01	5.243619998303769014e-01
4.275316800000000228e+01	5.367940001988402710e-01
4.305006499999999647e+01	5.497360003247099280e-01
4.335111400000000259e+01	5.645499996899291384e-01
4.365640400000000199e+01	5.811210006206015688e-01
4.396602399999999733e+01	5.956940005339801392e-01
4.428006700000000251e+01	6.099999995653421214e-01
4.459862900000000252e+01	6.238739992570102588e-01
4.492180700000000115e+01	6.406519999706811186e-01
4.524970300000000378e+01	6.575769994194676782e-01
4.558242199999999400e+01	6.742429999104481153e-01
4.592006899999999803e+01	6.931430001978212685e-01
4.626275700000000057e+01	7.116409988745474591e-01
4.661059699999999850e+01	7.283069996074262864e-01
4.696370699999999943e+01	7.455220006241646269e-01
4.732220899999999375e+01	7.627960009201539826e-01
4.768622599999999778e+01	7.789969991869140076e-01
4.805588699999999847e+01	7.963259999917987608e-01
4.843132299999999901e+01	8.140060005266996912e-01
4.881267199999999917e+01	8.325210002153079492e-01
4.920007400000000075e+01	8.519749998684035264e-01
4.959367499999999751e+01	8.714289990746256764e-01
4.999362399999999695e+01	8.908819998780531657e-01
5.040007599999999854e+01	9.103359991513887417e-01
5.081319200000000080e+01	9.257270001081048250e-01
5.123313499999999721e+01	9.451799997817108556e-01
5.166007799999999861e+01	9.602720006336061820e-01
5.209419600000000372e+01	9.723980001442881216e-01
5.253567299999999562e+01	9.845239999274171261e-01
5.298469499999999499e+01	9.954630012695875330e-01
5.344146000000000640e+01	1.000219999475811195e+00
5.390616799999999387e+01	9.911009991116612738e-01
5.437903000000000020e+01	9.760620002006445972e-01
5.486026000000000380e+01	9.594110003153637489e-01
5.535008400000000250e+01	9.413420002385148866e-01
5.584873299999999574e+01	9.213129997041713537e-01
5.635644900000000490e+01	9.099770002762473942e-01
5.687347999999999359e+01	9.045840008117445041e-01
5.740008699999999919e+01	9.156609996161346743e-01
5.793653599999999670e+01	9.372180002550426492e-01
5.848310699999999684e+01	9.691109993763585839e-01
5.904008899999999471e+01	9.679220007626599953e-01
5.960778200000000027e+01	1.020030000835449702e+00
6.018649899999999775e+01	1.072139998619747736e+00
6.077656199999999842e+01	1.124249998961289743e+00
6.137831099999999651e+01	1.176360000849663079e+00
6.199209399999999448e+01	1.212039999851370675e+00
6.261827600000000160e+01	1.235060000702110639e+00
6.325723799999999386e+01	1.295270000399279198e+00
6.390937500000000426e+01	1.359300000680122800e+00
6.457509799999999700e+01	1.423330000690838704e+00
6.525483499999999992e+01	1.489600000845723526e+00
6.594903600000000665e+01	1.566729999378706273e+00
6.665816500000001099e+01	1.644690000644997152e+00
6.738271100000000047e+01	1.730549999054140420e+00
6.812318000000000495e+01	1.816399998904366209e+00
6.888010400000000288e+01	1.902259998740479352e+00
6.965403799999999990e+01	1.994070000273038490e+00
7.044556099999999788e+01	2.096600000693796151e+00
7.125527999999999906e+01	2.199119999083387178e+00
7.208383000000000607e+01	2.301649998672766095e+00
7.293187499999999091e+01	2.408409998895267634e+00
7.380011199999999860e+01	2.516059998581522184e+00
7.468927000000000760e+01	2.602900000420069304e+00
7.560011399999999071e+01	2.693890000130965579e+00
7.653344900000000450e+01	2.839610001125350891e+00
7.749011699999999792e+01	2.985329999931948031e+00
7.847100499999999101e+01	3.131059999343765998e+00
7.947704299999999478e+01	3.258269999687158691e+00
8.050921300000000258e+01	3.378259998999999958e+00
8.156854400000000282e+01	3.485910001174834516e+00
8.265612500000000296e+01	3.612950000196329725e+00
8.377309999999999945e+01	3.807479998589837766e+00
8.492067600000000027e+01	3.947740000788719339e+00
8.610012999999999295e+01	4.115300000227773758e+00
8.731280800000000397e+01	4.309839998768315361e+00
8.856013400000000502e+01	4.518420001030752253e+00
8.984361400000000231e+01	4.767630000245709709e+00
9.116484399999998800e+01	5.112170002063789020e+00
9.252551300000000367e+01	5.434250002947875302e+00
9.392741499999999633e+01	5.921779999559719343e+00
9.537245199999999556e+01	6.734089998770365071e+00
9.686264599999999803e+01	8.106959997807573259e+00
9.840014900000001319e+01	1.134150000105177369e+01
9.998724799999999391e+01	1.461859999901160378e+01
1.016263830000000041e+02	1.796489999848453678e+01
1.033201559999999972e+02	1.834020000136807482e+01
1.050713449999999938e+02	1.815600000172232598e+01
1.068829200000000128e+02	1.754100000171439788e+01
1.087580590000000029e+02	1.647709999954908255e+01
1.107001670000000075e+02	1.525090000218783359e+01
1.127128980000000098e+02	1.339889999741663473e+01
1.148001739999999984e+02	1.224840000088654968e+01
1.169662150000000054e+02	1.124820000299949463e+01
1.192155649999999980e+02	1.005949999727721256e+01
1.215531249999999943e+02	9.283810001873893825e+00
1.239841869999999915e+02	8.553570000543356144e+00
1.265144769999999852e+02	7.866710002151217296e+00
1.291501949999999965e+02	7.121290001319854568e+00
1.318980720000000133e+02	6.702620002783471698e+00
1.347654210000000035e+02	6.310249998780293801e+00
1.377602080000000058e+02	5.938000000490942121e+00
1.408911219999999958e+02	5.594710001841375124e+00
1.441676600000000121e+02	5.320679998613321970e+00
1.476002229999999997e+02	5.089180001723232039e+00
1.512002289999999789e+02	4.860249999608666549e+00
1.549802339999999958e+02	4.626610000775784215e+00
1.589540859999999896e+02	4.366999999256921505e+00
1.631370890000000031e+02	4.081690002506919157e+00
1.675461990000000014e+02	3.419199996643436101e+00
1.722002599999999859e+02	2.641309998289857575e+00
1.771202680000000100e+02	5.805619993629599351e-01
1.823296869999999785e+02	1.815890019191288840e-01
1.878548289999999952e+02	1.248020012074396445e-01
1.937252929999999935e+02	9.739700053184731365e-02
1.999744959999999878e+02	6.999219845281566543e-02
2.066403119999999944e+02	4.258739884937577658e-02
2.137658400000000256e+02	1.610180057067280013e-02
2.214003350000000125e+02	0.000000000000000000e+00
2.296003469999999993e+02	0.000000000000000000e+00
2.384311299999999960e+02	0.000000000000000000e+00
2.479683749999999804e+02	0.000000000000000000e+00
2.583003899999999931e+02	0.000000000000000000e+00
2.695308420000000069e+02	0.000000000000000000e+00
2.817822439999999915e+02	0.000000000000000000e+00
2.952004459999999995e+02	0.000000000000000000e+00
3.099604689999999891e+02	0.000000000000000000e+00
3.262741770000000088e+02	0.000000000000000000e+00
3.444005210000000261e+02	0.000000000000000000e+00
3.646593750000000114e+02	0.000000000000000000e+00
3.874505859999999871e+02	0.000000000000000000e+00
4.132806249999999864e+02	0.000000000000000000e+00
4.428006689999999708e+02	0.000000000000000000e+00
4.768622589999999946e+02	0.000000000000000000e+00
5.166007809999999836e+02	0.000000000000000000e+00
5.635644879999999830e+02	0.000000000000000000e+00
6.199209369999999808e+02	0.000000000000000000e+00
6.888010409999999411e+02	0.000000000000000000e+00
7.749011709999999766e+02	0.000000000000000000e+00
8.856013390000000527e+02	0.000000000000000000e+00
1.033201561999999967e+03	0.000000000000000000e+00
1.239841873999999962e+03	0.000000000000000000e+00
1.549802343000000064e+03	0.000000000000000000e+00
2.066403123999999934e+03	0.000000000000000000e+00
3.099604686000000129e+03	0.000000000000000000e+00
6.199209372000000258e+03	0.000000000000000000e+00
1.000000000000000000e+04	0.000000000000000000e+00
