539.1	4.1209	0
516.7	4.1616	0.00816
496	4.2025	0.0164
476.9	4.2436	0.02472
459.3	4.2848	0.03312
442.9	4.368	0.05016
427.6	4.4098	0.063
413.3	4.4941	0.07632
400	4.5792	0.0856
387.5	4.665	0.108
375.8	4.7949	0.1533
364.7	4.9264	0.1998
354.3	5.0595	0.2475
344.4	5.1928	0.342
335.1	5.3724	0.464
326.3	5.456	0.6552
317.9	5.5296	0.944
310	5.3389	1.398
302.4	5.1456	1.748
295.2	4.8776	1.935
288.4	4.6375	1.98
281.8	4.4973	1.9964
275.6	4.3587	2.0116
269.6	4.1796	2.016
263.8	4.0912	2.0176
258.3	4.0035	2.0188
253.1	3.9525	2.05
248	3.8659	2.0503
243.1	3.7749	2.0703
238.5	3.7244	2.1
234	3.6792	2.1094
229.6	3.6288	2.1384
225.5	3.5839	2.1473
221.4	3.5391	2.156
217.5	3.45	2.1728
213.8	3.4	2.2002
210.2	3.3558	2.208
206.7	3.3117	2.2156
