150	-2.0321	2.1459
151	-2.0337	2.2236
152	-2.0348	2.3014
153	-2.0348	2.3791
154	-2.0348	2.4491
155	-2.0348	2.4978
156	-2.0348	2.5464
157	-2.0348	2.5951
158	-2.05	2.6437
159	-2.075	2.6747
160	-2.1001	2.7012
161	-2.1392	2.7277
162	-2.1874	2.7541
163	-2.2357	2.7829
164	-2.2975	2.8457
165	-2.3736	2.9086
166	-2.4497	2.9714
167	-2.5296	3.0342
168	-2.6214	3.1177
169	-2.7131	3.2413
170	-2.8048	3.3649
171	-2.8746	3.4884
172	-2.9413	3.612
173	-3.0079	3.7572
174	-3.0603	3.9244
175	-3.0877	4.0915
176	-3.1151	4.2586
177	-3.1425	4.4257
178	-3.1466	4.6033
179	-3.1412	4.7825
180	-3.1357	4.9616
181	-3.1302	5.1407
182	-3.109	5.3199
183	-3.086	5.5062
184	-3.0629	5.6924
185	-3.0398	5.8787
186	-2.9939	6.065
187	-2.9457	6.254
188	-2.8976	6.51
189	-2.8494	6.7659
190	-2.704	7.0219
191	-2.5254	7.2778
192	-2.3469	7.5104
193	-2.1683	7.7427
194	-1.863	7.975
195	-1.5252	8.2072
196	-1.1874	8.2293
197	-0.85322	8.25
198	-0.52242	8.2706
199	-0.19163	8.2349
200	0.085549	8.088
201	0.257	7.9411
202	0.42844	7.7943
203	0.59989	7.6474
204	0.74568	7.5411
205	0.75642	7.445
206	0.76715	7.349
207	0.77789	7.253
208	0.78862	7.1569
209	0.80502	7.0631
210	0.8726	6.9893
211	0.94017	6.9156
212	1.0078	6.8418
213	1.0753	6.768
214	1.1429	6.6943
215	1.1104	6.6205
216	1.0499	6.5477
217	0.98938	6.5033
218	0.92889	6.459
219	0.86841	6.4147
220	0.79278	6.3703
221	0.65103	6.326
222	0.50927	6.2816
223	0.36752	6.2373
224	0.22577	6.2728
225	0.084017	6.3982
226	-0.039382	6.5236
227	-0.11797	6.6489
228	-0.19657	6.7743
229	-0.27516	6.8997
230	-0.35375	7.0251
231	-0.43235	7.1504
232	-0.50669	7.3355
233	-0.52449	7.5245
234	-0.54229	7.7135
235	-0.56009	7.9025
236	-0.57789	8.0915
237	-0.59569	8.2805
238	-0.61349	8.5013
239	-0.59052	8.7345
240	-0.52625	8.9677
241	-0.46198	9.2009
242	-0.39771	9.4342
243	-0.33344	9.669
244	-0.26917	9.9165
245	-0.2049	10.164
246	-0.097454	10.412
247	0.046781	10.659
248	0.19102	10.907
249	0.33525	11.191
250	0.47949	11.504
251	0.62372	11.816
252	0.84586	12.128
253	1.1347	12.446
254	1.4235	12.79
255	1.7123	13.134
256	2.1634	13.478
257	2.6761	13.774
258	3.224	13.753
259	3.8853	13.732
260	4.5459	13.711
261	5.2052	13.689
262	5.8106	13.668
263	6.397	13.548
264	6.8484	13.253
265	7.2997	12.958
266	7.659	12.663
267	7.9157	12.368
268	8.1725	12.068
269	8.4293	11.747
270	8.5912	11.425
271	8.6923	11.104
272	8.7935	10.798
273	8.8947	10.544
274	8.9958	10.291
275	9.097	10.037
276	9.1982	9.783
277	9.2448	9.5292
278	9.2757	9.3123
279	9.3067	9.1376
280	9.3376	8.963
281	9.3685	8.7884
282	9.3995	8.6138
283	9.4304	8.4391
284	9.4613	8.2645
285	9.4923	8.0899
286	9.5092	7.9369
287	9.5055	7.8161
288	9.5017	7.6954
289	9.498	7.5746
290	9.4942	7.4538
291	9.4905	7.333
292	9.4867	7.2122
293	9.483	7.0915
294	9.4792	6.9707
295	9.4755	6.8499
296	9.4764	6.7814
297	9.4854	6.7228
298	9.4943	6.6643
299	9.5032	6.6057
300	9.5122	6.5471
301	9.5211	6.4885
302	9.53	6.43
303	9.5389	6.3714
304	9.5479	6.3128
305	9.5568	6.2542
306	9.5657	6.1957
307	9.6066	6.1371
308	9.6684	6.0785
309	9.7301	6.0183
310	9.7918	5.9267
311	9.8535	5.8351
312	9.9152	5.7435
313	9.977	5.6519
314	10.039	5.5603
315	10.1	5.4687
316	10.162	5.3771
317	10.224	5.2855
318	10.284	5.1939
319	10.29	5.1023
320	10.296	5.0106
321	10.302	4.9014
322	10.308	4.7456
323	10.314	4.5897
324	10.32	4.4339
325	10.326	4.278
326	10.332	4.1222
327	10.338	3.9663
328	10.344	3.8105
329	10.35	3.6547
330	10.356	3.5081
331	10.325	3.4226
332	10.262	3.3372
333	10.199	3.2518
334	10.135	3.1663
335	10.072	3.0809
336	10.009	2.9954
337	9.9461	2.91
338	9.883	2.8246
339	9.8199	2.7391
340	9.7568	2.6537
341	9.6937	2.5683
342	9.6305	2.4828
343	9.5674	2.4135
344	9.5049	2.3803
345	9.4584	2.3472
346	9.412	2.314
347	9.3655	2.2808
348	9.319	2.2476
349	9.2726	2.2144
350	9.2261	2.1813
351	9.1796	2.1481
352	9.1332	2.1149
353	9.0867	2.0817
354	9.0402	2.0485
355	8.9938	2.0153
356	8.9473	1.9822
357	8.9008	1.949
358	8.8544	1.9158
359	8.8134	1.8826
360	8.7815	1.8494
361	8.7495	1.8162
362	8.7176	1.7831
363	8.6857	1.7525
364	8.6537	1.7358
365	8.6218	1.7191
366	8.5898	1.7024
367	8.5579	1.6857
368	8.526	1.669
369	8.494	1.6524
370	8.4621	1.6357
371	8.4302	1.619
372	8.3982	1.6023
373	8.3663	1.5856
374	8.3344	1.5689
375	8.3067	1.5522
376	8.2852	1.5355
377	8.2636	1.5188
378	8.2421	1.5021
379	8.2205	1.4854
380	8.199	1.4687
381	8.1774	1.452
382	8.1559	1.4353
383	8.1343	1.4186
384	8.1128	1.4019
385	8.0912	1.3852
386	8.0697	1.3685
387	8.0481	1.3518
388	8.0266	1.3407
389	8.005	1.3303
390	7.9835	1.3199
391	7.9619	1.3096
392	7.9404	1.2992
393	7.9236	1.2888
394	7.907	1.2784
395	7.8904	1.268
396	7.8739	1.2576
397	7.8573	1.2472
398	7.8407	1.2368
399	7.8241	1.2265
400	7.8076	1.2161
401	7.791	1.2057
402	7.7744	1.1953
403	7.7578	1.1849
404	7.7412	1.1745
405	7.7247	1.1641
406	7.7081	1.1538
407	7.6915	1.1434
408	7.6749	1.133
409	7.6583	1.1226
410	7.6418	1.1122
411	7.6252	1.1018
412	7.6131	1.0914
413	7.602	1.0811
414	7.5909	1.0707
415	7.5798	1.0605
416	7.5687	1.052
417	7.5577	1.0434
418	7.5466	1.0349
419	7.5355	1.0263
420	7.5244	1.0178
421	7.5134	1.0092
422	7.5023	1.0007
423	7.4912	0.99212
424	7.4801	0.98357
425	7.469	0.97502
426	7.458	0.96647
427	7.4469	0.95792
428	7.4358	0.94937
429	7.4247	0.94082
430	7.4137	0.93228
431	7.4026	0.92373
432	7.3915	0.91518
433	7.3824	0.90663
434	7.3742	0.89808
435	7.366	0.88953
436	7.3578	0.88099
437	7.3495	0.87244
438	7.3413	0.86389
439	7.3331	0.85534
440	7.3249	0.84679
441	7.3167	0.83824
442	7.3085	0.82969
443	7.3003	0.82115
444	7.2921	0.8126
445	7.2839	0.80405
446	7.2757	0.7955
447	7.2674	0.78695
448	7.2592	0.7784
449	7.251	0.76986
450	7.2428	0.76111
451	7.2346	0.75235
452	7.2264	0.74359
453	7.2182	0.73483
454	7.21	0.72607
455	7.2018	0.7173
456	7.1937	0.70854
457	7.186	0.69978
458	7.1783	0.69102
459	7.1706	0.68225
460	7.1629	0.67349
461	7.1553	0.66473
462	7.1476	0.65597
463	7.1399	0.64721
464	7.1322	0.63844
465	7.1245	0.62968
466	7.1168	0.62092
467	7.1091	0.61216
468	7.1014	0.60339
469	7.0938	0.59463
470	7.0861	0.58587
471	7.0784	0.57711
472	7.0707	0.56835
473	7.063	0.55958
474	7.0553	0.55082
475	7.0476	0.54206
476	7.04	0.5333
477	7.0323	0.52454
478	7.0246	0.51577
479	7.0169	0.50701
480	7.0092	0.49825
481	7.0015	0.48953
482	6.9935	0.48086
483	6.9839	0.47219
484	6.9744	0.46352
485	6.9648	0.45485
486	6.9552	0.44619
487	6.9457	0.43752
488	6.9361	0.42885
489	6.9265	0.42018
490	6.917	0.41151
491	6.9074	0.40284
492	6.8978	0.39418
493	6.8883	0.38551
494	6.8787	0.37684
495	6.8691	0.36817
496	6.8595	0.3595
497	6.85	0.35083
498	6.8404	0.34217
499	6.8308	0.33663
500	6.8213	0.33213
501	6.8117	0.32762
502	6.8021	0.32311
503	6.7926	0.3186
504	6.783	0.31409
505	6.7734	0.30958
506	6.7639	0.30507
507	6.7543	0.30057
508	6.7447	0.29606
509	6.7352	0.29155
510	6.7256	0.28704
511	6.716	0.28253
512	6.7071	0.27802
513	6.6983	0.27351
514	6.6894	0.26901
515	6.6806	0.2645
516	6.6717	0.25999
517	6.6629	0.25548
518	6.654	0.25097
519	6.6452	0.24646
520	6.6363	0.24195
521	6.6275	0.23745
522	6.6186	0.23294
523	6.6098	0.22843
524	6.6009	0.22392
525	6.5921	0.21941
526	6.5832	0.2149
527	6.5744	0.21039
528	6.5655	0.20588
529	6.5567	0.20138
530	6.5478	0.19687
531	6.5389	0.19236
532	6.5301	0.18785
533	6.5212	0.18334
534	6.5124	0.17883
535	6.5035	0.17522
536	6.4947	0.17368
537	6.4858	0.17215
538	6.477	0.17061
539	6.4681	0.16908
540	6.4593	0.16754
541	6.4504	0.16601
542	6.4416	0.16447
543	6.4327	0.16294
544	6.4239	0.1614
545	6.4171	0.15987
546	6.4107	0.15833
547	6.4042	0.1568
548	6.3978	0.15526
549	6.3914	0.15373
550	6.3849	0.15219
551	6.3785	0.15066
552	6.372	0.14912
553	6.3656	0.14759
554	6.3591	0.14605
555	6.3527	0.14452
556	6.3463	0.14298
557	6.3398	0.14145
558	6.3334	0.13991
559	6.3269	0.13838
560	6.3205	0.13684
561	6.314	0.13531
562	6.3076	0.13377
563	6.3011	0.13224
564	6.2947	0.1307
565	6.2883	0.12917
566	6.2818	0.12763
567	6.2754	0.1261
568	6.2689	0.12456
569	6.2625	0.12303
570	6.256	0.12149
571	6.2496	0.11996
572	6.2432	0.11843
573	6.2367	0.11689
574	6.2303	0.11536
575	6.2238	0.11382
576	6.2174	0.11229
577	6.2109	0.11075
578	6.2045	0.10922
579	6.1981	0.10768
580	6.1916	0.10615
581	6.1852	0.10461
582	6.1793	0.10308
583	6.175	0.10154
584	6.1708	0.10001
585	6.1665	0.098472
586	6.1623	0.096937
587	6.158	0.095402
588	6.1538	0.093867
589	6.1495	0.092332
590	6.1452	0.091953
591	6.141	0.091777
592	6.1367	0.091602
593	6.1325	0.091427
594	6.1282	0.091251
595	6.124	0.091076
596	6.1197	0.090901
597	6.1154	0.090725
598	6.1112	0.09055
599	6.1069	0.090374
600	6.1027	0.090199
601	6.0984	0.090024
602	6.0942	0.089848
603	6.0899	0.089673
604	6.0857	0.089497
605	6.0814	0.089322
606	6.0771	0.089147
607	6.0729	0.088971
608	6.0686	0.088796
609	6.0644	0.088621
610	6.0601	0.088445
611	6.0559	0.08827
612	6.0516	0.088094
613	6.0474	0.087919
614	6.0431	0.087744
615	6.0388	0.087568
616	6.0346	0.087393
617	6.0303	0.087217
618	6.0261	0.087042
619	6.0218	0.086867
620	6.0176	0.086691
621	6.0133	0.086516
622	6.0091	0.086341
623	6.0048	0.086165
624	6.0005	0.08599
625	5.9963	0.085814
626	5.9933	0.085639
627	5.9902	0.085464
628	5.9871	0.085288
629	5.984	0.085113
630	5.9809	0.084938
631	5.9778	0.084762
632	5.9748	0.084587
633	5.9717	0.084411
634	5.9686	0.084236
635	5.9655	0.084061
636	5.9624	0.083885
637	5.9593	0.08371
638	5.9563	0.083534
639	5.9532	0.083359
640	5.9501	0.083184
641	5.947	0.083008
642	5.9439	0.082833
643	5.9408	0.082658
644	5.9378	0.082482
645	5.9347	0.082307
646	5.9316	0.082131
647	5.9285	0.081956
648	5.9254	0.081781
649	5.9223	0.081605
650	5.9193	0.08143
651	5.9162	0.081254
652	5.9131	0.081079
653	5.91	0.080904
654	5.9069	0.080728
655	5.9038	0.080553
656	5.9007	0.080378
657	5.8977	0.080202
658	5.8946	0.080027
659	5.8915	0.079851
660	5.8884	0.079676
661	5.8853	0.079548
662	5.8822	0.079499
663	5.8792	0.07945
664	5.8761	0.0794
665	5.873	0.079351
666	5.8699	0.079302
667	5.8668	0.079253
668	5.8637	0.079204
669	5.8607	0.079155
670	5.8576	0.079106
671	5.8545	0.079057
672	5.8514	0.079008
673	5.8483	0.078959
674	5.8452	0.07891
675	5.8422	0.078861
676	5.8399	0.078812
677	5.8378	0.078763
678	5.8357	0.078714
679	5.8336	0.078664
680	5.8314	0.078615
681	5.8293	0.078566
682	5.8272	0.078517
683	5.825	0.078468
684	5.8229	0.078419
685	5.8208	0.07837
686	5.8187	0.078321
687	5.8165	0.078272
688	5.8144	0.078223
689	5.8123	0.078174
690	5.8101	0.078125
691	5.808	0.078076
692	5.8059	0.078027
693	5.8038	0.077977
694	5.8016	0.077928
695	5.7995	0.077879
696	5.7974	0.07783
697	5.7952	0.077781
698	5.7931	0.077732
699	5.791	0.077683
700	5.7888	0.077634
701	5.7867	0.077585
702	5.7846	0.077536
703	5.7825	0.077487
704	5.7803	0.077438
705	5.7782	0.077389
706	5.7761	0.07734
707	5.7739	0.077291
708	5.7718	0.077241
709	5.7697	0.077192
710	5.7676	0.077143
711	5.7654	0.077094
712	5.7633	0.077045
713	5.7612	0.076996
714	5.759	0.076947
715	5.7569	0.076898
716	5.7548	0.076849
717	5.7527	0.0768
718	5.7505	0.076751
719	5.7484	0.076702
720	5.7463	0.076653
721	5.7441	0.076604
722	5.742	0.076554
723	5.7399	0.076505
724	5.7377	0.076456
725	5.7356	0.076407
726	5.7335	0.076358
727	5.7314	0.076309
728	5.7292	0.07626
729	5.7271	0.076211
730	5.725	0.076162
731	5.7228	0.076113
732	5.7207	0.076064
733	5.7186	0.076015
734	5.7165	0.075966
735	5.7148	0.075917
736	5.7131	0.075868
737	5.7115	0.075818
738	5.7098	0.075769
739	5.7081	0.07572
740	5.7065	0.075671
741	5.7048	0.075622
742	5.7031	0.075573
743	5.7015	0.075524
744	5.6998	0.075475
745	5.6981	0.075426
746	5.6965	0.075312
747	5.6948	0.074959
748	5.6931	0.074606
749	5.6915	0.074253
750	5.6898	0.0739
751	5.6881	0.073547
752	5.6864	0.073193
753	5.6848	0.07284
754	5.6831	0.072487
755	5.6814	0.072134
756	5.6798	0.071781
757	5.6781	0.071428
758	5.6764	0.071075
759	5.6748	0.070722
760	5.6731	0.070369
761	5.6714	0.070016
762	5.6698	0.069663
763	5.6681	0.06931
764	5.6664	0.068957
765	5.6648	0.068604
766	5.6631	0.068251
767	5.6614	0.067898
768	5.6598	0.067545
769	5.6581	0.067191
770	5.6564	0.066838
771	5.6547	0.066485
772	5.6531	0.066132
773	5.6514	0.065779
774	5.6497	0.065426
775	5.6481	0.065073
776	5.6464	0.06472
777	5.6447	0.064367
778	5.6431	0.064014
779	5.6414	0.063661
780	5.6397	0.063308
781	5.6381	0.062955
782	5.6364	0.062602
783	5.6347	0.062249
784	5.6331	0.061896
785	5.6314	0.061542
786	5.6297	0.061189
787	5.6281	0.060836
788	5.6264	0.060483
789	5.6247	0.06013
790	5.623	0.059777
791	5.6214	0.059424
792	5.6197	0.059071
793	5.618	0.058718
794	5.6164	0.058365
795	5.6147	0.058012
796	5.613	0.057659
797	5.6114	0.057306
798	5.6097	0.056953
799	5.608	0.0566
800	5.6064	0.056247
801	5.6047	0.055894
802	5.603	0.05554
803	5.6014	0.055187
804	5.5997	0.054834
805	5.5985	0.054481
806	5.5974	0.054128
807	5.5962	0.053775
808	5.5951	0.053422
809	5.594	0.053069
810	5.5929	0.052716
811	5.5917	0.052363
812	5.5906	0.05201
813	5.5895	0.051657
814	5.5883	0.051304
815	5.5872	0.050951
816	5.5861	0.050598
817	5.5849	0.050245
818	5.5838	0.049891
819	5.5827	0.049538
820	5.5815	0.049185
821	5.5804	0.048832
822	5.5793	0.048479
823	5.5781	0.048126
824	5.577	0.047773
825	5.5759	0.04742
826	5.5748	0.047067
827	5.5736	0.046714
828	5.5725	0.046361
829	5.5714	0.046008
830	5.5702	0.045655
831	5.5691	0.045302
832	5.568	0.044949
833	5.5668	0.044596
834	5.5657	0.044243
835	5.5646	0.043889
836	5.5634	0.043536
837	5.5623	0.043183
838	5.5612	0.04283
839	5.56	0.042477
840	5.5589	0.042124
841	5.5578	0.041771
842	5.5567	0.041418
843	5.5555	0.041065
844	5.5544	0.040712
845	5.5533	0.040359
846	5.5521	0.040006
847	5.551	0.039653
848	5.5499	0.0393
849	5.5487	0.038947
850	5.5476	0.038594
851	5.5465	0.03824
852	5.5453	0.037887
853	5.5442	0.037534
854	5.5431	0.037181
855	5.5419	0.036828
856	5.5408	0.036475
857	5.5397	0.036122
858	5.5385	0.035769
859	5.5374	0.035416
860	5.5363	0.035063
861	5.5352	0.03471
862	5.534	0.034357
863	5.5329	0.034004
864	5.5318	0.033651
865	5.5306	0.033455
866	5.5295	0.033285
867	5.5284	0.033115
868	5.5272	0.032945
869	5.5261	0.032775
870	5.525	0.032606
871	5.5238	0.032436
872	5.5227	0.032266
873	5.5216	0.032096
874	5.5204	0.031926
875	5.5193	0.031756
876	5.5182	0.031586
877	5.5171	0.031416
878	5.5159	0.031247
879	5.5148	0.031077
880	5.5137	0.030907
881	5.5125	0.030737
882	5.5114	0.030567
883	5.5103	0.030397
884	5.5091	0.030227
885	5.508	0.030057
886	5.5069	0.029887
887	5.5057	0.029718
888	5.5046	0.029548
889	5.5035	0.029378
890	5.5027	0.029208
891	5.5019	0.029038
892	5.5011	0.028868
893	5.5003	0.028698
894	5.4995	0.028528
895	5.4987	0.028358
896	5.4979	0.028189
897	5.4971	0.028019
898	5.4963	0.027849
899	5.4955	0.027679
900	5.4947	0.027509
901	5.4939	0.027339
902	5.4931	0.027169
903	5.4923	0.026999
904	5.4915	0.026829
905	5.4907	0.02666
906	5.4899	0.02649
907	5.4891	0.02632
908	5.4883	0.02615
909	5.4875	0.02598
910	5.4868	0.02581
911	5.486	0.02564
912	5.4852	0.02547
913	5.4844	0.0253
914	5.4836	0.025131
915	5.4828	0.024961
916	5.482	0.024791
917	5.4812	0.024621
918	5.4804	0.024451
919	5.4796	0.024281
920	5.4788	0.024111
921	5.478	0.023941
922	5.4772	0.023772
923	5.4764	0.023602
924	5.4756	0.023432
925	5.4748	0.023262
926	5.474	0.023092
927	5.4732	0.022922
928	5.4724	0.022752
929	5.4716	0.022582
930	5.4708	0.022412
931	5.47	0.022243
932	5.4692	0.022073
933	5.4684	0.021903
934	5.4677	0.021733
935	5.4669	0.021563
936	5.4661	0.021393
937	5.4653	0.021223
938	5.4645	0.021053
939	5.4637	0.020883
940	5.4629	0.020714
941	5.4621	0.020544
942	5.4613	0.020374
943	5.4605	0.020204
944	5.4597	0.020034
945	5.4589	0.019864
946	5.4581	0.019694
947	5.4573	0.019524
948	5.4565	0.019354
949	5.4557	0.019185
950	5.4549	0.019015
951	5.4541	0.018845
952	5.4533	0.018675
953	5.4525	0.018505
954	5.4517	0.018335
955	5.4509	0.018165
956	5.4501	0.017995
957	5.4493	0.017825
958	5.4486	0.017656
959	5.4478	0.017486
960	5.447	0.017316
961	5.4462	0.017146
962	5.4454	0.016976
963	5.4446	0.016806
964	5.4438	0.016636
965	5.443	0.016466
966	5.4422	0.016297
967	5.4414	0.016127
968	5.4406	0.015957
969	5.4398	0.015787
970	5.439	0.015617
971	5.4382	0.015447
972	5.4374	0.015277
973	5.4366	0.015107
974	5.4358	0.014937
975	5.435	0.014768
976	5.4342	0.014598
977	5.4334	0.014428
978	5.4326	0.014258
979	5.4318	0.014088
980	5.431	0.013918
981	5.4303	0.013748
982	5.4295	0.013578
983	5.4287	0.013408
984	5.4279	0.013239
985	5.4271	0.013069
986	5.4263	0.012899
987	5.4255	0.012729
988	5.4247	0.012559
989	5.4239	0.012389
990	5.4231	0.012219
991	5.4223	0.012049
992	5.4215	0.011879
993	5.4207	0.01171
994	5.4199	0.01154
995	5.4194	0.01137
996	5.4189	0.0112
997	5.4184	0.01103
998	5.4179	0.01086
999	5.4174	0.01069
1000	5.4169	0.010631
1001	5.4164	0.010653
1002	5.4159	0.010675
1003	5.4154	0.010697
1004	5.4149	0.010719
1005	5.4144	0.010741
1006	5.4139	0.010763
1007	5.4134	0.010785
1008	5.4129	0.010807
1009	5.4124	0.010828
1010	5.4119	0.01085
1011	5.4114	0.010872
1012	5.4109	0.010894
1013	5.4103	0.010916
1014	5.4098	0.010938
1015	5.4093	0.01096
1016	5.4088	0.010982
1017	5.4083	0.011004
1018	5.4078	0.011026
1019	5.4073	0.011048
1020	5.4068	0.01107
1021	5.4063	0.011092
1022	5.4058	0.011114
1023	5.4053	0.011135
1024	5.4048	0.011157
1025	5.4043	0.011179
1026	5.4038	0.011201
1027	5.4033	0.011223
1028	5.4028	0.011245
1029	5.4023	0.011267
1030	5.4018	0.011289
1031	5.4013	0.011311
1032	5.4008	0.011333
1033	5.4003	0.011355
1034	5.3998	0.011377
1035	5.3993	0.011399
1036	5.3988	0.011421
1037	5.3983	0.011442
1038	5.3978	0.011464
1039	5.3973	0.011486
1040	5.3968	0.011508
1041	5.3963	0.01153
1042	5.3958	0.011552
1043	5.3953	0.011574
1044	5.3948	0.011596
1045	5.3943	0.011618
1046	5.3938	0.01164
1047	5.3933	0.011662
1048	5.3928	0.011684
1049	5.3923	0.011706
1050	5.3918	0.011727
1051	5.3913	0.011749
1052	5.3908	0.011771
1053	5.3903	0.011793
1054	5.3898	0.011815
1055	5.3893	0.011837
1056	5.3888	0.011859
1057	5.3883	0.011881
1058	5.3878	0.011903
1059	5.3873	0.011925
1060	5.3867	0.011947
1061	5.3862	0.011969
1062	5.3857	0.011991
1063	5.3852	0.012013
1064	5.3847	0.012034
1065	5.3842	0.012056
1066	5.3837	0.012078
1067	5.3832	0.0121
1068	5.3827	0.012122
1069	5.3822	0.012144
1070	5.3817	0.012166
1071	5.3812	0.012188
1072	5.3807	0.01221
1073	5.3802	0.012232
1074	5.3797	0.012254
1075	5.3792	0.012276
1076	5.3787	0.012298
1077	5.3782	0.012319
1078	5.3777	0.012341
1079	5.3772	0.012363
1080	5.3767	0.012364
1081	5.3762	0.012364
1082	5.3757	0.012364
1083	5.3752	0.012364
1084	5.3747	0.012364
1085	5.3742	0.012364
1086	5.3737	0.012364
1087	5.3732	0.012364
1088	5.3727	0.012364
1089	5.3722	0.012364
1090	5.3717	0.012364
1091	5.3712	0.012364
1092	5.3707	0.012364
1093	5.3702	0.012364
1094	5.3697	0.012364
1095	5.3692	0.012364
1096	5.3687	0.012364
1097	5.3682	0.012364
1098	5.3677	0.012364
1099	5.3672	0.012364
1100	5.3667	0.012364
1101	5.3662	0.012364
1102	5.3657	0.012364
1103	5.3652	0.012364
1104	5.3647	0.012364
1105	5.3642	0.012364
1106	5.3637	0.012364
1107	5.3631	0.012364
1108	5.3626	0.012364
1109	5.3621	0.012364
1110	5.3616	0.012364
1111	5.3611	0.012364
1112	5.3606	0.012364
1113	5.3601	0.012364
1114	5.3596	0.012364
1115	5.3591	0.012364
1116	5.3586	0.012364
1117	5.3581	0.012364
1118	5.3576	0.012364
1119	5.3571	0.012364
1120	5.3566	0.012364
1121	5.3561	0.012364
1122	5.3556	0.012364
1123	5.3551	0.012364
1124	5.3546	0.012364
1125	5.3541	0.012364
1126	5.3536	0.012364
1127	5.3531	0.012364
1128	5.3528	0.012364
1129	5.3526	0.012364
1130	5.3523	0.012364
1131	5.3521	0.012364
1132	5.3519	0.012364
1133	5.3516	0.012364
1134	5.3514	0.012364
1135	5.3511	0.012364
1136	5.3509	0.012364
1137	5.3507	0.012364
1138	5.3504	0.012364
1139	5.3502	0.012364
1140	5.3499	0.012364
1141	5.3497	0.012364
1142	5.3495	0.012364
1143	5.3492	0.012364
1144	5.349	0.012364
1145	5.3487	0.012364
1146	5.3485	0.012364
1147	5.3483	0.012364
1148	5.348	0.012364
1149	5.3478	0.012364
1150	5.3475	0.012364
1151	5.3473	0.012364
1152	5.3471	0.012364
1153	5.3468	0.012364
1154	5.3466	0.012364
1155	5.3463	0.012364
1156	5.3461	0.012364
1157	5.3459	0.012364
1158	5.3456	0.012364
1159	5.3454	0.012364
1160	5.3451	0.012364
1161	5.3449	0.012364
1162	5.3447	0.012364
1163	5.3444	0.012364
1164	5.3442	0.012364
1165	5.3439	0.012364
1166	5.3437	0.012364
1167	5.3435	0.012364
1168	5.3432	0.012364
1169	5.343	0.012364
1170	5.3427	0.012364
1171	5.3425	0.012364
1172	5.3423	0.012364
1173	5.342	0.012364
1174	5.3418	0.012364
1175	5.3415	0.012364
1176	5.3413	0.012364
1177	5.3411	0.012364
1178	5.3408	0.012364
1179	5.3406	0.012364
1180	5.3403	0.012364
1181	5.3401	0.012364
1182	5.3399	0.012364
1183	5.3396	0.012364
1184	5.3394	0.012364
1185	5.3392	0.012364
1186	5.3389	0.012364
1187	5.3387	0.012364
1188	5.3384	0.012364
1189	5.3382	0.012364
1190	5.338	0.012364
1191	5.3377	0.012364
1192	5.3375	0.012364
1193	5.3372	0.012364
1194	5.337	0.012364
1195	5.3368	0.012364
1196	5.3365	0.012364
1197	5.3363	0.012364
1198	5.336	0.012364
1199	5.3358	0.012364
1200	5.3356	0.012364
1201	5.3353	0.012364
1202	5.3351	0.012364
1203	5.3348	0.012364
1204	5.3346	0.012364
1205	5.3344	0.012364
1206	5.3341	0.012364
1207	5.3339	0.012364
1208	5.3336	0.012364
1209	5.3334	0.012364
1210	5.3332	0.012364
1211	5.3329	0.012364
1212	5.3327	0.012364
1213	5.3324	0.012364
1214	5.3322	0.012364
1215	5.332	0.012364
1216	5.3317	0.012364
1217	5.3315	0.012364
1218	5.3312	0.012364
1219	5.331	0.012364
1220	5.3308	0.012364
1221	5.3305	0.012364
1222	5.3303	0.012364
1223	5.33	0.012364
1224	5.3298	0.012364
1225	5.3296	0.012364
1226	5.3293	0.012364
1227	5.3291	0.012364
1228	5.3288	0.012364
1229	5.3286	0.012364
1230	5.3284	0.012364
1231	5.3281	0.012364
1232	5.3279	0.012364
1233	5.3276	0.012364
1234	5.3274	0.012364
1235	5.3272	0.012364
1236	5.3269	0.012364
1237	5.3267	0.012364
1238	5.3264	0.012364
1239	5.3262	0.012364
1240	5.326	0.012364
1241	5.3257	0.012364
1242	5.3255	0.012364
1243	5.3252	0.012364
1244	5.325	0.012364
1245	5.3248	0.012364
1246	5.3245	0.012364
1247	5.3243	0.012364
1248	5.324	0.012364
1249	5.3238	0.012364
1250	5.3236	0.012364
1251	5.3233	0.012364
1252	5.3231	0.012364
1253	5.3229	0.012364
1254	5.3226	0.012364
1255	5.3224	0.012364
1256	5.3221	0.012364
1257	5.3219	0.012364
1258	5.3217	0.012364
1259	5.3214	0.012364
1260	5.3212	0.012364
1261	5.3209	0.012364
1262	5.3207	0.012364
1263	5.3205	0.012364
1264	5.3202	0.012364
1265	5.32	0.012364
1266	5.3197	0.012364
1267	5.3195	0.012364
1268	5.3193	0.012364
1269	5.319	0.012364
1270	5.3188	0.012364
1271	5.3185	0.012364
1272	5.3183	0.012364
1273	5.3181	0.012364
1274	5.3178	0.012364
1275	5.3176	0.012364
1276	5.3173	0.012364
1277	5.3171	0.012364
1278	5.3169	0.012364
1279	5.3166	0.012364
1280	5.3164	0.012364
1281	5.3161	0.012364
1282	5.3159	0.012364
1283	5.3157	0.012364
1284	5.3154	0.012364
1285	5.3152	0.012364
1286	5.3149	0.012364
1287	5.3147	0.012364
1288	5.3145	0.012364
1289	5.3142	0.012364
1290	5.314	0.012364
1291	5.3137	0.012364
1292	5.3135	0.012364
1293	5.3133	0.012364
1294	5.313	0.012364
1295	5.3128	0.012364
1296	5.3125	0.012364
1297	5.3123	0.012364
1298	5.3121	0.012364
1299	5.3118	0.012364
1300	5.3116	0.012364
1301	5.3113	0.012364
1302	5.3111	0.012364
1303	5.3108	0.012364
1304	5.3104	0.012364
1305	5.3101	0.012364
1306	5.3098	0.012364
1307	5.3095	0.012364
1308	5.3092	0.012364
1309	5.3089	0.012364
1310	5.3085	0.012364
1311	5.3082	0.012364
1312	5.3079	0.012364
1313	5.3076	0.012364
1314	5.3073	0.012364
1315	5.307	0.012364
1316	5.3067	0.012364
1317	5.3063	0.012364
1318	5.306	0.012364
1319	5.3057	0.012364
1320	5.3054	0.012364
1321	5.3051	0.012364
1322	5.3048	0.012364
1323	5.3044	0.012364
1324	5.3041	0.012364
1325	5.3038	0.012364
1326	5.3035	0.012364
1327	5.3032	0.012364
1328	5.3029	0.012364
1329	5.3025	0.012364
1330	5.3022	0.012364
1331	5.3019	0.012364
1332	5.3016	0.012364
1333	5.3013	0.012364
1334	5.301	0.012364
1335	5.3006	0.012364
1336	5.3003	0.012364
1337	5.3	0.012364
1338	5.2997	0.012364
1339	5.2994	0.012364
1340	5.2991	0.012364
1341	5.2988	0.012364
1342	5.2984	0.012364
1343	5.2981	0.012364
1344	5.2978	0.012364
1345	5.2975	0.012364
1346	5.2972	0.012364
1347	5.2969	0.012364
1348	5.2965	0.012364
1349	5.2962	0.012364
1350	5.2959	0.012364
1351	5.2956	0.012364
1352	5.2953	0.012364
1353	5.295	0.012364
1354	5.2946	0.012364
1355	5.2943	0.012364
1356	5.294	0.012364
1357	5.2937	0.012364
1358	5.2934	0.012364
1359	5.2931	0.012364
1360	5.2928	0.012364
1361	5.2924	0.012364
1362	5.2921	0.012364
1363	5.2918	0.012364
1364	5.2915	0.012364
1365	5.2912	0.012364
1366	5.2909	0.012364
1367	5.2905	0.012364
1368	5.2902	0.012364
1369	5.2899	0.012364
1370	5.2896	0.012364
1371	5.2893	0.012364
1372	5.289	0.012364
1373	5.2886	0.012364
1374	5.2883	0.012364
1375	5.288	0.012364
1376	5.2877	0.012364
1377	5.2874	0.012364
1378	5.2871	0.012364
1379	5.2868	0.012364
1380	5.2864	0.012364
1381	5.2861	0.012364
1382	5.2858	0.012364
1383	5.2855	0.012364
1384	5.2852	0.012364
1385	5.2849	0.012364
1386	5.2845	0.012364
1387	5.2842	0.012364
1388	5.2839	0.012364
1389	5.2836	0.012364
1390	5.2833	0.012364
1391	5.283	0.012364
1392	5.2826	0.012364
1393	5.2823	0.012364
1394	5.282	0.012364
1395	5.2817	0.012364
1396	5.2814	0.012364
1397	5.2811	0.012364
1398	5.2808	0.012364
1399	5.2804	0.012364
1400	5.2801	0.012364
1401	5.2798	0.012364
1402	5.2795	0.012364
1403	5.2792	0.012364
1404	5.2789	0.012364
1405	5.2785	0.012364
1406	5.2782	0.012364
1407	5.2779	0.012364
1408	5.2776	0.012364
1409	5.2773	0.012364
1410	5.277	0.012364
1411	5.2766	0.012364
1412	5.2763	0.012364
1413	5.276	0.012364
1414	5.2757	0.012364
1415	5.2754	0.012364
1416	5.2751	0.012364
1417	5.2747	0.012364
1418	5.2744	0.012364
1419	5.2741	0.012364
1420	5.2738	0.012364
1421	5.2735	0.012364
1422	5.2732	0.012364
1423	5.2729	0.012364
1424	5.2725	0.012364
1425	5.2722	0.012364
1426	5.2719	0.012364
1427	5.2716	0.012364
1428	5.2713	0.012364
1429	5.271	0.012364
1430	5.2706	0.012364
1431	5.2703	0.012364
1432	5.27	0.012364
1433	5.2697	0.012364
1434	5.2694	0.012364
1435	5.2691	0.012364
1436	5.2687	0.012364
1437	5.2684	0.012364
1438	5.2681	0.012364
1439	5.2678	0.012364
1440	5.2675	0.012364
1441	5.2672	0.012364
1442	5.2669	0.012364
1443	5.2665	0.012364
1444	5.2662	0.012364
1445	5.2659	0.012364
1446	5.2656	0.012364
1447	5.2653	0.012364
1448	5.265	0.012364
1449	5.2646	0.012364
1450	5.2643	0.012364
1451	5.264	0.012364
1452	5.2637	0.012364
1453	5.2634	0.012364
1454	5.2631	0.012364
1455	5.2627	0.012364
1456	5.2624	0.012364
1457	5.2621	0.012364
1458	5.2618	0.012364
1459	5.2615	0.012364
1460	5.2612	0.012364
1461	5.2609	0.012364
1462	5.2605	0.012364
1463	5.2602	0.012364
1464	5.2599	0.012364
1465	5.2596	0.012364
1466	5.2593	0.012364
1467	5.259	0.012364
1468	5.2586	0.012364
1469	5.2583	0.012364
1470	5.258	0.012364
1471	5.2577	0.012364
1472	5.2574	0.012364
1473	5.2571	0.012364
1474	5.2567	0.012364
1475	5.2564	0.012364
1476	5.2561	0.012364
1477	5.2558	0.012364
1478	5.2555	0.012364
1479	5.2552	0.012364
1480	5.2549	0.012364
1481	5.2545	0.012364
1482	5.2542	0.012364
1483	5.2539	0.012364
1484	5.2536	0.012364
1485	5.2533	0.012364
1486	5.253	0.012364
1487	5.2526	0.012364
1488	5.2523	0.012364
1489	5.252	0.012364
1490	5.2517	0.012364
1491	5.2514	0.012364
1492	5.2511	0.012364
1493	5.2507	0.012364
1494	5.2504	0.012364
1495	5.2501	0.012364
1496	5.2498	0.012364
1497	5.2495	0.012364
1498	5.2492	0.012364
1499	5.2488	0.012364
1500	5.2485	0.012364
1501	5.2482	0.012364
1502	5.2479	0.012364
1503	5.2476	0.012364
1504	5.2473	0.012364
1505	5.247	0.012364
1506	5.2466	0.012364
1507	5.2463	0.012364
1508	5.246	0.012364
1509	5.2457	0.012364
1510	5.2454	0.012364
1511	5.2451	0.012364
1512	5.2447	0.012364
1513	5.2444	0.012364
1514	5.2441	0.012364
1515	5.2438	0.012364
1516	5.2435	0.012364
1517	5.2432	0.012364
1518	5.2428	0.012364
1519	5.2425	0.012364
1520	5.2422	0.012364
1521	5.2419	0.012364
1522	5.2416	0.012364
1523	5.2413	0.012364
1524	5.241	0.012364
1525	5.2406	0.012364
1526	5.2403	0.012364
1527	5.24	0.012364
1528	5.2397	0.012364
1529	5.2394	0.012364
1530	5.2391	0.012364
1531	5.2387	0.012364
1532	5.2384	0.012364
1533	5.2381	0.012364
1534	5.2378	0.012364
1535	5.2375	0.012364
1536	5.2372	0.012364
1537	5.2368	0.012364
1538	5.2365	0.012364
1539	5.2362	0.012364
1540	5.236	0.012364
1541	5.236	0.012364
1542	5.2359	0.012364
1543	5.2359	0.012364
1544	5.2359	0.012364
1545	5.2359	0.012364
1546	5.2358	0.012364
1547	5.2358	0.012364
1548	5.2358	0.012364
1549	5.2358	0.012364
1550	5.2358	0.012364
1551	5.2357	0.012364
1552	5.2357	0.012364
1553	5.2357	0.012364
1554	5.2357	0.012364
1555	5.2356	0.012364
1556	5.2356	0.012364
1557	5.2356	0.012364
1558	5.2356	0.012364
1559	5.2355	0.012364
1560	5.2355	0.012364
1561	5.2355	0.012364
1562	5.2355	0.012364
1563	5.2354	0.012364
1564	5.2354	0.012364
1565	5.2354	0.012364
1566	5.2354	0.012364
1567	5.2353	0.012364
1568	5.2353	0.012364
1569	5.2353	0.012364
1570	5.2353	0.012364
1571	5.2352	0.012364
1572	5.2352	0.012364
1573	5.2352	0.012364
1574	5.2352	0.012364
1575	5.2351	0.012364
1576	5.2351	0.012364
1577	5.2351	0.012364
1578	5.2351	0.012364
1579	5.235	0.012364
1580	5.235	0.012364
1581	5.235	0.012364
1582	5.235	0.012364
1583	5.235	0.012364
1584	5.2349	0.012364
1585	5.2349	0.012364
1586	5.2349	0.012364
1587	5.2349	0.012364
1588	5.2348	0.012364
1589	5.2348	0.012364
1590	5.2348	0.012364
1591	5.2348	0.012364
1592	5.2347	0.012364
1593	5.2347	0.012364
1594	5.2347	0.012364
1595	5.2347	0.012364
1596	5.2346	0.012364
1597	5.2346	0.012364
1598	5.2346	0.012364
1599	5.2346	0.012364
1600	5.2345	0.012364
1601	5.2345	0.012364
1602	5.2345	0.012364
1603	5.2345	0.012364
1604	5.2344	0.012364
1605	5.2344	0.012364
1606	5.2344	0.012364
1607	5.2344	0.012364
1608	5.2343	0.012364
1609	5.2343	0.012364
1610	5.2343	0.012364
1611	5.2343	0.012364
1612	5.2342	0.012364
1613	5.2342	0.012364
1614	5.2342	0.012364
1615	5.2342	0.012364
1616	5.2342	0.012364
1617	5.2341	0.012364
1618	5.2341	0.012364
1619	5.2341	0.012364
1620	5.2341	0.012364
1621	5.234	0.012364
1622	5.234	0.012364
1623	5.234	0.012364
1624	5.234	0.012364
1625	5.2339	0.012364
1626	5.2339	0.012364
1627	5.2339	0.012364
1628	5.2339	0.012364
1629	5.2338	0.012364
1630	5.2338	0.012364
1631	5.2338	0.012364
1632	5.2338	0.012364
1633	5.2337	0.012364
1634	5.2337	0.012364
1635	5.2337	0.012364
1636	5.2337	0.012364
1637	5.2336	0.012364
1638	5.2336	0.012364
1639	5.2336	0.012364
1640	5.2336	0.012364
1641	5.2335	0.012364
1642	5.2335	0.012364
1643	5.2335	0.012364
1644	5.2335	0.012364
1645	5.2334	0.012364
1646	5.2334	0.012364
1647	5.2334	0.012364
1648	5.2334	0.012364
1649	5.2334	0.012364
1650	5.2333	0.012364
1651	5.2333	0.012364
1652	5.2333	0.012364
1653	5.2333	0.012364
1654	5.2332	0.012364
1655	5.2332	0.012364
1656	5.2332	0.012364
1657	5.2332	0.012364
1658	5.2331	0.012364
1659	5.2331	0.012364
1660	5.2331	0.012364
1661	5.2331	0.012364
1662	5.233	0.012364
1663	5.233	0.012364
1664	5.233	0.012364
1665	5.233	0.012364
1666	5.2329	0.012364
1667	5.2329	0.012364
1668	5.2329	0.012364
1669	5.2329	0.012364
1670	5.2328	0.012364
1671	5.2328	0.012364
1672	5.2328	0.012364
1673	5.2328	0.012364
1674	5.2327	0.012364
1675	5.2327	0.012364
1676	5.2327	0.012364
1677	5.2327	0.012364
1678	5.2326	0.012364
1679	5.2326	0.012364
1680	5.2326	0.012364
1681	5.2326	0.012364
1682	5.2326	0.012364
1683	5.2325	0.012364
1684	5.2325	0.012364
1685	5.2325	0.012364
1686	5.2325	0.012364
1687	5.2324	0.012364
1688	5.2324	0.012364
1689	5.2324	0.012364
1690	5.2324	0.012364
1691	5.2323	0.012364
1692	5.2323	0.012364
1693	5.2323	0.012364
1694	5.2323	0.012364
1695	5.2322	0.012364
1696	5.2322	0.012364
1697	5.2322	0.012364
1698	5.2322	0.012364
1699	5.2321	0.012364
1700	5.2321	0.012364
1701	5.2321	0.012364
1702	5.2321	0.012364
1703	5.232	0.012364
1704	5.232	0.012364
1705	5.232	0.012364
1706	5.232	0.012364
1707	5.2319	0.012364
1708	5.2319	0.012364
1709	5.2319	0.012364
1710	5.2319	0.012364
1711	5.2318	0.012364
1712	5.2318	0.012364
1713	5.2318	0.012364
1714	5.2318	0.012364
1715	5.2318	0.012364
1716	5.2317	0.012364
1717	5.2317	0.012364
1718	5.2317	0.012364
1719	5.2317	0.012364
1720	5.2316	0.012364
1721	5.2316	0.012364
1722	5.2316	0.012364
1723	5.2316	0.012364
1724	5.2315	0.012364
1725	5.2315	0.012364
1726	5.2315	0.012364
1727	5.2315	0.012364
1728	5.2314	0.012364
1729	5.2314	0.012364
1730	5.2314	0.012364
1731	5.2314	0.012364
1732	5.2313	0.012364
1733	5.2313	0.012364
1734	5.2313	0.012364
1735	5.2313	0.012364
1736	5.2312	0.012364
1737	5.2312	0.012364
1738	5.2312	0.012364
1739	5.2312	0.012364
1740	5.2311	0.012364
1741	5.2311	0.012364
1742	5.2311	0.012364
1743	5.2311	0.012364
1744	5.231	0.012364
1745	5.231	0.012364
1746	5.231	0.012364
1747	5.231	0.012364
1748	5.231	0.012364
1749	5.2309	0.012364
1750	5.2309	0.012364
1751	5.2309	0.012364
1752	5.2309	0.012364
1753	5.2308	0.012364
1754	5.2308	0.012364
1755	5.2308	0.012364
1756	5.2308	0.012364
1757	5.2307	0.012364
1758	5.2307	0.012364
1759	5.2307	0.012364
1760	5.2307	0.012364
1761	5.2306	0.012364
1762	5.2306	0.012364
1763	5.2306	0.012364
1764	5.2306	0.012364
1765	5.2305	0.012364
1766	5.2305	0.012364
1767	5.2305	0.012364
1768	5.2305	0.012364
1769	5.2304	0.012364
1770	5.2304	0.012364
1771	5.2304	0.012364
1772	5.2304	0.012364
1773	5.2303	0.012364
1774	5.2303	0.012364
1775	5.2303	0.012364
1776	5.2303	0.012364
1777	5.2302	0.012364
1778	5.2302	0.012364
1779	5.2302	0.012364
1780	5.2302	0.012364
1781	5.2302	0.012364
1782	5.2301	0.012364
1783	5.2301	0.012364
1784	5.2301	0.012364
1785	5.2301	0.012364
1786	5.23	0.012364
1787	5.23	0.012364
1788	5.23	0.012364
1789	5.23	0.012364
1790	5.2299	0.012364
1791	5.2299	0.012364
1792	5.2299	0.012364
1793	5.2299	0.012364
1794	5.2298	0.012364
1795	5.2298	0.012364
1796	5.2298	0.012364
1797	5.2298	0.012364
1798	5.2297	0.012364
1799	5.2297	0.012364
1800	5.2297	0.012364
