150	-2.5252	3.0368
151	-2.6008	3.1364
152	-2.6761	3.2473
153	-2.7361	3.3583
154	-2.7961	3.4692
155	-2.8509	3.5855
156	-2.8884	3.7035
157	-2.9259	3.8216
158	-2.967	3.9396
159	-3.0152	4.0633
160	-3.0634	4.1919
161	-3.1224	4.3206
162	-3.2035	4.4493
163	-3.2847	4.5969
164	-3.3584	4.8176
165	-3.4017	5.0382
166	-3.4449	5.2588
167	-3.4881	5.4795
168	-3.4435	5.7265
169	-3.394	5.9751
170	-3.3444	6.2236
171	-3.2764	6.4722
172	-3.194	6.7
173	-3.1116	6.9264
174	-3.0268	7.1528
175	-2.8811	7.3791
176	-2.7354	7.6131
177	-2.5897	7.8501
178	-2.3982	8.0871
179	-2.1278	8.324
180	-1.8575	8.5364
181	-1.5871	8.5742
182	-1.3008	8.612
183	-1.0125	8.6498
184	-0.72419	8.6877
185	-0.46737	8.7255
186	-0.29238	8.7168
187	-0.11739	8.668
188	0.057607	8.6192
189	0.22538	8.5704
190	0.34563	8.5216
191	0.46588	8.4663
192	0.58614	8.3827
193	0.70639	8.299
194	0.75718	8.2445
195	0.79014	8.205
196	0.82309	8.1654
197	0.85605	8.1258
198	0.88862	8.0863
199	0.92007	8.0587
200	0.95152	8.0484
201	0.98296	8.0381
202	1.0144	8.0278
203	1.0289	8.0176
204	1.0261	8.0073
205	1.0234	7.997
206	1.0207	8.0071
207	1.018	8.0555
208	0.99089	8.1038
209	0.93989	8.1521
210	0.88889	8.2004
211	0.83789	8.2487
212	0.78689	8.2971
213	0.7459	8.3454
214	0.73357	8.4608
215	0.72124	8.5965
216	0.70892	8.7321
217	0.69659	8.8677
218	0.68426	9.0034
219	0.69148	9.139
220	0.70552	9.2747
221	0.71957	9.4866
222	0.73361	9.7048
223	0.74766	9.9229
224	0.7617	10.141
225	0.87587	10.359
226	0.99762	10.59
227	1.1194	10.853
228	1.2411	11.116
229	1.3629	11.378
230	1.4949	11.641
231	1.7368	11.904
232	1.9786	12.154
233	2.2205	12.397
234	2.4623	12.639
235	2.7722	12.882
236	3.174	13.125
237	3.5757	13.362
238	3.9956	13.369
239	4.4408	13.375
240	4.8861	13.382
241	5.3085	13.388
242	5.7297	13.394
243	6.143	13.401
244	6.5458	13.407
245	6.9486	13.413
246	7.3564	13.311
247	7.765	13.116
248	8.1536	12.921
249	8.4788	12.726
250	8.8041	12.531
251	9.1294	12.335
252	9.3502	12.14
253	9.5568	11.877
254	9.7634	11.548
255	9.97	11.219
256	10.177	10.89
257	10.383	10.561
258	10.544	10.328
259	10.703	10.161
260	10.862	9.9929
261	11.021	9.8252
262	11.18	9.6575
263	11.339	9.4898
264	11.498	9.322
265	11.615	9.1372
266	11.705	8.8959
267	11.796	8.6545
268	11.886	8.4132
269	11.976	8.1719
270	12.066	7.9305
271	12.157	7.6888
272	12.247	7.4351
273	12.259	7.1814
274	12.255	6.9277
275	12.252	6.674
276	12.248	6.4203
277	12.245	6.1834
278	12.241	5.9761
279	12.238	5.7687
280	12.234	5.5613
281	12.231	5.354
282	12.184	5.1466
283	12.122	4.9393
284	12.06	4.741
285	11.998	4.5926
286	11.936	4.4442
287	11.874	4.2958
288	11.812	4.1474
289	11.75	3.999
290	11.688	3.8506
291	11.626	3.7022
292	11.546	3.5538
293	11.466	3.4149
294	11.387	3.3204
295	11.307	3.2259
296	11.227	3.1314
297	11.148	3.0369
298	11.068	2.9423
299	10.989	2.8478
300	10.909	2.7533
301	10.829	2.6588
302	10.753	2.5643
303	10.68	2.4698
304	10.606	2.3753
305	10.532	2.2869
306	10.458	2.2435
307	10.385	2.2001
308	10.311	2.1568
309	10.237	2.1134
310	10.164	2.07
311	10.09	2.0266
312	10.016	1.9832
313	9.9514	1.9398
314	9.9003	1.8964
315	9.8492	1.8531
316	9.798	1.8097
317	9.7469	1.7663
318	9.6958	1.7229
319	9.6446	1.6795
320	9.5935	1.6361
321	9.5424	1.6089
322	9.4913	1.585
323	9.4401	1.561
324	9.389	1.5371
325	9.3418	1.5132
326	9.3025	1.4892
327	9.2632	1.4653
328	9.2239	1.4414
329	9.1845	1.4174
330	9.1452	1.3935
331	9.1059	1.3696
332	9.0665	1.3456
333	9.0272	1.3217
334	8.9879	1.2978
335	8.9486	1.2738
336	8.9092	1.2499
337	8.8699	1.226
338	8.834	1.202
339	8.8057	1.1787
340	8.7775	1.1624
341	8.7492	1.1462
342	8.7209	1.1299
343	8.6927	1.1137
344	8.6644	1.0974
345	8.6361	1.0812
346	8.6079	1.0649
347	8.5796	1.0487
348	8.5514	1.0324
349	8.5231	1.0162
350	8.4948	0.9999
351	8.4666	0.98365
352	8.4394	0.9674
353	8.417	0.95115
354	8.3945	0.9349
355	8.3721	0.91865
356	8.3496	0.9024
357	8.3272	0.88615
358	8.3047	0.8699
359	8.2823	0.85365
360	8.2598	0.8374
361	8.2374	0.82174
362	8.2149	0.8076
363	8.1925	0.79347
364	8.17	0.77933
365	8.1476	0.76519
366	8.1251	0.75105
367	8.1027	0.73691
368	8.0813	0.72278
369	8.0602	0.70864
370	8.0391	0.6945
371	8.018	0.68036
372	7.9969	0.66622
373	7.9758	0.65209
374	7.9546	0.63795
375	7.9335	0.62381
376	7.9124	0.60967
377	7.8913	0.59554
378	7.8702	0.5814
379	7.8491	0.56726
380	7.8279	0.55312
381	7.8068	0.53898
382	7.7857	0.52723
383	7.7646	0.51821
384	7.7437	0.50919
385	7.7247	0.50017
386	7.7056	0.49115
387	7.6866	0.48212
388	7.6676	0.4731
389	7.6486	0.46408
390	7.6295	0.45506
391	7.6105	0.44604
392	7.5915	0.43702
393	7.5725	0.42969
394	7.5534	0.42481
395	7.5344	0.41992
396	7.5154	0.41504
397	7.4964	0.41016
398	7.4773	0.40528
399	7.4583	0.40039
400	7.4393	0.39551
401	7.4202	0.39063
402	7.4012	0.38574
403	7.3857	0.38086
404	7.3713	0.37598
405	7.3569	0.3711
406	7.3425	0.36621
407	7.3282	0.36133
408	7.3138	0.35645
409	7.2994	0.35157
410	7.2851	0.34668
411	7.2707	0.3418
412	7.2563	0.33692
413	7.2419	0.33204
414	7.2276	0.32715
415	7.2132	0.32242
416	7.1988	0.31874
417	7.1845	0.31506
418	7.1701	0.31138
419	7.1557	0.3077
420	7.1414	0.30402
421	7.127	0.30035
422	7.1126	0.29667
423	7.1004	0.29299
424	7.0901	0.28931
425	7.0797	0.28563
426	7.0694	0.28195
427	7.059	0.27828
428	7.0487	0.2746
429	7.0383	0.27092
430	7.0279	0.26724
431	7.0176	0.26356
432	7.0072	0.25988
433	6.9969	0.2562
434	6.9865	0.25253
435	6.9762	0.24885
436	6.9658	0.24517
437	6.9554	0.24149
438	6.9451	0.23781
439	6.9347	0.23413
440	6.9244	0.23046
441	6.914	0.22678
442	6.9037	0.2231
443	6.8933	0.21942
444	6.8829	0.21574
445	6.8728	0.21206
446	6.8633	0.20838
447	6.8538	0.20482
448	6.8443	0.20266
449	6.8348	0.20051
450	6.8253	0.19835
451	6.8158	0.19619
452	6.8063	0.19404
453	6.7968	0.19188
454	6.7873	0.18973
455	6.7778	0.18757
456	6.7683	0.18542
457	6.7588	0.18326
458	6.7493	0.1811
459	6.7398	0.17895
460	6.7303	0.17679
461	6.7208	0.17464
462	6.7113	0.17248
463	6.7018	0.17032
464	6.6923	0.16817
465	6.6828	0.16601
466	6.6733	0.16386
467	6.6638	0.1617
468	6.6543	0.15955
469	6.6448	0.15739
470	6.636	0.15523
471	6.6283	0.15308
472	6.6207	0.15092
473	6.613	0.14877
474	6.6053	0.14661
475	6.5976	0.14446
476	6.5899	0.1423
477	6.5823	0.14014
478	6.5746	0.13799
479	6.5669	0.13583
480	6.5592	0.13368
481	6.5516	0.13152
482	6.5439	0.12936
483	6.5362	0.12721
484	6.5285	0.12505
485	6.5208	0.1229
486	6.5132	0.12074
487	6.5055	0.11873
488	6.4978	0.11792
489	6.4901	0.11711
490	6.4824	0.1163
491	6.4748	0.11549
492	6.4671	0.11468
493	6.4594	0.11387
494	6.4517	0.11306
495	6.4441	0.11225
496	6.4364	0.11144
497	6.4287	0.11063
498	6.4224	0.10982
499	6.4169	0.109
500	6.4114	0.10819
501	6.4059	0.10738
502	6.4004	0.10657
503	6.3948	0.10576
504	6.3893	0.10495
505	6.3838	0.10414
506	6.3783	0.10333
507	6.3728	0.10252
508	6.3673	0.10171
509	6.3617	0.1009
510	6.3562	0.10009
511	6.3507	0.099275
512	6.3452	0.098465
513	6.3397	0.097654
514	6.3342	0.096843
515	6.3287	0.096032
516	6.3231	0.095222
517	6.3176	0.094411
518	6.3121	0.0936
519	6.3066	0.092789
520	6.3011	0.091979
521	6.2956	0.091168
522	6.29	0.090357
523	6.2845	0.089546
524	6.279	0.088735
525	6.2735	0.087925
526	6.268	0.087114
527	6.2625	0.086303
528	6.257	0.085492
529	6.2521	0.084682
530	6.2481	0.083871
531	6.2441	0.08306
532	6.2402	0.082549
533	6.2362	0.082549
534	6.2322	0.082549
535	6.2283	0.082549
536	6.2243	0.082549
537	6.2203	0.082549
538	6.2164	0.082549
539	6.2124	0.082549
540	6.2084	0.082549
541	6.2045	0.082549
542	6.2005	0.082549
543	6.1965	0.082549
544	6.1926	0.082549
545	6.1886	0.082549
546	6.1846	0.082549
547	6.1807	0.082549
548	6.1767	0.082549
549	6.1727	0.082549
550	6.1688	0.082549
551	6.1648	0.082549
552	6.1608	0.082549
553	6.1568	0.082549
554	6.1529	0.082549
555	6.1489	0.082549
556	6.1449	0.082549
557	6.141	0.082549
558	6.137	0.082549
559	6.133	0.082549
560	6.1291	0.082549
561	6.1251	0.082549
562	6.1211	0.082549
563	6.1172	0.082549
564	6.1132	0.082549
565	6.1099	0.082549
566	6.1067	0.082549
567	6.1035	0.082549
568	6.1002	0.082549
569	6.097	0.082549
570	6.0937	0.082549
571	6.0905	0.082549
572	6.0872	0.082549
573	6.084	0.082549
574	6.0807	0.082549
575	6.0775	0.082549
576	6.0742	0.082549
577	6.071	0.082549
578	6.0678	0.082549
579	6.0645	0.082549
580	6.0613	0.082549
581	6.058	0.082549
582	6.0548	0.082549
583	6.0515	0.082549
584	6.0483	0.082549
585	6.045	0.082549
586	6.0418	0.082549
587	6.0385	0.082549
588	6.0353	0.082549
589	6.0321	0.082549
590	6.0288	0.082549
591	6.0256	0.082549
592	6.0223	0.082549
593	6.0191	0.082549
594	6.0158	0.082549
595	6.0126	0.082549
596	6.0093	0.082549
597	6.0061	0.082549
598	6.0029	0.082549
599	5.9996	0.082549
600	5.9964	0.082549
601	5.9931	0.082549
602	5.9899	0.082549
603	5.9866	0.082549
604	5.9834	0.082549
605	5.9805	0.082549
606	5.9781	0.082549
607	5.9757	0.082549
608	5.9732	0.082549
609	5.9708	0.082549
610	5.9684	0.082549
611	5.966	0.082549
612	5.9636	0.082549
613	5.9611	0.082549
614	5.9587	0.082549
615	5.9563	0.082549
616	5.9539	0.082549
617	5.9514	0.082549
618	5.949	0.082549
619	5.9466	0.082549
620	5.9442	0.082549
621	5.9417	0.082549
622	5.9393	0.082549
623	5.9369	0.082549
624	5.9345	0.082549
625	5.9321	0.082549
626	5.9296	0.082549
627	5.9272	0.082549
628	5.9248	0.082549
629	5.9224	0.082549
630	5.9199	0.082549
631	5.9175	0.082549
632	5.9151	0.082549
633	5.9127	0.082549
634	5.9103	0.082549
635	5.9078	0.082549
636	5.9054	0.082549
637	5.903	0.082549
638	5.9006	0.082549
639	5.8981	0.082549
640	5.8957	0.082549
641	5.8933	0.082549
642	5.8909	0.082549
643	5.8885	0.082549
644	5.886	0.082549
645	5.8836	0.082549
646	5.8812	0.082549
647	5.8788	0.082549
648	5.8763	0.082549
649	5.8739	0.082549
650	5.8715	0.082549
651	5.8691	0.082549
652	5.867	0.082549
653	5.8652	0.082549
654	5.8634	0.082549
655	5.8616	0.082549
656	5.8597	0.082549
657	5.8579	0.082549
658	5.8561	0.082549
659	5.8543	0.082549
660	5.8524	0.082549
661	5.8506	0.082549
662	5.8488	0.082549
663	5.847	0.082549
664	5.8451	0.082549
665	5.8433	0.082549
666	5.8415	0.082549
667	5.8397	0.082549
668	5.8378	0.082549
669	5.836	0.082549
670	5.8342	0.082549
671	5.8324	0.082549
672	5.8305	0.082549
673	5.8287	0.082549
674	5.8269	0.082549
675	5.8251	0.082549
676	5.8232	0.082549
677	5.8214	0.082549
678	5.8196	0.082549
679	5.8178	0.082549
680	5.8159	0.082549
681	5.8141	0.082549
682	5.8123	0.082549
683	5.8105	0.082549
684	5.8086	0.082549
685	5.8068	0.082549
686	5.805	0.082549
687	5.8032	0.082549
688	5.8013	0.082549
689	5.7995	0.082549
690	5.7977	0.082549
691	5.7958	0.082549
692	5.794	0.082549
693	5.7922	0.082549
694	5.7904	0.082549
695	5.7885	0.082549
696	5.7867	0.082549
697	5.7849	0.082549
698	5.7831	0.082549
699	5.7812	0.082549
700	5.7794	0.082549
701	5.7776	0.082549
702	5.7758	0.082549
703	5.7739	0.082549
704	5.7721	0.082549
705	5.7703	0.082549
706	5.7685	0.082549
707	5.7671	0.082549
708	5.7657	0.082549
709	5.7643	0.082549
710	5.7629	0.082549
711	5.7615	0.082549
712	5.7601	0.082549
713	5.7587	0.082549
714	5.7573	0.082549
715	5.7559	0.082549
716	5.7544	0.082549
717	5.753	0.082549
718	5.7516	0.082549
719	5.7502	0.082549
720	5.7488	0.082549
721	5.7474	0.082549
722	5.746	0.082549
723	5.7446	0.082549
724	5.7432	0.082549
725	5.7418	0.082549
726	5.7404	0.082549
727	5.739	0.082549
728	5.7376	0.082549
729	5.7362	0.082549
730	5.7348	0.082549
731	5.7334	0.082549
732	5.732	0.082549
733	5.7306	0.082549
734	5.7292	0.082549
735	5.7278	0.082549
736	5.7264	0.082549
737	5.725	0.082549
738	5.7236	0.082549
739	5.7222	0.082549
740	5.7208	0.082549
741	5.7194	0.082549
742	5.718	0.082549
743	5.7166	0.082549
744	5.7152	0.082549
745	5.7138	0.082549
746	5.7124	0.082549
747	5.711	0.082549
748	5.7096	0.082549
749	5.7082	0.082549
750	5.7068	0.082549
751	5.7054	0.082549
752	5.7039	0.082505
753	5.7025	0.082223
754	5.7011	0.08194
755	5.6997	0.081657
756	5.6983	0.081375
757	5.6969	0.081092
758	5.6955	0.080809
759	5.6941	0.080527
760	5.6927	0.080244
761	5.6913	0.079961
762	5.6899	0.079679
763	5.6885	0.079396
764	5.6871	0.079113
765	5.6857	0.078831
766	5.6843	0.078548
767	5.6829	0.078266
768	5.6815	0.077983
769	5.6801	0.0777
770	5.6787	0.077418
771	5.6775	0.077135
772	5.6765	0.076852
773	5.6755	0.07657
774	5.6745	0.076287
775	5.6735	0.076004
776	5.6725	0.075722
777	5.6715	0.075439
778	5.6705	0.075157
779	5.6695	0.074874
780	5.6685	0.074591
781	5.6675	0.074309
782	5.6665	0.074026
783	5.6655	0.073743
784	5.6646	0.073461
785	5.6636	0.073178
786	5.6626	0.072895
787	5.6616	0.072613
788	5.6606	0.07233
789	5.6596	0.072047
790	5.6586	0.071765
791	5.6576	0.071482
792	5.6566	0.0712
793	5.6556	0.070917
794	5.6546	0.070634
795	5.6536	0.070352
796	5.6526	0.070069
797	5.6517	0.069786
798	5.6507	0.069504
799	5.6497	0.069221
800	5.6487	0.068938
801	5.6477	0.068656
802	5.6467	0.068373
803	5.6457	0.06809
804	5.6447	0.067808
805	5.6437	0.067525
806	5.6427	0.067243
807	5.6417	0.06696
808	5.6407	0.066677
809	5.6397	0.066395
810	5.6388	0.066112
811	5.6378	0.065829
812	5.6368	0.065547
813	5.6358	0.065264
814	5.6348	0.064981
815	5.6338	0.064699
816	5.6328	0.064416
817	5.6318	0.064134
818	5.6308	0.063851
819	5.6298	0.063568
820	5.6288	0.063286
821	5.6278	0.063003
822	5.6268	0.06272
823	5.6259	0.062438
824	5.6249	0.062155
825	5.6239	0.061872
826	5.6229	0.06159
827	5.6219	0.061307
828	5.6209	0.061024
829	5.6199	0.060742
830	5.6189	0.060459
831	5.6179	0.060177
832	5.6169	0.059894
833	5.6159	0.059611
834	5.6149	0.059329
835	5.6139	0.059046
836	5.613	0.058763
837	5.612	0.058481
838	5.611	0.058198
839	5.61	0.057915
840	5.609	0.057633
841	5.608	0.05735
842	5.607	0.057067
843	5.606	0.056785
844	5.605	0.056502
845	5.604	0.05622
846	5.603	0.055937
847	5.602	0.055654
848	5.601	0.055372
849	5.6004	0.055089
850	5.5999	0.054806
851	5.5995	0.054524
852	5.599	0.054241
853	5.5985	0.053958
854	5.598	0.053676
855	5.5976	0.053393
856	5.5971	0.053111
857	5.5966	0.052828
858	5.5961	0.052545
859	5.5956	0.052263
860	5.5952	0.05198
861	5.5947	0.051697
862	5.5942	0.051415
863	5.5937	0.051132
864	5.5933	0.050849
865	5.5928	0.050694
866	5.5923	0.05056
867	5.5918	0.050426
868	5.5914	0.050292
869	5.5909	0.050158
870	5.5904	0.050024
871	5.5899	0.04989
872	5.5894	0.049756
873	5.589	0.049622
874	5.5885	0.049488
875	5.588	0.049354
876	5.5875	0.04922
877	5.5871	0.049086
878	5.5866	0.048951
879	5.5861	0.048817
880	5.5856	0.048683
881	5.5852	0.048549
882	5.5847	0.048415
883	5.5842	0.048281
884	5.5837	0.048147
885	5.5832	0.048013
886	5.5828	0.047879
887	5.5823	0.047745
888	5.5818	0.047611
889	5.5813	0.047477
890	5.5809	0.047343
891	5.5804	0.047209
892	5.5799	0.047075
893	5.5794	0.04694
894	5.579	0.046806
895	5.5785	0.046672
896	5.578	0.046538
897	5.5775	0.046404
898	5.5771	0.04627
899	5.5766	0.046136
900	5.5761	0.046002
901	5.5756	0.045868
902	5.5751	0.045734
903	5.5747	0.0456
904	5.5742	0.045466
905	5.5737	0.045332
906	5.5732	0.045198
907	5.5728	0.045063
908	5.5723	0.044929
909	5.5718	0.044795
910	5.5713	0.044661
911	5.5709	0.044527
912	5.5704	0.044393
913	5.5699	0.044259
914	5.5694	0.044125
915	5.5689	0.043991
916	5.5685	0.043857
917	5.568	0.043723
918	5.5675	0.043589
919	5.567	0.043455
920	5.5666	0.043321
921	5.5661	0.043187
922	5.5656	0.043052
923	5.5651	0.042918
924	5.5647	0.042784
925	5.5642	0.04265
926	5.5637	0.042516
927	5.5632	0.042382
928	5.5627	0.042248
929	5.5623	0.042114
930	5.5618	0.04198
931	5.5613	0.041846
932	5.5608	0.041712
933	5.5604	0.041578
934	5.5599	0.041444
935	5.5594	0.04131
936	5.5589	0.041176
937	5.5585	0.041041
938	5.558	0.040907
939	5.5575	0.040773
940	5.557	0.040639
941	5.5565	0.040505
942	5.5561	0.040371
943	5.5556	0.040237
944	5.555	0.040103
945	5.5544	0.039969
946	5.5537	0.039835
947	5.5531	0.039701
948	5.5524	0.039567
949	5.5518	0.039433
950	5.5511	0.039299
951	5.5505	0.039164
952	5.5498	0.03903
953	5.5492	0.038896
954	5.5485	0.038762
955	5.5479	0.038628
956	5.5473	0.038494
957	5.5466	0.03836
958	5.546	0.038226
959	5.5453	0.038092
960	5.5447	0.037958
961	5.544	0.037824
962	5.5434	0.03769
963	5.5427	0.037556
964	5.5421	0.037422
965	5.5414	0.037288
966	5.5408	0.037153
967	5.5401	0.037019
968	5.5395	0.036885
969	5.5388	0.036751
970	5.5382	0.036617
971	5.5375	0.036483
972	5.5369	0.036349
973	5.5363	0.036215
974	5.5356	0.036081
975	5.535	0.035947
976	5.5343	0.035813
977	5.5337	0.035679
978	5.533	0.035545
979	5.5324	0.035411
980	5.5317	0.035276
981	5.5311	0.035142
982	5.5304	0.035008
983	5.5298	0.034874
984	5.5291	0.03474
985	5.5285	0.034606
986	5.5278	0.034472
987	5.5272	0.034338
988	5.5265	0.034204
989	5.5259	0.03407
990	5.5252	0.033936
991	5.5246	0.033802
992	5.524	0.033668
993	5.5233	0.033534
994	5.5227	0.0334
995	5.522	0.033265
996	5.5214	0.033131
997	5.5207	0.032997
998	5.5201	0.032863
999	5.5194	0.032729
1000	5.5188	0.032612
1001	5.5181	0.032508
1002	5.5175	0.032403
1003	5.5168	0.032299
1004	5.5162	0.032195
1005	5.5155	0.03209
1006	5.5149	0.031986
1007	5.5142	0.031881
1008	5.5136	0.031777
1009	5.513	0.031672
1010	5.5123	0.031568
1011	5.5117	0.031464
1012	5.511	0.031359
1013	5.5104	0.031255
1014	5.5097	0.03115
1015	5.5091	0.031046
1016	5.5084	0.030941
1017	5.5078	0.030837
1018	5.5071	0.030733
1019	5.5065	0.030628
1020	5.5058	0.030524
1021	5.5052	0.030419
1022	5.5045	0.030315
1023	5.5039	0.03021
1024	5.5032	0.030106
1025	5.5026	0.030002
1026	5.502	0.029897
1027	5.5013	0.029793
1028	5.5007	0.029688
1029	5.5	0.029584
1030	5.4994	0.02948
1031	5.4987	0.029375
1032	5.4981	0.029271
1033	5.4974	0.029166
1034	5.4968	0.029062
1035	5.4961	0.028957
1036	5.4955	0.028853
1037	5.4948	0.028749
1038	5.4942	0.028644
1039	5.4935	0.02854
1040	5.4929	0.028435
1041	5.4922	0.028331
1042	5.4916	0.028226
1043	5.491	0.028122
1044	5.4903	0.028018
1045	5.4897	0.027913
1046	5.489	0.027809
1047	5.4884	0.027704
1048	5.4877	0.0276
1049	5.4871	0.027496
1050	5.4864	0.027391
1051	5.4858	0.027287
1052	5.4851	0.027182
1053	5.4845	0.027078
1054	5.4838	0.026973
1055	5.4832	0.026869
1056	5.4825	0.026765
1057	5.4819	0.02666
1058	5.4812	0.026556
1059	5.4806	0.026451
1060	5.4799	0.026347
1061	5.4793	0.026242
1062	5.4787	0.026138
1063	5.4782	0.026034
1064	5.4781	0.025929
1065	5.4779	0.025825
1066	5.4777	0.02572
1067	5.4775	0.025616
1068	5.4773	0.025511
1069	5.4772	0.025407
1070	5.477	0.025303
1071	5.4768	0.025198
1072	5.4766	0.025094
1073	5.4765	0.024989
1074	5.4763	0.024885
1075	5.4761	0.024781
1076	5.4759	0.024676
1077	5.4758	0.024572
1078	5.4756	0.024467
1079	5.4754	0.024363
1080	5.4752	0.024379
1081	5.475	0.0244
1082	5.4749	0.02442
1083	5.4747	0.02444
1084	5.4745	0.02446
1085	5.4743	0.02448
1086	5.4742	0.024501
1087	5.474	0.024521
1088	5.4738	0.024541
1089	5.4736	0.024561
1090	5.4735	0.024581
1091	5.4733	0.024602
1092	5.4731	0.024622
1093	5.4729	0.024642
1094	5.4727	0.024662
1095	5.4726	0.024683
1096	5.4724	0.024703
1097	5.4722	0.024723
1098	5.472	0.024743
1099	5.4719	0.024763
1100	5.4717	0.024784
1101	5.4715	0.024804
1102	5.4713	0.024824
1103	5.4711	0.024844
1104	5.471	0.024864
1105	5.4708	0.024885
1106	5.4706	0.024905
1107	5.4704	0.024925
1108	5.4703	0.024945
1109	5.4701	0.024966
1110	5.4699	0.024986
1111	5.4697	0.025006
1112	5.4696	0.025026
1113	5.4694	0.025046
1114	5.4692	0.025067
1115	5.469	0.025087
1116	5.4688	0.025107
1117	5.4687	0.025127
1118	5.4685	0.025147
1119	5.4683	0.025168
1120	5.4681	0.025188
1121	5.468	0.025208
1122	5.4678	0.025228
1123	5.4676	0.025249
1124	5.4674	0.025269
1125	5.4673	0.025289
1126	5.4671	0.025309
1127	5.4669	0.025329
1128	5.4667	0.02535
1129	5.4665	0.02537
1130	5.4664	0.02539
1131	5.4662	0.02541
1132	5.466	0.025431
1133	5.4658	0.025451
1134	5.4657	0.025471
1135	5.4655	0.025491
1136	5.4653	0.025511
1137	5.4651	0.025532
1138	5.4649	0.025552
1139	5.4648	0.025572
1140	5.4646	0.025592
1141	5.4644	0.025612
1142	5.4642	0.025633
1143	5.4641	0.025653
1144	5.4639	0.025673
1145	5.4637	0.025693
1146	5.4635	0.025714
1147	5.4634	0.025734
1148	5.4632	0.025754
1149	5.463	0.025774
1150	5.4628	0.025794
1151	5.4626	0.025815
1152	5.4625	0.025835
1153	5.4623	0.025855
1154	5.4621	0.025875
1155	5.4619	0.025895
1156	5.4618	0.025916
1157	5.4616	0.025936
1158	5.4614	0.025956
1159	5.4612	0.025976
1160	5.461	0.025997
1161	5.4609	0.026017
1162	5.4607	0.026037
1163	5.4605	0.026057
1164	5.4603	0.026077
1165	5.4602	0.026098
1166	5.46	0.026118
1167	5.4598	0.026138
1168	5.4596	0.026158
1169	5.4595	0.026178
1170	5.4593	0.026199
1171	5.4591	0.026219
1172	5.4589	0.026239
1173	5.4587	0.026259
1174	5.4586	0.02628
1175	5.4584	0.0263
1176	5.4582	0.02632
1177	5.458	0.02634
1178	5.4579	0.02636
1179	5.4577	0.026381
1180	5.4575	0.026401
1181	5.4573	0.026421
1182	5.4572	0.026441
1183	5.457	0.026461
1184	5.4568	0.026482
1185	5.4566	0.026502
1186	5.4564	0.026522
1187	5.4563	0.026542
1188	5.4561	0.026563
1189	5.4559	0.026583
1190	5.4557	0.026603
1191	5.4556	0.026623
1192	5.4554	0.026643
1193	5.4552	0.026664
1194	5.455	0.026684
1195	5.4548	0.026704
1196	5.4547	0.026724
1197	5.4545	0.026744
1198	5.4543	0.026765
1199	5.4541	0.026785
1200	5.454	0.026805
1201	5.4538	0.026825
1202	5.4536	0.026846
1203	5.4534	0.026866
1204	5.4533	0.026886
1205	5.4531	0.026906
1206	5.4529	0.026926
1207	5.4527	0.026947
1208	5.4525	0.026967
1209	5.4524	0.026987
1210	5.4522	0.027007
1211	5.452	0.027027
1212	5.4518	0.027048
1213	5.4517	0.027068
1214	5.4515	0.027088
1215	5.4513	0.027108
1216	5.4511	0.027129
1217	5.4508	0.027149
1218	5.4504	0.027169
1219	5.4501	0.027189
1220	5.4497	0.027209
1221	5.4494	0.02723
1222	5.449	0.02725
1223	5.4487	0.02727
1224	5.4483	0.02729
1225	5.448	0.027311
1226	5.4476	0.027331
1227	5.4473	0.027351
1228	5.4469	0.027371
1229	5.4465	0.027391
1230	5.4462	0.027412
1231	5.4458	0.027432
1232	5.4455	0.027452
1233	5.4451	0.027472
1234	5.4448	0.027492
1235	5.4444	0.027513
1236	5.4441	0.027533
1237	5.4437	0.027553
1238	5.4434	0.027573
1239	5.443	0.027594
1240	5.4427	0.027614
1241	5.4423	0.027634
1242	5.442	0.027654
1243	5.4416	0.027674
1244	5.4412	0.027695
1245	5.4409	0.027715
1246	5.4405	0.027735
1247	5.4402	0.027755
1248	5.4398	0.027775
1249	5.4395	0.027796
1250	5.4391	0.027816
1251	5.4388	0.027836
1252	5.4384	0.027856
1253	5.4381	0.027877
1254	5.4377	0.027897
1255	5.4374	0.027917
1256	5.437	0.027937
1257	5.4367	0.027957
1258	5.4363	0.027978
1259	5.4359	0.027998
1260	5.4356	0.028018
1261	5.4352	0.028038
1262	5.4349	0.028058
1263	5.4345	0.028079
1264	5.4342	0.028099
1265	5.4338	0.028119
1266	5.4335	0.028139
1267	5.4331	0.028152
1268	5.4328	0.028165
1269	5.4324	0.028177
1270	5.4321	0.02819
1271	5.4317	0.028203
1272	5.4314	0.028216
1273	5.431	0.028228
1274	5.4307	0.028241
1275	5.4303	0.028254
1276	5.4299	0.028267
1277	5.4296	0.02828
1278	5.4292	0.028292
1279	5.4289	0.028305
1280	5.4285	0.028318
1281	5.4282	0.028331
1282	5.4278	0.028344
1283	5.4275	0.028356
1284	5.4271	0.028369
1285	5.4268	0.028382
1286	5.4264	0.028395
1287	5.4261	0.028407
1288	5.4257	0.02842
1289	5.4254	0.028433
1290	5.425	0.028446
1291	5.4246	0.028459
1292	5.4243	0.028471
1293	5.4239	0.028484
1294	5.4236	0.028497
1295	5.4232	0.02851
1296	5.4229	0.028523
1297	5.4225	0.028535
1298	5.4222	0.028548
1299	5.4218	0.028561
1300	5.4215	0.028574
1301	5.4211	0.028586
1302	5.4208	0.028599
1303	5.4204	0.028612
1304	5.4201	0.028625
1305	5.4197	0.028638
1306	5.4193	0.02865
1307	5.419	0.028663
1308	5.4186	0.028676
1309	5.4183	0.028689
1310	5.4179	0.028702
1311	5.4176	0.028714
1312	5.4172	0.028727
1313	5.4169	0.02874
1314	5.4165	0.028753
1315	5.4162	0.028766
1316	5.4158	0.028778
1317	5.4155	0.028791
1318	5.4151	0.028804
1319	5.4148	0.028817
1320	5.4144	0.028829
1321	5.4141	0.028842
1322	5.4137	0.028855
1323	5.4133	0.028868
1324	5.413	0.028881
1325	5.4126	0.028893
1326	5.4123	0.028906
1327	5.4119	0.028919
1328	5.4116	0.028932
1329	5.4112	0.028945
1330	5.4109	0.028957
1331	5.4105	0.02897
1332	5.4102	0.028983
1333	5.4098	0.028996
1334	5.4095	0.029008
1335	5.4091	0.029021
1336	5.4088	0.029034
1337	5.4084	0.029047
1338	5.408	0.02906
1339	5.4077	0.029072
1340	5.4073	0.029085
1341	5.407	0.029098
1342	5.4066	0.029111
1343	5.4063	0.029124
1344	5.4059	0.029136
1345	5.4056	0.029149
1346	5.4052	0.029162
1347	5.4049	0.029175
1348	5.4045	0.029187
1349	5.4042	0.0292
1350	5.4038	0.029213
1351	5.4035	0.029226
1352	5.4031	0.029239
1353	5.4027	0.029251
1354	5.4024	0.029264
1355	5.402	0.029277
1356	5.4017	0.02929
1357	5.4013	0.029303
1358	5.401	0.029315
1359	5.4006	0.029328
1360	5.4003	0.029341
1361	5.3999	0.029354
1362	5.3996	0.029367
1363	5.3992	0.029379
1364	5.3989	0.029392
1365	5.3985	0.029405
1366	5.3982	0.029418
1367	5.3978	0.02943
1368	5.3975	0.029443
1369	5.3971	0.029456
1370	5.3967	0.029469
1371	5.3964	0.029482
1372	5.396	0.029494
1373	5.3957	0.029507
1374	5.3953	0.02952
1375	5.395	0.029533
1376	5.3946	0.029546
1377	5.3943	0.029558
1378	5.3939	0.029571
1379	5.3936	0.029584
1380	5.3932	0.029597
1381	5.3929	0.029609
1382	5.3925	0.029622
1383	5.3922	0.029635
1384	5.3918	0.029648
1385	5.3914	0.029661
1386	5.3911	0.029673
1387	5.3907	0.029686
1388	5.3904	0.029699
1389	5.39	0.029712
1390	5.3897	0.029725
1391	5.3893	0.029737
1392	5.389	0.02975
1393	5.3886	0.029763
1394	5.3883	0.029776
1395	5.3879	0.029788
1396	5.3876	0.029801
1397	5.3872	0.029814
1398	5.3869	0.029827
1399	5.3865	0.02984
1400	5.3861	0.029852
1401	5.3858	0.029865
1402	5.3854	0.029878
1403	5.3851	0.029891
1404	5.3847	0.029904
1405	5.3844	0.029916
1406	5.384	0.029929
1407	5.3837	0.029942
1408	5.3833	0.029955
1409	5.383	0.029967
1410	5.3826	0.02998
1411	5.3823	0.029993
1412	5.3819	0.030006
1413	5.3816	0.030019
1414	5.3812	0.030031
1415	5.3809	0.030044
1416	5.3805	0.030057
1417	5.3801	0.03007
1418	5.3798	0.030083
1419	5.3794	0.030095
1420	5.3791	0.030108
1421	5.3787	0.030121
1422	5.3786	0.030134
1423	5.3785	0.030147
1424	5.3785	0.030159
1425	5.3785	0.030172
1426	5.3784	0.030185
1427	5.3784	0.030198
1428	5.3784	0.03021
1429	5.3783	0.030223
1430	5.3783	0.030236
1431	5.3783	0.030249
1432	5.3782	0.030262
1433	5.3782	0.030274
1434	5.3782	0.030287
1435	5.3781	0.0303
1436	5.3781	0.030313
1437	5.3781	0.030326
1438	5.378	0.030338
1439	5.378	0.030351
1440	5.378	0.030364
1441	5.378	0.030377
1442	5.3779	0.030389
1443	5.3779	0.030402
1444	5.3779	0.030415
1445	5.3778	0.030428
1446	5.3778	0.030441
1447	5.3778	0.030453
1448	5.3777	0.030466
1449	5.3777	0.030479
1450	5.3777	0.030492
1451	5.3776	0.030505
1452	5.3776	0.030517
1453	5.3776	0.03053
1454	5.3775	0.030543
1455	5.3775	0.030556
1456	5.3775	0.030568
1457	5.3775	0.030581
1458	5.3774	0.030594
1459	5.3774	0.030607
1460	5.3774	0.03062
1461	5.3773	0.030632
1462	5.3773	0.030645
1463	5.3773	0.030658
1464	5.3772	0.030671
1465	5.3772	0.030684
1466	5.3772	0.030696
1467	5.3771	0.030709
1468	5.3771	0.030722
1469	5.3771	0.030735
1470	5.377	0.030748
1471	5.377	0.03076
1472	5.377	0.030773
1473	5.377	0.030786
1474	5.3769	0.030799
1475	5.3769	0.030811
1476	5.3769	0.030824
1477	5.3768	0.030837
1478	5.3768	0.03085
1479	5.3768	0.030863
1480	5.3767	0.030875
1481	5.3767	0.030888
1482	5.3767	0.030901
1483	5.3766	0.030914
1484	5.3766	0.030927
1485	5.3766	0.030939
1486	5.3765	0.030952
1487	5.3765	0.030965
1488	5.3765	0.030978
1489	5.3764	0.03099
1490	5.3764	0.031003
1491	5.3764	0.031016
1492	5.3764	0.031029
1493	5.3763	0.031042
1494	5.3763	0.031054
1495	5.3763	0.031067
1496	5.3762	0.03108
1497	5.3762	0.031093
1498	5.3762	0.031106
1499	5.3761	0.031118
1500	5.3761	0.031131
1501	5.3761	0.031144
1502	5.376	0.031157
1503	5.376	0.031169
1504	5.376	0.031182
1505	5.3759	0.031195
1506	5.3759	0.031208
1507	5.3759	0.031221
1508	5.3759	0.031233
1509	5.3758	0.031246
1510	5.3758	0.031259
1511	5.3758	0.031272
1512	5.3757	0.031285
1513	5.3757	0.031297
1514	5.3757	0.03131
1515	5.3756	0.031323
1516	5.3756	0.031336
1517	5.3756	0.031349
1518	5.3755	0.031361
1519	5.3755	0.031374
1520	5.3755	0.031387
1521	5.3754	0.0314
1522	5.3754	0.031412
1523	5.3754	0.031425
1524	5.3753	0.031438
1525	5.3753	0.031451
1526	5.3753	0.031464
1527	5.3753	0.031476
1528	5.3752	0.031489
1529	5.3752	0.031502
1530	5.3752	0.031515
1531	5.3751	0.031528
1532	5.3751	0.03154
1533	5.3751	0.031553
1534	5.375	0.031566
1535	5.375	0.031579
1536	5.375	0.031591
1537	5.3749	0.031604
1538	5.3749	0.031617
1539	5.3749	0.03163
1540	5.3748	0.031643
1541	5.3748	0.031655
1542	5.3748	0.031668
1543	5.3748	0.031681
1544	5.3747	0.031694
1545	5.3747	0.031707
1546	5.3747	0.031719
1547	5.3746	0.031732
1548	5.3746	0.031745
1549	5.3746	0.031758
1550	5.3745	0.03177
1551	5.3745	0.031783
1552	5.3745	0.031796
1553	5.3744	0.031809
1554	5.3744	0.031822
1555	5.3744	0.031834
1556	5.3743	0.031847
1557	5.3743	0.03186
1558	5.3743	0.031873
1559	5.3743	0.031886
1560	5.3742	0.031898
1561	5.3742	0.031911
1562	5.3742	0.031924
1563	5.3741	0.031937
1564	5.3741	0.03195
1565	5.3741	0.031962
1566	5.374	0.031975
1567	5.374	0.031988
1568	5.374	0.032001
1569	5.3739	0.032013
1570	5.3739	0.032026
1571	5.3739	0.032039
1572	5.3738	0.032052
1573	5.3738	0.032065
1574	5.3738	0.032077
1575	5.3737	0.03209
1576	5.3737	0.032103
1577	5.3737	0.032116
1578	5.3737	0.032129
1579	5.3736	0.032141
1580	5.3736	0.032154
1581	5.3736	0.032167
1582	5.3735	0.03218
1583	5.3735	0.032192
1584	5.3735	0.032205
1585	5.3734	0.032218
1586	5.3734	0.032231
1587	5.3734	0.032244
1588	5.3733	0.032256
1589	5.3733	0.032269
1590	5.3733	0.032282
1591	5.3732	0.032295
1592	5.3732	0.032308
1593	5.3732	0.03232
1594	5.3732	0.032333
1595	5.3731	0.032346
1596	5.3731	0.032359
1597	5.3731	0.032371
1598	5.373	0.032384
1599	5.373	0.032397
1600	5.373	0.03241
1601	5.3729	0.032423
1602	5.3729	0.032435
1603	5.3729	0.032448
1604	5.3728	0.032461
1605	5.3728	0.032474
1606	5.3728	0.032487
1607	5.3727	0.032499
1608	5.3727	0.032512
1609	5.3727	0.032525
1610	5.3726	0.032538
1611	5.3726	0.03255
1612	5.3726	0.032563
1613	5.3726	0.032576
1614	5.3725	0.032589
1615	5.3725	0.032602
1616	5.3725	0.032614
1617	5.3724	0.032627
1618	5.3724	0.03264
1619	5.3724	0.032653
1620	5.3723	0.032666
1621	5.3723	0.032639
1622	5.3723	0.032567
1623	5.3722	0.032494
1624	5.3722	0.032421
1625	5.3722	0.032349
1626	5.3721	0.032276
1627	5.3721	0.032203
1628	5.3721	0.032131
1629	5.3721	0.032058
1630	5.372	0.031986
1631	5.372	0.031913
1632	5.372	0.03184
1633	5.3719	0.031768
1634	5.3719	0.031695
1635	5.3719	0.031622
1636	5.3718	0.03155
1637	5.3718	0.031477
1638	5.3718	0.031404
1639	5.3717	0.031332
1640	5.3717	0.031259
1641	5.3717	0.031186
1642	5.3716	0.031114
1643	5.3716	0.031041
1644	5.3716	0.030969
1645	5.3716	0.030896
1646	5.3715	0.030823
1647	5.3715	0.030751
1648	5.3715	0.030678
1649	5.3714	0.030605
1650	5.3714	0.030533
1651	5.3714	0.03046
1652	5.3713	0.030387
1653	5.3713	0.030315
1654	5.3713	0.030242
1655	5.3712	0.03017
1656	5.3712	0.030097
1657	5.3712	0.030024
1658	5.3711	0.029952
1659	5.3711	0.029879
1660	5.3711	0.029806
1661	5.371	0.029734
1662	5.371	0.029661
1663	5.371	0.029588
1664	5.371	0.029516
1665	5.3709	0.029443
1666	5.3709	0.029371
1667	5.3709	0.029298
1668	5.3708	0.029225
1669	5.3708	0.029153
1670	5.3708	0.02908
1671	5.3707	0.029007
1672	5.3707	0.028935
1673	5.3707	0.028862
1674	5.3706	0.028789
1675	5.3706	0.028717
1676	5.3706	0.028644
1677	5.3705	0.028571
1678	5.3705	0.028499
1679	5.3705	0.028426
1680	5.3705	0.028354
1681	5.3704	0.028281
1682	5.3704	0.028208
1683	5.3704	0.028136
1684	5.3703	0.028063
1685	5.3703	0.02799
1686	5.3703	0.027918
1687	5.3702	0.027845
1688	5.3702	0.027772
1689	5.3702	0.0277
1690	5.3701	0.027627
1691	5.3701	0.027555
1692	5.3701	0.027482
1693	5.37	0.027409
1694	5.37	0.027337
1695	5.37	0.027264
1696	5.37	0.027191
1697	5.3699	0.027119
1698	5.3699	0.027046
1699	5.3699	0.026973
1700	5.3698	0.026901
1701	5.3698	0.026828
1702	5.3698	0.026756
1703	5.3697	0.026683
1704	5.3697	0.02661
1705	5.3697	0.026538
1706	5.3696	0.026465
1707	5.3696	0.026392
1708	5.3696	0.02632
1709	5.3695	0.026247
1710	5.3695	0.026174
1711	5.3695	0.026102
1712	5.3694	0.026029
1713	5.3694	0.025956
1714	5.3694	0.025884
1715	5.3694	0.025811
1716	5.3693	0.025739
1717	5.3693	0.025666
1718	5.3693	0.025593
1719	5.3692	0.025521
1720	5.3692	0.025448
1721	5.3692	0.025375
1722	5.3691	0.025303
1723	5.3691	0.02523
1724	5.3691	0.025157
1725	5.369	0.025085
1726	5.369	0.025012
1727	5.369	0.02494
1728	5.3689	0.024867
1729	5.3689	0.024794
1730	5.3689	0.024722
1731	5.3689	0.024649
1732	5.3688	0.024576
1733	5.3688	0.024504
1734	5.3688	0.024431
1735	5.3687	0.024358
1736	5.3687	0.024286
1737	5.3687	0.024213
1738	5.3686	0.02414
1739	5.3686	0.024068
1740	5.3686	0.023995
1741	5.3685	0.023923
1742	5.3685	0.02385
1743	5.3685	0.023777
1744	5.3685	0.023705
1745	5.3684	0.023632
1746	5.3684	0.023559
1747	5.3684	0.023487
1748	5.3683	0.023414
1749	5.3683	0.023341
1750	5.3683	0.023269
1751	5.3682	0.023196
1752	5.3682	0.023124
1753	5.3682	0.023051
1754	5.3681	0.022978
1755	5.3681	0.022906
1756	5.3681	0.022833
1757	5.368	0.02276
1758	5.368	0.022688
1759	5.368	0.022615
1760	5.368	0.022542
1761	5.3679	0.02247
1762	5.3679	0.022397
1763	5.3679	0.022325
1764	5.3678	0.022252
1765	5.3678	0.022179
1766	5.3678	0.022107
1767	5.3677	0.022034
1768	5.3677	0.021961
1769	5.3677	0.021889
1770	5.3676	0.021816
1771	5.3676	0.021743
1772	5.3676	0.021671
1773	5.3675	0.021598
1774	5.3675	0.021525
1775	5.3675	0.021453
1776	5.3675	0.02138
1777	5.3674	0.021308
1778	5.3674	0.021235
1779	5.3674	0.021162
1780	5.3673	0.02109
1781	5.3673	0.021017
1782	5.3673	0.020944
1783	5.3672	0.020872
1784	5.3672	0.020799
1785	5.3672	0.020726
1786	5.3671	0.020654
1787	5.3671	0.020581
1788	5.3671	0.020509
1789	5.367	0.020436
1790	5.367	0.020363
1791	5.367	0.020291
1792	5.367	0.020218
1793	5.3669	0.020145
1794	5.3669	0.020073
1795	5.3669	0.02
1796	5.3668	0.019927
1797	5.3668	0.019855
1798	5.3668	0.019782
1799	5.3667	0.01971
1800	5.3667	0.019637
