2.137999999999999829e+02	2.399999999999999911e+00
2.175000000000000000e+02	2.419999999999999929e+00
2.214000000000000057e+02	2.459999999999999964e+00
2.253999999999999773e+02	2.520000000000000018e+00
2.295999999999999943e+02	2.580000000000000071e+00
2.339000000000000057e+02	2.589999999999999858e+00
2.384000000000000057e+02	2.580000000000000071e+00
2.431000000000000227e+02	2.589999999999999858e+00
2.480000000000000000e+02	2.640000000000000124e+00
2.530000000000000000e+02	2.720000000000000195e+00
2.582999999999999545e+02	2.839999999999999858e+00
2.637999999999999545e+02	2.990000000000000213e+00
2.695000000000000000e+02	3.160000000000000142e+00
2.755000000000000000e+02	3.390000000000000124e+00
2.818000000000000114e+02	3.700000000000000178e+00
2.883000000000000114e+02	4.070000000000000284e+00
2.952000000000000455e+02	4.219999999999999751e+00
3.023999999999999773e+02	4.000000000000000000e+00
3.100000000000000000e+02	3.709999999999999964e+00
3.179000000000000341e+02	3.399999999999999911e+00
3.262999999999999545e+02	3.160000000000000142e+00
3.351000000000000227e+02	2.970000000000000195e+00
3.443999999999999773e+02	2.810000000000000053e+00
3.541999999999999886e+02	2.689999999999999947e+00
3.647000000000000455e+02	2.640000000000000124e+00
3.756999999999999886e+02	2.689999999999999947e+00
3.875000000000000000e+02	2.470000000000000195e+00
3.998999999999999773e+02	2.120000000000000107e+00
4.133000000000000114e+02	1.969999999999999973e+00
4.275000000000000000e+02	2.060000000000000053e+00
4.428000000000000114e+02	1.580000000000000071e+00
4.591999999999999886e+02	9.200000000000000400e-01
4.768999999999999773e+02	6.300000000000000044e-01
4.959000000000000341e+02	4.600000000000000200e-01
5.165999999999999091e+02	3.300000000000000155e-01
5.391000000000000227e+02	2.399999999999999911e-01
5.636000000000000227e+02	1.000000000000000021e-02
5.904000000000000909e+02	6.000000000000000125e-03
6.198999999999999773e+02	4.000000000000000083e-03
6.525000000000000000e+02	3.000000000000000062e-03
6.887999999999999545e+02	2.000000000000000042e-03
7.292999999999999545e+02	1.000000000000000021e-03
7.748999999999999773e+02	2.999999999999999737e-04
8.266000000000000227e+02	2.000000000000000096e-04
8.856000000000000227e+02	1.000000000000000048e-04
