1.907450000000000045e+01	1.390000798019999928e-01
1.908920000000000172e+01	1.390000798019999928e-01
1.910389999999999944e+01	1.390000798019999928e-01
1.911860000000000070e+01	1.399999136508000008e-01
1.913339999999999819e+01	1.399999308930000019e-01
1.914809999999999945e+01	1.399999308930000019e-01
1.916290000000000049e+01	1.389999892251999880e-01
1.917779999999999774e+01	1.399999136508000008e-01
1.919260000000000232e+01	1.399999136508000008e-01
1.920749999999999957e+01	1.399999308930000019e-01
1.922240000000000038e+01	1.389999892251999880e-01
1.923729999999999762e+01	1.390000798019999928e-01
1.925220000000000198e+01	1.390001186015999979e-01
1.926720000000000255e+01	1.399998939119999897e-01
1.928209999999999980e+01	1.419999320454000125e-01
1.929710000000000036e+01	1.440000970199999952e-01
1.931220000000000070e+01	1.449999218499999909e-01
1.932719999999999771e+01	1.459999881845999992e-01
1.934229999999999805e+01	1.459999458059999811e-01
1.935740000000000194e+01	1.459999460479999844e-01
1.937250000000000227e+01	1.460000014589999950e-01
1.938770000000000238e+01	1.450000349159999979e-01
1.940280000000000271e+01	1.449999325450000154e-01
1.941800000000000281e+01	1.459999460479999844e-01
1.943329999999999913e+01	1.450000349159999979e-01
1.944849999999999923e+01	1.450000349159999979e-01
1.946379999999999910e+01	1.440000358388000001e-01
1.947909999999999897e+01	1.439999309112000025e-01
1.949439999999999884e+01	1.450000432344000223e-01
1.950970000000000226e+01	1.449999218499999909e-01
1.952509999999999835e+01	1.460000604799999990e-01
1.954049999999999798e+01	1.480000025283999820e-01
1.955590000000000117e+01	1.489999022418000141e-01
1.957130000000000081e+01	1.500001025535999954e-01
1.958680000000000021e+01	1.499999754543999975e-01
1.960219999999999985e+01	1.499999754543999975e-01
1.961780000000000257e+01	1.499999299231999927e-01
1.963329999999999842e+01	1.500001025535999954e-01
1.964880000000000138e+01	1.510000355528000049e-01
1.966439999999999699e+01	1.510000355528000049e-01
1.967999999999999972e+01	1.510000857069999924e-01
1.969569999999999865e+01	1.510000857069999924e-01
1.971130000000000138e+01	1.510000857069999924e-01
1.972700000000000031e+01	1.510000051139999966e-01
1.974269999999999925e+01	1.509999718144000025e-01
1.975839999999999819e+01	1.519999793950000122e-01
1.977420000000000044e+01	1.540000069599999910e-01
1.978999999999999915e+01	1.559999256984000160e-01
1.980579999999999785e+01	1.570000732677999944e-01
1.982160000000000011e+01	1.579999864360000228e-01
1.983750000000000213e+01	1.590001270000000189e-01
1.985340000000000060e+01	1.590000366201999860e-01
1.986929999999999907e+01	1.600000619760000020e-01
1.988519999999999754e+01	1.609999216559999946e-01
1.990119999999999933e+01	1.640000594511999976e-01
1.991710000000000136e+01	1.660000057549999852e-01
1.993309999999999960e+01	1.669998704352000096e-01
1.994920000000000115e+01	1.659999834931999985e-01
1.996519999999999939e+01	1.649998919184000046e-01
1.998130000000000095e+01	1.649998919184000046e-01
1.999739999999999895e+01	1.659999983620000230e-01
2.001360000000000028e+01	1.680000628703999799e-01
2.002980000000000160e+01	1.699998871199999984e-01
2.004589999999999961e+01	1.700000433264000077e-01
2.006219999999999715e+01	1.680000243373999946e-01
2.007839999999999847e+01	1.659999818400000049e-01
2.009469999999999956e+01	1.649998660784000037e-01
2.011100000000000065e+01	1.639999723428000045e-01
2.012730000000000175e+01	1.639999723428000045e-01
2.014369999999999905e+01	1.640000831031999950e-01
2.016000000000000014e+01	1.649999674776000125e-01
2.017640000000000100e+01	1.659998268516000020e-01
2.019289999999999807e+01	1.670000602036000037e-01
2.020929999999999893e+01	1.680000060480000001e-01
2.022579999999999956e+01	1.689999621156000054e-01
2.024230000000000018e+01	1.689999871560000089e-01
2.025890000000000057e+01	1.700000190000000022e-01
2.027539999999999765e+01	1.690001304263999971e-01
2.029200000000000159e+01	1.680000358259999826e-01
2.030859999999999843e+01	1.680000358259999826e-01
2.032530000000000214e+01	1.680000358259999826e-01
2.034199999999999875e+01	1.689999871560000089e-01
2.035869999999999891e+01	1.689999871560000089e-01
2.037539999999999907e+01	1.689999621156000054e-01
2.039209999999999923e+01	1.709999774780000259e-01
2.040889999999999915e+01	1.730000483936000033e-01
2.042570000000000263e+01	1.740000819289999889e-01
2.044259999999999877e+01	1.740000007701999751e-01
2.045939999999999870e+01	1.739999227216000033e-01
2.047629999999999839e+01	1.739998530471999760e-01
2.049329999999999785e+01	1.729998934632000218e-01
2.051019999999999754e+01	1.719998768790000077e-01
2.052720000000000056e+01	1.710000211574000117e-01
2.054420000000000002e+01	1.700001282035999706e-01
2.056120000000000303e+01	1.689999891300000001e-01
2.057830000000000226e+01	1.689999891300000001e-01
2.059540000000000148e+01	1.679999113113999909e-01
2.061249999999999716e+01	1.669999351470000115e-01
2.062959999999999994e+01	1.660001139152000038e-01
2.064679999999999893e+01	1.649999288769999906e-01
2.066399999999999793e+01	1.629999792988000018e-01
2.068130000000000024e+01	1.619998800680000073e-01
2.069850000000000279e+01	1.609999008792000197e-01
2.071579999999999799e+01	1.600000277175999963e-01
2.073310000000000031e+01	1.599998757657999926e-01
2.075050000000000239e+01	1.609999927360000194e-01
2.076789999999999736e+01	1.609999927360000194e-01
2.078529999999999944e+01	1.610000949023999983e-01
2.080270000000000152e+01	1.599999186399999884e-01
2.082019999999999982e+01	1.600000550309999825e-01
2.083770000000000167e+01	1.610000570988000257e-01
2.085519999999999996e+01	1.630000053192000031e-01
2.087280000000000157e+01	1.660000130250000039e-01
2.089029999999999987e+01	1.669999794650000036e-01
2.090800000000000125e+01	1.679999387500000219e-01
2.092559999999999931e+01	1.679999619936000110e-01
2.094330000000000069e+01	1.669999411743999795e-01
2.096100000000000207e+01	1.659999493691999839e-01
2.097869999999999990e+01	1.660000130250000039e-01
2.099650000000000105e+01	1.660001034757999927e-01
2.101429999999999865e+01	1.659999780407999947e-01
2.103209999999999980e+01	1.659999537583999873e-01
2.104990000000000094e+01	1.669999973684000161e-01
2.106780000000000186e+01	1.680000338756000022e-01
2.108569999999999922e+01	1.690000476425999876e-01
2.110369999999999990e+01	1.690000147606000036e-01
2.112170000000000059e+01	1.680000639060000023e-01
2.113970000000000127e+01	1.679999834934000069e-01
2.115770000000000195e+01	1.680001119761999895e-01
2.117580000000000240e+01	1.699999313491999953e-01
2.119390000000000285e+01	1.719991829920000104e-01
2.121200000000000330e+01	1.730000507279999822e-01
2.123019999999999996e+01	1.739996032080000088e-01
2.124840000000000018e+01	1.760002045200000087e-01
2.126660000000000039e+01	1.770002464640000051e-01
2.128480000000000061e+01	1.780008845999999922e-01
2.130309999999999704e+01	1.789993208399999758e-01
2.132140000000000057e+01	1.810000048800000094e-01
2.133980000000000032e+01	1.830006793820000144e-01
2.135820000000000007e+01	1.839995533700000130e-01
2.137659999999999982e+01	1.860003389799999851e-01
2.139499999999999957e+01	1.890004553659999920e-01
2.141349999999999909e+01	1.910000061200000099e-01
2.143199999999999861e+01	1.919994217200000075e-01
2.145060000000000144e+01	1.930007146380000038e-01
2.146910000000000096e+01	1.950005133280000025e-01
2.148769999999999669e+01	1.959992282160000210e-01
2.150639999999999930e+01	1.980000287360000055e-01
2.152499999999999858e+01	2.009997085439999831e-01
2.154369999999999763e+01	2.029992588160000055e-01
2.156250000000000000e+01	2.050004422979999907e-01
2.158119999999999905e+01	2.070003734880000168e-01
2.160000000000000142e+01	2.079997593140000267e-01
2.161890000000000001e+01	2.090001992399999897e-01
2.163769999999999882e+01	2.090001992399999897e-01
2.165660000000000096e+01	2.099993719320000229e-01
2.167559999999999931e+01	2.120002469460000039e-01
2.169449999999999790e+01	2.140004440999999924e-01
2.171349999999999980e+01	2.170003103799999777e-01
2.173249999999999815e+01	2.169998992000000126e-01
2.175159999999999982e+01	2.169998992000000126e-01
2.177070000000000149e+01	2.169998992000000126e-01
2.178980000000000317e+01	2.180001668899999856e-01
2.180899999999999750e+01	2.180001668899999856e-01
2.182819999999999894e+01	2.200000935480000142e-01
2.184740000000000038e+01	2.209997567519999817e-01
2.186669999999999803e+01	2.210007093759999985e-01
2.188599999999999923e+01	2.210007093759999985e-01
2.190530000000000044e+01	2.219992415560000376e-01
2.192469999999999786e+01	2.229999409579999925e-01
2.194410000000000238e+01	2.229999409579999925e-01
2.196349999999999980e+01	2.229999409579999925e-01
2.198300000000000054e+01	2.229996803279999940e-01
2.200250000000000128e+01	2.249998805639999988e-01
2.202209999999999823e+01	2.260001654280000272e-01
2.204160000000000252e+01	2.289994333399999749e-01
2.206119999999999948e+01	2.319992986079999764e-01
2.208089999999999975e+01	2.349993548700000101e-01
2.210060000000000002e+01	2.380002239520000173e-01
2.212030000000000030e+01	2.390003374680000070e-01
2.214000000000000057e+01	2.400006276199999899e-01
2.215980000000000061e+01	2.400001534560000371e-01
2.217960000000000065e+01	2.410002446759999806e-01
2.219950000000000045e+01	2.419997374800000045e-01
2.221940000000000026e+01	2.419999947979999955e-01
2.223930000000000007e+01	2.420006705700000205e-01
2.225929999999999964e+01	2.420008572479999953e-01
2.227929999999999922e+01	2.420006068440000158e-01
2.229930000000000234e+01	2.390004867720000037e-01
2.231939999999999813e+01	2.359992583720000314e-01
2.233950000000000102e+01	2.360002003840000195e-01
2.235960000000000036e+01	2.369992152900000093e-01
2.237979999999999947e+01	2.390005319280000262e-01
2.239999999999999858e+01	2.410002446759999806e-01
2.242030000000000101e+01	2.430003600059999769e-01
2.244059999999999988e+01	2.449998362499999915e-01
2.246089999999999876e+01	2.480001148159999558e-01
2.248130000000000095e+01	2.499994899719999997e-01
2.250169999999999959e+01	2.490000306079999948e-01
2.252209999999999823e+01	2.490000306079999948e-01
2.254260000000000019e+01	2.509997872440000166e-01
2.256309999999999860e+01	2.509998968619999715e-01
2.258360000000000056e+01	2.500001511500000162e-01
2.260420000000000229e+01	2.489999257440000113e-01
2.262490000000000023e+01	2.479999120259999967e-01
2.264549999999999841e+01	2.479999120259999967e-01
2.266619999999999990e+01	2.459993614440000309e-01
2.268699999999999761e+01	2.440001241600000259e-01
2.270769999999999911e+01	2.430002533139999921e-01
2.272850000000000037e+01	2.439991393440000267e-01
2.274939999999999785e+01	2.480006956140000385e-01
2.277029999999999887e+01	2.519996703420000483e-01
2.279119999999999990e+01	2.550004823800000042e-01
2.281220000000000070e+01	2.559999862140000526e-01
2.283320000000000149e+01	2.569990720499999992e-01
2.285420000000000229e+01	2.589999282160000416e-01
2.287530000000000285e+01	2.610002569600000100e-01
2.289639999999999986e+01	2.649999391280000172e-01
2.291760000000000019e+01	2.659993549900000476e-01
2.293880000000000052e+01	2.640002445499999850e-01
2.296000000000000085e+01	2.579999710679999891e-01
2.298130000000000095e+01	2.530003202639999893e-01
2.300260000000000105e+01	2.509998968619999715e-01
2.302400000000000091e+01	2.519995078560000046e-01
2.304540000000000077e+01	2.529997816320000426e-01
2.306679999999999708e+01	2.539991516160000073e-01
2.308830000000000027e+01	2.569992775220000247e-01
2.310979999999999990e+01	2.619993292980000166e-01
2.313139999999999930e+01	2.660002652399999779e-01
2.315299999999999869e+01	2.690004917159999898e-01
2.317460000000000164e+01	2.709998996640000102e-01
2.319630000000000081e+01	2.730001352399999970e-01
2.321799999999999997e+01	2.720007810719999863e-01
2.323980000000000246e+01	2.690004886799999828e-01
2.326160000000000139e+01	2.689993808600000258e-01
2.328340000000000032e+01	2.709999812960000032e-01
2.330530000000000257e+01	2.719996880400000205e-01
2.332719999999999771e+01	2.699995942999999787e-01
2.334919999999999973e+01	2.689993451759999932e-01
2.337120000000000175e+01	2.699996731500000080e-01
2.339320000000000022e+01	2.699992597080000389e-01
2.341529999999999845e+01	2.699998371840000022e-01
2.343750000000000000e+01	2.739999346979999917e-01
2.345960000000000178e+01	2.779994379360000156e-01
2.348189999999999955e+01	2.820007288320000027e-01
2.350410000000000110e+01	2.849999799240000020e-01
2.352639999999999887e+01	2.900001378000000019e-01
2.354879999999999995e+01	2.959991425799999853e-01
2.357110000000000127e+01	3.000001136639999788e-01
2.359359999999999857e+01	3.029996415000000276e-01
2.361600000000000321e+01	3.069999968859999928e-01
2.363850000000000051e+01	3.099998678360000315e-01
2.366110000000000113e+01	3.099990788399999420e-01
2.368369999999999820e+01	3.089998742760000083e-01
2.370629999999999882e+01	3.090000236700000125e-01
2.372899999999999920e+01	3.090007155300000252e-01
2.375179999999999936e+01	3.080002274759999770e-01
2.377449999999999974e+01	3.079996898220000445e-01
2.379729999999999990e+01	3.089996472600000099e-01
2.382019999999999982e+01	3.110008113359999937e-01
2.384309999999999974e+01	3.110006234999999619e-01
2.386610000000000298e+01	3.079993687679999925e-01
2.388909999999999911e+01	3.020006301600000054e-01
2.391209999999999880e+01	2.960005786220000212e-01
2.393520000000000181e+01	2.909994028959999590e-01
2.395829999999999771e+01	2.880002491439999646e-01
2.398150000000000048e+01	2.860003330320000092e-01
2.400469999999999970e+01	2.860008062800000195e-01
2.402790000000000248e+01	2.869994881360000138e-01
2.405119999999999791e+01	2.900000296640000141e-01
2.407460000000000022e+01	2.929999087679999725e-01
2.409800000000000253e+01	2.970005661319999879e-01
2.412140000000000128e+01	2.989997346599999606e-01
2.414489999999999981e+01	2.990005074500000082e-01
2.416849999999999810e+01	2.970003315899999996e-01
2.419200000000000017e+01	2.949993120959999993e-01
2.421569999999999823e+01	2.950008792319999684e-01
2.423930000000000007e+01	2.980001953940000226e-01
2.426309999999999789e+01	3.010003992320000044e-01
2.428679999999999950e+01	3.030001829260000057e-01
2.431060000000000088e+01	3.089993314080000109e-01
2.433449999999999847e+01	3.170002365640000042e-01
2.435839999999999961e+01	3.250001258199999854e-01
2.438230000000000075e+01	3.290008590700000402e-01
2.440629999999999811e+01	3.319999349580000092e-01
2.443040000000000234e+01	3.320001977759999834e-01
2.445449999999999946e+01	3.329997066200000022e-01
2.447860000000000014e+01	3.349996650000000020e-01
2.450280000000000058e+01	3.369995374199999949e-01
2.452700000000000102e+01	3.399998666879999742e-01
2.455130000000000123e+01	3.430009626719999760e-01
2.457569999999999766e+01	3.470000578439999539e-01
2.460000000000000142e+01	3.490005616019999923e-01
2.462450000000000117e+01	3.480002480480000049e-01
2.464890000000000114e+01	3.430000412640000218e-01
2.467350000000000065e+01	3.379990977359999538e-01
2.469800000000000040e+01	3.349993729399999842e-01
2.472269999999999968e+01	3.319996296999999652e-01
2.474729999999999919e+01	3.299997825279999963e-01
2.477209999999999823e+01	3.300001066920000281e-01
2.479680000000000106e+01	3.320007323479999828e-01
2.482169999999999987e+01	3.330005229120000521e-01
2.484649999999999892e+01	3.329993203419999714e-01
2.487150000000000105e+01	3.329992355320000041e-01
2.489639999999999986e+01	3.340010062620000220e-01
2.492139999999999844e+01	3.349999564619999814e-01
2.494650000000000034e+01	3.379995400320000010e-01
2.497159999999999869e+01	3.400003601880000059e-01
2.499680000000000035e+01	3.429993894599999704e-01
2.502199999999999847e+01	3.490004653200000084e-01
2.504729999999999990e+01	3.560006109800000207e-01
2.507260000000000133e+01	3.620005901259999992e-01
2.509799999999999898e+01	3.640005398539999937e-01
2.512340000000000018e+01	3.630006369839999802e-01
2.514889999999999759e+01	3.580004227799999938e-01
2.517449999999999832e+01	3.559997897680000079e-01
2.519999999999999929e+01	3.610000456799999924e-01
2.522569999999999979e+01	3.670003556800000011e-01
2.525140000000000029e+01	3.729998581919999334e-01
2.527710000000000079e+01	3.789997471700000120e-01
2.530290000000000106e+01	3.840001493479999750e-01
2.532869999999999777e+01	3.850001809080000337e-01
2.535460000000000136e+01	3.880003150799999911e-01
2.538060000000000116e+01	3.949992874880000060e-01
2.540660000000000096e+01	4.039995984039999599e-01
2.543270000000000053e+01	4.099993235400000158e-01
2.545880000000000010e+01	4.120003557119999993e-01
2.548489999999999966e+01	4.119996334079999989e-01
2.551109999999999900e+01	4.110001214400000324e-01
2.553739999999999810e+01	4.079999674320000103e-01
2.556370000000000076e+01	4.099991155439999813e-01
2.559009999999999962e+01	4.160002571799999993e-01
2.561659999999999826e+01	4.209992417160000056e-01
2.564309999999999690e+01	4.230000281179999710e-01
2.566959999999999908e+01	4.239990111499999381e-01
2.569619999999999749e+01	4.270004350839999852e-01
2.572289999999999921e+01	4.320005258559999617e-01
2.574960000000000093e+01	4.379995945600000384e-01
2.577629999999999910e+01	4.450008924760000539e-01
2.580319999999999681e+01	4.540000053599999585e-01
2.582999999999999829e+01	4.639997363639999928e-01
2.585700000000000287e+01	4.730000200500000251e-01
2.588400000000000034e+01	4.789994617980000147e-01
2.591100000000000136e+01	4.829995209419999935e-01
2.593809999999999860e+01	4.899998594360000514e-01
2.596529999999999916e+01	4.989999965280000338e-01
2.599250000000000327e+01	5.040007589599999616e-01
2.601980000000000004e+01	5.060008707079999279e-01
2.604710000000000036e+01	5.079993371959999893e-01
2.607450000000000045e+01	5.089992906960000285e-01
2.610190000000000055e+01	5.049999826200000097e-01
2.612940000000000040e+01	4.990008470159999487e-01
2.615700000000000003e+01	4.959994285620000776e-01
2.618459999999999965e+01	4.940001018100000363e-01
2.621230000000000260e+01	4.900002824519999467e-01
2.623999999999999844e+01	4.870007069399999722e-01
2.626780000000000115e+01	4.809993380760000936e-01
2.629570000000000007e+01	4.740006836519999878e-01
2.632359999999999900e+01	4.710000973199999774e-01
2.635159999999999769e+01	4.680009082039999768e-01
2.637959999999999994e+01	4.630006765999999940e-01
2.640769999999999840e+01	4.599995109820000372e-01
2.643589999999999662e+01	4.580001041999999800e-01
2.646410000000000196e+01	4.520001314760000444e-01
2.649230000000000018e+01	4.480005055719999962e-01
2.652070000000000149e+01	4.500006557039999966e-01
2.654909999999999926e+01	4.560011033440000139e-01
2.657750000000000057e+01	4.569995712079999994e-01
2.660600000000000165e+01	4.540010699520000137e-01
2.663460000000000250e+01	4.520002861800000438e-01
2.666329999999999956e+01	4.490002411440000007e-01
2.669200000000000017e+01	4.459994481200000305e-01
2.672070000000000078e+01	4.420006068659999565e-01
2.674959999999999738e+01	4.360006400800000015e-01
2.677840000000000131e+01	4.320005635920000087e-01
2.680739999999999768e+01	4.300006943999999942e-01
2.683640000000000114e+01	4.270002803519999945e-01
2.686550000000000082e+01	4.240003285439999936e-01
2.689460000000000051e+01	4.209997178800000128e-01
2.692379999999999995e+01	4.169993979959999986e-01
2.695309999999999917e+01	4.169993979959999986e-01
2.698239999999999839e+01	4.169994179060000361e-01
2.701179999999999737e+01	4.149992083140000010e-01
2.704129999999999967e+01	4.119990608239999519e-01
2.707079999999999842e+01	4.089998324160000198e-01
2.710040000000000049e+01	4.049997784800000167e-01
2.713000000000000256e+01	3.969993148579999964e-01
2.715969999999999729e+01	3.870002800080000194e-01
2.718949999999999889e+01	3.769999727999999717e-01
2.721940000000000026e+01	3.689999297400000100e-01
2.724930000000000163e+01	3.649996595520000331e-01
2.727919999999999945e+01	3.630009244919999434e-01
2.730930000000000035e+01	3.619995229299999839e-01
2.733940000000000126e+01	3.589990452719999392e-01
2.736960000000000193e+01	3.560002652719999605e-01
2.739979999999999905e+01	3.529998084580000528e-01
2.743009999999999948e+01	3.480005182079999870e-01
2.746049999999999969e+01	3.430000211800000032e-01
2.749100000000000321e+01	3.359989828440000381e-01
2.752149999999999963e+01	3.290008587600000145e-01
2.755199999999999960e+01	3.210008278159999784e-01
2.758270000000000266e+01	3.150004908240000012e-01
2.761339999999999861e+01	3.070008927500000318e-01
2.764420000000000144e+01	2.979995233680000077e-01
2.767500000000000071e+01	2.899992335179999992e-01
2.770600000000000307e+01	2.819993957199999901e-01
2.773700000000000188e+01	2.749993852319999599e-01
2.776800000000000068e+01	2.689994724599999998e-01
2.779909999999999926e+01	2.640001173479999963e-01
2.783029999999999760e+01	2.620001913579999564e-01
2.786159999999999926e+01	2.609992195920000091e-01
2.789300000000000068e+01	2.620002109560000125e-01
2.792439999999999856e+01	2.639994915839999901e-01
2.795579999999999998e+01	2.679991841200000113e-01
2.798739999999999739e+01	2.740008824499999829e-01
2.801899999999999835e+01	2.810005850959999552e-01
2.805070000000000263e+01	2.859997178220000102e-01
2.808249999999999957e+01	2.879993784079999952e-01
2.811430000000000007e+01	2.879991519599999772e-01
2.814620000000000033e+01	2.909995550719999824e-01
2.817820000000000036e+01	2.960005762999999845e-01
2.821030000000000015e+01	3.010001819219999541e-01
2.824239999999999995e+01	3.079997954319999565e-01
2.827459999999999951e+01	3.180008644500000314e-01
2.830689999999999884e+01	3.270005415200000209e-01
2.833919999999999817e+01	3.299992444400000058e-01
2.837170000000000059e+01	3.280004926619999872e-01
2.840419999999999945e+01	3.249997082999999676e-01
2.843669999999999831e+01	3.270005415200000209e-01
2.846940000000000026e+01	3.329994122280000024e-01
2.850209999999999866e+01	3.409997315839999876e-01
2.853489999999999682e+01	3.500004167699999891e-01
2.856780000000000186e+01	3.570008439480000240e-01
2.860069999999999979e+01	3.599992242739999959e-01
2.863380000000000081e+01	3.610005232039999457e-01
2.866689999999999827e+01	3.619999257000000026e-01
2.869999999999999929e+01	3.630002995320000259e-01
2.873329999999999984e+01	3.670008413279999826e-01
2.876660000000000039e+01	3.750005750399999505e-01
2.880000000000000071e+01	3.780006015299999800e-01
2.883350000000000080e+01	3.709994600000000031e-01
2.886710000000000065e+01	3.679999840979999992e-01
2.890070000000000050e+01	3.750003144959999646e-01
2.893449999999999989e+01	3.840000694680000271e-01
2.896829999999999927e+01	3.899996562640000164e-01
2.900209999999999866e+01	3.919996263600000197e-01
2.903609999999999758e+01	3.890010504099999933e-01
2.907010000000000005e+01	3.830007554799999547e-01
2.910429999999999851e+01	3.760003932719999664e-01
2.913850000000000051e+01	3.769993571399999910e-01
2.917269999999999897e+01	3.839993436320000564e-01
2.920710000000000051e+01	3.939994605300000119e-01
2.924159999999999826e+01	3.959991685760000379e-01
2.927609999999999957e+01	3.930001508159999823e-01
2.931069999999999709e+01	3.870004484940000045e-01
2.934540000000000148e+01	3.799996909039999871e-01
2.938009999999999877e+01	3.780003981119999801e-01
2.941499999999999915e+01	3.809998280340000099e-01
2.944989999999999952e+01	3.840006716780000051e-01
2.948489999999999966e+01	3.849990816480000633e-01
2.951999999999999957e+01	3.870010390979999881e-01
2.955519999999999925e+01	3.860000339399999869e-01
2.959049999999999869e+01	3.809992019260000085e-01
2.962590000000000146e+01	3.800001605760000012e-01
2.966130000000000067e+01	3.839998581999999883e-01
2.969679999999999964e+01	3.899993541119999851e-01
2.973239999999999839e+01	3.920002161600000257e-01
2.976810000000000045e+01	3.899999900400000219e-01
2.980390000000000228e+01	3.899990590799999324e-01
2.983980000000000032e+01	3.920005109999999404e-01
2.987570000000000192e+01	3.929991043159999919e-01
2.991169999999999973e+01	3.919998874680000189e-01
2.994790000000000063e+01	3.899996764399999982e-01
2.998409999999999798e+01	3.899996764399999982e-01
3.002039999999999864e+01	3.920009127839999552e-01
3.005680000000000263e+01	3.880002111440000179e-01
3.009319999999999951e+01	3.829995764159999649e-01
3.012980000000000302e+01	3.829997087100000530e-01
3.016649999999999920e+01	3.880001981439999970e-01
3.020319999999999894e+01	3.889993690000000393e-01
3.023999999999999844e+01	3.870001218960000267e-01
3.027699999999999747e+01	3.860001126600000054e-01
3.031400000000000006e+01	3.920006686239999594e-01
3.035109999999999886e+01	4.100006782720000409e-01
3.038830000000000098e+01	4.360005805420000269e-01
3.042559999999999931e+01	4.549993694819999823e-01
3.046290000000000120e+01	4.610006373000000157e-01
3.050039999999999907e+01	4.460012446999999658e-01
3.053800000000000026e+01	4.109994941999999818e-01
3.057560000000000144e+01	3.750015734999999628e-01
3.061339999999999861e+01	3.460006010999999715e-01
3.065119999999999933e+01	3.259984725599999744e-01
3.068919999999999959e+01	3.109989788800000543e-01
3.072719999999999985e+01	2.989987199999999956e-01
3.076529999999999987e+01	2.909983232000000197e-01
3.080349999999999966e+01	2.860009063600000290e-01
3.084179999999999922e+01	2.830008413479999652e-01
3.088019999999999854e+01	2.810001656320000318e-01
3.091870000000000118e+01	2.809994353920000076e-01
3.095739999999999981e+01	2.840001835879999992e-01
3.099599999999999866e+01	2.840001835879999992e-01
3.103480000000000061e+01	2.809997607499999939e-01
3.107369999999999877e+01	2.780007441279999658e-01
3.111270000000000024e+01	2.780008457400000021e-01
3.115180000000000149e+01	2.799998693319999954e-01
3.119099999999999895e+01	2.810005983419999742e-01
3.123029999999999973e+01	2.799998693319999954e-01
3.126969999999999672e+01	2.779991622519999983e-01
3.130910000000000082e+01	2.749997747640000045e-01
3.134870000000000090e+01	2.730006313999999712e-01
3.138839999999999719e+01	2.710007829360000509e-01
3.142820000000000391e+01	2.679998719859999490e-01
3.146809999999999974e+01	2.650004086600000197e-01
3.150809999999999889e+01	2.609999455679999913e-01
3.154810000000000159e+01	2.590000676999999474e-01
3.158830000000000027e+01	2.559996560440000457e-01
3.162859999999999872e+01	2.540009598179999717e-01
3.166900000000000404e+01	2.540000108359999897e-01
3.170950000000000202e+01	2.570002957059999704e-01
3.175010000000000332e+01	2.579997845040000182e-01
3.179080000000000084e+01	2.600000167800000095e-01
3.183160000000000167e+01	2.630003398399999859e-01
3.187249999999999872e+01	2.669991869439999888e-01
3.191359999999999886e+01	2.670004441880000079e-01
3.195470000000000255e+01	2.649990468179999614e-01
3.199590000000000245e+01	2.589997592299999596e-01
3.203729999999999478e+01	2.520004238279999753e-01
3.207870000000000488e+01	2.469990569799999924e-01
3.212030000000000030e+01	2.429998575239999958e-01
3.216190000000000282e+01	2.419995108759999958e-01
3.220370000000000488e+01	2.429997618100000201e-01
3.224559999999999604e+01	2.420008463880000127e-01
3.228749999999999432e+01	2.420004707119999821e-01
3.232959999999999923e+01	2.429995659420000342e-01
3.237190000000000367e+01	2.440002993479999938e-01
3.241419999999999391e+01	2.459994968400000259e-01
3.245660000000000167e+01	2.500002958700000000e-01
3.249910000000000565e+01	2.520000760220000302e-01
3.254180000000000206e+01	2.520000760220000302e-01
3.258450000000000557e+01	2.530009990080000493e-01
3.262740000000000151e+01	2.540008285360000340e-01
3.267040000000000077e+01	2.529996806159999778e-01
3.271349999999999625e+01	2.489989750920000022e-01
3.275670000000000215e+01	2.460003808080000187e-01
3.280000000000000426e+01	2.430003649860000281e-01
3.284349999999999881e+01	2.389999135680000164e-01
3.288710000000000377e+01	2.360001599799999850e-01
3.293070000000000164e+01	2.349992342879999585e-01
3.297449999999999903e+01	2.349990312899999934e-01
3.301839999999999975e+01	2.350001359999999706e-01
3.306239999999999668e+01	2.350007384400000232e-01
3.310660000000000025e+01	2.349991984260000055e-01
3.315090000000000003e+01	2.379997208799999875e-01
3.319519999999999982e+01	2.390004218239999978e-01
3.323969999999999914e+01	2.380003612940000124e-01
3.328430000000000177e+01	2.379996076799999749e-01
3.332909999999999684e+01	2.390004000180000199e-01
3.337389999999999901e+01	2.389999766019999805e-01
3.341890000000000072e+01	2.379999487359999721e-01
3.346399999999999864e+01	2.360002637539999892e-01
3.350919999999999987e+01	2.349998398879999950e-01
3.355459999999999354e+01	2.320000600119999923e-01
3.360009999999999764e+01	2.310008911200000237e-01
3.364559999999999462e+01	2.319996578399999843e-01
3.369140000000000157e+01	2.339997442120000382e-01
3.373720000000000141e+01	2.380003259759999878e-01
3.378320000000000078e+01	2.410008357120000111e-01
3.382920000000000016e+01	2.430004814639999955e-01
3.387550000000000239e+01	2.429992848920000115e-01
3.392180000000000462e+01	2.409990741079999776e-01
3.396829999999999927e+01	2.380003834800000218e-01
3.401489999999999725e+01	2.359994948640000145e-01
3.406159999999999854e+01	2.350007142639999880e-01
3.410839999999999606e+01	2.339993980279999886e-01
3.415540000000000020e+01	2.340002396559999753e-01
3.420249999999999346e+01	2.340007040419999906e-01
3.424979999999999336e+01	2.349998664960000205e-01
3.429710000000000036e+01	2.359998319000000122e-01
3.434469999999999601e+01	2.380002163119999958e-01
3.439229999999999876e+01	2.430008874000000041e-01
3.444010000000000105e+01	2.469991665239999745e-01
3.448799999999999955e+01	2.470003159679999838e-01
3.453599999999999426e+01	2.449997728559999699e-01
3.458420000000000272e+01	2.450003070719999898e-01
3.463249999999999318e+01	2.460004430400000164e-01
3.468090000000000117e+01	2.460002449680000203e-01
3.472950000000000159e+01	2.460005313920000103e-01
3.477820000000000533e+01	2.450006879999999942e-01
3.482699999999999818e+01	2.450007188199999908e-01
3.487599999999999767e+01	2.459991593479999850e-01
3.492510000000000048e+01	2.480007617999999692e-01
3.497440000000000282e+01	2.490001519320000356e-01
3.502380000000000138e+01	2.480000699600000136e-01
3.507330000000000325e+01	2.459997866960000057e-01
3.512300000000000466e+01	2.450005134719999700e-01
3.517279999999999518e+01	2.449996067280000023e-01
3.522279999999999944e+01	2.440004934839999640e-01
3.527289999999999992e+01	2.450002449960000106e-01
3.532310000000000372e+01	2.450002449960000106e-01
3.537349999999999994e+01	2.420006094600000157e-01
3.542410000000000281e+01	2.399993470200000034e-01
3.547469999999999857e+01	2.379999020699999912e-01
3.552559999999999718e+01	2.369998668239999828e-01
3.557649999999999579e+01	2.360004183200000161e-01
3.562760000000000105e+01	2.369998851840000309e-01
3.567889999999999873e+01	2.389997365999999845e-01
3.573029999999999973e+01	2.429993288239999660e-01
3.578190000000000026e+01	2.460000616559999964e-01
3.583359999999999701e+01	2.490006223320000156e-01
3.588539999999999708e+01	2.529999275259999791e-01
3.593740000000000379e+01	2.600008815600000078e-01
3.598959999999999582e+01	2.649994116900000196e-01
3.604189999999999827e+01	2.689995548520000002e-01
3.609440000000000026e+01	2.719995579839999955e-01
3.614699999999999847e+01	2.779994915500000330e-01
3.619979999999999620e+01	2.879998039800000242e-01
3.625269999999999726e+01	3.000004378559999463e-01
3.630579999999999785e+01	3.119997041279999883e-01
3.635900000000000176e+01	3.199997473920000446e-01
3.641239999999999810e+01	3.199994520799999687e-01
3.646590000000000487e+01	3.139993811360000109e-01
3.651959999999999695e+01	3.060000103999999665e-01
3.657350000000000279e+01	3.020007792480000064e-01
3.662749999999999773e+01	3.029993779559999600e-01
3.668169999999999931e+01	3.030004182919999733e-01
3.673610000000000042e+01	3.040009531519999864e-01
3.679059999999999775e+01	3.069992465699999951e-01
3.684519999999999840e+01	3.100006249199999675e-01
3.690009999999999479e+01	3.100006300020000105e-01
3.695499999999999829e+01	3.089992773979999829e-01
3.701019999999999754e+01	3.069994352800000104e-01
3.706550000000000011e+01	3.049994315679999679e-01
3.712100000000000222e+01	3.020001798720000075e-01
3.717669999999999675e+01	3.019996515600000264e-01
3.723250000000000171e+01	3.039994774380000431e-01
3.728849999999999909e+01	3.069999501999999825e-01
3.734459999999999980e+01	3.079998374399999794e-01
3.740099999999999625e+01	3.110007232439999658e-01
3.745749999999999602e+01	3.140005063439999522e-01
3.751409999999999911e+01	3.169995744240000080e-01
3.757099999999999795e+01	3.209997845120000082e-01
3.762800000000000011e+01	3.249995019679999819e-01
3.768520000000000181e+01	3.300005788020000108e-01
3.774249999999999972e+01	3.329992667100000192e-01
3.780010000000000048e+01	3.310002488720000247e-01
3.785779999999999745e+01	3.289995515279999783e-01
3.791569999999999396e+01	3.289998908239999964e-01
3.797370000000000090e+01	3.290004497919999937e-01
3.803200000000000358e+01	3.300008519399999507e-01
3.809040000000000248e+01	3.349997281800000670e-01
3.814900000000000091e+01	3.419998621500000002e-01
3.820779999999999887e+01	3.519992903859999744e-01
3.826670000000000016e+01	3.610006851520000115e-01
3.832590000000000430e+01	3.679992891499999641e-01
3.838520000000000465e+01	3.720001006479999872e-01
3.844469999999999743e+01	3.729995687700000118e-01
3.850440000000000396e+01	3.709997959199999862e-01
3.856430000000000291e+01	3.659998721500000163e-01
3.862440000000000140e+01	3.600010030040000086e-01
3.868459999999999610e+01	3.559994471599999821e-01
3.874510000000000076e+01	3.520000275300000370e-01
3.880570000000000164e+01	3.490002043359999861e-01
3.886649999999999494e+01	3.480007025360000172e-01
3.892749999999999488e+01	3.460005565959999863e-01
3.898870000000000147e+01	3.469990588159999612e-01
3.905010000000000048e+01	3.519994816800000037e-01
3.911169999999999902e+01	3.590007487380000306e-01
3.917349999999999710e+01	3.670006562999999500e-01
3.923550000000000182e+01	3.690001556640000180e-01
3.929769999999999897e+01	3.669991125120000142e-01
3.936010000000000275e+01	3.679994699999999952e-01
3.942260000000000275e+01	3.699996454080000108e-01
3.948539999999999850e+01	3.709997582719999909e-01
3.954840000000000089e+01	3.749994468539999959e-01
3.961159999999999570e+01	3.799994787900000115e-01
3.967490000000000094e+01	3.840002770559999834e-01
3.973850000000000193e+01	3.850005606300000438e-01
3.980229999999999535e+01	3.850005606300000438e-01
3.986630000000000251e+01	3.849993955780000032e-01
3.993050000000000210e+01	3.860007429480000196e-01
3.999490000000000123e+01	3.890009332800000164e-01
4.005949999999999989e+01	3.930003534699999523e-01
4.012430000000000518e+01	3.959996619280000130e-01
4.018939999999999912e+01	3.930000318659999659e-01
4.025460000000000349e+01	3.890003454400000060e-01
4.032009999999999650e+01	3.869998288799999520e-01
4.038569999999999993e+01	3.870004439799999973e-01
4.045159999999999911e+01	3.899992322879999862e-01
4.051769999999999783e+01	3.969993498900000195e-01
4.058400000000000318e+01	4.020001524740000054e-01
4.065060000000000429e+01	4.070005534359999455e-01
4.071729999999999450e+01	4.129997451599999869e-01
4.078430000000000177e+01	4.190005016999999166e-01
4.085150000000000148e+01	4.249990823399999451e-01
4.091890000000000072e+01	4.319992776060000428e-01
4.098649999999999949e+01	4.389997689999999841e-01
4.105440000000000111e+01	4.470004897019999590e-01
4.112250000000000227e+01	4.529994238000000228e-01
4.119080000000000297e+01	4.559994368199999371e-01
4.125929999999999609e+01	4.579998779299999656e-01
4.132809999999999917e+01	4.590006363540000134e-01
4.139710000000000178e+01	4.580008723160000073e-01
4.146629999999999683e+01	4.540003897400000099e-01
4.153569999999999851e+01	4.520006112840000423e-01
4.160540000000000305e+01	4.540003019079999480e-01
4.167540000000000333e+01	4.580000884079999945e-01
4.174549999999999983e+01	4.619996895940000070e-01
4.181590000000000629e+01	4.620004818780000244e-01
4.188649999999999807e+01	4.560000825659999979e-01
4.195739999999999981e+01	4.489994673059999886e-01
4.202850000000000108e+01	4.479991067999999910e-01
4.209990000000000521e+01	4.510000799500000213e-01
4.217150000000000176e+01	4.589998528499999453e-01
4.224329999999999785e+01	4.690004733239999668e-01
4.231540000000000390e+01	4.820006811059999730e-01
4.238780000000000570e+01	4.960000250080000006e-01
4.246029999999999660e+01	5.080003997280000405e-01
4.253320000000000078e+01	5.149994544640000838e-01
4.260619999999999408e+01	5.190001827599999285e-01
4.267960000000000065e+01	5.239998793960000123e-01
4.275319999999999965e+01	5.329994091240000120e-01
4.282699999999999818e+01	5.459995629199999589e-01
4.290109999999999957e+01	5.579994574399999019e-01
4.297549999999999670e+01	5.669996431999999587e-01
4.305010000000000048e+01	5.690008502999999163e-01
4.312490000000000379e+01	5.640002620840000036e-01
4.320009999999999906e+01	5.550001588919999396e-01
4.327550000000000097e+01	5.469997067999999851e-01
4.335109999999999530e+01	5.430002872320000007e-01
4.342699999999999960e+01	5.379989613439999374e-01
4.350319999999999965e+01	5.319999734699999427e-01
4.357970000000000255e+01	5.260003430559999638e-01
4.365639999999999787e+01	5.229995823299999902e-01
4.373339999999999606e+01	5.180002301240000939e-01
4.381070000000000420e+01	5.110001920600000247e-01
4.388820000000000476e+01	5.059997789159998982e-01
4.396600000000000108e+01	5.050001792099999554e-01
4.404410000000000025e+01	5.050005755919999562e-01
4.412250000000000227e+01	5.060005412639999589e-01
4.420109999999999673e+01	5.060002317439999953e-01
4.428010000000000446e+01	5.059990505920000103e-01
4.435929999999999751e+01	5.120009824500000306e-01
4.443880000000000052e+01	5.169999778599999596e-01
4.451859999999999928e+01	5.179997659759999484e-01
4.459860000000000468e+01	5.169999551039999863e-01
4.467900000000000205e+01	5.139991413159999967e-01
4.475959999999999894e+01	5.129999216339999890e-01
4.484060000000000201e+01	5.169994735439999989e-01
4.492179999999999751e+01	5.219993564999999558e-01
4.500330000000000297e+01	5.249999909579999846e-01
4.508520000000000039e+01	5.249996716800000573e-01
4.516729999999999734e+01	5.239995877319999495e-01
4.524969999999999715e+01	5.259992829640000034e-01
4.533239999999999981e+01	5.289996987800000827e-01
4.541549999999999443e+01	5.330002484339999569e-01
4.549879999999999569e+01	5.299993753920000383e-01
4.558239999999999981e+01	5.209996488060000264e-01
4.566640000000000299e+01	5.140001688640000177e-01
4.575060000000000571e+01	5.089996666080000010e-01
4.583520000000000039e+01	5.040003894979999677e-01
4.592009999999999792e+01	5.000001070680000215e-01
4.600529999999999831e+01	4.970003396759999914e-01
4.609080000000000155e+01	4.979998344759999918e-01
4.617660000000000053e+01	5.050001990000000385e-01
4.626279999999999859e+01	5.139997496299999469e-01
4.634920000000000329e+01	5.260002099060000491e-01
4.643599999999999994e+01	5.390002791360000156e-01
4.652309999999999945e+01	5.519999620679999497e-01
4.661060000000000514e+01	5.589993436440000574e-01
4.669839999999999947e+01	5.609999899199999973e-01
4.678650000000000375e+01	5.519998942039999745e-01
4.687489999999999668e+01	5.379994198319999477e-01
4.696369999999999578e+01	5.279996783879999933e-01
4.705279999999999774e+01	5.280009250399999576e-01
4.714229999999999876e+01	5.330006048100000005e-01
4.723210000000000264e+01	5.389994854599999830e-01
4.732220000000000226e+01	5.429995870880000020e-01
4.741270000000000095e+01	5.479994942759999210e-01
4.750349999999999540e+01	5.590000789799999259e-01
4.759469999999999601e+01	5.780005245000000569e-01
4.768619999999999948e+01	5.929994912320000200e-01
4.777809999999999491e+01	6.009996241600000788e-01
4.787030000000000030e+01	6.089996726320000553e-01
4.796290000000000475e+01	6.159996414459999459e-01
4.805590000000000117e+01	6.239989975000000966e-01
4.814920000000000044e+01	6.340000871400000015e-01
4.824289999999999878e+01	6.460005879319999922e-01
4.833689999999999998e+01	6.579991416499999524e-01
4.843129999999999313e+01	6.669997889520000722e-01
4.852609999999999957e+01	6.729995859500000899e-01
4.862120000000000175e+01	6.750010813500000317e-01
4.871679999999999922e+01	6.709991598000000224e-01
4.881269999999999953e+01	6.680001968639999177e-01
4.890889999999999560e+01	6.669999102960000315e-01
4.900560000000000116e+01	6.680000850280000124e-01
4.910260000000000247e+01	6.729992211599999941e-01
4.920009999999999906e+01	6.769994772900000957e-01
4.929789999999999850e+01	6.810000601260000064e-01
4.939609999999999701e+01	6.899991850400000182e-01
4.949470000000000169e+01	7.050003117119999496e-01
4.959369999999999834e+01	7.160004087800000416e-01
4.969309999999999405e+01	7.260001195519999451e-01
4.979279999999999973e+01	7.370003398559999974e-01
4.989300000000000068e+01	7.419998735999999706e-01
4.999360000000000070e+01	7.479991255840000575e-01
5.009459999999999980e+01	7.550007806880000283e-01
5.019599999999999795e+01	7.509990772260000114e-01
5.029779999999999518e+01	7.309996300439999262e-01
5.040010000000000190e+01	7.070008469559999620e-01
5.050269999999999726e+01	6.849995460000000147e-01
5.060580000000000211e+01	6.660004049200000109e-01
5.070929999999999893e+01	6.560002167840001119e-01
5.081320000000000192e+01	6.559997172760000383e-01
5.091749999999999687e+01	6.619998955999999435e-01
5.102230000000000132e+01	6.710004167519999507e-01
5.112749999999999773e+01	6.809997068040000157e-01
5.123309999999999320e+01	6.910009540099999459e-01
5.133919999999999817e+01	7.070001243899999288e-01
5.144569999999999510e+01	7.259997817499999062e-01
5.155270000000000152e+01	7.469999870560000144e-01
5.166009999999999991e+01	7.699996920000000689e-01
5.176789999999999736e+01	7.939992983040000674e-01
5.187619999999999720e+01	8.099989744679999548e-01
5.198500000000000654e+01	8.170002342359999892e-01
5.209420000000000073e+01	8.239996077760001203e-01
5.220389999999999731e+01	8.290003191279999850e-01
5.231400000000000006e+01	8.240001941599999213e-01
5.242460000000000520e+01	8.110009130899999974e-01
5.253569999999999851e+01	7.969989450400000175e-01
5.264719999999999800e+01	7.810000786839998987e-01
5.275919999999999987e+01	7.620001053960000492e-01
5.287170000000000414e+01	7.380004059039999564e-01
5.298470000000000368e+01	7.180001161080000749e-01
5.309819999999999851e+01	7.000008078480000062e-01
5.321209999999999951e+01	6.810002579519999211e-01
5.332649999999999579e+01	6.629998525600000470e-01
5.344150000000000489e+01	6.429991545600000080e-01
5.355689999999999884e+01	6.219997733579999410e-01
5.367280000000000229e+01	6.069995107560000047e-01
5.378920000000000101e+01	5.990002948800000615e-01
5.390619999999999834e+01	6.009997637599999720e-01
5.402359999999999474e+01	6.130000950480000155e-01
5.414159999999999684e+01	6.280005208960000029e-01
5.426000000000000512e+01	6.400001945900000155e-01
5.437899999999999778e+01	6.530006098440001017e-01
5.449849999999999994e+01	6.779992720199999878e-01
5.461860000000000070e+01	7.110006481199999673e-01
5.473920000000000385e+01	7.390003619760000531e-01
5.486030000000000229e+01	7.629995210239999270e-01
5.498190000000000310e+01	7.900002100319999387e-01
5.510410000000000252e+01	8.240004264160000202e-01
5.522679999999999723e+01	8.549995801759998626e-01
5.535009999999999764e+01	8.890006537600001479e-01
5.547390000000000043e+01	9.190005486960000081e-01
5.559830000000000183e+01	9.359995438400000589e-01
5.572319999999999851e+01	9.420002578559999451e-01
5.584870000000000090e+01	9.399996547979999617e-01
5.597479999999999478e+01	9.349998856660000079e-01
5.610140000000000526e+01	9.280006157680000811e-01
5.622869999999999635e+01	9.310004506879999697e-01
5.635640000000000072e+01	9.469994135680001035e-01
5.648479999999999990e+01	9.629997766559998951e-01
5.661379999999999768e+01	9.739997434039999735e-01
5.674330000000000496e+01	9.819990461799998904e-01
5.687349999999999994e+01	9.939990241099999624e-01
5.700419999999999732e+01	1.009000112834000040e+00
5.713560000000000372e+01	1.027000206835999796e+00
5.726749999999999829e+01	1.045000650151999944e+00
5.740010000000000190e+01	1.066999639409999867e+00
5.753330000000000410e+01	1.096999964787999993e+00
5.766709999999999781e+01	1.142001123066000101e+00
5.780149999999999721e+01	1.183000540739999940e+00
5.793650000000000233e+01	1.218999082840000137e+00
5.807219999999999516e+01	1.245999933325999898e+00
5.820850000000000080e+01	1.249998823620000143e+00
5.834550000000000125e+01	1.244000272500000115e+00
5.848310000000000031e+01	1.245001182559999808e+00
5.862139999999999418e+01	1.249000385148000047e+00
5.876030000000000086e+01	1.253005187200000092e+00
5.889989999999999526e+01	1.251004170240000102e+00
5.904009999999999536e+01	1.243999124999999983e+00
5.918099999999999739e+01	1.229995721619999927e+00
5.932260000000000133e+01	1.210004139000000034e+00
5.946479999999999677e+01	1.186005106199999881e+00
5.960780000000000456e+01	1.157998716160000052e+00
5.975140000000000384e+01	1.120995975300000058e+00
5.989570000000000505e+01	1.053001044760000227e+00
6.004079999999999728e+01	9.739950552200000722e-01
6.018649999999999523e+01	9.380000906000000027e-01
6.033290000000000219e+01	9.490005868639999065e-01
6.048010000000000019e+01	9.739997027460000067e-01
6.062800000000000011e+01	1.002001170540000041e+00
6.077660000000000196e+01	1.022001280559999836e+00
6.092589999999999861e+01	1.022000504943999966e+00
6.107600000000000051e+01	1.014000728624000036e+00
6.122679999999999723e+01	1.007999519988000081e+00
6.137829999999999586e+01	1.001999602836000092e+00
6.153059999999999974e+01	9.949996245359999936e-01
6.168370000000000175e+01	9.929998187199998716e-01
6.183749999999999858e+01	1.005999312578000016e+00
6.199210000000000065e+01	1.023000607180000188e+00
6.214750000000000085e+01	1.044001028951999865e+00
6.230360000000000298e+01	1.069000660453999885e+00
6.246050000000000324e+01	1.103000394960000241e+00
6.261830000000000496e+01	1.128999434111999989e+00
6.277679999999999438e+01	1.121999321604000066e+00
6.293609999999999616e+01	1.093000711301999939e+00
6.309629999999999228e+01	1.072999302126000032e+00
6.325719999999999743e+01	1.073000336384000164e+00
6.341900000000000404e+01	1.069000410786000055e+00
6.358160000000000167e+01	1.064000869168000074e+00
6.374510000000000076e+01	1.070001134384000130e+00
6.390940000000000509e+01	1.084000145259999881e+00
6.407450000000000045e+01	1.098999219830000040e+00
6.424050000000001148e+01	1.118999940317999986e+00
6.440740000000000975e+01	1.146000360870000012e+00
6.457509999999999195e+01	1.167999406607999946e+00
6.474370000000000402e+01	1.192000580593999937e+00
6.491320000000000334e+01	1.216999974509999971e+00
6.508360000000000412e+01	1.232999844614000029e+00
6.525480000000000302e+01	1.233000083399999891e+00
6.542699999999999250e+01	1.217999524499999930e+00
6.560009999999999764e+01	1.222999607544000167e+00
6.577410000000000423e+01	1.249003055999999834e+00
6.594899999999999807e+01	1.264997291040000249e+00
6.612489999999999668e+01	1.268004879100000037e+00
6.630170000000001096e+01	1.262996551040000082e+00
6.647950000000000159e+01	1.256004490399999840e+00
6.665819999999999368e+01	1.263995657759999780e+00
6.683780000000000143e+01	1.279996929359999980e+00
6.701849999999998886e+01	1.289995335840000035e+00
6.720009999999999195e+01	1.296994602959999909e+00
6.738269999999999982e+01	1.314004585120000179e+00
6.756629999999999825e+01	1.335005340739999991e+00
6.775090000000000146e+01	1.333998955499999806e+00
6.793649999999999523e+01	1.307995536320000207e+00
6.812319999999999709e+01	1.283999209000000086e+00
6.831080000000000041e+01	1.269998086239999990e+00
6.849959999999998672e+01	1.268999650620000086e+00
6.868929999999998870e+01	1.272000235600000195e+00
6.888009999999999877e+01	1.272002476920000014e+00
6.907199999999998852e+01	1.262000674200000061e+00
6.926489999999999725e+01	1.236000393600000136e+00
6.945889999999999986e+01	1.212005337719999964e+00
6.965399999999999636e+01	1.203997394640000218e+00
6.985020000000000095e+01	1.204994533440000071e+00
7.004760000000000275e+01	1.198997738399999902e+00
7.024600000000000932e+01	1.195004690900000055e+00
7.044559999999999889e+01	1.198998365220000029e+00
7.064629999999999654e+01	1.206005225600000230e+00
7.084810000000000230e+01	1.201998195360000077e+00
7.105110000000000525e+01	1.193002815060000055e+00
7.125529999999999120e+01	1.181997191660000057e+00
7.146059999999999945e+01	1.168002490240000135e+00
7.166719999999999402e+01	1.163004975780000061e+00
7.187490000000001089e+01	1.161001948080000012e+00
7.208379999999999654e+01	1.152998106000000300e+00
7.229399999999999693e+01	1.145001294079999843e+00
7.250539999999999452e+01	1.140004858019999956e+00
7.271800000000000352e+01	1.137003816079999785e+00
7.293189999999999884e+01	1.139002213439999966e+00
7.314700000000000557e+01	1.149996786560000039e+00
7.336339999999999861e+01	1.163999299320000125e+00
7.358109999999999218e+01	1.174001003839999946e+00
7.380010000000000048e+01	1.172002125139999906e+00
7.402039999999999509e+01	1.169994766440000111e+00
7.424200000000000443e+01	1.173999944780000027e+00
7.446500000000000341e+01	1.187000862839999948e+00
7.468930000000000291e+01	1.207003059900000119e+00
7.491490000000000293e+01	1.224995344539999698e+00
7.514189999999999259e+01	1.239998731439999835e+00
7.537030000000000030e+01	1.253001149279999948e+00
7.560009999999999764e+01	1.265002694399999905e+00
7.583129999999999882e+01	1.276995964859999999e+00
7.606390000000000384e+01	1.297003551799999821e+00
7.629800000000000182e+01	1.312002971200000090e+00
7.653340000000000032e+01	1.314005608959999849e+00
7.677040000000000930e+01	1.305003436620000068e+00
7.700880000000000791e+01	1.292001735240000171e+00
7.724869999999999948e+01	1.269994476659999982e+00
7.749010000000001241e+01	1.229999496000000025e+00
7.773299999999998988e+01	1.182004146839999992e+00
7.797750000000000625e+01	1.145996682600000094e+00
7.822350000000000136e+01	1.125997050499999874e+00
7.847100000000000364e+01	1.122994470459999894e+00
7.872010000000000218e+01	1.137004211200000059e+00
7.897079999999999700e+01	1.160999269219999963e+00
7.922310000000000230e+01	1.179997730519999788e+00
7.947700000000000387e+01	1.187997010199999925e+00
7.973260000000000502e+01	1.193996136960000065e+00
7.998980000000000246e+01	1.196005860599999915e+00
8.024869999999999948e+01	1.194999527519999827e+00
8.050920000000000698e+01	1.196005372800000188e+00
8.077150000000000318e+01	1.204002073800000128e+00
8.103539999999999566e+01	1.216003873759999854e+00
8.130110000000000525e+01	1.233000094920000178e+00
8.156850000000000023e+01	1.250996619159999934e+00
8.183769999999999811e+01	1.260001789919999782e+00
8.210870000000001312e+01	1.273999067640000149e+00
8.238150000000000261e+01	1.289997765240000316e+00
8.265609999999999502e+01	1.271003451120000127e+00
8.293259999999999366e+01	1.204004082059999980e+00
8.321090000000000941e+01	1.118003881239999941e+00
8.349099999999999966e+01	1.040997195640000150e+00
8.377309999999999945e+01	9.920016624000000949e-01
8.405709999999999127e+01	9.680022682200000173e-01
8.434300000000000352e+01	9.520023461199998982e-01
8.463080000000000780e+01	9.510009003999999599e-01
8.492069999999999652e+01	9.700000278799998377e-01
8.521249999999999147e+01	9.970001118000001439e-01
8.550629999999999598e+01	9.969969078000000540e-01
8.580219999999999914e+01	9.670020468000001257e-01
8.610009999999999764e+01	9.439974627199999579e-01
8.640009999999999479e+01	9.449977031599999799e-01
8.670219999999999061e+01	9.530007056699999479e-01
8.700639999999999930e+01	9.600004792140000021e-01
8.731279999999999575e+01	9.759997165579999967e-01
8.762130000000000507e+01	9.950008118860000916e-01
8.793200000000000216e+01	1.016999651339999922e+00
8.824500000000000455e+01	1.045999901968000190e+00
8.856010000000000559e+01	1.064000341040000075e+00
8.887760000000000105e+01	1.057000349136000050e+00
8.919729999999999848e+01	1.044000866079999756e+00
8.951930000000000121e+01	1.037000592118000108e+00
8.984359999999999502e+01	1.028999636160000009e+00
9.017029999999999745e+01	1.011000096575999985e+00
9.049939999999999429e+01	9.889998463360001324e-01
9.083089999999999975e+01	9.760011309160000481e-01
9.116479999999999961e+01	9.739989684419999572e-01
9.150120000000001141e+01	9.679997275200000750e-01
9.184009999999999252e+01	9.619999728100000480e-01
9.218160000000000309e+01	9.689999867839999004e-01
9.252549999999999386e+01	9.929988282759999452e-01
9.287210000000000321e+01	1.020000133040000145e+00
9.322120000000001028e+01	1.048000296576000023e+00
9.357300000000000750e+01	1.061000824680000010e+00
9.392739999999999156e+01	1.059000576464000032e+00
9.428459999999999752e+01	1.068999925101999926e+00
9.464440000000000452e+01	1.092000137099999879e+00
9.500699999999999079e+01	1.120000133772000028e+00
9.537250000000000227e+01	1.150000491419999937e+00
9.574070000000000391e+01	1.165000904832000028e+00
9.611180000000000234e+01	1.157001215440000008e+00
9.648569999999999425e+01	1.153000625860000072e+00
9.686259999999998627e+01	1.166000549512000051e+00
9.724249999999999261e+01	1.204998937098000100e+00
9.762529999999999575e+01	1.273000264320000241e+00
9.801120000000000232e+01	1.312000004234000095e+00
9.840010000000000900e+01	1.294999041641999860e+00
9.879219999999999402e+01	1.270001023280000085e+00
9.918730000000000757e+01	1.269998947312000137e+00
9.958570000000000277e+01	1.263999922855999936e+00
9.998720000000000141e+01	1.240999922759999929e+00
1.003919999999999959e+02	1.218000805444000134e+00
1.007999999999999972e+02	1.208000871736000015e+00
1.012120000000000033e+02	1.203000765620000134e+00
1.016259999999999906e+02	1.209999054800000140e+00
1.020450000000000017e+02	1.240000101989999992e+00
1.024660000000000082e+02	1.266000978319999914e+00
1.028909999999999911e+02	1.278999419767999912e+00
1.033199999999999932e+02	1.273999653623999917e+00
1.037519999999999953e+02	1.277000555906000034e+00
1.041880000000000024e+02	1.290000571859999834e+00
1.046280000000000001e+02	1.305999453880000161e+00
1.050709999999999980e+02	1.309999697208000136e+00
1.055180000000000007e+02	1.280999131429999993e+00
1.059689999999999941e+02	1.238999780007999929e+00
1.064240000000000066e+02	1.232000493399999952e+00
1.068830000000000098e+02	1.276999501383999869e+00
1.073460000000000036e+02	1.353000025312000032e+00
1.078120000000000118e+02	1.418001021934000239e+00
1.082830000000000013e+02	1.461000659754000175e+00
1.087579999999999956e+02	1.488000383039999930e+00
1.092369999999999948e+02	1.480000526400000016e+00
1.097210000000000036e+02	1.458999603776000020e+00
1.102079999999999984e+02	1.467998598747999983e+00
1.107000000000000028e+02	1.496999769631999877e+00
1.111970000000000027e+02	1.524999829330000001e+00
1.116970000000000027e+02	1.553000238144000011e+00
1.122030000000000030e+02	1.607001044860000283e+00
1.127129999999999939e+02	1.693996028479999749e+00
1.132279999999999944e+02	1.757996097479999964e+00
1.137469999999999999e+02	1.768001088360000361e+00
1.142710000000000008e+02	1.770002530560000009e+00
1.147999999999999972e+02	1.759995557879999950e+00
1.153340000000000032e+02	1.741003554239999973e+00
1.158730000000000047e+02	1.734999718000000080e+00
1.164170000000000016e+02	1.733998160700000124e+00
1.169659999999999940e+02	1.758994456320000177e+00
1.175210000000000008e+02	1.853006405279999935e+00
1.180799999999999983e+02	1.987996259079999772e+00
1.186449999999999960e+02	2.099995836120000181e+00
1.192160000000000082e+02	2.165991239600000284e+00
1.197909999999999968e+02	2.175003465020000082e+00
1.203729999999999905e+02	2.164002566399999772e+00
1.209599999999999937e+02	2.166006899919999729e+00
1.215529999999999973e+02	2.164006510400000138e+00
1.221520000000000010e+02	2.201990643720000307e+00
1.227570000000000050e+02	2.324995045200000110e+00
1.233670000000000044e+02	2.492007041320000393e+00
1.239839999999999947e+02	2.632997927479999944e+00
1.246069999999999993e+02	2.734004573520000481e+00
1.252369999999999806e+02	2.798996226399999898e+00
1.258720000000000141e+02	2.864994796800000021e+00
1.265139999999999816e+02	2.960997729599999850e+00
1.271629999999999967e+02	3.031005719599999981e+00
1.278189999999999884e+02	3.038990954400000444e+00
1.284810000000000230e+02	3.030006864000000188e+00
1.291499999999999773e+02	3.092994992400000420e+00
1.298259999999999934e+02	3.210986258999999787e+00
1.305099999999999909e+02	3.385005639600000560e+00
1.312000000000000171e+02	3.613988462000000457e+00
1.318979999999999961e+02	3.801012669999999982e+00
1.326030000000000086e+02	3.951991404200000169e+00
1.333160000000000025e+02	4.130017659600000002e+00
1.340369999999999777e+02	4.355026782000000374e+00
1.347649999999999864e+02	4.560014021599999801e+00
1.355020000000000095e+02	4.662989809399999963e+00
1.362460000000000093e+02	4.662012400800000123e+00
1.369990000000000236e+02	4.555997687999999712e+00
1.377599999999999909e+02	4.434988509600000128e+00
1.385299999999999727e+02	4.340991820000000168e+00
1.393079999999999927e+02	4.269982945799999818e+00
1.400949999999999989e+02	4.229006317399999659e+00
1.408909999999999911e+02	4.226004806399999758e+00
1.416959999999999980e+02	4.281008222399999674e+00
1.425109999999999957e+02	4.430012309000000315e+00
1.433340000000000032e+02	4.726006519200000255e+00
1.441679999999999779e+02	5.130985719999999972e+00
1.450109999999999957e+02	5.412996340799999473e+00
1.458640000000000043e+02	5.391014983599999866e+00
1.467270000000000039e+02	5.254013287200000271e+00
1.476000000000000227e+02	5.230999367999999983e+00
1.484840000000000089e+02	5.353985793799999726e+00
1.493790000000000191e+02	5.522994744000000011e+00
1.502839999999999918e+02	5.576002932999999828e+00
1.511999999999999886e+02	5.495022206399999831e+00
1.521280000000000143e+02	5.349006849000000230e+00
1.530670000000000073e+02	5.208015123600000962e+00
1.540180000000000007e+02	5.170008124799999827e+00
1.549800000000000182e+02	5.325987506399999738e+00
1.559550000000000125e+02	5.499008470799999770e+00
1.569420000000000073e+02	5.404999350000000646e+00
1.579420000000000073e+02	5.172979377599999928e+00
1.589540000000000077e+02	4.984007079999999590e+00
1.599800000000000182e+02	4.844022934399999869e+00
1.610180000000000007e+02	4.769002652400000208e+00
1.620709999999999980e+02	4.799984523600000053e+00
1.631370000000000005e+02	4.967982878599999985e+00
1.642170000000000130e+02	5.207983209799999180e+00
1.653119999999999834e+02	5.412017870000000563e+00
1.664219999999999970e+02	5.494998298000000503e+00
1.675459999999999923e+02	5.366028769200000603e+00
1.686860000000000070e+02	5.056015729600000341e+00
1.698409999999999798e+02	4.834974204400000808e+00
1.710130000000000052e+02	4.864988846000000144e+00
1.721999999999999886e+02	5.015012032799999631e+00
1.734039999999999964e+02	4.984977367999999132e+00
1.746260000000000048e+02	4.873010897000000341e+00
1.758640000000000043e+02	4.883003459999999407e+00
1.771200000000000045e+02	4.964012513599999288e+00
1.783950000000000102e+02	5.078010509000001171e+00
1.796870000000000118e+02	4.987987200400000098e+00
1.809989999999999952e+02	4.748016527999999958e+00
1.823299999999999841e+02	4.625007195000000237e+00
1.836800000000000068e+02	4.673001447999999058e+00
1.850509999999999877e+02	4.719000726000000867e+00
1.864420000000000073e+02	4.757015750399999909e+00
1.878549999999999898e+02	4.894000473599999346e+00
1.892890000000000157e+02	4.968979103399999708e+00
1.907450000000000045e+02	4.836991294800000674e+00
1.922240000000000180e+02	4.658996596799999779e+00
1.937249999999999943e+02	4.569012759599999640e+00
1.952510000000000048e+02	4.465998224399999827e+00
1.968000000000000114e+02	4.280014166399999986e+00
1.983750000000000000e+02	4.185007767500000142e+00
1.999740000000000180e+02	4.126005739980000087e+00
2.015999999999999943e+02	3.976991850360000580e+00
2.032529999999999859e+02	3.868007701499999840e+00
2.049329999999999927e+02	3.810006782399999903e+00
2.066399999999999864e+02	3.827996948180000469e+00
2.083770000000000095e+02	3.929014871600000181e+00
2.101430000000000007e+02	4.071001479599999584e+00
2.119389999999999930e+02	4.190987186800000153e+00
2.137660000000000196e+02	4.335982121799999867e+00
2.156250000000000000e+02	4.580015093400000126e+00
2.175159999999999911e+02	4.868988924199999957e+00
2.194410000000000025e+02	5.100007536000000563e+00
2.214000000000000057e+02	5.246007900000000390e+00
2.233950000000000102e+02	5.377000107599999801e+00
2.254259999999999877e+02	5.544003308399999774e+00
2.274939999999999998e+02	5.681996872800000098e+00
2.295999999999999943e+02	5.756020455599999863e+00
2.317460000000000093e+02	5.840001341400000712e+00
2.339319999999999879e+02	5.887013959999999990e+00
2.361599999999999966e+02	5.809988303000000798e+00
2.384310000000000116e+02	5.654970710399999767e+00
2.407459999999999809e+02	5.486983250399999790e+00
2.431059999999999945e+02	5.334009996799999875e+00
2.455130000000000052e+02	5.117014988800000275e+00
2.479679999999999893e+02	4.890011418000000276e+00
2.504730000000000132e+02	4.804991499999999860e+00
2.530289999999999964e+02	4.853012520400000085e+00
2.556370000000000005e+02	5.080997152800000194e+00
2.582999999999999545e+02	5.455974860000000426e+00
2.610190000000000055e+02	5.750978567999999846e+00
2.637959999999999923e+02	5.874014722800000143e+00
2.666329999999999814e+02	5.913013158000000047e+00
2.695310000000000059e+02	5.912016767999999978e+00
2.724929999999999950e+02	5.990003114200000311e+00
2.755199999999999818e+02	6.191014641399999796e+00
2.786159999999999854e+02	6.377025987199999690e+00
2.817819999999999823e+02	6.528008201399999599e+00
2.850210000000000150e+02	6.689998788599999635e+00
2.883350000000000364e+02	6.810001606400000185e+00
2.917270000000000323e+02	6.869980348000000347e+00
2.952000000000000455e+02	6.835967464200000343e+00
2.987570000000000050e+02	6.667991422400000090e+00
3.023999999999999773e+02	6.351977436800000376e+00
3.061340000000000146e+02	5.951995850100000318e+00
3.099600000000000364e+02	5.524005002599999159e+00
3.138840000000000146e+02	5.058006918319999379e+00
3.179080000000000155e+02	4.523006094680000366e+00
3.220370000000000346e+02	4.105996961879999851e+00
3.262740000000000009e+02	3.996008381679999832e+00
3.306239999999999668e+02	4.134994358880000220e+00
3.350919999999999845e+02	4.326995744280000444e+00
3.396829999999999927e+02	4.398001095599999744e+00
3.444010000000000105e+02	4.302002451239999914e+00
3.492509999999999764e+02	4.118005677140000209e+00
3.542409999999999854e+02	3.912008244479999952e+00
3.593740000000000236e+02	3.690003844300000058e+00
3.646589999999999918e+02	3.325003048280000151e+00
3.701019999999999754e+02	2.903996390879999723e+00
3.757099999999999795e+02	2.483997115039999759e+00
3.814900000000000091e+02	2.042000265099999989e+00
3.874509999999999650e+02	1.591998341879999890e+00
3.936009999999999991e+02	1.203000580799999941e+00
3.999490000000000123e+02	9.179968956800000912e-01
4.065059999999999718e+02	7.180006498199998921e-01
4.132810000000000059e+02	5.620000595599999871e-01
4.202850000000000250e+02	4.310004223399999668e-01
4.275320000000000391e+02	3.380006160600000364e-01
4.350319999999999823e+02	2.750001701500000006e-01
4.428009999999999877e+02	2.299999440719999733e-01
4.508519999999999754e+02	1.970004011119999843e-01
4.592010000000000218e+02	1.730001809700000004e-01
4.678649999999999523e+02	1.550003548679999843e-01
4.768620000000000232e+02	1.399999807759999826e-01
4.862119999999999891e+02	1.280000153880000158e-01
4.959370000000000118e+02	1.179997387580000029e-01
5.060579999999999927e+02	1.089998876999999922e-01
5.166009999999999991e+02	1.009998830820000026e-01
5.275919999999999845e+02	9.399990996000000265e-02
5.390620000000000118e+02	8.799973960000001538e-02
5.510410000000000537e+02	8.199973293600000546e-02
5.635639999999999645e+02	7.699993131599999763e-02
5.766710000000000491e+02	7.199997649600001215e-02
5.904009999999999536e+02	6.799993648000000890e-02
6.048010000000000446e+02	6.400010526400000399e-02
6.199210000000000491e+02	6.099994501199999808e-02
6.358160000000000309e+02	5.699981767600000027e-02
6.525480000000000018e+02	5.399982830399999156e-02
6.701850000000000591e+02	5.099971430400000033e-02
6.888010000000000446e+02	4.899991728300000238e-02
7.084809999999999945e+02	4.599994271560000486e-02
7.293190000000000737e+02	4.399995733199999620e-02
7.514189999999999827e+02	4.200004405080000336e-02
7.749009999999999536e+02	3.899993896720000547e-02
7.998980000000000246e+02	3.700000857300000251e-02
8.265610000000000355e+02	3.599991218459999698e-02
8.550629999999999882e+02	3.400002975999999455e-02
8.856009999999999991e+02	3.200001927000000607e-02
9.184010000000000673e+02	2.999993023440000045e-02
9.537250000000000227e+02	2.900002596300000138e-02
9.918730000000000473e+02	2.699995623599999589e-02
1.033199999999999818e+03	2.600002971540000055e-02
1.078119999999999891e+03	2.399998389140000146e-02
1.127129999999999882e+03	2.300001016559999681e-02
1.180800000000000182e+03	2.199998416240000337e-02
1.239840000000000146e+03	2.000002014399999972e-02
1.305099999999999909e+03	1.899999805439999898e-02
1.377599999999999909e+03	1.799998813199999922e-02
1.458639999999999873e+03	1.700003925360000015e-02
1.549799999999999955e+03	1.600000003200000021e-02
1.653119999999999891e+03	1.499998934160000005e-02
1.771200000000000045e+03	1.399998436980000142e-02
1.907450000000000045e+03	1.199997411300000177e-02
2.066399999999999636e+03	1.100002893739999987e-02
2.254259999999999764e+03	1.000003650000000008e-02
2.479680000000000291e+03	9.000010520799999608e-03
2.755199999999999818e+03	8.000019706800001046e-03
3.099599999999999909e+03	7.000016335000000360e-03
3.542409999999999854e+03	7.000010918000000755e-03
4.132810000000000400e+03	6.000019514000000213e-03
4.959369999999999891e+03	4.999998813600000161e-03
6.199210000000000036e+03	4.000007111559999821e-03
8.265610000000000582e+03	3.000006236920000485e-03
1.239839999999999964e+04	1.999997381519999940e-03
2.479679999999999927e+04	1.000003013099999994e-03
