180	1.3702
190	1.5348
200	1.5358
210	1.46
220	1.4328
230	1.4426
240	1.3626
250	1.365
260	1.6273
270	1.9519
280	3.3553
290	3.8349
300	4.7316
310	5.2353
320	5.3913
330	5.2911
340	4.9687
350	4.4773
360	3.87
370	3.6613
380	3.4984
390	3.3753
400	3.2861
410	3.2248
420	3.1856
430	3.1624
440	3.1494
450	3.1405
460	3.13
470	3.1041
480	3.08
490	3.0538
500	3.03
510	3.0138
520	3
530	2.985
540	2.97
550	2.9544
560	2.94
570	2.9294
580	2.92
590	2.91
600	2.9
610	2.8894
620	2.88
630	2.875
640	2.87
650	2.86
660	2.85
670	2.8444
680	2.84
690	2.835
700	2.83
710	2.825
720	2.82
730	2.8144
740	2.81
750	2.81
760	2.81
770	2.8056
780	2.8
790	2.7944
800	2.79
810	2.79
820	2.79
830	2.785
840	2.78
850	2.78
860	2.78
870	2.775
880	2.77
890	2.77
900	2.77
910	2.765
920	2.76
930	2.7594
940	2.76
950	2.7606
960	2.76
970	2.755
980	2.75
990	2.749
1000	2.75
1010	2.7498
1020	2.7494
1030	2.7488
1040	2.7482
1050	2.7474
1060	2.7465
1070	2.7456
1080	2.7445
1090	2.7435
1100	2.7423
1110	2.7412
1120	2.74
1130	2.739
1140	2.738
1150	2.737
1160	2.736
1170	2.7349
1180	2.7339
1190	2.7329
1200	2.7319
1210	2.731
1220	2.73
1230	2.7293
1240	2.7287
1250	2.7281
1260	2.7275
1270	2.727
1280	2.7265
1290	2.726
1300	2.7255
1310	2.725
1320	2.7245
1330	2.724
1340	2.7235
1350	2.723
1360	2.7225
1370	2.7219
1380	2.7213
1390	2.7207
1400	2.72
1410	2.7193
1420	2.7185
1430	2.7177
1440	2.7168
1450	2.7159
1460	2.7149
1470	2.7138
1480	2.7126
1490	2.7113
1500	2.71
