100 0.44371
101 0.45004
102 0.45642
103 0.46286
104 0.46936
105 0.47591
106 0.48252
107 0.48919
108 0.49592
109 0.50271
110 0.50956
111 0.51647
112 0.52344
113 0.53047
114 0.53756
115 0.54471
116 0.55193
117 0.55921
118 0.56656
119 0.57397
120 0.58144
121 0.58898
122 0.59659
123 0.60426
124 0.61199
125 0.6198
126 0.62767
127 0.63561
128 0.64362
129 0.6517
130 0.65985
131 0.66807
132 0.67636
133 0.68472
134 0.69316
135 0.70166
136 0.71024
137 0.71889
138 0.72761
139 0.73641
140 0.74528
141 0.75423
142 0.76325
143 0.77235
144 0.78153
145 0.79078
146 0.80011
147 0.80951
148 0.819
149 0.82856
150 0.83821
151 0.84793
152 0.85773
153 0.86761
154 0.87758
155 0.88762
156 0.89775
157 0.90796
158 0.91825
159 0.92863
160 0.93909
161 0.94963
162 0.96026
163 0.97097
164 0.98177
165 0.99265
166 1.0036
167 1.0147
168 1.0258
169 1.037
170 1.0484
171 1.0598
172 1.0713
173 1.0829
174 1.0945
175 1.1063
176 1.1182
177 1.1301
178 1.1421
179 1.1543
180 1.1665
181 1.1788
182 1.1912
183 1.2037
184 1.2163
185 1.229
186 1.2418
187 1.2547
188 1.2676
189 1.2807
190 1.2939
191 1.3071
192 1.3205
193 1.3339
194 1.3475
195 1.3611
196 1.3749
197 1.3887
198 1.4027
199 1.4167
200 1.4309
201 1.4451
202 1.4595
203 1.4739
204 1.4885
205 1.5032
206 1.5179
207 1.5328
208 1.5477
209 1.5628
210 1.578
211 1.5932
212 1.6086
213 1.6241
214 1.6397
215 1.6554
216 1.6712
217 1.6871
218 1.7031
219 1.7192
220 1.7354
221 1.7518
222 1.7682
223 1.7848
224 1.8014
225 1.8182
226 1.8351
227 1.8521
228 1.8692
229 1.8864
230 1.9037
231 1.9211
232 1.9387
233 1.9563
234 1.9741
235 1.992
236 2.0099
237 2.028
238 2.0463
239 2.0646
240 2.083
241 2.1016
242 2.1203
243 2.139
244 2.1579
245 2.177
246 2.1961
247 2.2153
248 2.2347
249 2.2542
250 2.2738
251 2.2935
252 2.3133
253 2.3333
254 2.3533
255 2.3735
256 2.3938
257 2.4143
258 2.4348
259 2.4555
260 2.4762
261 2.4971
262 2.5182
263 2.5393
264 2.5606
265 2.5819
266 2.6035
267 2.6251
268 2.6468
269 2.6687
270 2.6907
271 2.7128
272 2.735
273 2.7574
274 2.7799
275 2.8025
276 2.8252
277 2.8481
278 2.8711
279 2.8942
280 2.9174
281 2.9407
282 2.9642
283 2.9878
284 3.0116
285 3.0354
286 3.0594
287 3.0835
288 3.1077
289 3.1321
290 3.1566
291 3.1812
292 3.2059
293 3.2308
294 3.2558
295 3.2809
296 3.3062
297 3.3316
298 3.3571
299 3.3827
300 3.4085
301 3.4344
302 3.4604
303 3.4866
304 3.5129
305 3.5393
306 3.5659
307 3.5925
308 3.6193
309 3.6463
310 3.6734
311 3.7006
312 3.7279
313 3.7554
314 3.783
315 3.8107
316 3.8386
317 3.8665
318 3.8947
319 3.9229
320 3.9513
321 3.9798
322 4.0085
323 4.0373
324 4.0662
325 4.0953
326 4.1245
327 4.1538
328 4.1833
329 4.2129
330 4.2426
331 4.2724
332 4.3024
333 4.3326
334 4.3628
335 4.3932
336 4.4238
337 4.4545
338 4.4853
339 4.5162
340 4.5473
341 4.5785
342 4.6099
343 4.6413
344 4.673
345 4.7047
346 4.7366
347 4.7687
348 4.8008
349 4.8331
350 4.8656
351 4.8982
352 4.9309
353 4.9637
354 4.9967
355 5.0299
356 5.0631
357 5.0965
358 5.1301
359 5.1637
360 5.1976
361 5.2315
362 5.2656
363 5.2998
364 5.3342
365 5.3687
366 5.4034
367 5.4382
368 5.4731
369 5.5082
370 5.5434
371 5.5787
372 5.6142
373 5.6498
374 5.6856
375 5.7215
376 5.7575
377 5.7937
378 5.83
379 5.8664
380 5.903
381 5.9398
382 5.9767
383 6.0137
384 6.0508
385 6.0881
386 6.1255
387 6.1631
388 6.2008
389 6.2387
390 6.2767
391 6.3148
392 6.3531
393 6.3915
394 6.4301
395 6.4688
396 6.5076
397 6.5466
398 6.5857
399 6.6249
400 6.6643
401 6.7039
402 6.7436
403 6.7834
404 6.8233
405 6.8634
406 6.9037
407 6.9441
408 6.9846
409 7.0252
410 7.0661
411 7.107
412 7.1481
413 7.1893
414 7.2307
415 7.2722
416 7.3138
417 7.3556
418 7.3976
419 7.4396
420 7.4818
421 7.5242
422 7.5667
423 7.6093
424 7.6521
425 7.695
426 7.7381
427 7.7813
428 7.8246
429 7.8681
430 7.9117
431 7.9555
432 7.9994
433 8.0434
434 8.0876
435 8.1319
436 8.1764
437 8.221
438 8.2657
439 8.3106
440 8.3557
441 8.4008
442 8.4461
443 8.4916
444 8.5372
445 8.5829
446 8.6288
447 8.6748
448 8.721
449 8.7673
450 8.8137
451 8.8603
452 8.907
453 8.9538
454 9.0008
455 9.048
456 9.0952
457 9.1427
458 9.1902
459 9.2379
460 9.2857
461 9.3337
462 9.3818
463 9.4301
464 9.4785
465 9.527
466 9.5757
467 9.6245
468 9.6735
469 9.7225
470 9.7718
471 9.8211
472 9.8707
473 9.9203
474 9.9701
475 10.02
476 10.07
477 10.12
478 10.171
479 10.221
480 10.272
481 10.323
482 10.373
483 10.424
484 10.476
485 10.527
486 10.578
487 10.63
488 10.682
489 10.734
490 10.786
491 10.838
492 10.89
493 10.942
494 10.995
495 11.048
496 11.101
497 11.153
498 11.207
499 11.26
500 11.313
501 11.367
502 11.42
503 11.474
504 11.528
505 11.582
506 11.636
507 11.691
508 11.745
509 11.8
510 11.855
511 11.909
512 11.964
513 12.02
514 12.075
515 12.13
516 12.186
517 12.242
518 12.297
519 12.353
520 12.409
521 12.466
522 12.522
523 12.579
524 12.635
525 12.692
526 12.749
527 12.806
528 12.863
529 12.92
530 12.978
531 13.035
532 13.093
533 13.151
534 13.209
535 13.267
536 13.325
537 13.384
538 13.442
539 13.501
540 13.56
541 13.619
542 13.678
543 13.737
544 13.796
545 13.856
546 13.915
547 13.975
548 14.035
549 14.095
550 14.155
551 14.215
552 14.275
553 14.336
554 14.396
555 14.457
556 14.518
557 14.579
558 14.64
559 14.702
560 14.763
561 14.824
562 14.886
563 14.948
564 15.01
565 15.072
566 15.134
567 15.196
568 15.259
569 15.321
570 15.384
571 15.447
572 15.51
573 15.573
574 15.636
575 15.699
576 15.763
577 15.827
578 15.89
579 15.954
580 16.018
581 16.082
582 16.146
583 16.211
584 16.275
585 16.34
586 16.405
587 16.469
588 16.534
589 16.599
590 16.665
591 16.73
592 16.796
593 16.861
594 16.927
595 16.993
596 17.059
597 17.125
598 17.191
599 17.257
600 17.324
