2.065999999999999943e+02	2.105449657838103228e+00
2.108950831900000082e+02	2.221179424585057127e+00
2.152794584390000239e+02	2.343355493302471615e+00
2.197549820749999867e+02	2.472343141845676939e+00
2.243235490120000009e+02	2.608528303043173846e+00
2.289870935639999914e+02	2.752318675214276311e+00
2.337475902550000058e+02	2.904144855773336253e+00
2.386070546569999919e+02	3.064461485656465367e+00
2.435675442480000186e+02	3.233748389015811409e+00
2.486311592760000053e+02	3.412511687524513171e+00
2.538000436549999677e+02	3.601284863546175163e+00
2.590763858669999991e+02	3.800629739545986041e+00
2.644624198930000034e+02	4.011137333419582340e+00
2.699604261560000396e+02	4.233428539962161175e+00
2.755727324880000424e+02	4.468154578216587680e+00
2.813017151159999685e+02	4.715997131597826630e+00
2.871497996649999891e+02	4.977668093647225511e+00
2.931194621889999894e+02	5.253908816173104235e+00
2.992132302170000457e+02	5.545488738333534506e+00
3.054336838240000134e+02	5.853203256574927238e+00
3.117834567230000289e+02	6.177870673980538463e+00
3.182652373809999631e+02	6.520328047914484060e+00
3.248817701539999803e+02	6.881425733946393564e+00
3.316358564540000202e+02	7.262020407690114254e+00
3.385303559319999636e+02	7.662966333178294676e+00
3.455681876890000126e+02	8.085104640841409562e+00
3.527523315119999552e+02	8.529250386935435913e+00
3.600858291360000294e+02	8.996177185724899772e+00
3.675717855330000248e+02	9.486599251616205208e+00
3.752133702229999699e+02	1.000115075504460016e+01
3.830138186209999844e+02	1.054036249699807293e+01
3.909764334019999978e+02	1.110463603936544708e+01
3.991045859030000429e+02	1.169421559677688194e+01
4.074017175479999651e+02	1.230915819884275741e+01
4.158713413060000335e+02	1.294930285939574688e+01
4.245170431799999733e+02	1.361423973303635293e+01
4.333424837219999972e+02	1.430328048152861875e+01
4.423513995839999779e+02	1.501543128565062624e+01
4.515476051040000129e+02	1.574937010432951290e+01
4.609349939130000280e+02	1.650342986177551197e+01
4.705175405919999889e+02	1.727558922458335289e+01
4.802993023489999587e+02	1.806347247922837695e+01
4.902844207400000300e+02	1.886435974315431707e+01
5.004771234199999412e+02	1.967520832712015988e+01
5.108817259350000199e+02	2.049268555224598387e+01
5.215026335489999383e+02	2.131321272298687575e+01
5.323443431069999860e+02	2.213301933063005222e+01
5.434114449429999922e+02	2.294820595551279752e+01
5.547086248179999757e+02	2.375481379348942212e+01
5.662406659099999615e+02	2.454889832072585776e+01
5.780124508349999815e+02	2.532660434261463323e+01
5.900289637150000317e+02	2.608423958757135708e+01
6.022952922890000309e+02	2.681834409864148228e+01
6.148166300679999949e+02	2.752575293215474517e+01
6.275982785319999948e+02	2.820365007663806622e+01
6.406456493740000724e+02	2.884961199888753214e+01
6.539642667949999577e+02	2.946163979324326476e+01
6.675597698389999550e+02	3.003817947805310240e+01
6.814379147839999860e+02	3.057813053991767660e+01
6.956045775750000075e+02	3.108084331418877611e+01
7.100657563150000442e+02	3.154610620176641334e+01
7.248275738060000322e+02	3.197412402971615109e+01
7.398962801349999836e+02	3.236548907236866057e+01
7.552782553289999896e+02	3.272114635235507052e+01
7.709800120469999456e+02	3.304235485630199776e+01
7.870081983459999719e+02	3.333064623672099458e+01
8.033696004889999358e+02	3.358778244492237519e+01
8.200711458239999274e+02	3.381571357304790126e+01
8.371199057119999907e+02	3.401653698791793090e+01
8.545230985230000442e+02	3.419245863043204281e+01
8.722880926929999532e+02	3.434575714920507039e+01
8.904224098449999474e+02	3.447875133980056717e+01
9.089337279679999710e+02	3.459377118382233363e+01
9.278298846739999135e+02	3.469313262198631520e+01
9.471188805139998976e+02	3.477911606922532428e+01
9.668088823649999313e+02	3.485394856891592497e+01
9.869082268869999552e+02	3.491978940266553622e+01
1.007425424060000068e+03	3.497871891371608655e+01
1.028369160760000113e+03	3.503273026044800531e+01
1.049748304499999904e+03	3.508372379596208646e+01
1.071571907089999968e+03	3.513350375932771641e+01
1.093849208569999973e+03	3.518377696988579828e+01
1.116589641029999939e+03	3.523615322514321235e+01
1.139802832690000059e+03	3.529214712237151730e+01
1.163498611909999909e+03	3.535318104611403811e+01
1.187687011369999937e+03	3.542058908703295117e+01
1.212378272350000088e+03	3.549562168741244506e+01
1.237582849000000124e+03	3.557945082753733601e+01
1.263311412850000124e+03	3.567317560148029543e+01
1.289574857250000150e+03	3.577782804598826516e+01
1.316384302029999844e+03	3.589437911342485421e+01
1.343751098189999993e+03	3.602374469875987018e+01
1.371686832710000090e+03	3.616679164732149587e+01
1.400203333469999961e+03	3.632434368719054874e+01
1.429312674219999963e+03	3.649718724409228798e+01
1.459027179740000065e+03	3.668607710763860297e+01
1.489359431009999980e+03	3.689174192822703446e+01
1.520322270590000016e+03	3.711488953388480638e+01
1.551928807989999996e+03	3.735621206133941286e+01
1.584192425289999846e+03	3.761639090371130578e+01
1.617126782770000091e+03	3.789610147901724702e+01
1.650745824690000063e+03	3.819601783204115009e+01
1.685063785200000211e+03	3.851681707920010211e+01
1.720095194389999961e+03	3.885918371451590048e+01
1.755854884389999825e+03	3.922381379190317574e+01
1.792357995699999947e+03	3.961141900200393451e+01
1.829619983589999947e+03	4.002273066343090591e+01
1.867656624609999881e+03	4.045850364799503751e+01
1.906484023309999884e+03	4.091952025841866458e+01
1.946118619050000007e+03	4.140659408158611399e+01
1.986577192940000032e+03	4.192057383483334831e+01
2.027876874970000017e+03	4.246234722813573370e+01
2.070035151229999883e+03	4.303284485921033564e+01
2.113069871369999873e+03	4.363304416557338783e+01
2.156999256090000017e+03	4.426397344995382355e+01
2.201841904900000372e+03	4.492671600067320270e+01
2.247616803990000335e+03	4.562241432750769121e+01
2.294343334250000225e+03	4.635227452966405792e+01
2.342041279489999852e+03	4.711757081999813579e+01
2.390730834810000033e+03	4.791965022101273775e+01
2.440432615160000296e+03	4.875993745486290720e+01
2.491167664049999985e+03	4.963994004648785108e+01
2.542957462479999776e+03	5.056125366137014510e+01
2.595823938040000030e+03	5.152556769452621666e+01
2.649789474140000038e+03	5.253467113693574220e+01
2.704876919580000049e+03	5.359045873558466155e+01
2.761109598120000101e+03	5.469493747052668198e+01
2.818511318450000090e+03	5.585023337268719246e+01
2.877106384200000321e+03	5.705859869971470033e+01
2.936919604270000036e+03	5.832241949904473444e+01
2.997976303310000276e+03	5.964422357643591965e+01
3.060302332459999889e+03	6.102668889766511739e+01
3.123924080300000242e+03	6.247265244542054319e+01
3.188868484000000080e+03	6.398511955874365498e+01
3.255163040720000026e+03	6.556727378138175766e+01
3.322835819309999806e+03	6.722248724123490149e+01
3.391915472109999882e+03	6.895433159750143659e+01
3.462431247160000112e+03	7.076658957342023371e+01
3.534413000529999863e+03	7.266326710993564575e+01
3.607891208969999752e+03	7.464860616954298678e+01
3.682896982839999964e+03	7.672709821390019158e+01
3.759462079259999882e+03	7.890349839915761265e+01
3.837618915560000005e+03	8.118284050216688286e+01
3.917400582990000203e+03	8.357045263099205101e+01
3.998840860780000185e+03	8.607197372638299271e+01
4.081974230380000336e+03	8.869337091193284550e+01
4.166835890100000142e+03	9.144095771001600781e+01
4.253461769989999993e+03	9.432141315724392427e+01
4.341888547079999626e+03	9.734180185656653350e+01
4.432153660879999734e+03	1.005095950028309062e+02
4.524295329229999879e+03	1.038326923970741973e+02
4.618352564540000458e+03	1.073194454977698342e+02
4.714365190210000037e+03	1.109786815335398131e+02
4.812373857579999822e+03	1.148197287014234007e+02
4.912420063089999530e+03	1.188524424876942618e+02
5.014546165869999641e+03	1.230872331261641222e+02
5.118795405660000142e+03	1.275350942291937031e+02
5.225211921139999504e+03	1.322076326049527211e+02
5.333840768600000047e+03	1.371170992768317092e+02
5.444727941019999889e+03	1.422764217311000152e+02
5.557920387539999865e+03	1.476992373879385809e+02
5.673466033360000438e+03	1.533999283184515150e+02
5.791413799990000371e+03	1.593936571868393912e+02
5.911813626019999901e+03	1.656964044400172327e+02
6.034716488199999731e+03	1.723250067097914382e+02
6.160174423059999754e+03	1.792971964202319270e+02
6.288240548960000524e+03	1.866316425708965312e+02
6.418969088519999787e+03	1.943479926631891601e+02
6.552415391660000751e+03	2.024669157197816673e+02
6.688635958939999909e+03	2.110101463483790383e+02
6.827688465569999607e+03	2.200005297763206897e+02
6.969631785759999730e+03	2.294620677810488019e+02
7.114526017720000709e+03	2.394199654281389371e+02
7.262432509010000103e+03	2.499006784986214598e+02
7.413413882609999746e+03	2.609319615048384549e+02
7.567534063369999785e+03	2.725429161291132800e+02
7.724858305109999492e+03	2.847640399659629225e+02
7.885453218220000053e+03	2.976272753628202850e+02
8.049386797889999798e+03	3.111660582002952538e+02
8.216728452889999971e+03	3.254153663804233361e+02
8.387549034949999623e+03	3.404117678041046133e+02
8.561920868740000515e+03	3.561934675906211965e+02
8.739917782559999978e+03	3.728003542744302763e+02
8.921615139519999502e+03	3.902740446744905398e+02
9.107089869479999834e+03	4.086579271463453438e+02
9.296420501650000006e+03	4.279972028819358343e+02
9.489687197780000133e+03	4.483389248898575374e+02
9.686971786160000192e+03	4.697320343263371569e+02
9.888357796210000743e+03	4.922273937591944559e+02
1.009393049389999942e+04	5.158778169668116789e+02
1.030377691779999986e+04	5.407380948893444383e+02
1.051798591600000145e+04	5.668650172634874025e+02
1.073664818369999921e+04	5.943173895311967954e+02
1.095985630140000103e+04	6.231560445807400583e+02
1.118770477460000075e+04	6.534438488643044138e+02
1.142029007330000059e+04	6.852457024706731090e+02
1.165771067310000035e+04	7.186285326944540657e+02
1.190006709680000131e+04	7.536612807044613191e+02
1.214746195720000105e+04	7.904148808828838355e+02
1.240000000000000000e+04	8.289622324760676975e+02
