2.065999999999999943e+02	5.549563503440000378e-01
2.108950831900000082e+02	5.719329377349999799e-01
2.152794584390000239e+02	5.896083387370000262e-01
2.197549820749999867e+02	6.080093601310000428e-01
2.243235490120000009e+02	6.271642941549999684e-01
2.289870935639999914e+02	6.471029876239999812e-01
2.337475902550000058e+02	6.678569145320000233e-01
2.386070546569999919e+02	6.894592510889999692e-01
2.435675442480000186e+02	7.119449519160000461e-01
2.486311592760000053e+02	7.353508258790000252e-01
2.538000436549999677e+02	7.597156096730000030e-01
2.590763858669999991e+02	7.850800369060000339e-01
2.644624198930000034e+02	8.114868999259999827e-01
2.699604261560000396e+02	8.389811010690000348e-01
2.755727324880000424e+02	8.676096893700000479e-01
2.813017151159999685e+02	8.974218779839999716e-01
2.871497996649999891e+02	9.284690367169999847e-01
2.931194621889999894e+02	9.608046530710000477e-01
2.992132302170000457e+02	9.944842541320000340e-01
3.054336838240000134e+02	1.029565280449999953e+00
3.117834567230000289e+02	1.066106901820000008e+00
3.182652373809999631e+02	1.104169763650000080e+00
3.248817701539999803e+02	1.143815651319999960e+00
3.316358564540000202e+02	1.185107059009999908e+00
3.385303559319999636e+02	1.228106648630000075e+00
3.455681876890000126e+02	1.272876584090000041e+00
3.527523315119999552e+02	1.319477726819999974e+00
3.600858291360000294e+02	1.367968679330000104e+00
3.675717855330000248e+02	1.418404666410000070e+00
3.752133702229999699e+02	1.470836247400000074e+00
3.830138186209999844e+02	1.525307858659999960e+00
3.909764334019999978e+02	1.581856193059999915e+00
3.991045859030000429e+02	1.640508432599999900e+00
4.074017175479999651e+02	1.701280361950000097e+00
4.158713413060000335e+02	1.764174402959999943e+00
4.245170431799999733e+02	1.829177623709999922e+00
4.333424837219999972e+02	1.896259788600000107e+00
4.423513995839999779e+02	1.965371527120000072e+00
4.515476051040000129e+02	2.036442707680000019e+00
4.609349939130000280e+02	2.109381106519999882e+00
4.705175405919999889e+02	2.184071460619999794e+00
4.802993023489999587e+02	2.260374985629999944e+00
4.902844207400000300e+02	2.338129425990000065e+00
5.004771234199999412e+02	2.417149683869999954e+00
5.108817259350000199e+02	2.497229049280000002e+00
5.215026335489999383e+02	2.578141024999999864e+00
5.323443431069999860e+02	2.659641711219999927e+00
5.434114449429999922e+02	2.741472686979999906e+00
5.547086248179999757e+02	2.823364300740000221e+00
5.662406659099999615e+02	2.905039263519999970e+00
5.780124508349999815e+02	2.986216425219999859e+00
5.900289637150000317e+02	3.066614609170000172e+00
6.022952922890000309e+02	3.145956381920000045e+00
6.148166300679999949e+02	3.223971643130000064e+00
6.275982785319999948e+02	3.300400934859999857e+00
6.406456493740000724e+02	3.374998386670000183e+00
6.539642667949999577e+02	3.447534234349999949e+00
6.675597698389999550e+02	3.517796870779999807e+00
6.814379147839999860e+02	3.585594409320000064e+00
6.956045775750000075e+02	3.650755759359999963e+00
7.100657563150000442e+02	3.713131231100000207e+00
7.248275738060000322e+02	3.772592700970000212e+00
7.398962801349999836e+02	3.829033380129999831e+00
7.552782553289999896e+02	3.882367236189999904e+00
7.709800120469999456e+02	3.932528122959999983e+00
7.870081983459999719e+02	3.979468675010000123e+00
8.033696004889999358e+02	4.023159022899999826e+00
8.200711458239999274e+02	4.063585382890000375e+00
8.371199057119999907e+02	4.100748570640000423e+00
8.545230985230000442e+02	4.134662483649999665e+00
8.722880926929999532e+02	4.165352591529999593e+00
8.904224098449999474e+02	4.192854467400000118e+00
9.089337279679999710e+02	4.217212388030000092e+00
9.278298846739999135e+02	4.238478024469999994e+00
9.471188805139998976e+02	4.256709240100000180e+00
9.668088823649999313e+02	4.271969008140000135e+00
9.869082268869999552e+02	4.284324456540000270e+00
1.007425424060000068e+03	4.293846044640000414e+00
1.028369160760000113e+03	4.300606872880000431e+00
1.049748304499999904e+03	4.304682124380000197e+00
1.071571907089999968e+03	4.306148634800000430e+00
1.093849208569999973e+03	4.305084585580000400e+00
1.116589641029999939e+03	4.301569313629999947e+00
1.139802832690000059e+03	4.295683229619999821e+00
1.163498611909999909e+03	4.287507835789999611e+00
1.187687011369999937e+03	4.277125832930000371e+00
1.212378272350000088e+03	4.264621305340000390e+00
1.237582849000000124e+03	4.250079971209999918e+00
1.263311412850000124e+03	4.233589484970000427e+00
1.289574857250000150e+03	4.215239776629999824e+00
1.316384302029999844e+03	4.195123412090000059e+00
1.343751098189999993e+03	4.173335957139999941e+00
1.371686832710000090e+03	4.149976326650000047e+00
1.400203333469999961e+03	4.125147099840000386e+00
1.429312674219999963e+03	4.098954781769999833e+00
1.459027179740000065e+03	4.071509991560000152e+00
1.489359431009999980e+03	4.042927558489999740e+00
1.520322270590000016e+03	4.013326508969999651e+00
1.551928807989999996e+03	3.982829930059999857e+00
1.584192425289999846e+03	3.951564699129999969e+00
1.617126782770000091e+03	3.919661074029999970e+00
1.650745824690000063e+03	3.887252143960000073e+00
1.685063785200000211e+03	3.854473147769999830e+00
1.720095194389999961e+03	3.821460673069999814e+00
1.755854884389999825e+03	3.788351756179999974e+00
1.792357995699999947e+03	3.755282908759999927e+00
1.829619983589999947e+03	3.722389101920000165e+00
1.867656624609999881e+03	3.689802741359999860e+00
1.906484023309999884e+03	3.657652668549999930e+00
1.946118619050000007e+03	3.626063221939999970e+00
1.986577192940000032e+03	3.595153389150000045e+00
2.027876874970000017e+03	3.565036076570000212e+00
2.070035151229999883e+03	3.535817516409999861e+00
2.113069871369999873e+03	3.507596824689999782e+00
2.156999256090000017e+03	3.480465716039999879e+00
2.201841904900000372e+03	3.454508374490000033e+00
2.247616803990000335e+03	3.429801473259999955e+00
2.294343334250000225e+03	3.406414330990000128e+00
2.342041279489999852e+03	3.384409188719999850e+00
2.390730834810000033e+03	3.363841588590000153e+00
2.440432615160000296e+03	3.344760834660000182e+00
2.491167664049999985e+03	3.327210515880000052e+00
2.542957462479999776e+03	3.311229072210000179e+00
2.595823938040000030e+03	3.296850386270000044e+00
2.649789474140000038e+03	3.284104385470000054e+00
2.704876919580000049e+03	3.273017641220000051e+00
2.761109598120000101e+03	3.263613954779999826e+00
2.818511318450000090e+03	3.255914921440000054e+00
2.877106384200000321e+03	3.249940466710000031e+00
2.936919604270000036e+03	3.245709350589999875e+00
2.997976303310000276e+03	3.243239637179999857e+00
3.060302332459999889e+03	3.242549128639999889e+00
3.123924080300000242e+03	3.243655763420000060e+00
3.188868484000000080e+03	3.246577979620000054e+00
3.255163040720000026e+03	3.251335045129999823e+00
3.322835819309999806e+03	3.257947356219999868e+00
3.391915472109999882e+03	3.266436707230000014e+00
3.462431247160000112e+03	3.276826533349999959e+00
3.534413000529999863e+03	3.289142129340000054e+00
3.607891208969999752e+03	3.303410846399999823e+00
3.682896982839999964e+03	3.319662269590000214e+00
3.759462079259999882e+03	3.337928378189999989e+00
3.837618915560000005e+03	3.358243690890000188e+00
3.917400582990000203e+03	3.380645397949999964e+00
3.998840860780000185e+03	3.405173481859999907e+00
4.081974230380000336e+03	3.431870828310000121e+00
4.166835890100000142e+03	3.460783328749999832e+00
4.253461769989999993e+03	3.491959975769999946e+00
4.341888547079999626e+03	3.525452952449999788e+00
4.432153660879999734e+03	3.561317716670000078e+00
4.524295329229999879e+03	3.599613080970000212e+00
4.618352564540000458e+03	3.640401288930000145e+00
4.714365190210000037e+03	3.683748088379999786e+00
4.812373857579999822e+03	3.729722802039999952e+00
4.912420063089999530e+03	3.778398395880000038e+00
5.014546165869999641e+03	3.829851545459999951e+00
5.118795405660000142e+03	3.884162700510000121e+00
5.225211921139999504e+03	3.941416147770000045e+00
5.333840768600000047e+03	4.001700072090000226e+00
5.444727941019999889e+03	4.065106615920000444e+00
5.557920387539999865e+03	4.131731936899999624e+00
5.673466033360000438e+03	4.201676263619999574e+00
5.791413799990000371e+03	4.275043949049999625e+00
5.911813626019999901e+03	4.351943521759999989e+00
6.034716488199999731e+03	4.432487734230000420e+00
6.160174423059999754e+03	4.516793608300000429e+00
6.288240548960000524e+03	4.604982476990000073e+00
6.418969088519999787e+03	4.697180022530000443e+00
6.552415391660000751e+03	4.793516310050000229e+00
6.688635958939999909e+03	4.894125816279999874e+00
6.827688465569999607e+03	4.999147452929999957e+00
6.969631785759999730e+03	5.108724583999999957e+00
7.114526017720000709e+03	5.223005036430000025e+00
7.262432509010000103e+03	5.342141103420000370e+00
7.413413882609999746e+03	5.466289539839999989e+00
7.567534063369999785e+03	5.595611548830000004e+00
7.724858305109999492e+03	5.730272758949999989e+00
7.885453218220000053e+03	5.870443191119999682e+00
8.049386797889999798e+03	6.016297214519999770e+00
8.216728452889999971e+03	6.168013490629999929e+00
8.387549034949999623e+03	6.325774904650000252e+00
8.561920868740000515e+03	6.489768483389999787e+00
8.739917782559999978e+03	6.660185298920000108e+00
8.921615139519999502e+03	6.837220356969999635e+00
9.107089869479999834e+03	7.021072469469999966e+00
9.296420501650000006e+03	7.211944110320000156e+00
9.489687197780000133e+03	7.410041253580000209e+00
9.686971786160000192e+03	7.615573193490000392e+00
9.888357796210000743e+03	7.828752345469999874e+00
1.009393049389999942e+04	8.049794027569999955e+00
1.030377691779999986e+04	8.278916221790000307e+00
1.051798591600000145e+04	8.516339314690000606e+00
1.073664818369999921e+04	8.762285817040000424e+00
1.095985630140000103e+04	9.016980062029999132e+00
1.118770477460000075e+04	9.280647881989999348e+00
1.142029007330000059e+04	9.553516263529999719e+00
1.165771067310000035e+04	9.835812981069999239e+00
1.190006709680000131e+04	1.012776620920000070e+01
1.214746195720000105e+04	1.042960411389999997e+01
1.240000000000000000e+04	1.074155442370000024e+01
