6.357999999999999829e+01	8.793963420000000530e-01
6.525000000000000000e+01	8.789092960000000065e-01
6.701999999999999602e+01	8.776043892000000568e-01
6.887999999999999545e+01	8.744959265999999731e-01
7.084999999999999432e+01	8.663018032000000535e-01
7.292999999999999261e+01	8.628929119999999564e-01
7.514000000000000057e+01	8.591968596000001401e-01
7.749000000000000909e+01	8.529054379999999602e-01
7.999000000000000909e+01	8.577992160000000865e-01
8.265999999999999659e+01	8.687070787999999766e-01
8.551000000000000512e+01	8.854987039999999698e-01
8.856000000000000227e+01	9.002924660000000134e-01
9.184000000000000341e+01	9.190006910000001472e-01
9.536999999999999034e+01	9.384012907999998987e-01
9.918999999999999773e+01	9.598927410000001048e-01
1.033199999999999932e+02	9.935004361999999478e-01
1.078100000000000023e+02	1.031002092999999897e+00
1.127100000000000080e+02	1.088003070000000072e+00
1.147999999999999972e+02	1.113990953399999873e+00
1.169699999999999989e+02	1.145992302000000018e+00
1.192200000000000131e+02	1.173998531999999928e+00
1.215500000000000114e+02	1.199993762999999936e+00
1.239800000000000040e+02	1.203997214399999960e+00
1.265100000000000051e+02	1.180995970399999928e+00
1.291499999999999773e+02	1.128990916800000077e+00
1.318999999999999773e+02	1.105005465599999903e+00
1.347700000000000102e+02	1.122998695199999730e+00
1.377599999999999909e+02	1.146990924400000056e+00
1.408899999999999864e+02	1.170998259199999891e+00
1.441699999999999875e+02	1.194003435599999996e+00
1.476000000000000227e+02	1.215994824999999890e+00
1.511999999999999886e+02	1.228992617599999893e+00
1.549800000000000182e+02	1.208987999999999952e+00
1.589500000000000171e+02	1.158011198399999886e+00
1.631400000000000148e+02	1.064991100000000079e+00
1.675500000000000114e+02	9.371888659999999538e-01
1.721999999999999886e+02	8.377029149999999369e-01
1.771200000000000045e+02	7.215896016000000746e-01
1.796899999999999977e+02	6.890948423999999628e-01
1.823299999999999841e+02	6.932009199999998872e-01
1.850499999999999829e+02	7.315096639999999484e-01
1.878499999999999943e+02	7.835080643999999817e-01
1.907399999999999807e+02	8.119865725999999562e-01
1.937300000000000182e+02	8.261997240000000797e-01
1.968000000000000114e+02	8.452957575999999751e-01
1.999699999999999989e+02	8.718988819999999862e-01
2.066399999999999864e+02	9.515092685999999578e-01
2.137699999999999818e+02	1.034992649600000147e+00
2.214000000000000057e+02	1.123996813200000000e+00
2.295999999999999943e+02	1.235007806399999852e+00
2.384300000000000068e+02	1.353012940599999991e+00
2.479699999999999989e+02	1.495005974000000126e+00
2.582999999999999545e+02	1.661986233599999752e+00
2.695299999999999727e+02	1.859005313200000176e+00
2.817799999999999727e+02	2.090982219999999892e+00
2.952000000000000455e+02	2.371997593599999732e+00
3.099600000000000364e+02	2.710997284799999907e+00
3.262699999999999818e+02	3.140981824399999844e+00
3.443999999999999773e+02	3.684994035000000334e+00
3.646599999999999682e+02	4.382995410000000369e+00
3.874499999999999886e+02	5.258022844799999262e+00
4.132799999999999727e+02	6.353978600000000476e+00
4.428000000000000114e+02	7.809012142800000333e+00
4.768600000000000136e+02	9.701029319999999956e+00
5.165999999999999091e+02	1.219003717120000196e+01
5.635599999999999454e+02	1.539998087999999932e+01
6.199200000000000728e+02	1.966996871280000292e+01
6.887999999999999545e+02	2.549997136260000019e+01
7.748999999999999773e+02	3.325000972440000169e+01
8.856000000000000227e+02	4.359004157599999729e+01
1.033199999999999818e+03	5.736997056259999539e+01
1.239840000000000146e+03	7.583996039999999539e+01
1.549799999999999955e+03	1.012001122968000004e+02
2.066399999999999636e+03	1.392999999273999947e+02
3.099599999999999909e+03	2.073997083199999736e+02
6.199210000000000036e+03	3.989006406400000060e+02
