1.879000000000000057e+02	-9.039690000000000225e-01	2.513559999999999572e+00
1.915999999999999943e+02	-1.024043999999999954e+00	2.637199999999999545e+00
1.953000000000000114e+02	-1.132699999999999818e+00	2.793599999999999639e+00
1.993000000000000114e+02	-1.268649000000000360e+00	2.926280000000000214e+00
2.033000000000000114e+02	-1.422400000000000331e+00	3.068999999999999950e+00
2.073000000000000114e+02	-1.536701000000000095e+00	3.229979999999999851e+00
2.119000000000000057e+02	-1.644201000000000024e+00	3.434080000000000243e+00
2.164000000000000057e+02	-1.720201000000000091e+00	3.669840000000000213e+00
2.214000000000000057e+02	-1.740269000000000732e+00	3.925619999999999887e+00
2.262000000000000171e+02	-1.733424000000000298e+00	4.172480000000000189e+00
2.313000000000000114e+02	-1.698364000000000429e+00	4.408319999999999794e+00
2.370999999999999943e+02	-1.608803999999999901e+00	4.613120000000000331e+00
2.426000000000000227e+02	-1.440800999999999554e+00	4.821320000000000050e+00
2.490000000000000000e+02	-1.302188999999999597e+00	4.885419999999999874e+00
2.550999999999999943e+02	-1.042981000000000602e+00	4.909620000000000317e+00
2.616000000000000227e+02	-8.713810000000004052e-01	4.768620000000000303e+00
2.688999999999999773e+02	-6.797239999999997728e-01	4.837199999999999278e+00
2.761000000000000227e+02	-5.777160000000001183e-01	4.806319999999999482e+00
2.843999999999999773e+02	-5.641889999999998295e-01	4.735699999999999577e+00
2.923999999999999773e+02	-6.502889999999998949e-01	4.637719999999999843e+00
3.008999999999999773e+02	-8.590410000000006097e-01	4.701200000000000045e+00
3.106999999999999886e+02	-1.085041000000000588e+00	4.772039999999999615e+00
3.204000000000000341e+02	-1.274689000000000183e+00	4.921079999999999011e+00
3.315000000000000000e+02	-1.520440999999999487e+00	4.880279999999999951e+00
3.425000000000000000e+02	-1.624895999999999896e+00	5.070080000000000808e+00
3.541999999999999886e+02	-1.794155999999999418e+00	5.249839999999999840e+00
3.678999999999999773e+02	-2.051025000000000098e+00	5.372000000000000774e+00
3.815000000000000000e+02	-2.413124999999999076e+00	5.439700000000000202e+00
3.973999999999999773e+02	-2.735056000000000154e+00	5.586240000000000094e+00
4.133000000000000114e+02	-3.232448999999999906e+00	5.649919999999999831e+00
4.305000000000000000e+02	-3.750525000000000553e+00	5.762500000000000178e+00
4.509000000000000341e+02	-4.208008999999998778e+00	5.944559999999999178e+00
4.713999999999999773e+02	-4.602789000000000463e+00	6.207500000000000462e+00
4.959000000000000341e+02	-5.085696000000000438e+00	6.256160000000000387e+00
5.208999999999999773e+02	-5.409264000000000294e+00	6.154879999999999463e+00
5.486000000000000227e+02	-5.600528999999999868e+00	5.257080000000000197e+00
5.820999999999999091e+02	-6.821616000000000568e+00	3.785600000000000076e+00
6.168000000000000682e+02	-1.018202500000000121e+01	1.923000000000000043e+00
6.595000000000000000e+02	-1.399160900000000041e+01	1.648679999999999923e+00
7.045000000000000000e+02	-1.763792499999999919e+01	1.766100000000000003e+00
7.560000000000000000e+02	-2.170462500000000006e+01	2.239199999999999857e+00
8.211000000000000227e+02	-2.676479999999999748e+01	2.693599999999999994e+00
8.920000000000000000e+02	-3.317982399999999643e+01	3.460799999999999876e+00
9.840000000000000000e+02	-4.112684099999999887e+01	4.109440000000000204e+00
1.088000000000000000e+03	-5.195548899999999293e+01	5.196239999999999526e+00
1.216000000000000000e+03	-6.774962499999998045e+01	7.915199999999998681e+00
1.393000000000000000e+03	-8.873472100000000751e+01	1.132680000000000042e+01
1.610000000000000000e+03	-1.230767999999999773e+02	1.690240000000000009e+01
1.937000000000000000e+03	-1.791768000000000143e+02	2.927740000000000009e+01
