2.637999999999999545e+02	-1.141868700000000025e+01
2.651999999999999886e+02	-1.172933999999999877e+01
2.666000000000000227e+02	-1.200579699999999761e+01
2.681000000000000227e+02	-1.236479100000000031e+01
2.695000000000000000e+02	-1.271889299999999778e+01
2.710000000000000000e+02	-1.294954500000000408e+01
2.725000000000000000e+02	-1.320919599999999861e+01
2.740000000000000000e+02	-1.369844000000000150e+01
2.755000000000000000e+02	-1.400205599999999961e+01
2.771000000000000227e+02	-1.419415599999999777e+01
2.786000000000000227e+02	-1.420995200000000303e+01
2.801999999999999886e+02	-1.437897500000000228e+01
2.818000000000000114e+02	-1.438179600000000491e+01
2.833999999999999773e+02	-1.433876800000000351e+01
2.850000000000000000e+02	-1.436550000000000082e+01
2.866999999999999886e+02	-1.382018299999999655e+01
2.883000000000000114e+02	-1.324096800000000229e+01
2.900000000000000000e+02	-1.252791999999999639e+01
2.916999999999999886e+02	-1.163242699999999807e+01
2.935000000000000000e+02	-1.018645100000000170e+01
2.952000000000000455e+02	-8.334659999999995961e+00
2.970000000000000000e+02	-6.156240000000000379e+00
2.988000000000000114e+02	-3.815551999999996724e+00
3.005999999999999659e+02	-1.243755000000007271e+00
3.023999999999999773e+02	1.175639000000000323e+00
3.043000000000000114e+02	3.579967000000003452e+00
3.060999999999999659e+02	5.634015000000001550e+00
3.080000000000000000e+02	7.358040000000006131e+00
3.100000000000000000e+02	9.012000000000000455e+00
3.119000000000000341e+02	1.016557500000000225e+01
3.139000000000000341e+02	1.124956800000000001e+01
3.159000000000000341e+02	1.237415999999999983e+01
3.179000000000000341e+02	1.309848800000000502e+01
3.200000000000000000e+02	1.382327199999999578e+01
3.220000000000000000e+02	1.461023200000000344e+01
3.241000000000000227e+02	1.514301900000000067e+01
3.262999999999999545e+02	1.555092700000000150e+01
3.284000000000000341e+02	1.615652500000000202e+01
3.306000000000000227e+02	1.681565999999999761e+01
3.328000000000000114e+02	1.700225999999999971e+01
3.351000000000000227e+02	1.751817499999999939e+01
3.373999999999999773e+02	1.807689899999999739e+01
3.396999999999999886e+02	1.848003299999999527e+01
3.420000000000000000e+02	1.896091599999999744e+01
3.443999999999999773e+02	1.941825899999999905e+01
3.468000000000000114e+02	1.990211999999999648e+01
3.493000000000000114e+02	2.040631199999999978e+01
3.516999999999999886e+02	2.086446699999999765e+01
3.541999999999999886e+02	2.151396799999999487e+01
3.568000000000000114e+02	2.214055299999999349e+01
3.593999999999999773e+02	2.292197599999999369e+01
3.620000000000000000e+02	2.354244900000000129e+01
3.647000000000000455e+02	2.450711199999999934e+01
3.673999999999999773e+02	2.557901999999999987e+01
3.700999999999999659e+02	2.688006000000000029e+01
3.729000000000000341e+02	2.835475900000000138e+01
3.756999999999999886e+02	3.023736000000000246e+01
3.785999999999999659e+02	3.175272500000000164e+01
3.815000000000000000e+02	3.375266099999999625e+01
3.844000000000000341e+02	3.546175200000000416e+01
3.875000000000000000e+02	3.666844300000000345e+01
3.905000000000000000e+02	3.741784000000000532e+01
3.936000000000000227e+02	3.751507200000000353e+01
3.966999999999999886e+02	3.708200099999999821e+01
3.998999999999999773e+02	3.637248000000000303e+01
4.031999999999999886e+02	3.553003500000000514e+01
4.065000000000000000e+02	3.444086399999999770e+01
4.098999999999999773e+02	3.353786800000001023e+01
4.133000000000000114e+02	3.253206300000000795e+01
4.168000000000000114e+02	3.149108099999999766e+01
4.203000000000000114e+02	3.063240799999999808e+01
4.238999999999999773e+02	2.974593600000000393e+01
4.275000000000000000e+02	2.887503999999999849e+01
4.312000000000000455e+02	2.805862400000000534e+01
4.350000000000000000e+02	2.736879600000000323e+01
4.389000000000000341e+02	2.675181600000000159e+01
4.428000000000000114e+02	2.604809100000000299e+01
4.467999999999999545e+02	2.546331699999999998e+01
4.509000000000000341e+02	2.483520000000000394e+01
4.550000000000000000e+02	2.433862500000000395e+01
4.591999999999999886e+02	2.382283100000000431e+01
4.635000000000000000e+02	2.336256000000000199e+01
4.678999999999999773e+02	2.291320499999999782e+01
4.723000000000000114e+02	2.244883100000000198e+01
4.768999999999999773e+02	2.206571699999999936e+01
4.815000000000000000e+02	2.165625600000000262e+01
4.862000000000000455e+02	2.128698900000000194e+01
4.910000000000000000e+02	2.094924800000000431e+01
4.959000000000000341e+02	2.063128000000000029e+01
5.009000000000000341e+02	2.032452000000000325e+01
5.061000000000000227e+02	2.000164499999999634e+01
5.112999999999999545e+02	1.970883900000000466e+01
5.165999999999999091e+02	1.944413099999999872e+01
5.220000000000000000e+02	1.918115099999999984e+01
5.275999999999999091e+02	1.891088500000000394e+01
5.332999999999999545e+02	1.866863999999999990e+01
5.391000000000000227e+02	1.845393500000000131e+01
5.450000000000000000e+02	1.821430299999999747e+01
5.510000000000000000e+02	1.800175300000000433e+01
5.572000000000000455e+02	1.779043499999999867e+01
5.636000000000000227e+02	1.761378500000000003e+01
5.700000000000000000e+02	1.742143500000000245e+01
5.767000000000000455e+02	1.724687999999999732e+01
5.835000000000000000e+02	1.707284799999999692e+01
5.904000000000000909e+02	1.691628500000000201e+01
5.975000000000000000e+02	1.675466389000000333e+01
6.047999999999999545e+02	1.661011535999999822e+01
6.122999999999999545e+02	1.646950989000000121e+01
6.198999999999999773e+02	1.632942500000000408e+01
6.278000000000000682e+02	1.617625900000000172e+01
6.358000000000000682e+02	1.606867796000000581e+01
6.441000000000000227e+02	1.594228283999999896e+01
6.525000000000000000e+02	1.581633299999999842e+01
6.612000000000000455e+02	1.568140399999999879e+01
6.702000000000000455e+02	1.558574541000000124e+01
6.793999999999999773e+02	1.547385169000000005e+01
6.887999999999999545e+02	1.536625599999999814e+01
6.985000000000000000e+02	1.525983552000000110e+01
7.085000000000000000e+02	1.515846356000000128e+01
7.187000000000000455e+02	1.506050863999999834e+01
7.292999999999999545e+02	1.497680000000000078e+01
7.401999999999999318e+02	1.487410007999999983e+01
7.513999999999999773e+02	1.478552704000000162e+01
7.630000000000000000e+02	1.470030680999999895e+01
7.748999999999999773e+02	1.461526499999999906e+01
7.872000000000000455e+02	1.454047575000000059e+01
7.999000000000000909e+02	1.446504993000000105e+01
8.130000000000000000e+02	1.439289819000000037e+01
8.266000000000000227e+02	1.431864699999999857e+01
