 130.51000	   1.66610
 130.74000	   1.66970
 130.97000	   1.67320
 131.19000	   1.67650
 131.42000	   1.67950
 131.66000	   1.68240
 131.89000	   1.68500
 132.12000	   1.68740
 132.35000	   1.68950
 132.59000	   1.69150
 132.82000	   1.69320
 133.06000	   1.69460
 133.29000	   1.69580
 133.53000	   1.69680
 133.77000	   1.69760
 134.01000	   1.69810
 134.25000	   1.69840
 134.49000	   1.69840
 134.73000	   1.69820
 134.97000	   1.69780
 135.22000	   1.69710
 135.46000	   1.69630
 135.71000	   1.69520
 135.95000	   1.69390
 136.20000	   1.69240
 136.45000	   1.69080
 136.69000	   1.68900
 136.94000	   1.68700
 137.20000	   1.68480
 137.45000	   1.68250
 137.70000	   1.68010
 137.95000	   1.67760
 138.21000	   1.67500
 138.46000	   1.67220
 138.72000	   1.66950
 138.97000	   1.66660
 139.23000	   1.66380
 139.49000	   1.66090
 139.75000	   1.65800
 140.01000	   1.65520
 140.27000	   1.65240
 140.54000	   1.64970
 140.80000	   1.64700
 141.07000	   1.64440
 141.33000	   1.64200
 141.60000	   1.63970
 141.87000	   1.63750
 142.14000	   1.63550
 142.41000	   1.63370
 142.68000	   1.63220
 142.95000	   1.63080
 143.22000	   1.62970
 143.50000	   1.62890
 143.77000	   1.62840
 144.05000	   1.62810
 144.32000	   1.62820
 144.60000	   1.62860
 144.88000	   1.62930
 145.16000	   1.63050
 145.44000	   1.63190
 145.73000	   1.63380
 146.01000	   1.63600
 146.29000	   1.63870
 146.58000	   1.64180
 146.87000	   1.64520
 147.16000	   1.64910
 147.45000	   1.65340
 147.74000	   1.65820
 148.03000	   1.66330
 148.32000	   1.66890
 148.61000	   1.67490
 148.91000	   1.68130
 149.21000	   1.68800
 149.50000	   1.69510
 149.80000	   1.70250
 150.10000	   1.71020
 150.40000	   1.71820
 150.70000	   1.72640
 151.01000	   1.73470
 151.31000	   1.74310
 151.62000	   1.75160
 151.93000	   1.76000
 152.23000	   1.76820
 152.54000	   1.77620
 152.86000	   1.78390
 153.17000	   1.79110
 153.48000	   1.79780
 153.80000	   1.80380
 154.11000	   1.80910
 154.43000	   1.81350
 154.75000	   1.81690
 155.07000	   1.81930
 155.39000	   1.82070
 155.71000	   1.82100
 156.04000	   1.82020
 156.36000	   1.81830
 156.69000	   1.81550
 157.02000	   1.81180
 157.35000	   1.80750
 157.68000	   1.80250
 158.01000	   1.79710
 158.34000	   1.79150
 158.68000	   1.78590
 159.01000	   1.78040
 159.35000	   1.77510
 159.69000	   1.77030
 160.03000	   1.76610
 160.37000	   1.76240
 160.72000	   1.75950
 161.06000	   1.75740
 161.41000	   1.75610
 161.76000	   1.75560
 162.11000	   1.75590
 162.46000	   1.75710
 162.81000	   1.75900
 163.17000	   1.76160
 163.52000	   1.76500
 163.88000	   1.76900
 164.24000	   1.77360
 164.60000	   1.77880
 164.96000	   1.78440
 165.32000	   1.79040
 165.69000	   1.79690
 166.06000	   1.80360
 166.42000	   1.81050
 166.79000	   1.81770
 167.17000	   1.82500
 167.54000	   1.83230
 167.91000	   1.83970
 168.29000	   1.84710
 168.67000	   1.85430
 169.05000	   1.86150
 169.43000	   1.86850
 169.82000	   1.87520
 170.20000	   1.88170
 170.59000	   1.88780
 170.98000	   1.89360
 171.37000	   1.89900
 171.76000	   1.90390
 172.15000	   1.90840
 172.55000	   1.91230
 172.95000	   1.91560
 173.35000	   1.91840
 173.75000	   1.92050
 174.15000	   1.92190
 174.56000	   1.92270
 174.97000	   1.92270
 175.38000	   1.92190
 175.79000	   1.92040
 176.20000	   1.91810
 176.61000	   1.91490
 177.03000	   1.91090
 177.45000	   1.90610
 177.87000	   1.90040
 178.29000	   1.89380
 178.72000	   1.88630
 179.15000	   1.87800
 179.58000	   1.86880
 180.01000	   1.85880
 180.44000	   1.84790
 180.87000	   1.83620
 181.31000	   1.82370
 181.75000	   1.81040
 182.19000	   1.79640
 182.64000	   1.78160
 183.08000	   1.76610
 183.53000	   1.75000
 183.98000	   1.73320
 184.43000	   1.71590
 184.89000	   1.69800
 185.34000	   1.67970
 185.80000	   1.66080
 186.27000	   1.64160
 186.73000	   1.62200
 187.20000	   1.60210
 187.66000	   1.58190
 188.13000	   1.56150
 188.61000	   1.54090
 189.08000	   1.52020
 189.56000	   1.49940
 190.04000	   1.47850
 190.52000	   1.45750
 191.01000	   1.43660
 191.50000	   1.41580
 191.99000	   1.39500
 192.48000	   1.37430
 192.98000	   1.35380
 193.47000	   1.33350
 193.97000	   1.31330
 194.48000	   1.29330
 194.98000	   1.27360
 195.49000	   1.25410
 196.00000	   1.23490
 196.52000	   1.21600
 197.03000	   1.19740
 197.55000	   1.17900
 198.07000	   1.16100
 198.60000	   1.14330
 199.12000	   1.12590
 199.66000	   1.10890
 200.19000	   1.09210
 200.72000	   1.07580
 201.26000	   1.05970
 201.80000	   1.04400
 202.35000	   1.02870
 202.90000	   1.01360
 203.45000	   0.99896
 204.00000	   0.98461
 204.56000	   0.97058
 205.12000	   0.95689
 205.68000	   0.94351
 206.24000	   0.93045
 206.81000	   0.91771
 207.38000	   0.90528
 207.96000	   0.89315
 208.54000	   0.88131
 209.12000	   0.86977
 209.70000	   0.85852
 210.29000	   0.84754
 210.88000	   0.83685
 211.48000	   0.82642
 212.08000	   0.81625
 212.68000	   0.80634
 213.28000	   0.79668
 213.89000	   0.78727
 214.50000	   0.77809
 215.12000	   0.76915
 215.74000	   0.76043
 216.36000	   0.75194
 216.99000	   0.74366
 217.62000	   0.73559
 218.25000	   0.72773
 218.89000	   0.72006
 219.53000	   0.71259
 220.17000	   0.70531
 220.82000	   0.69821
 221.47000	   0.69129
 222.13000	   0.68454
 222.79000	   0.67796
 223.45000	   0.67154
 224.12000	   0.66528
 224.79000	   0.65918
 225.47000	   0.65323
 226.15000	   0.64742
 226.83000	   0.64176
 227.52000	   0.63623
 228.21000	   0.63083
 228.91000	   0.62557
 229.61000	   0.62043
 230.31000	   0.61542
 231.02000	   0.61052
 231.74000	   0.60574
 232.46000	   0.60106
 233.18000	   0.59650
 233.91000	   0.59205
 234.64000	   0.58769
 235.37000	   0.58343
 236.12000	   0.57927
 236.86000	   0.57521
 237.61000	   0.57123
 238.37000	   0.56734
 239.13000	   0.56353
 239.89000	   0.55981
 240.66000	   0.55616
 241.44000	   0.55260
 242.22000	   0.54910
 243.00000	   0.54568
 243.79000	   0.54233
 244.59000	   0.53904
 245.39000	   0.53582
 246.19000	   0.53267
 247.00000	   0.52957
 247.82000	   0.52653
 248.64000	   0.52355
 249.47000	   0.52062
 250.30000	   0.51775
 251.14000	   0.51492
 251.98000	   0.51215
 252.83000	   0.50942
 253.69000	   0.50673
 254.55000	   0.50409
 255.42000	   0.50149
 256.29000	   0.49893
 257.17000	   0.49641
 258.05000	   0.49392
 258.94000	   0.49147
 259.84000	   0.48905
 260.74000	   0.48666
 261.65000	   0.48430
 262.57000	   0.48197
 263.49000	   0.47967
 264.42000	   0.47739
 265.36000	   0.47513
 266.30000	   0.47289
 267.25000	   0.47068
 268.20000	   0.46848
 269.17000	   0.46630
 270.14000	   0.46413
 271.11000	   0.46198
 272.10000	   0.45984
 273.09000	   0.45771
 274.09000	   0.45560
 275.09000	   0.45348
 276.10000	   0.45138
 277.12000	   0.44928
 278.15000	   0.44718
 279.19000	   0.44509
 280.23000	   0.44299
 281.28000	   0.44090
 282.34000	   0.43880
 283.41000	   0.43669
 284.48000	   0.43458
 285.57000	   0.43246
 286.66000	   0.43033
 287.76000	   0.42819
 288.87000	   0.42604
 289.98000	   0.42387
 291.11000	   0.42169
 292.24000	   0.41948
 293.39000	   0.41726
 294.54000	   0.41502
 295.70000	   0.41275
 296.87000	   0.41045
 298.05000	   0.40813
 299.24000	   0.40577
 300.44000	   0.40338
 301.65000	   0.40096
 302.87000	   0.39850
 304.09000	   0.39601
 305.33000	   0.39347
 306.58000	   0.39088
 307.84000	   0.38825
 309.11000	   0.38557
 310.39000	   0.38284
 311.68000	   0.38006
 312.98000	   0.37721
 314.29000	   0.37431
 315.61000	   0.37134
 316.95000	   0.36831
 318.29000	   0.36521
 319.65000	   0.36203
 321.02000	   0.35878
 322.40000	   0.35545
 323.79000	   0.35204
 325.19000	   0.34854
 326.61000	   0.34495
 328.04000	   0.34128
 329.48000	   0.33750
 330.93000	   0.33364
 332.40000	   0.32968
 333.88000	   0.32562
 335.37000	   0.32146
 336.88000	   0.31721
 338.40000	   0.31288
 339.93000	   0.30847
 341.48000	   0.30400
 343.04000	   0.29949
 344.62000	   0.29498
 346.21000	   0.29052
 347.82000	   0.28618
 349.44000	   0.28208
 351.07000	   0.27838
 352.73000	   0.27533
 354.39000	   0.27330
 356.08000	   0.27287
 357.77000	   0.27487
 359.49000	   0.28051
 361.22000	   0.29135
 362.97000	   0.30862
 364.73000	   0.33112
 366.52000	   0.35132
 368.32000	   0.35496
 370.14000	   0.33280
 371.97000	   0.29297
 373.83000	   0.25123
 375.70000	   0.21649
 377.59000	   0.19015
 379.50000	   0.17070
 381.43000	   0.15626
 383.38000	   0.14536
 385.35000	   0.13694
 387.34000	   0.13029
 389.35000	   0.12491
 391.38000	   0.12049
 393.44000	   0.11677
 395.51000	   0.11360
 397.61000	   0.11085
 399.73000	   0.10844
 401.87000	   0.10629
 404.04000	   0.10436
 406.23000	   0.10262
 408.44000	   0.10102
 410.67000	   0.09955
 412.94000	   0.09818
 415.22000	   0.09690
 417.53000	   0.09570
 419.87000	   0.09458
 422.24000	   0.09351
 424.63000	   0.09249
 427.04000	   0.09151
 429.49000	   0.09058
 431.96000	   0.08969
 434.47000	   0.08883
 437.00000	   0.08800
 439.56000	   0.08720
 442.15000	   0.08642
 444.77000	   0.08567
 447.43000	   0.08493
 450.11000	   0.08422
 452.83000	   0.08352
 455.58000	   0.08284
 458.37000	   0.08218
 461.19000	   0.08153
 464.04000	   0.08090
 466.93000	   0.08027
 469.85000	   0.07967
 472.82000	   0.07907
 475.82000	   0.07848
 478.86000	   0.07791
 481.93000	   0.07734
 485.05000	   0.07678
 488.21000	   0.07624
 491.41000	   0.07570
 494.65000	   0.07517
 497.93000	   0.07465
 501.26000	   0.07413
 504.63000	   0.07362
 508.05000	   0.07312
 511.52000	   0.07263
 515.03000	   0.07214
 518.59000	   0.07166
 522.20000	   0.07119
 525.87000	   0.07072
 529.58000	   0.07026
 533.35000	   0.06980
 537.17000	   0.06935
 541.04000	   0.06891
 544.97000	   0.06847
 548.96000	   0.06803
 553.01000	   0.06760
 557.12000	   0.06718
 561.29000	   0.06676
 565.52000	   0.06634
 569.82000	   0.06593
 574.18000	   0.06553
 578.61000	   0.06512
 583.11000	   0.06473
 587.68000	   0.06433
 592.32000	   0.06394
 597.04000	   0.06356
 601.83000	   0.06317
 606.70000	   0.06280
 611.65000	   0.06242
 616.68000	   0.06205
 621.79000	   0.06169
 626.99000	   0.06132
 632.28000	   0.06096
 637.65000	   0.06061
 643.12000	   0.06025
 648.68000	   0.05990
 654.34000	   0.05956
 660.10000	   0.05921
 665.96000	   0.05887
 671.93000	   0.05854
 678.01000	   0.05820
 684.19000	   0.05787
 690.49000	   0.05754
 696.91000	   0.05722
 703.45000	   0.05690
 710.11000	   0.05658
 716.90000	   0.05626
 723.82000	   0.05595
 730.87000	   0.05564
 738.06000	   0.05533
 745.40000	   0.05502
 752.88000	   0.05472
 760.52000	   0.05442
 768.31000	   0.05412
 776.26000	   0.05383
 784.38000	   0.05353
 792.67000	   0.05324
 801.14000	   0.05295
 809.79000	   0.05267
 818.63000	   0.05238
 827.67000	   0.05210
 836.90000	   0.05182
 846.35000	   0.05155
 856.01000	   0.05127
 865.89000	   0.05100
 876.01000	   0.05073
 886.36000	   0.05046
 896.96000	   0.05020
 907.82000	   0.04993
 918.95000	   0.04967
 930.35000	   0.04941
 942.03000	   0.04915
 954.02000	   0.04890
 966.31000	   0.04864
 978.93000	   0.04839
 991.87000	   0.04814
