2.0664e-01	2.0586e+00
2.0695e-01	2.0476e+00
2.0726e-01	2.0364e+00
2.0758e-01	2.0251e+00
2.0789e-01	2.0136e+00
2.0820e-01	2.0020e+00
2.0852e-01	1.9903e+00
2.0884e-01	1.9785e+00
2.0916e-01	1.9666e+00
2.0947e-01	1.9546e+00
2.0979e-01	1.9426e+00
2.1011e-01	1.9305e+00
2.1044e-01	1.9184e+00
2.1076e-01	1.9063e+00
2.1108e-01	1.8941e+00
2.1141e-01	1.8820e+00
2.1173e-01	1.8699e+00
2.1206e-01	1.8578e+00
2.1239e-01	1.8458e+00
2.1271e-01	1.8338e+00
2.1304e-01	1.8219e+00
2.1338e-01	1.8100e+00
2.1371e-01	1.7983e+00
2.1404e-01	1.7866e+00
2.1437e-01	1.7751e+00
2.1471e-01	1.7636e+00
2.1504e-01	1.7523e+00
2.1538e-01	1.7411e+00
2.1572e-01	1.7301e+00
2.1606e-01	1.7192e+00
2.1640e-01	1.7085e+00
2.1674e-01	1.6980e+00
2.1708e-01	1.6876e+00
2.1742e-01	1.6774e+00
2.1777e-01	1.6674e+00
2.1811e-01	1.6575e+00
2.1846e-01	1.6479e+00
2.1881e-01	1.6385e+00
2.1916e-01	1.6293e+00
2.1951e-01	1.6202e+00
2.1986e-01	1.6114e+00
2.2021e-01	1.6029e+00
2.2056e-01	1.5945e+00
2.2092e-01	1.5864e+00
2.2127e-01	1.5785e+00
2.2163e-01	1.5708e+00
2.2199e-01	1.5633e+00
2.2235e-01	1.5561e+00
2.2271e-01	1.5491e+00
2.2307e-01	1.5424e+00
2.2343e-01	1.5359e+00
2.2379e-01	1.5296e+00
2.2416e-01	1.5236e+00
2.2453e-01	1.5178e+00
2.2489e-01	1.5122e+00
2.2526e-01	1.5069e+00
2.2563e-01	1.5019e+00
2.2600e-01	1.4970e+00
2.2637e-01	1.4925e+00
2.2675e-01	1.4881e+00
2.2712e-01	1.4840e+00
2.2750e-01	1.4801e+00
2.2788e-01	1.4765e+00
2.2825e-01	1.4731e+00
2.2863e-01	1.4700e+00
2.2901e-01	1.4670e+00
2.2940e-01	1.4644e+00
2.2978e-01	1.4619e+00
2.3016e-01	1.4597e+00
2.3055e-01	1.4577e+00
2.3094e-01	1.4560e+00
2.3133e-01	1.4544e+00
2.3172e-01	1.4531e+00
2.3211e-01	1.4521e+00
2.3250e-01	1.4512e+00
2.3289e-01	1.4506e+00
2.3329e-01	1.4502e+00
2.3369e-01	1.4500e+00
2.3408e-01	1.4500e+00
2.3448e-01	1.4502e+00
2.3488e-01	1.4507e+00
2.3528e-01	1.4513e+00
2.3569e-01	1.4522e+00
2.3609e-01	1.4532e+00
2.3650e-01	1.4545e+00
2.3691e-01	1.4560e+00
2.3732e-01	1.4577e+00
2.3773e-01	1.4595e+00
2.3814e-01	1.4616e+00
2.3855e-01	1.4638e+00
2.3897e-01	1.4663e+00
2.3938e-01	1.4689e+00
2.3980e-01	1.4717e+00
2.4022e-01	1.4747e+00
2.4064e-01	1.4778e+00
2.4106e-01	1.4812e+00
2.4148e-01	1.4847e+00
2.4191e-01	1.4883e+00
2.4233e-01	1.4922e+00
2.4276e-01	1.4962e+00
2.4319e-01	1.5003e+00
2.4362e-01	1.5046e+00
2.4406e-01	1.5091e+00
2.4449e-01	1.5137e+00
2.4493e-01	1.5184e+00
2.4536e-01	1.5233e+00
2.4580e-01	1.5283e+00
2.4624e-01	1.5335e+00
2.4668e-01	1.5388e+00
2.4713e-01	1.5442e+00
2.4757e-01	1.5497e+00
2.4802e-01	1.5554e+00
2.4847e-01	1.5612e+00
2.4892e-01	1.5670e+00
2.4937e-01	1.5730e+00
2.4982e-01	1.5791e+00
2.5028e-01	1.5852e+00
2.5073e-01	1.5915e+00
2.5119e-01	1.5978e+00
2.5165e-01	1.6043e+00
2.5211e-01	1.6108e+00
2.5257e-01	1.6173e+00
2.5304e-01	1.6240e+00
2.5351e-01	1.6307e+00
2.5397e-01	1.6374e+00
2.5444e-01	1.6442e+00
2.5492e-01	1.6511e+00
2.5539e-01	1.6579e+00
2.5586e-01	1.6648e+00
2.5634e-01	1.6718e+00
2.5682e-01	1.6787e+00
2.5730e-01	1.6857e+00
2.5778e-01	1.6926e+00
2.5827e-01	1.6996e+00
2.5875e-01	1.7065e+00
2.5924e-01	1.7134e+00
2.5973e-01	1.7203e+00
2.6022e-01	1.7272e+00
2.6072e-01	1.7340e+00
2.6121e-01	1.7408e+00
2.6171e-01	1.7475e+00
2.6221e-01	1.7541e+00
2.6271e-01	1.7606e+00
2.6321e-01	1.7671e+00
2.6372e-01	1.7734e+00
2.6422e-01	1.7797e+00
2.6473e-01	1.7858e+00
2.6524e-01	1.7918e+00
2.6576e-01	1.7976e+00
2.6627e-01	1.8033e+00
2.6679e-01	1.8088e+00
2.6731e-01	1.8141e+00
2.6783e-01	1.8193e+00
2.6835e-01	1.8242e+00
2.6887e-01	1.8289e+00
2.6940e-01	1.8334e+00
2.6993e-01	1.8376e+00
2.7046e-01	1.8415e+00
2.7099e-01	1.8452e+00
2.7153e-01	1.8486e+00
2.7207e-01	1.8517e+00
2.7261e-01	1.8544e+00
2.7315e-01	1.8569e+00
2.7369e-01	1.8589e+00
2.7424e-01	1.8606e+00
2.7479e-01	1.8620e+00
2.7534e-01	1.8629e+00
2.7589e-01	1.8635e+00
2.7644e-01	1.8636e+00
2.7700e-01	1.8633e+00
2.7756e-01	1.8625e+00
2.7812e-01	1.8613e+00
2.7869e-01	1.8596e+00
2.7925e-01	1.8575e+00
2.7982e-01	1.8549e+00
2.8039e-01	1.8518e+00
2.8096e-01	1.8481e+00
2.8154e-01	1.8440e+00
2.8212e-01	1.8394e+00
2.8270e-01	1.8343e+00
2.8328e-01	1.8286e+00
2.8386e-01	1.8225e+00
2.8445e-01	1.8158e+00
2.8504e-01	1.8086e+00
2.8563e-01	1.8009e+00
2.8623e-01	1.7927e+00
2.8682e-01	1.7841e+00
2.8742e-01	1.7749e+00
2.8803e-01	1.7653e+00
2.8863e-01	1.7552e+00
2.8924e-01	1.7447e+00
2.8985e-01	1.7337e+00
2.9046e-01	1.7223e+00
2.9108e-01	1.7105e+00
2.9169e-01	1.6983e+00
2.9231e-01	1.6858e+00
2.9294e-01	1.6729e+00
2.9356e-01	1.6597e+00
2.9419e-01	1.6462e+00
2.9482e-01	1.6325e+00
2.9545e-01	1.6184e+00
2.9609e-01	1.6041e+00
2.9673e-01	1.5897e+00
2.9737e-01	1.5750e+00
2.9802e-01	1.5601e+00
2.9866e-01	1.5451e+00
2.9931e-01	1.5300e+00
2.9997e-01	1.5148e+00
3.0062e-01	1.4995e+00
3.0128e-01	1.4842e+00
3.0194e-01	1.4688e+00
3.0261e-01	1.4534e+00
3.0328e-01	1.4380e+00
3.0395e-01	1.4226e+00
3.0462e-01	1.4072e+00
3.0530e-01	1.3919e+00
3.0597e-01	1.3767e+00
3.0666e-01	1.3615e+00
3.0734e-01	1.3464e+00
3.0803e-01	1.3315e+00
3.0872e-01	1.3166e+00
3.0942e-01	1.3019e+00
3.1012e-01	1.2873e+00
3.1082e-01	1.2729e+00
3.1152e-01	1.2586e+00
3.1223e-01	1.2445e+00
3.1294e-01	1.2306e+00
3.1365e-01	1.2168e+00
3.1437e-01	1.2032e+00
3.1509e-01	1.1898e+00
3.1581e-01	1.1766e+00
3.1654e-01	1.1636e+00
3.1727e-01	1.1508e+00
3.1801e-01	1.1382e+00
3.1874e-01	1.1258e+00
3.1948e-01	1.1136e+00
3.2023e-01	1.1015e+00
3.2098e-01	1.0897e+00
3.2173e-01	1.0781e+00
3.2248e-01	1.0667e+00
3.2324e-01	1.0555e+00
3.2400e-01	1.0446e+00
3.2477e-01	1.0338e+00
3.2554e-01	1.0232e+00
3.2631e-01	1.0128e+00
3.2708e-01	1.0026e+00
3.2786e-01	9.9256e-01
3.2865e-01	9.8274e-01
3.2944e-01	9.7311e-01
3.3023e-01	9.6367e-01
3.3102e-01	9.5442e-01
3.3182e-01	9.4535e-01
3.3262e-01	9.3645e-01
3.3343e-01	9.2774e-01
3.3424e-01	9.1919e-01
3.3506e-01	9.1082e-01
3.3587e-01	9.0261e-01
3.3670e-01	8.9458e-01
3.3752e-01	8.8670e-01
3.3835e-01	8.7898e-01
3.3919e-01	8.7142e-01
3.4003e-01	8.6401e-01
3.4087e-01	8.5675e-01
3.4172e-01	8.4964e-01
3.4257e-01	8.4268e-01
3.4343e-01	8.3585e-01
3.4429e-01	8.2917e-01
3.4515e-01	8.2262e-01
3.4602e-01	8.1621e-01
3.4689e-01	8.0992e-01
3.4777e-01	8.0377e-01
3.4865e-01	7.9774e-01
3.4954e-01	7.9183e-01
3.5043e-01	7.8604e-01
3.5132e-01	7.8037e-01
3.5222e-01	7.7481e-01
3.5313e-01	7.6937e-01
3.5404e-01	7.6404e-01
3.5495e-01	7.5881e-01
3.5587e-01	7.5369e-01
3.5679e-01	7.4868e-01
3.5772e-01	7.4376e-01
3.5866e-01	7.3894e-01
3.5959e-01	7.3422e-01
3.6054e-01	7.2959e-01
3.6148e-01	7.2506e-01
3.6244e-01	7.2061e-01
3.6340e-01	7.1626e-01
3.6436e-01	7.1198e-01
3.6533e-01	7.0780e-01
3.6630e-01	7.0369e-01
3.6728e-01	6.9967e-01
3.6826e-01	6.9572e-01
3.6925e-01	6.9185e-01
3.7025e-01	6.8806e-01
3.7125e-01	6.8434e-01
3.7225e-01	6.8069e-01
3.7326e-01	6.7711e-01
3.7428e-01	6.7360e-01
3.7530e-01	6.7016e-01
3.7633e-01	6.6678e-01
3.7736e-01	6.6347e-01
3.7840e-01	6.6022e-01
3.7944e-01	6.5702e-01
3.8049e-01	6.5389e-01
3.8155e-01	6.5082e-01
3.8261e-01	6.4780e-01
3.8368e-01	6.4484e-01
3.8475e-01	6.4194e-01
3.8583e-01	6.3908e-01
3.8692e-01	6.3628e-01
3.8801e-01	6.3353e-01
3.8911e-01	6.3082e-01
3.9021e-01	6.2817e-01
3.9132e-01	6.2556e-01
3.9244e-01	6.2300e-01
3.9356e-01	6.2048e-01
3.9469e-01	6.1801e-01
3.9583e-01	6.1557e-01
3.9697e-01	6.1318e-01
3.9812e-01	6.1083e-01
3.9928e-01	6.0852e-01
4.0044e-01	6.0625e-01
4.0161e-01	6.0401e-01
4.0279e-01	6.0181e-01
4.0397e-01	5.9964e-01
4.0516e-01	5.9751e-01
4.0636e-01	5.9541e-01
4.0756e-01	5.9335e-01
4.0878e-01	5.9131e-01
4.0999e-01	5.8931e-01
4.1122e-01	5.8734e-01
4.1245e-01	5.8539e-01
4.1370e-01	5.8347e-01
4.1494e-01	5.8158e-01
4.1620e-01	5.7972e-01
4.1746e-01	5.7788e-01
4.1874e-01	5.7606e-01
4.2001e-01	5.7427e-01
4.2130e-01	5.7250e-01
4.2260e-01	5.7076e-01
4.2390e-01	5.6903e-01
4.2521e-01	5.6733e-01
4.2653e-01	5.6564e-01
4.2786e-01	5.6397e-01
4.2919e-01	5.6232e-01
4.3054e-01	5.6069e-01
4.3189e-01	5.5908e-01
4.3325e-01	5.5748e-01
4.3462e-01	5.5589e-01
4.3600e-01	5.5432e-01
4.3739e-01	5.5276e-01
4.3878e-01	5.5121e-01
4.4019e-01	5.4968e-01
4.4160e-01	5.4816e-01
4.4302e-01	5.4664e-01
4.4445e-01	5.4514e-01
4.4590e-01	5.4364e-01
4.4735e-01	5.4216e-01
4.4881e-01	5.4067e-01
4.5028e-01	5.3920e-01
4.5176e-01	5.3773e-01
4.5325e-01	5.3626e-01
4.5475e-01	5.3480e-01
4.5625e-01	5.3334e-01
4.5777e-01	5.3189e-01
4.5930e-01	5.3043e-01
4.6084e-01	5.2897e-01
4.6239e-01	5.2752e-01
4.6395e-01	5.2606e-01
4.6552e-01	5.2460e-01
4.6711e-01	5.2314e-01
4.6870e-01	5.2167e-01
4.7030e-01	5.2020e-01
4.7192e-01	5.1872e-01
4.7354e-01	5.1723e-01
4.7518e-01	5.1574e-01
4.7683e-01	5.1424e-01
4.7848e-01	5.1273e-01
4.8016e-01	5.1120e-01
4.8184e-01	5.0967e-01
4.8353e-01	5.0812e-01
4.8524e-01	5.0656e-01
4.8696e-01	5.0498e-01
4.8869e-01	5.0339e-01
4.9043e-01	5.0177e-01
4.9219e-01	5.0014e-01
4.9396e-01	4.9849e-01
4.9574e-01	4.9682e-01
4.9753e-01	4.9513e-01
4.9934e-01	4.9341e-01
5.0116e-01	4.9167e-01
5.0299e-01	4.8990e-01
5.0484e-01	4.8810e-01
5.0670e-01	4.8627e-01
5.0857e-01	4.8441e-01
5.1046e-01	4.8252e-01
5.1237e-01	4.8060e-01
5.1428e-01	4.7864e-01
5.1621e-01	4.7664e-01
5.1816e-01	4.7460e-01
5.2012e-01	4.7253e-01
5.2209e-01	4.7041e-01
5.2408e-01	4.6825e-01
5.2609e-01	4.6604e-01
5.2811e-01	4.6379e-01
5.3015e-01	4.6149e-01
5.3220e-01	4.5915e-01
5.3427e-01	4.5676e-01
5.3635e-01	4.5432e-01
5.3845e-01	4.5183e-01
5.4057e-01	4.4930e-01
5.4270e-01	4.4673e-01
5.4485e-01	4.4413e-01
5.4702e-01	4.4150e-01
5.4921e-01	4.3887e-01
5.5141e-01	4.3625e-01
5.5363e-01	4.3368e-01
5.5587e-01	4.3121e-01
5.5812e-01	4.2891e-01
5.6040e-01	4.2691e-01
5.6269e-01	4.2538e-01
5.6501e-01	4.2459e-01
5.6734e-01	4.2497e-01
5.6969e-01	4.2707e-01
5.7206e-01	4.3148e-01
5.7445e-01	4.3814e-01
5.7686e-01	4.4492e-01
5.7929e-01	4.4667e-01
5.8174e-01	4.3841e-01
5.8421e-01	4.2207e-01
5.8671e-01	4.0462e-01
5.8922e-01	3.9023e-01
5.9176e-01	3.7937e-01
5.9431e-01	3.7120e-01
5.9689e-01	3.6483e-01
5.9950e-01	3.5965e-01
6.0212e-01	3.5523e-01
6.0477e-01	3.5131e-01
6.0744e-01	3.4770e-01
6.1014e-01	3.4430e-01
6.1286e-01	3.4102e-01
6.1560e-01	3.3781e-01
6.1837e-01	3.3462e-01
6.2117e-01	3.3143e-01
6.2398e-01	3.2821e-01
6.2683e-01	3.2495e-01
6.2970e-01	3.2162e-01
6.3260e-01	3.1822e-01
6.3552e-01	3.1474e-01
6.3847e-01	3.1116e-01
6.4145e-01	3.0747e-01
6.4446e-01	3.0368e-01
6.4749e-01	2.9976e-01
6.5056e-01	2.9573e-01
6.5365e-01	2.9156e-01
6.5677e-01	2.8726e-01
6.5993e-01	2.8283e-01
6.6311e-01	2.7827e-01
6.6632e-01	2.7358e-01
6.6957e-01	2.6879e-01
6.7285e-01	2.6391e-01
6.7615e-01	2.5898e-01
6.7950e-01	2.5408e-01
6.8287e-01	2.4931e-01
6.8628e-01	2.4484e-01
6.8972e-01	2.4094e-01
6.9320e-01	2.3805e-01
6.9671e-01	2.3685e-01
7.0026e-01	2.3842e-01
7.0385e-01	2.4413e-01
7.0747e-01	2.5511e-01
7.1113e-01	2.6997e-01
7.1483e-01	2.8148e-01
7.1856e-01	2.7775e-01
7.2234e-01	2.5427e-01
7.2615e-01	2.2160e-01
7.3001e-01	1.9178e-01
7.3390e-01	1.6893e-01
7.3784e-01	1.5236e-01
7.4182e-01	1.4038e-01
7.4585e-01	1.3155e-01
7.4992e-01	1.2486e-01
7.5403e-01	1.1966e-01
7.5819e-01	1.1550e-01
7.6239e-01	1.1211e-01
7.6664e-01	1.0927e-01
7.7094e-01	1.0685e-01
7.7529e-01	1.0476e-01
7.7969e-01	1.0292e-01
7.8413e-01	1.0128e-01
7.8863e-01	9.9807e-02
7.9318e-01	9.8465e-02
7.9778e-01	9.7231e-02
8.0244e-01	9.6089e-02
8.0715e-01	9.5025e-02
8.1192e-01	9.4025e-02
8.1674e-01	9.3083e-02
8.2162e-01	9.2189e-02
8.2656e-01	9.1337e-02
