8.826510000000000744e-01	4.098655109461000253e-04
8.858019999999999783e-01	4.137620870401199848e-04
8.889489999999999892e-01	4.175647961277600051e-04
8.921480000000000521e-01	4.200298060622399991e-04
8.953849999999999865e-01	4.231624868354400015e-04
8.986140000000000239e-01	4.268771154862799756e-04
9.018559999999999910e-01	4.294880161679999952e-04
9.051839999999999886e-01	4.325906055897600373e-04
9.084790000000000365e-01	4.360888944884799790e-04
9.117920000000000469e-01	4.430345913091199685e-04
9.151679999999999815e-01	4.471474163654200131e-04
9.185670000000000224e-01	4.509321509730800375e-04
9.219479999999999897e-01	4.551027510876000273e-04
9.254060000000000619e-01	4.593634045403400417e-04
9.288330000000000197e-01	4.629202422301199882e-04
9.323619999999999131e-01	4.666029495669599906e-04
9.358460000000000667e-01	4.701295622692800292e-04
9.394040000000000168e-01	4.752037886996400454e-04
9.429850000000000732e-01	4.797042672814199921e-04
9.465459999999999985e-01	4.848626636247999901e-04
9.502039999999999376e-01	4.887213445785600335e-04
9.538510000000000044e-01	4.940295528005199822e-04
9.574979999999999603e-01	4.995877952265599621e-04
9.612319999999999753e-01	5.052440711445599321e-04
9.649990000000000512e-01	5.113683122802800858e-04
9.687419999999999920e-01	5.171647495967000028e-04
9.724909999999999943e-01	5.230611705400400012e-04
9.763290000000000024e-01	5.297875458361199974e-04
9.802039999999999642e-01	5.358623719864800440e-04
9.841089999999999005e-01	5.405414465175999812e-04
9.880039999999999933e-01	5.463200437890000823e-04
9.919769999999999976e-01	5.528185438089600534e-04
9.959590000000000387e-01	5.601530597054398940e-04
9.999500000000001165e-01	5.676720048716799591e-04
1.003999000000000086e+00	5.737138107368000691e-04
1.008075000000000054e+00	5.761960746671998968e-04
1.012166000000000121e+00	5.818089032566599620e-04
1.016320000000000112e+00	5.892774391409599539e-04
1.020558000000000076e+00	6.000782512816800170e-04
1.024755000000000082e+00	6.060133968516000572e-04
1.028966000000000047e+00	6.082292778665399514e-04
1.033271000000000051e+00	6.107358381123399998e-04
1.035436999999999941e+00	5.968242374905600176e-04
1.035848000000000102e+00	6.006181564454400731e-04
1.036238999999999910e+00	6.058179320248000335e-04
1.036700999999999873e+00	5.941799766683199127e-04
1.037115999999999927e+00	6.040877738168000301e-04
1.037584000000000062e+00	6.093883159710000025e-04
1.037979999999999903e+00	6.006508513999999710e-04
1.038417999999999841e+00	6.028853736679200097e-04
1.038847000000000076e+00	6.001173327319999935e-04
1.039233000000000073e+00	6.034556131243200066e-04
1.039720999999999895e+00	6.052227430118400833e-04
1.040111000000000008e+00	6.085780273279200103e-04
1.040602000000000027e+00	6.063683983035000240e-04
1.040982999999999992e+00	6.078070912823999635e-04
1.041449999999999987e+00	6.109288103482200067e-04
1.041842000000000157e+00	6.243846663347200031e-04
1.042242000000000113e+00	6.165263556300200603e-04
1.042738000000000165e+00	6.176034287279999219e-04
1.043124000000000162e+00	6.170929160474999736e-04
1.043619999999999992e+00	6.230570425270400437e-04
1.044002000000000097e+00	6.241409970330000223e-04
1.044463000000000141e+00	6.273859757700000084e-04
1.044860000000000122e+00	6.341095677462000929e-04
1.045307999999999904e+00	6.280559225111800523e-04
1.045743000000000089e+00	6.308022656600800575e-04
1.046148000000000078e+00	6.370353374005600618e-04
1.046634000000000064e+00	6.359825637305400016e-04
1.047020000000000062e+00	6.396722979328000507e-04
1.047497000000000122e+00	6.386698645168799792e-04
1.047892999999999963e+00	6.366485178762000064e-04
1.048373999999999917e+00	6.396703335842399358e-04
1.048785000000000078e+00	6.370557619897199977e-04
1.049193999999999960e+00	6.350219558207400921e-04
1.049695000000000045e+00	6.370028890872000320e-04
1.050070999999999977e+00	6.417024618815998782e-04
1.050562999999999914e+00	6.398363987450400971e-04
1.050986999999999894e+00	6.383035123177398847e-04
1.051464999999999872e+00	6.340784334058400216e-04
1.051873000000000058e+00	6.366058977124000162e-04
1.052331000000000127e+00	6.347936320083799079e-04
1.052757000000000165e+00	6.270092809088000053e-04
1.053151999999999866e+00	6.271641895280001067e-04
1.053642999999999885e+00	6.274200208887599668e-04
1.054047999999999874e+00	6.257407531981999454e-04
1.054543999999999926e+00	6.211059294006400500e-04
1.054945000000000022e+00	6.161265838837999683e-04
1.055455000000000032e+00	6.104585170555200651e-04
1.055855999999999906e+00	6.048333650338400024e-04
1.056308000000000025e+00	6.124000774308799907e-04
1.056748000000000021e+00	6.038332217413000351e-04
1.057161999999999935e+00	6.048845228711999819e-04
1.057644000000000029e+00	6.045283885941000503e-04
1.058038999999999952e+00	6.063403752650000896e-04
1.058529999999999971e+00	6.027186391680000197e-04
1.058949999999999836e+00	6.072208395988800073e-04
1.059441999999999995e+00	6.076040847518399644e-04
1.059846999999999984e+00	6.116508305590600452e-04
1.060332999999999970e+00	6.103243438439000549e-04
1.060742999999999991e+00	6.119383394521599791e-04
1.061209999999999987e+00	6.171189946490799466e-04
1.061655000000000015e+00	6.198404973325199758e-04
1.062068999999999930e+00	6.216533396722800009e-04
1.062573999999999907e+00	6.289559584914599733e-04
1.062964999999999938e+00	6.417266740104000250e-04
1.063469999999999915e+00	6.522244489117800040e-04
1.063879999999999937e+00	6.649471537410000079e-04
1.064381999999999939e+00	6.838726717371000543e-04
1.064800999999999886e+00	7.079486484600000171e-04
1.065271999999999997e+00	7.401620093787199609e-04
1.065703000000000067e+00	7.757477802568200085e-04
1.066154999999999964e+00	8.241174945821999262e-04
1.066618000000000066e+00	8.602850462367399352e-04
1.067066000000000070e+00	9.152949853619000205e-04
1.067538000000000098e+00	9.980093086363799135e-04
1.067938999999999972e+00	1.113482522415900093e-03
1.068448000000000064e+00	1.264801246165880074e-03
1.068877999999999995e+00	1.472263062778200087e-03
1.069363999999999981e+00	1.695951557060999988e-03
1.069784000000000068e+00	1.856112379837439970e-03
1.070261000000000129e+00	1.993358054152279644e-03
1.070699000000000067e+00	2.060265479551440151e-03
1.071147999999999989e+00	1.938476150017999717e-03
1.071623999999999910e+00	1.648493635582799939e-03
1.072042999999999857e+00	1.298206806078000021e-03
1.072534000000000098e+00	9.894936983207999835e-04
1.072955000000000103e+00	7.392484356342000126e-04
1.073474000000000039e+00	5.656789959760000382e-04
1.073907999999999863e+00	4.798433884380000065e-04
1.074410000000000087e+00	4.336952724841999719e-04
1.074815000000000076e+00	4.165602765769999731e-04
1.075325000000000086e+00	4.050133927475999787e-04
1.075730000000000075e+00	4.009150738399999843e-04
1.076188000000000144e+00	3.978855703199999424e-04
1.076664000000000065e+00	3.974233372457999639e-04
1.077099000000000029e+00	3.968868674230399663e-04
1.077602999999999867e+00	3.989124577651199910e-04
1.078003999999999962e+00	3.976300737585000125e-04
1.078537999999999997e+00	3.980724460893799734e-04
1.078953999999999969e+00	3.996625946595599933e-04
1.079477000000000020e+00	3.982543207667200015e-04
1.079868999999999968e+00	3.993631273920000163e-04
1.080392999999999937e+00	3.984355546859999746e-04
1.080797999999999925e+00	3.963149634483599786e-04
1.081336999999999993e+00	3.932872994541800169e-04
1.081747999999999932e+00	3.925382433968799636e-04
1.082243999999999984e+00	3.932508174331199899e-04
1.082681999999999922e+00	3.887863022719199651e-04
1.083201999999999998e+00	3.881720026267200183e-04
1.083625999999999978e+00	3.910083412998399872e-04
1.084122000000000030e+00	3.894848139665600065e-04
1.084560999999999886e+00	3.910168258948799901e-04
1.085010000000000030e+00	3.920827213503200030e-04
1.085509999999999975e+00	3.948073875636799908e-04
1.085948999999999831e+00	4.013900480031600449e-04
1.086464000000000096e+00	4.007765940786400002e-04
1.086859000000000020e+00	4.128893247771599695e-04
1.087393999999999972e+00	4.153804416268400482e-04
1.087822999999999984e+00	4.261071203843400340e-04
1.088351999999999986e+00	4.424118536922000237e-04
1.088775999999999966e+00	4.638416868275200351e-04
1.089308999999999861e+00	4.964509318269600541e-04
1.089729999999999865e+00	5.364717981945600969e-04
1.090254999999999974e+00	5.792561230846400263e-04
1.090683000000000069e+00	6.193267995411399053e-04
1.091183999999999932e+00	6.743251154905999722e-04
1.091636999999999968e+00	7.532729236858000822e-04
1.092171999999999921e+00	8.612929405515000122e-04
1.092595999999999901e+00	9.518458532655599789e-04
1.093110000000000026e+00	1.019972819259680127e-03
1.093544999999999989e+00	1.040061890957880066e-03
1.094064000000000147e+00	1.009609032222020045e-03
1.094507999999999814e+00	9.866127082975601360e-04
1.094955000000000123e+00	1.065615998362719977e-03
1.095466000000000051e+00	1.254082381510900025e-03
1.095938999999999997e+00	1.612759656386899979e-03
1.096428999999999876e+00	2.141279725420080181e-03
1.096844999999999848e+00	2.633951273976880073e-03
1.097392999999999841e+00	2.663768013906999636e-03
1.097796999999999912e+00	2.297206850480000215e-03
1.098365000000000036e+00	1.840407807875000037e-03
1.098765999999999909e+00	1.349979025620399748e-03
1.099308999999999870e+00	9.835653385082000332e-04
1.099743000000000137e+00	6.994001492050000044e-04
1.100278000000000089e+00	4.982303163432000130e-04
1.100707000000000102e+00	3.707341254529999898e-04
1.101245000000000029e+00	2.994719556625999920e-04
1.101694000000000173e+00	2.562010619799999717e-04
1.102219000000000060e+00	2.301894211631999923e-04
1.102638000000000007e+00	2.212522253200000053e-04
1.103196999999999983e+00	2.049937487223999909e-04
1.103634999999999922e+00	1.939895639327200087e-04
1.104163000000000006e+00	1.809588070805400112e-04
1.104627000000000026e+00	1.779598526222800380e-04
1.105136000000000118e+00	1.706770863289000214e-04
1.105590000000000073e+00	1.682676120159200055e-04
1.106133999999999951e+00	1.651434176241200200e-04
1.106566999999999856e+00	1.650081911845800112e-04
1.107091999999999965e+00	1.600785003160400024e-04
1.107539999999999969e+00	1.566368073386399879e-04
1.108074000000000003e+00	1.556073018405000120e-04
1.108508000000000049e+00	1.554110040731999953e-04
1.109060999999999853e+00	1.519030962256600074e-04
1.109499000000000013e+00	1.541937432632399692e-04
1.110019000000000089e+00	1.531932110685200110e-04
1.110485999999999862e+00	1.502991068144960015e-04
1.110995999999999873e+00	1.508599071195160181e-04
1.111463000000000090e+00	1.525174464232479949e-04
1.111968999999999985e+00	1.488057717409200121e-04
1.112446999999999964e+00	1.501042416467659904e-04
1.112970000000000015e+00	1.477755927035880057e-04
1.113442999999999961e+00	1.486464977016080076e-04
1.113971999999999962e+00	1.499096411662499933e-04
1.114420999999999884e+00	1.501422378736199986e-04
1.114949999999999886e+00	1.491580001203179917e-04
1.115417000000000103e+00	1.478346232156199874e-04
1.115965000000000096e+00	1.474192653363359980e-04
1.116418000000000132e+00	1.484464672115280053e-04
1.116962000000000010e+00	1.451965527561239913e-04
1.117404999999999982e+00	1.480121278646399832e-04
1.117930000000000090e+00	1.488313530352500258e-04
1.118392999999999970e+00	1.484365489426519951e-04
1.118917000000000161e+00	1.466925080692500262e-04
1.119388999999999967e+00	1.471556828448560136e-04
1.119938000000000100e+00	1.494825566333599998e-04
1.120389999999999997e+00	1.490668790476799962e-04
1.120934000000000097e+00	1.465711730452480153e-04
1.121402000000000010e+00	1.482443753924040232e-04
1.121955000000000036e+00	1.460968538356339965e-04
1.122402999999999818e+00	1.489089429065000082e-04
1.122932000000000041e+00	1.478908961893440031e-04
1.123403999999999847e+00	1.469249706191280041e-04
1.123947999999999947e+00	1.475387654591999950e-04
1.124423999999999868e+00	1.504233366119120158e-04
1.124964000000000075e+00	1.478933456390479971e-04
1.125436000000000103e+00	1.467446307653599770e-04
1.125984000000000096e+00	1.494445257618479724e-04
1.126438000000000050e+00	1.470801698570100029e-04
1.127018999999999993e+00	1.469139679134520053e-04
1.127451999999999899e+00	1.448416885800899920e-04
1.128015999999999908e+00	1.455840682684400079e-04
1.128468000000000027e+00	1.470209935945079784e-04
1.129002000000000061e+00	1.444956945963820033e-04
1.129484000000000155e+00	1.491958992648339817e-04
1.130036999999999958e+00	1.465908136783859988e-04
1.130485000000000184e+00	1.473635619052819797e-04
1.131066999999999823e+00	1.474474014011119879e-04
1.131515999999999966e+00	1.462470207818000116e-04
1.132063999999999959e+00	1.494139729760040063e-04
1.132545999999999831e+00	1.483844732619960200e-04
1.133075000000000054e+00	1.498690950643600140e-04
1.133546999999999860e+00	1.504699598992059913e-04
1.134089999999999820e+00	1.507998307052400193e-04
1.134576999999999947e+00	1.507529714196740125e-04
1.135106000000000170e+00	1.510359939281680068e-04
1.135607999999999951e+00	1.530320373111040163e-04
1.136127000000000109e+00	1.520340121785179884e-04
1.136670999999999987e+00	1.514867867673680174e-04
1.137151999999999941e+00	1.523217782516739823e-04
1.137696000000000041e+00	1.523907300033479687e-04
1.138190999999999953e+00	1.512794309070959883e-04
1.138724999999999987e+00	1.529990480612640241e-04
1.139206999999999859e+00	1.514340703049840166e-04
1.139803999999999817e+00	1.527439800874800027e-04
1.140247000000000011e+00	1.564905503441919995e-04
1.140819000000000027e+00	1.551071091851480147e-04
1.141280999999999990e+00	1.538526795755040008e-04
1.141854000000000147e+00	1.552490896492159924e-04
1.142311000000000076e+00	1.560595695871640058e-04
1.142894000000000077e+00	1.555610059177079979e-04
1.143335999999999908e+00	1.567485840218760100e-04
1.143918999999999908e+00	1.566589991226120132e-04
1.144370000000000109e+00	1.565424447790499823e-04
1.144973000000000019e+00	1.555407057627799963e-04
1.145444999999999824e+00	1.576594447613279893e-04
1.145996999999999932e+00	1.580999768426320166e-04
1.146522000000000041e+00	1.589422573139940024e-04
1.147037000000000084e+00	1.578456787280560080e-04
1.147575999999999929e+00	1.596205680895800092e-04
1.148080999999999907e+00	1.564555888965440023e-04
1.148662999999999990e+00	1.593758916473279777e-04
1.149140000000000050e+00	1.589354840030960064e-04
1.149702999999999919e+00	1.579648037394480102e-04
1.150198999999999971e+00	1.610494240746239913e-04
1.150765999999999956e+00	1.594025535159199777e-04
1.151253000000000082e+00	1.566685030550639933e-04
1.151853000000000016e+00	1.573880251211519897e-04
1.152311000000000085e+00	1.576748251262240013e-04
1.152897999999999978e+00	1.560965102254439983e-04
1.153355999999999826e+00	1.574450522102719752e-04
1.153961999999999932e+00	1.548033525880800044e-04
1.154405000000000125e+00	1.567962846775360010e-04
1.155011000000000010e+00	1.564987795079220015e-04
1.155486999999999931e+00	1.561636974014719826e-04
1.156060000000000088e+00	1.546097658401759944e-04
1.156570000000000098e+00	1.555420877817319930e-04
1.157098999999999878e+00	1.560849825260559763e-04
1.157676000000000149e+00	1.552017376140319945e-04
1.158161999999999914e+00	1.560001210821600019e-04
1.158745000000000136e+00	1.567955749908359964e-04
1.159229999999999983e+00	1.545108524143199932e-04
1.159831999999999974e+00	1.573874729584919939e-04
1.160293000000000019e+00	1.569646261231999961e-04
1.160908000000000051e+00	1.577617589838160319e-04
1.161362000000000005e+00	1.589269139192160110e-04
1.161962000000000161e+00	1.601623056485760178e-04
1.162519999999999998e+00	1.582709852598300081e-04
1.163022000000000000e+00	1.581951043525320127e-04
1.163598000000000132e+00	1.603433404703040151e-04
1.164093999999999962e+00	1.601531768908600153e-04
1.164695000000000036e+00	1.638237304219999902e-04
1.165173000000000014e+00	1.629181448744400145e-04
1.165772999999999948e+00	1.613300883579000188e-04
1.166273999999999811e+00	1.630488641296299951e-04
1.166841999999999935e+00	1.625344261572499909e-04
1.167362000000000011e+00	1.631104767343379892e-04
1.167915000000000036e+00	1.638561208008360070e-04
1.168495999999999979e+00	1.637731434391779942e-04
1.168977000000000155e+00	1.648723134423419766e-04
1.169612000000000096e+00	1.648763540539200235e-04
1.170059999999999878e+00	1.646982561108719994e-04
1.170662000000000091e+00	1.645766303617799905e-04
1.171157000000000004e+00	1.662190495375400064e-04
1.171757999999999855e+00	1.657921889825279783e-04
1.172277999999999931e+00	1.668357513314880163e-04
1.172811999999999966e+00	1.667202329572500103e-04
1.173407000000000089e+00	1.669229545183200010e-04
1.173907999999999952e+00	1.680682939242700183e-04
1.174514000000000058e+00	1.682260486759439976e-04
1.175005000000000077e+00	1.708401204955619713e-04
1.175615999999999994e+00	1.671131260489439985e-04
1.176091999999999915e+00	1.703500566640320213e-04
1.176701999999999915e+00	1.699031285525839994e-04
1.177255000000000162e+00	1.690776107692600180e-04
1.177799000000000040e+00	1.677764981833079891e-04
1.178409999999999958e+00	1.694545178718779839e-04
1.178907000000000149e+00	1.721373331826020004e-04
1.179497999999999935e+00	1.699530054637459961e-04
1.179996999999999963e+00	1.715853675734279715e-04
1.180613000000000135e+00	1.716561953012719921e-04
1.181109999999999882e+00	1.729691598241200065e-04
1.181694999999999940e+00	1.715478774757440321e-04
1.182285999999999948e+00	1.697242935296420022e-04
1.182826000000000155e+00	1.714935210798459856e-04
1.183427000000000007e+00	1.728617868731020064e-04
1.183936000000000099e+00	1.732279664566780059e-04
1.184534000000000198e+00	1.742389919572799963e-04
1.185009000000000201e+00	1.729726425694800163e-04
1.185643999999999920e+00	1.734331028025779919e-04
1.186196999999999946e+00	1.727788649996000016e-04
1.186750000000000194e+00	1.754004001450080107e-04
1.187346000000000013e+00	1.736366334322440104e-04
1.187857000000000163e+00	1.728768098962720119e-04
1.188471000000000055e+00	1.745712985019040142e-04
1.188962999999999992e+00	1.750307083327319699e-04
1.189572999999999992e+00	1.731900417648939931e-04
1.190115999999999952e+00	1.739903471073600051e-04
1.190693999999999919e+00	1.749090906263760074e-04
1.191338000000000008e+00	1.750715996482700085e-04
1.191829000000000027e+00	1.769722769356640022e-04
1.192458000000000018e+00	1.784815913272859932e-04
1.192939999999999889e+00	1.773532671220559955e-04
1.193578999999999946e+00	1.767587966965440270e-04
1.194084999999999841e+00	1.779762612370879970e-04
1.194636999999999949e+00	1.785094097727119998e-04
1.195270999999999972e+00	1.775526994179160093e-04
1.195786999999999933e+00	1.783918217686500016e-04
1.196405999999999858e+00	1.807178454149039877e-04
1.196911999999999976e+00	1.789848967884840008e-04
1.197567000000000048e+00	1.794089518639040094e-04
1.198080000000000034e+00	1.788199385114299853e-04
1.198682000000000025e+00	1.803290730720000169e-04
1.199262000000000050e+00	1.804962577969259924e-04
1.199797000000000002e+00	1.822174444508519971e-04
1.200441000000000091e+00	1.807685467039200238e-04
1.200922000000000045e+00	1.818644358273479851e-04
1.201561000000000101e+00	1.827898833704000097e-04
1.202153000000000027e+00	1.807987322055139930e-04
1.202682999999999947e+00	1.817272125451159916e-04
1.203340999999999994e+00	1.823362228830299953e-04
1.203826999999999980e+00	1.833839975306039791e-04
1.204489999999999839e+00	1.829188090214399953e-04
1.205005000000000104e+00	1.829126535426000015e-04
1.205618999999999996e+00	1.827014601564400087e-04
1.206236000000000086e+00	1.857682088099599921e-04
1.206741000000000064e+00	1.831643494225719960e-04
1.207373999999999947e+00	1.843443148079519731e-04
1.207899999999999974e+00	1.841417948007360199e-04
1.208534999999999915e+00	1.860861879088479803e-04
1.209158000000000177e+00	1.867773223938300068e-04
1.209672999999999998e+00	1.850916924316799942e-04
1.210298000000000096e+00	1.876059197398980154e-04
1.210803000000000074e+00	1.859295411715040003e-04
1.211462000000000039e+00	1.878800876039679948e-04
1.212096999999999980e+00	1.884730469577999899e-04
1.212610999999999883e+00	1.871629526592519894e-04
1.213263999999999898e+00	1.876661567463759855e-04
1.213794000000000040e+00	1.881644628585540252e-04
1.214442999999999939e+00	1.880593183601440160e-04
1.215004999999999891e+00	1.889464959688320065e-04
1.215577000000000130e+00	1.886969154274200082e-04
1.216188000000000047e+00	1.858623121444959777e-04
1.216736000000000040e+00	1.894136207843880168e-04
1.217374999999999874e+00	1.912645594617600039e-04
1.217888999999999999e+00	1.910721773852080063e-04
1.218532999999999866e+00	1.908138721837319930e-04
1.219196000000000168e+00	1.929408925974120050e-04
1.219721000000000055e+00	1.905239932943760092e-04
1.220347000000000071e+00	1.921074762551039936e-04
1.220890000000000031e+00	1.901339239708480107e-04
1.221508999999999956e+00	1.936135728537359958e-04
1.222144000000000119e+00	1.919868402004799922e-04
1.222701999999999956e+00	1.928007862194199961e-04
1.223340000000000094e+00	1.924241268444599974e-04
1.223851000000000022e+00	1.930679036746239818e-04
1.224509999999999987e+00	1.952302662861760108e-04
1.225128999999999913e+00	1.945328844846239971e-04
1.225697000000000036e+00	1.929836117857279857e-04
1.226334999999999953e+00	1.943207328972959894e-04
1.226864999999999872e+00	1.936014304983600014e-04
1.227513999999999994e+00	1.938688029385319958e-04
1.228018999999999972e+00	1.972327397730299823e-04
1.228654000000000135e+00	1.965489842811900029e-04
1.229354000000000058e+00	1.960057996454219994e-04
1.229870000000000019e+00	1.958922684881279983e-04
1.230555999999999983e+00	1.962220965435059839e-04
1.231200000000000072e+00	1.980807287414999797e-04
1.231735000000000024e+00	1.965243176745839896e-04
1.232386999999999899e+00	1.990846489382960100e-04
1.232983999999999858e+00	1.974974564160000021e-04
1.233518000000000114e+00	1.997495134949999807e-04
1.234246999999999872e+00	1.988534943613660001e-04
1.234752999999999989e+00	1.999971899327600202e-04
1.235423999999999856e+00	1.994230594985199937e-04
1.236059999999999937e+00	1.997213738017999864e-04
1.236560000000000104e+00	1.993319347648299866e-04
1.237165999999999988e+00	2.008442267773200029e-04
1.237843000000000027e+00	2.003882353199999970e-04
1.238407000000000036e+00	2.008019043126600103e-04
1.239125999999999950e+00	2.010635407560000055e-04
1.239621000000000084e+00	2.029827231812799857e-04
1.240247000000000099e+00	2.031445874974999947e-04
1.240966999999999931e+00	2.032503560472000040e-04
1.241534000000000137e+00	2.044978017355999914e-04
1.242210999999999954e+00	2.034719967807800038e-04
1.242701999999999973e+00	2.049213138073199716e-04
1.243336999999999914e+00	2.052070967038399792e-04
1.244075999999999960e+00	2.060686729209600088e-04
1.244628000000000068e+00	2.052048859952000127e-04
1.245292000000000066e+00	2.051386844098600031e-04
1.245912000000000130e+00	2.054723151709200160e-04
1.246488999999999958e+00	2.076773990226599901e-04
1.247165999999999997e+00	2.070435727200000222e-04
1.247695999999999916e+00	2.073133859862000185e-04
1.248364000000000029e+00	2.056557762939999841e-04
1.249069999999999903e+00	2.074588899992000073e-04
1.249603000000000019e+00	2.059672609726399979e-04
1.250280999999999976e+00	2.084421136095999797e-04
1.250914000000000081e+00	2.076622470728000226e-04
1.251487000000000016e+00	2.095893954668000291e-04
1.252139999999999809e+00	2.083237137886999985e-04
1.252712000000000048e+00	2.098049492902399882e-04
1.253385000000000193e+00	2.106805329420000019e-04
1.254056999999999977e+00	2.098526729951599896e-04
1.254611000000000143e+00	2.108501186996999737e-04
1.255287999999999959e+00	2.110178735321400166e-04
1.255936999999999859e+00	2.122792543572000210e-04
1.256479999999999819e+00	2.120652402607199800e-04
1.257190000000000030e+00	2.122209685726399772e-04
1.257709999999999884e+00	2.130485182696999940e-04
1.258435999999999888e+00	2.132742547821600012e-04
1.259098000000000050e+00	2.144776776192000090e-04
1.259722000000000008e+00	2.136318526126799902e-04
1.260318000000000049e+00	2.149251939689600138e-04
1.261033999999999988e+00	2.149210923075600037e-04
1.261601999999999890e+00	2.142951364716600164e-04
1.262234999999999996e+00	2.163542255077200100e-04
1.262793999999999972e+00	2.147047696500000054e-04
1.263494999999999813e+00	2.154142143776000169e-04
1.264162999999999926e+00	2.164876192173599936e-04
1.264839999999999964e+00	2.179330754484599952e-04
1.265365000000000073e+00	2.144222675829000121e-04
1.266004000000000129e+00	2.175727760100999795e-04
1.266765999999999837e+00	2.159152653599999872e-04
1.267338999999999993e+00	2.174944910599999970e-04
1.268021000000000065e+00	2.156889548356400105e-04
1.268678999999999890e+00	2.184276236009399981e-04
1.269279999999999964e+00	2.182855487089199905e-04
1.269860999999999907e+00	2.207985600680399826e-04
1.270496000000000070e+00	2.170039259859000004e-04
1.271158000000000010e+00	2.191307205454799960e-04
1.271921999999999997e+00	2.209239620799200018e-04
1.272450999999999999e+00	2.192265858258799849e-04
1.273176000000000085e+00	2.180086416472000032e-04
1.273742999999999848e+00	2.216609673749999720e-04
1.274397000000000002e+00	2.219668667215999897e-04
1.275064999999999893e+00	2.212330683939599978e-04
1.275697999999999999e+00	2.199153009873199992e-04
1.276414999999999855e+00	2.227219015115599807e-04
1.277032999999999863e+00	2.231836834342600117e-04
1.277668000000000026e+00	2.226678075133800170e-04
1.278321000000000041e+00	2.211341189010400019e-04
1.278988999999999931e+00	2.238367179900800045e-04
1.279628999999999905e+00	2.253020955964999870e-04
1.280337999999999976e+00	2.247063138877200149e-04
1.281054999999999833e+00	2.224868698894599817e-04
1.281601999999999908e+00	2.257553119808000089e-04
1.282303999999999888e+00	2.252294444820599850e-04
1.282937999999999912e+00	2.259769699343000245e-04
1.283576999999999968e+00	2.260028167945600161e-04
1.284254000000000007e+00	2.260885664776200146e-04
1.284917000000000087e+00	2.271339594199199975e-04
1.285570999999999797e+00	2.272977733030399862e-04
1.286309999999999842e+00	2.266257751680000128e-04
1.286924999999999875e+00	2.285167739575199859e-04
1.287568999999999964e+00	2.289984357288399775e-04
1.288241000000000192e+00	2.307936542208000085e-04
1.288909000000000082e+00	2.284844741322000165e-04
1.289557000000000064e+00	2.301895239831600038e-04
1.290297000000000027e+00	2.298034856809999971e-04
1.290916999999999870e+00	2.317365624881399875e-04
1.291584999999999983e+00	2.306849192438800060e-04
1.294205000000000050e+00	2.317318060852000211e-04
1.296899000000000024e+00	2.305274488976799974e-04
1.299649000000000054e+00	2.346327991305800136e-04
1.302348000000000061e+00	2.363014384886399965e-04
1.305093000000000059e+00	2.371622767954399929e-04
1.307857000000000047e+00	2.399602485263399967e-04
1.310605000000000020e+00	2.420126488343999987e-04
1.313374000000000041e+00	2.434172948641200225e-04
1.316183000000000103e+00	2.450717686246199774e-04
1.318970999999999894e+00	2.464422765204400461e-04
1.321756000000000153e+00	2.502757570585999983e-04
1.324592999999999909e+00	2.516584004856400208e-04
1.327442000000000011e+00	2.542603781565799651e-04
1.330278999999999989e+00	2.575901725813000320e-04
1.333118000000000025e+00	2.583731618098199928e-04
1.335990000000000011e+00	2.593098153109600146e-04
1.338894000000000029e+00	2.638609392723600153e-04
1.341792000000000096e+00	2.636384087713999880e-04
1.344694000000000056e+00	2.644450451257999947e-04
1.347836000000000034e+00	2.684381742288000279e-04
1.350800999999999918e+00	2.700825706125400136e-04
1.353739000000000026e+00	2.734141857893600063e-04
1.356667999999999985e+00	2.744329372551199955e-04
1.359658999999999951e+00	2.769548810237999672e-04
1.362661000000000122e+00	2.788511885254999975e-04
1.365646000000000138e+00	2.800637859184000123e-04
1.368632000000000071e+00	2.816441686526200295e-04
1.371674999999999978e+00	2.823328835345999678e-04
1.374722999999999917e+00	2.846267150210399438e-04
1.377776000000000112e+00	2.871085716031199827e-04
1.380830999999999920e+00	2.882230731643200291e-04
1.383895000000000097e+00	2.905228785873999707e-04
1.386973999999999929e+00	2.928686879593800038e-04
1.390101999999999949e+00	2.952424375052399661e-04
1.393218999999999985e+00	2.985917312125000150e-04
1.396365999999999996e+00	3.013554638361199615e-04
1.399504000000000081e+00	3.026099533978799739e-04
1.402662000000000075e+00	3.039042289752000433e-04
1.405840999999999896e+00	3.067016376511599992e-04
1.409014999999999906e+00	3.105007873710999722e-04
1.412220000000000031e+00	3.104740311354000130e-04
1.415426000000000073e+00	3.102089340630000375e-04
1.418673000000000073e+00	3.144754007149999598e-04
1.421904999999999974e+00	3.153498512999800322e-04
1.425183000000000089e+00	3.186247875194400041e-04
1.428456999999999866e+00	3.223497339414800058e-04
1.431745999999999963e+00	3.233201494417600069e-04
1.435071999999999903e+00	3.262252401100799591e-04
1.438403000000000098e+00	3.301979013525599828e-04
1.441744999999999832e+00	3.325775424704999683e-04
1.445106999999999919e+00	3.355528229726400429e-04
1.448474000000000039e+00	3.373327845963000138e-04
1.451873999999999887e+00	3.394044452935600191e-04
1.455272000000000121e+00	3.424516765191600465e-04
1.459037000000000139e+00	3.425744310013599850e-04
1.462486999999999870e+00	3.439202367408199820e-04
1.465912999999999800e+00	3.466871755459200138e-04
1.469414999999999916e+00	3.505556345297600141e-04
1.472876999999999992e+00	3.524093225088000274e-04
1.476391000000000009e+00	3.569456335020400025e-04
1.479920000000000124e+00	3.542021096723999810e-04
1.483420999999999879e+00	3.574684325063999979e-04
1.487005999999999828e+00	3.610829376337199980e-04
1.490578999999999876e+00	3.608895224894399854e-04
1.494124999999999925e+00	3.666783660479000007e-04
1.497757000000000005e+00	3.686459013743999431e-04
1.501406000000000018e+00	3.711508353370799934e-04
1.505030000000000090e+00	3.743613257070399817e-04
1.508659000000000194e+00	3.772540230425999903e-04
1.512373999999999885e+00	3.810042243252000169e-04
1.516062000000000021e+00	3.827736516833599883e-04
1.519750000000000156e+00	3.861939529492800405e-04
1.523477999999999888e+00	3.870896427968200239e-04
1.527241999999999988e+00	3.930699740215599816e-04
1.531007999999999925e+00	3.959146584449999983e-04
1.534804999999999975e+00	3.997384986100799959e-04
1.538614999999999844e+00	4.042820549045999666e-04
1.542430999999999885e+00	4.063192748283600314e-04
1.546241999999999894e+00	4.091696495850000192e-04
1.550085000000000157e+00	4.135171138750800114e-04
1.553986000000000089e+00	4.161077581969199941e-04
1.557884999999999964e+00	4.205212481164799791e-04
1.561798999999999937e+00	4.219887770327600067e-04
1.565776000000000057e+00	4.234677407762200041e-04
1.569726999999999872e+00	4.284382577301000181e-04
1.573704999999999909e+00	4.325436535492800379e-04
1.577709000000000028e+00	4.365671677071999708e-04
1.581710999999999867e+00	4.393314930083199853e-04
1.585747000000000018e+00	4.431010156826400265e-04
1.589801000000000020e+00	4.458272236515999922e-04
1.593889000000000111e+00	4.496205421105000126e-04
1.597988999999999882e+00	4.531020625234399705e-04
1.602101999999999915e+00	4.577088383584000382e-04
1.606246000000000063e+00	4.609547112543600062e-04
1.610389999999999988e+00	4.634029248625000266e-04
1.614586000000000077e+00	4.670979821030000296e-04
1.618808999999999942e+00	4.717044366380999530e-04
1.623049000000000186e+00	4.760352610348399889e-04
1.627310999999999952e+00	4.791109452066599967e-04
1.631577999999999973e+00	4.826360307091199717e-04
1.635850000000000026e+00	4.871522617560000408e-04
1.640188000000000201e+00	4.936574525284600102e-04
1.644538000000000055e+00	4.949425479206999738e-04
1.648907999999999818e+00	4.998744491697599580e-04
1.653264000000000067e+00	5.028899696523199880e-04
1.657725000000000115e+00	5.072462304195000373e-04
1.662158000000000024e+00	5.115727574279399894e-04
1.666567000000000132e+00	5.135929087979800110e-04
1.671116000000000046e+00	5.176410604198000221e-04
1.675602000000000036e+00	5.216432976819999467e-04
1.680126000000000008e+00	5.266247996747200561e-04
1.684701999999999922e+00	5.305111466045600924e-04
1.689257999999999926e+00	5.355384588155399309e-04
1.693891000000000036e+00	5.409896681088000210e-04
1.698517999999999972e+00	5.442766094953199957e-04
1.703221999999999792e+00	5.487103605250799468e-04
1.707881999999999900e+00	5.521128488679999825e-04
1.712643999999999833e+00	5.574955748480999763e-04
1.717303000000000024e+00	5.618254757846400478e-04
1.722110000000000030e+00	5.657074694958000218e-04
1.726876999999999995e+00	5.702867832942000448e-04
1.731703999999999910e+00	5.748861736895200534e-04
1.736569000000000029e+00	5.780485289412800503e-04
1.741369999999999862e+00	5.832270793368000061e-04
1.746323999999999987e+00	5.866988523105601001e-04
1.751292000000000071e+00	5.938115128719999389e-04
1.756201999999999819e+00	5.978332624531199806e-04
1.761201999999999934e+00	6.021783053999999738e-04
1.766201999999999828e+00	6.065870458428799595e-04
1.771659000000000095e+00	6.126416752680000771e-04
1.776723000000000052e+00	6.221602518684000169e-04
1.781826000000000132e+00	6.256007133235199627e-04
1.786954000000000153e+00	6.310609989044399775e-04
1.792123000000000133e+00	6.338495333774800096e-04
1.797310000000000185e+00	6.387601138144400129e-04
1.802519999999999900e+00	6.379810311174000277e-04
1.807755000000000001e+00	6.463250401109599122e-04
1.813057000000000141e+00	6.505135027358400698e-04
1.818367000000000067e+00	6.585504567327999520e-04
1.823703000000000074e+00	6.628774313035400590e-04
1.829080000000000039e+00	6.664125244295999138e-04
1.834464000000000095e+00	6.715378950371999993e-04
1.839848999999999846e+00	6.760619050595400529e-04
1.845384000000000135e+00	6.812073046630800002e-04
1.850876999999999883e+00	6.840606791200000425e-04
1.856402000000000108e+00	6.888077757188800204e-04
1.861926999999999888e+00	6.932252339038799931e-04
1.867593000000000059e+00	6.970983900120000711e-04
1.873234999999999983e+00	7.070840249100000287e-04
1.878875999999999991e+00	7.109742814207799765e-04
1.884590999999999905e+00	7.190001059268000131e-04
1.890341000000000049e+00	7.223986244868399161e-04
1.896080999999999905e+00	7.295270490740399672e-04
1.901904999999999957e+00	7.345561716436000820e-04
1.907769999999999966e+00	7.376088728469999212e-04
1.913617000000000123e+00	7.411325101571999367e-04
1.919556999999999958e+00	7.454912790563999851e-04
1.925463000000000147e+00	7.460190986465400475e-04
1.931510999999999978e+00	7.530073061952000362e-04
1.937499000000000082e+00	7.571680010017200948e-04
1.943653999999999993e+00	7.727491405723199355e-04
1.949676999999999882e+00	7.807148686315999774e-04
1.955872999999999973e+00	7.851270315238400091e-04
1.962028000000000105e+00	7.950071509560000058e-04
1.968288999999999733e+00	8.009243084445599910e-04
1.974525999999999781e+00	8.064095624270400638e-04
1.980772999999999895e+00	8.123504117529599475e-04
1.987198999999999716e+00	8.153847333745200187e-04
1.993561000000000138e+00	8.128856176352999537e-04
1.999924000000000035e+00	8.138082567834800706e-04
2.006416999999999895e+00	8.191928496634000214e-04
2.012969000000000008e+00	8.264560628563200192e-04
2.019530000000000047e+00	8.447368474895999933e-04
2.026132000000000044e+00	8.660320690739199559e-04
2.032715000000000050e+00	8.760357902779399280e-04
2.039376999999999995e+00	8.890308437058399649e-04
2.046108999999999956e+00	9.025768379881599687e-04
2.052884999999999849e+00	9.087218381617999776e-04
2.059710000000000374e+00	9.153070539511399661e-04
2.066552000000000167e+00	9.210311668465199966e-04
2.073459999999999859e+00	9.239134476812800156e-04
2.080418000000000323e+00	9.308600643865600367e-04
2.087407999999999930e+00	9.359310929467200713e-04
2.094431999999999849e+00	9.410610788198000599e-04
2.101557000000000119e+00	9.484817602669199906e-04
2.108778999999999737e+00	9.560842388533800570e-04
2.115927000000000113e+00	9.623269621587000455e-04
2.123156999999999961e+00	9.803505699680799528e-04
2.130428999999999906e+00	9.880787643979998484e-04
2.137909999999999755e+00	9.879622976159999851e-04
2.145287999999999862e+00	9.902488066965999241e-04
2.152661000000000158e+00	1.003635912383139860e-03
2.160108000000000139e+00	1.009304665286599829e-03
2.167768000000000139e+00	1.015500440995679987e-03
2.175907999999999731e+00	1.025901355024979970e-03
2.177811999999999859e+00	1.028682878878500089e-03
2.179715999999999987e+00	1.032797244661359760e-03
2.181621999999999950e+00	1.033523603232699853e-03
2.183533000000000168e+00	1.040018702454399962e-03
2.185446999999999917e+00	1.041486040955300020e-03
2.187351000000000045e+00	1.039398247436640159e-03
2.189283000000000090e+00	1.043024995094180051e-03
2.191207000000000349e+00	1.052063523707039974e-03
2.193127999999999744e+00	1.049586144930300105e-03
2.195059999999999789e+00	1.051146943907400140e-03
2.197001999999999899e+00	1.053132530311439970e-03
2.198941000000000034e+00	1.062948484560860161e-03
2.200882999999999701e+00	1.056050402967999898e-03
2.202824999999999811e+00	1.062935886659399859e-03
2.204774000000000012e+00	1.060326690842160061e-03
2.206724000000000352e+00	1.068479011340999971e-03
2.208692999999999795e+00	1.066929892284000040e-03
2.210669999999999913e+00	1.068772609619599977e-03
2.212630000000000319e+00	1.068647781449900058e-03
2.214579999999999771e+00	1.070321366482979977e-03
2.216556999999999888e+00	1.075714444724400068e-03
2.218509000000000064e+00	1.079566977568299866e-03
2.220513999999999655e+00	1.081457861548400191e-03
2.222481000000000151e+00	1.084554639111099924e-03
2.224485999999999741e+00	1.088626875124500083e-03
2.226463999999999999e+00	1.088316471863659887e-03
2.228442999999999952e+00	1.093148464859520184e-03
2.230456000000000216e+00	1.095556741874699827e-03
2.232435999999999865e+00	1.096789773562560069e-03
2.234458999999999751e+00	1.099920969227480066e-03
2.236445999999999934e+00	1.107293370548939919e-03
2.238480000000000025e+00	1.110795702133679898e-03
2.240512999999999977e+00	1.118308797544120088e-03
2.242518000000000011e+00	1.121628617559359935e-03
2.244550000000000267e+00	1.125886246949100045e-03
2.246573000000000153e+00	1.132459929179500209e-03
2.248596000000000039e+00	1.133151999586560002e-03
2.250639999999999752e+00	1.136470895860960170e-03
2.252683000000000213e+00	1.142361886640079873e-03
2.254715999999999720e+00	1.141086781482180106e-03
2.256756999999999902e+00	1.145605574953840024e-03
2.258789000000000158e+00	1.140339311211880030e-03
2.260841000000000101e+00	1.144003105555239886e-03
2.262900999999999829e+00	1.140834389863640145e-03
2.264952000000000076e+00	1.145200072778999921e-03
2.267012999999999945e+00	1.146141233984759996e-03
2.269101999999999730e+00	1.151550387066879949e-03
2.271152999999999977e+00	1.151441103896999954e-03
2.273251999999999828e+00	1.159666530266999966e-03
2.275319999999999787e+00	1.158637943458860203e-03
2.277409000000000017e+00	1.163565711959999938e-03
2.279478000000000115e+00	1.164561668862799937e-03
2.281594000000000122e+00	1.168021635885439996e-03
2.283694000000000113e+00	1.168113518441919957e-03
2.285762000000000072e+00	1.174737777292800137e-03
2.287841000000000236e+00	1.178845277475179965e-03
2.289956999999999798e+00	1.181307606256719886e-03
2.292053000000000118e+00	1.191629972401680049e-03
2.294179999999999886e+00	1.193983888907099861e-03
2.296313000000000049e+00	1.195969994983440109e-03
2.298418999999999990e+00	1.202957529757179905e-03
2.300574000000000119e+00	1.204049486263399993e-03
2.302669999999999995e+00	1.212280939833599875e-03
2.304804000000000297e+00	1.217319803874700006e-03
2.306929000000000229e+00	1.217795184029039869e-03
2.309073999999999849e+00	1.215457312425920070e-03
2.311226000000000003e+00	1.223418166139200042e-03
2.313378000000000156e+00	1.229007002320719848e-03
2.315522000000000080e+00	1.223890530682399981e-03
2.317712999999999912e+00	1.220980685333079982e-03
2.319865000000000066e+00	1.219616078568620116e-03
2.322007000000000154e+00	1.222936729993700025e-03
2.324159000000000308e+00	1.244537382303600006e-03
2.326341999999999910e+00	1.275331575621500109e-03
2.328530000000000211e+00	1.295017841619059903e-03
2.330738000000000198e+00	1.289654456488680077e-03
2.332899999999999974e+00	1.259236542729479796e-03
2.335096999999999756e+00	1.225087147627919792e-03
2.337269999999999737e+00	1.214694034727600023e-03
2.339431999999999956e+00	1.207619616327300013e-03
2.341676000000000091e+00	1.219142473939200050e-03
2.343875999999999848e+00	1.222005513295000220e-03
2.346102000000000132e+00	1.226446165633919951e-03
2.348326999999999831e+00	1.229373834156800025e-03
2.350517999999999663e+00	1.232989217126560094e-03
2.352697999999999734e+00	1.233653336528039947e-03
2.354922999999999877e+00	1.234534898293460038e-03
2.357204999999999995e+00	1.229971246664939835e-03
2.359440999999999899e+00	1.240295123565999863e-03
2.361693999999999960e+00	1.245695305409099925e-03
2.363913000000000153e+00	1.245092022088320049e-03
2.366155999999999704e+00	1.244579467589999920e-03
2.368419999999999970e+00	1.251723734666600066e-03
2.370683000000000096e+00	1.254572094357039999e-03
2.372974999999999834e+00	1.259842591639399965e-03
2.375218000000000274e+00	1.263711898669680166e-03
2.377419000000000171e+00	1.268915418207000080e-03
2.379745999999999917e+00	1.276892260551840044e-03
2.382034999999999680e+00	1.272079556927199848e-03
2.384319000000000077e+00	1.267081289149200006e-03
2.393583000000000016e+00	1.252802999229879954e-03
2.402950000000000141e+00	1.265111561098979966e-03
2.412147000000000041e+00	1.284803413324199896e-03
2.421756999999999938e+00	1.298376538623999960e-03
2.431154999999999955e+00	1.316130683331360020e-03
2.440574999999999939e+00	1.323916466508480135e-03
2.450461000000000222e+00	1.339363238025119895e-03
2.459928000000000115e+00	1.349536849945900041e-03
2.469916999999999696e+00	1.369976792693599959e-03
2.480428999999999995e+00	1.377153721127799936e-03
2.485644999999999882e+00	1.330640275311379935e-03
2.490656999999999677e+00	1.400859570414680075e-03
2.495654999999999735e+00	1.420962251011519953e-03
2.500729000000000202e+00	1.416660553967620181e-03
2.505727000000000260e+00	1.429440589534160125e-03
2.510476000000000152e+00	1.430700148809600086e-03
2.515559999999999796e+00	1.436547502680239922e-03
2.520666999999999991e+00	1.443227763110120068e-03
2.526028000000000162e+00	1.458827572926900146e-03
2.531242999999999910e+00	1.471240612216920133e-03
2.536097000000000268e+00	1.470618352408799984e-03
2.541290000000000049e+00	1.492522876273500191e-03
2.546505999999999936e+00	1.488526274883600039e-03
2.551720999999999684e+00	1.490610720507039950e-03
2.556960000000000122e+00	1.508776928354880033e-03
2.562238000000000238e+00	1.496584801950259910e-03
2.567536000000000040e+00	1.530636187478579902e-03
2.573232999999999659e+00	1.525054722081579939e-03
2.578495000000000203e+00	1.531021436559239961e-03
2.583568999999999782e+00	1.545157011332139998e-03
2.588953000000000060e+00	1.554550341602759997e-03
2.594504000000000143e+00	1.560937203231120172e-03
2.599829000000000168e+00	1.569529026555959968e-03
2.605248000000000008e+00	1.580048739672899882e-03
2.610714000000000201e+00	1.587607593838500069e-03
2.616194000000000131e+00	1.589487723260640068e-03
2.621744999999999770e+00	1.598186134454400009e-03
2.627274000000000331e+00	1.611031613516499938e-03
2.632816000000000045e+00	1.608924270558399977e-03
2.638412999999999897e+00	1.631853491665599893e-03
2.644060000000000077e+00	1.634925241834020004e-03
2.649683999999999706e+00	1.632074989401599997e-03
2.655335000000000001e+00	1.662275166964520068e-03
2.661040999999999990e+00	1.679121219439779931e-03
2.666761000000000159e+00	1.669655960818560055e-03
2.672505999999999826e+00	1.671460511830200014e-03
2.678225999999999996e+00	1.655964680872500094e-03
2.684054000000000162e+00	1.656509542894499991e-03
2.689869000000000288e+00	1.704628113844460034e-03
2.695683999999999969e+00	1.715352979172579890e-03
2.701570999999999945e+00	1.698105900621939756e-03
2.707459000000000060e+00	1.693680767653180097e-03
2.713358999999999632e+00	1.703108253070839944e-03
2.719332999999999778e+00	1.712290497852639965e-03
2.725269000000000386e+00	1.736984613805479978e-03
2.731266000000000194e+00	1.747442795009800055e-03
2.737308000000000074e+00	1.753574206870140090e-03
2.743303999999999743e+00	1.758785267061300280e-03
2.749458000000000180e+00	1.771195973772400102e-03
2.755500000000000060e+00	1.778038862697500040e-03
2.761687000000000225e+00	1.790261169120899816e-03
2.767805000000000071e+00	1.794602463974199948e-03
2.774004999999999832e+00	1.808082687862079931e-03
2.780241000000000184e+00	1.814140984415999998e-03
2.786477999999999788e+00	1.827060798122199983e-03
2.792761000000000049e+00	1.825392483650599938e-03
2.799043000000000170e+00	1.843459186960540131e-03
2.805352000000000068e+00	1.845450175647300088e-03
2.811732999999999816e+00	1.856142812555819799e-03
2.818087999999999926e+00	1.864658486640000156e-03
2.824542000000000108e+00	1.870740323492540123e-03
2.830919999999999881e+00	1.884004775586000041e-03
2.837469000000000019e+00	1.887262053919319758e-03
2.843922999999999757e+00	1.904290346812359969e-03
2.850481999999999960e+00	1.911812602674300152e-03
2.857067000000000245e+00	1.921472323102440009e-03
2.863603000000000343e+00	1.928055819959959873e-03
2.870283999999999835e+00	1.937537632177799935e-03
2.876916000000000029e+00	1.945501645018619984e-03
2.883534000000000042e+00	1.949632820736399820e-03
2.890324000000000115e+00	1.968256492608000223e-03
2.897027000000000019e+00	1.971931921965520106e-03
2.903756999999999699e+00	1.988982337378499953e-03
2.910629000000000133e+00	1.996536594869180101e-03
2.917488000000000081e+00	2.006738029054840229e-03
2.924336999999999964e+00	2.020845949822240237e-03
2.931221999999999994e+00	2.031125422564799936e-03
2.938203000000000120e+00	2.048551996663040310e-03
2.945196000000000147e+00	2.065337791646660107e-03
2.952187000000000339e+00	2.081440374189359992e-03
2.959203000000000028e+00	2.090077712908499676e-03
2.966256000000000004e+00	2.104704484057339994e-03
2.973355000000000192e+00	2.118158935706699816e-03
2.980539999999999967e+00	2.133816475381879879e-03
2.987736999999999643e+00	2.148732645537499743e-03
2.994934999999999903e+00	2.166090512953920081e-03
3.002228000000000119e+00	2.175126365808200020e-03
3.009481999999999768e+00	2.192151410757000284e-03
3.016789000000000165e+00	2.200983440982480239e-03
3.024092000000000002e+00	2.217833898339760003e-03
3.031480000000000175e+00	2.247867817005099605e-03
3.038905999999999885e+00	2.280795241997579919e-03
3.046356999999999982e+00	2.269320906189239984e-03
3.053828000000000209e+00	2.175266370623399944e-03
3.061348000000000180e+00	2.078985324415639959e-03
3.068904999999999994e+00	2.072472044758079737e-03
3.076524000000000036e+00	2.158976900565939914e-03
3.084163000000000210e+00	2.269981227009600262e-03
3.091841000000000061e+00	2.334025799136799691e-03
3.101033000000000150e+00	2.349362592796899914e-03
3.108765000000000001e+00	2.294291193781800454e-03
3.116598999999999897e+00	2.214575908630259885e-03
3.124375000000000124e+00	2.170605568824360374e-03
3.132312999999999903e+00	2.276943271386960236e-03
3.140146000000000104e+00	2.313790610238239745e-03
3.148145000000000415e+00	2.340646519268239998e-03
3.156128999999999962e+00	2.363750853611000426e-03
3.164171999999999763e+00	2.370327073826279923e-03
3.172287999999999997e+00	2.400415819233960111e-03
3.180343999999999838e+00	2.416589476732580299e-03
3.188582000000000249e+00	2.428309307794800087e-03
3.196771000000000029e+00	2.411290971862500160e-03
3.204965000000000064e+00	2.456638277371800145e-03
3.213332999999999995e+00	2.449557987198479857e-03
3.221626999999999796e+00	2.470507670517080052e-03
3.229950000000000099e+00	2.476536354144580083e-03
3.238410000000000011e+00	2.484489668265599856e-03
3.246866000000000252e+00	2.525008509286139763e-03
3.255367999999999817e+00	2.527672092397759921e-03
3.263857000000000230e+00	2.548813811260500217e-03
3.272445999999999966e+00	2.553279687590480091e-03
3.281186000000000380e+00	2.563571923547880264e-03
3.289854000000000056e+00	2.592386397216000019e-03
3.298561000000000298e+00	2.598880148336399614e-03
3.307300999999999824e+00	2.625040398009600030e-03
3.316116999999999759e+00	2.629452524493119947e-03
3.325018999999999725e+00	2.639199818913280128e-03
3.333965000000000067e+00	2.669201305251000210e-03
3.342955999999999595e+00	2.681519862318819912e-03
3.351951000000000125e+00	2.673949392064679884e-03
3.361075000000000035e+00	2.691746252981820024e-03
3.370171000000000028e+00	2.710135207108619985e-03
3.379353000000000051e+00	2.711778531969139937e-03
3.388570000000000082e+00	2.734931253022599741e-03
3.397799000000000014e+00	2.765467141614359747e-03
3.407113999999999976e+00	2.767711733332500149e-03
3.416510000000000158e+00	2.773897665283919962e-03
3.425930000000000142e+00	2.796544580556599956e-03
3.435353000000000101e+00	2.795226675511660111e-03
3.444922999999999735e+00	2.810687036118720075e-03
3.454463999999999757e+00	2.823007285614719582e-03
3.464050000000000296e+00	2.814332956793439734e-03
3.473752999999999869e+00	2.844539793343679908e-03
3.483517000000000419e+00	2.855114253936319631e-03
3.493354000000000070e+00	2.861796204346799682e-03
3.503191000000000166e+00	2.881130422955139637e-03
3.513071000000000055e+00	2.895876901406500142e-03
3.522968999999999795e+00	2.909914976842920345e-03
3.533056999999999892e+00	2.905644637733999919e-03
3.543161000000000005e+00	2.966203553493600067e-03
3.553297000000000150e+00	2.954741827440000076e-03
3.563445000000000196e+00	2.974432701669659819e-03
3.573759000000000352e+00	2.979668755628959997e-03
3.584086000000000105e+00	2.992314725955240191e-03
3.594425000000000203e+00	3.000510411633000325e-03
3.604932999999999943e+00	3.027128336274840029e-03
3.615315999999999974e+00	3.041580806407660157e-03
3.625910000000000188e+00	3.064464144658039704e-03
3.636508000000000074e+00	3.098726220655679923e-03
3.647306999999999633e+00	3.114302637451000187e-03
3.657960999999999796e+00	3.121146077635639660e-03
3.668851000000000084e+00	3.162959822436480373e-03
3.679622999999999866e+00	3.168680882517999758e-03
3.690660999999999969e+00	3.195248752378980223e-03
3.701527000000000012e+00	3.210878838732700389e-03
3.712666000000000022e+00	3.219075954865799772e-03
3.723810000000000286e+00	3.238322409959679994e-03
3.734938000000000091e+00	3.261629493573840050e-03
3.746288999999999980e+00	3.288051849732099956e-03
3.757671999999999901e+00	3.322485547768080048e-03
3.768949000000000105e+00	3.337097840251779853e-03
3.780478000000000005e+00	3.351681057151200023e-03
3.792095000000000216e+00	3.374329262879799656e-03
3.803740999999999595e+00	3.402125986268139841e-03
3.815287000000000095e+00	3.415938486808199961e-03
3.827020999999999784e+00	3.433631268767359853e-03
3.838910000000000267e+00	3.458988759739200017e-03
3.850823000000000107e+00	3.477545510485200407e-03
3.862886000000000042e+00	3.512897364714879893e-03
3.877123000000000097e+00	3.526111773103100377e-03
3.883356000000000030e+00	3.551835213170560345e-03
3.889507999999999743e+00	3.576064924961199973e-03
3.895477999999999774e+00	3.633736451047679932e-03
3.901529999999999720e+00	3.581839142259999643e-03
3.907713999999999466e+00	3.621573800528560001e-03
3.913952000000000098e+00	3.619789817980159728e-03
3.920016999999999641e+00	3.607549699879800207e-03
3.926037999999999695e+00	3.621388530418120141e-03
3.932421000000000166e+00	3.658541029616880092e-03
3.938642000000000198e+00	3.673562714545679578e-03
3.944974999999999898e+00	3.689166199921759936e-03
3.951144000000000212e+00	3.700380058459920140e-03
3.957295999999999925e+00	3.724051851328900094e-03
3.963747999999999383e+00	3.731953732888179925e-03
3.970086999999999922e+00	3.754839347305799838e-03
3.976590000000000291e+00	3.752960693236800059e-03
3.982926999999999662e+00	3.771843989885639587e-03
3.989061999999999664e+00	3.782473602164160287e-03
3.995481999999999978e+00	3.783372730317840181e-03
4.001934000000000324e+00	3.773958418552839957e-03
4.008521999999999252e+00	3.801408333113159930e-03
4.015093000000000245e+00	3.831526744255760349e-03
4.021575999999999596e+00	3.842247500215360042e-03
4.027715000000000600e+00	3.832007879909999585e-03
4.034303000000000416e+00	3.851025363906559942e-03
4.040936999999999557e+00	3.906692693105879785e-03
4.047526000000000401e+00	3.923172642697560046e-03
4.054246000000000016e+00	3.926173663425440268e-03
4.060948999999999920e+00	3.944990393287520387e-03
4.067656000000000382e+00	3.960106475842600261e-03
4.074208000000000496e+00	3.974001321996679763e-03
4.080977999999999994e+00	3.981118006795200323e-03
4.087634999999999685e+00	3.989375376528319674e-03
4.094106000000000023e+00	4.027487027498619435e-03
4.100908000000000442e+00	4.055780458803700042e-03
4.107695999999999792e+00	4.051829184376980544e-03
4.114572000000000784e+00	4.078284891872400314e-03
4.121355999999999575e+00	4.088804496523199862e-03
4.128063000000000038e+00	4.133272219631380258e-03
4.135034000000000098e+00	4.174102167369760259e-03
4.142007999999999690e+00	4.194485679490920528e-03
4.148928999999999867e+00	4.167271873705779769e-03
4.155869000000000035e+00	4.181012008539359767e-03
4.162807999999999176e+00	4.202132297608979911e-03
4.169846999999999859e+00	4.169099561524080601e-03
4.176816999999999780e+00	4.250236860736039853e-03
4.183875000000000455e+00	4.241082430946000424e-03
4.190913000000000110e+00	4.239579763725599519e-03
4.197919999999999874e+00	4.296572349333440018e-03
4.204809000000000019e+00	4.288790515972759967e-03
4.211898999999999837e+00	4.281575123388539975e-03
4.219223999999999641e+00	4.327526669952399922e-03
4.226393999999999984e+00	4.260911258312100047e-03
4.233420999999999879e+00	4.222082493083520460e-03
4.240642000000000245e+00	4.246783471965999771e-03
4.247899000000000314e+00	4.293360348600960136e-03
4.255173999999999346e+00	4.402067116425440428e-03
4.262463000000000335e+00	4.439559915612320377e-03
4.269771000000000427e+00	4.399610794475999724e-03
4.277146000000000114e+00	4.431933843706079706e-03
4.284502999999999950e+00	4.422114243069760059e-03
4.291897000000000517e+00	4.400144642162080386e-03
4.299337000000000408e+00	4.506710827221119438e-03
4.306794000000000011e+00	4.452322466489039982e-03
4.314288000000000345e+00	4.291719715408840070e-03
4.321745999999999199e+00	4.423046395239099184e-03
4.329302999999999457e+00	4.546357744323119635e-03
4.336847999999999814e+00	4.375097576569039574e-03
4.344436999999999216e+00	4.327552279542799633e-03
4.352049000000000056e+00	4.459333086042879639e-03
4.359688999999999481e+00	4.527454410502200141e-03
4.367315000000000502e+00	4.540622400643999981e-03
4.375007999999999342e+00	4.575938515577099124e-03
4.382766000000000162e+00	4.597788004074300147e-03
4.390509999999999913e+00	4.603473106683279685e-03
4.398286999999999836e+00	4.612292294278119709e-03
4.406079999999999330e+00	4.603531696519800286e-03
4.413906000000000773e+00	4.638265407480319374e-03
4.421750999999999543e+00	4.689738052893000463e-03
4.429613999999999940e+00	4.691040108109599018e-03
4.437502999999999531e+00	4.723905131419980398e-03
4.445484000000000435e+00	4.716514525696059376e-03
4.453427999999999720e+00	4.699461948871980384e-03
4.461386000000000074e+00	4.760030964305519280e-03
4.469447999999999865e+00	4.781185985000320320e-03
4.477492999999999945e+00	4.774389293337559514e-03
4.485537000000000774e+00	4.800633843896799126e-03
4.493681999999999732e+00	4.826615102770299461e-03
4.501826999999999579e+00	4.836991479741000084e-03
4.509956999999999994e+00	4.857965614395540199e-03
4.518183000000000504e+00	4.879822356466419556e-03
4.526413999999999938e+00	4.884800161976000227e-03
4.534645000000000259e+00	4.884079650222480397e-03
4.543021000000000420e+00	4.894052544901199980e-03
4.551252999999999993e+00	4.917753319325880376e-03
4.559633999999999965e+00	4.942908949907520028e-03
4.568010000000000126e+00	4.966462721239919831e-03
4.576391000000000098e+00	4.988135093634639416e-03
4.584921999999999720e+00	5.022648818260800480e-03
4.593317000000000760e+00	5.040367039058820872e-03
4.601867000000000374e+00	5.059700211189780382e-03
4.610329000000000121e+00	5.080504791434399363e-03
4.618941999999999659e+00	5.072849895595559454e-03
4.627524000000000193e+00	5.103990661502460537e-03
4.636192000000000313e+00	5.144433635213999795e-03
4.644836000000000631e+00	5.164056288835500858e-03
4.653567999999999927e+00	5.199729688122599856e-03
4.662285000000000679e+00	5.230992303587460139e-03
4.671085000000000598e+00	5.245387388705400125e-03
4.679848000000000674e+00	5.284168513449960178e-03
4.688730000000000508e+00	5.319479772409179373e-03
4.697510999999999548e+00	5.343115179944800223e-03
4.706496999999999709e+00	5.376164343033919962e-03
4.715328999999999660e+00	5.428606353699479310e-03
4.724378999999999884e+00	5.462626818420880485e-03
4.733379000000000225e+00	5.477125152613919988e-03
4.742377000000000287e+00	5.516136576178040651e-03
4.751545999999999381e+00	5.554022087356140155e-03
4.760577000000000503e+00	5.558529544154419862e-03
4.769731999999999417e+00	5.570131846841759778e-03
4.778931999999999292e+00	5.608446037015359965e-03
4.788032999999999539e+00	5.623700423655600758e-03
4.797367999999999633e+00	5.631735270577780360e-03
4.806686000000000014e+00	5.619737644715600867e-03
4.815953999999999624e+00	5.645807727619200217e-03
4.825305000000000177e+00	5.659816107034800099e-03
4.834741000000000177e+00	5.645911733609639167e-03
4.844160000000000466e+00	5.660385058066159936e-03
4.853564000000000433e+00	5.663410897876199404e-03
4.863132000000000232e+00	5.674641710458280114e-03
4.872700000000000031e+00	5.678419548005700368e-03
4.882255000000000678e+00	5.709152224587899817e-03
4.891809999999999548e+00	5.714397282698399812e-03
4.901460000000000150e+00	5.712046181786559901e-03
4.911233000000000182e+00	5.748723350084679849e-03
4.920970000000000510e+00	5.759676812528519325e-03
4.930725999999999942e+00	5.763571614056879448e-03
4.940444000000000280e+00	5.796357766640300099e-03
4.950284999999999158e+00	5.817724862098739430e-03
4.960220999999999769e+00	5.854552739207519695e-03
4.970195000000000363e+00	5.876011693051359785e-03
4.980151000000000217e+00	5.913290854725479495e-03
4.990223000000000297e+00	5.923093446544199989e-03
5.000259999999999927e+00	5.968732521990360688e-03
5.010302000000000255e+00	6.013245416063360375e-03
5.020407999999999760e+00	6.037871397373919570e-03
5.030528999999999584e+00	6.051352055627099574e-03
5.040771999999999586e+00	6.080500009912000008e-03
5.050978000000000634e+00	6.124281490827000220e-03
5.061303999999999803e+00	6.163260074079500613e-03
5.071660000000000501e+00	6.195982775478280601e-03
5.082071000000000005e+00	6.225186644284320080e-03
5.092476999999999698e+00	6.258287448492840487e-03
5.102986000000000466e+00	6.304518226368320197e-03
5.113476999999999606e+00	6.337260424728399094e-03
5.124056999999999640e+00	6.393893462145680551e-03
5.134612000000000620e+00	6.418332024478000039e-03
5.145309000000000133e+00	6.477601602540360853e-03
5.155948999999999671e+00	6.525241882512780069e-03
5.166691999999999396e+00	6.549970343666559197e-03
5.177468999999999433e+00	6.571602205826400367e-03
5.188297999999999632e+00	6.615693840077659961e-03
5.199158999999999864e+00	6.668647440051619045e-03
5.210069999999999979e+00	6.706060492486320621e-03
5.221048999999999829e+00	6.758279111573500288e-03
5.231994000000000256e+00	6.808933280090100071e-03
5.243092000000000752e+00	6.837226588866700261e-03
5.254184000000000410e+00	6.898742067039899915e-03
5.265316000000000329e+00	6.930822292876159633e-03
5.276494999999999713e+00	6.974137408289399730e-03
5.287725000000000009e+00	7.012738270484800487e-03
5.298954000000000164e+00	7.068313333694840536e-03
5.310386000000000273e+00	7.123702670782000243e-03
5.321765000000000079e+00	7.158592756084439929e-03
5.333130000000000592e+00	7.213828435960480644e-03
5.344732999999999734e+00	7.262576388339199961e-03
5.356262000000000079e+00	7.316839938431999972e-03
5.367793999999999954e+00	7.351597408992960672e-03
5.379479000000000788e+00	7.416068978433419841e-03
5.391162999999999705e+00	7.467610286504000605e-03
5.402811000000000696e+00	7.508024627300999634e-03
5.414729000000000347e+00	7.556030248881059896e-03
5.426575999999999844e+00	7.590717781319119943e-03
5.438447000000000031e+00	7.661444836667999532e-03
5.450413000000000174e+00	7.726754910848400784e-03
5.462282000000000082e+00	7.786235345937918793e-03
5.474454999999999849e+00	7.816880629798558799e-03
5.486470000000000624e+00	7.894134704704078645e-03
5.498738999999999599e+00	7.949013730584299220e-03
5.510826999999999920e+00	7.998334331537199776e-03
5.523212000000000010e+00	8.052960040557178775e-03
5.535400999999999350e+00	8.110096546218239708e-03
5.547889999999999766e+00	8.183875023376320154e-03
5.560177999999999621e+00	8.233955379007200023e-03
5.572780999999999985e+00	8.312861433334959443e-03
5.585205000000000197e+00	8.364109360721540959e-03
5.597895000000000287e+00	8.433900781363199220e-03
5.610651999999999973e+00	8.490431952778999466e-03
5.623190000000000133e+00	8.566499986868199995e-03
5.636079999999999757e+00	8.631450079600179459e-03
5.649005000000000720e+00	8.701400992693201705e-03
5.661628999999999579e+00	8.774516883023740499e-03
5.674735999999999336e+00	8.842680987243398474e-03
5.687812000000000090e+00	8.884071305342239669e-03
5.700821000000000360e+00	8.973855167751541156e-03
5.713830999999999882e+00	9.048420889578721177e-03
5.727038000000000295e+00	9.116146289145279219e-03
5.740382999999999569e+00	9.202885158262999118e-03
5.753714000000000439e+00	9.250891289111879204e-03
5.766939999999999955e+00	9.330540699400560051e-03
5.780351000000000461e+00	9.421059166260280573e-03
5.793914000000000009e+00	9.513829648172879641e-03
5.807441999999999993e+00	9.574075266996240688e-03
5.821187000000000111e+00	9.651337654924799572e-03
5.834953999999999752e+00	9.742997470603600996e-03
5.848700000000000010e+00	9.817382605464001349e-03
5.862497000000000291e+00	9.909282406117440184e-03
5.876344999999999708e+00	9.992473784624160763e-03
5.890376999999999974e+00	1.007980638500735951e-02
5.904327000000000325e+00	1.018015560036194048e-02
5.918440999999999619e+00	1.026076477361760088e-02
5.932592999999999783e+00	1.034055090338400172e-02
5.946825999999999723e+00	1.045282715824769927e-02
5.961044999999999483e+00	1.053023427556380037e-02
5.975398000000000209e+00	1.062636001027930134e-02
5.989783000000000079e+00	1.071548606471572039e-02
6.004268999999999856e+00	1.082677331389304137e-02
6.018734999999999502e+00	1.090659846972719983e-02
6.033590000000000231e+00	1.099845531272291947e-02
6.048343000000000025e+00	1.110438578802894032e-02
6.062948000000000448e+00	1.120745852683956156e-02
6.077754999999999797e+00	1.131571437411095851e-02
6.092959999999999710e+00	1.140967078489951887e-02
6.107898999999999745e+00	1.150634064869328170e-02
6.122821000000000069e+00	1.160401076533440143e-02
6.138097999999999388e+00	1.169268162310192066e-02
6.153357999999999883e+00	1.181227810659983904e-02
6.168446999999999569e+00	1.192270113190598002e-02
6.184108000000000160e+00	1.201844989859949912e-02
6.199273999999999951e+00	1.240818888724043965e-02
6.214824000000000126e+00	1.255594817237112165e-02
6.230399000000000242e+00	1.263578955713400009e-02
6.246093000000000117e+00	1.277822692103212053e-02
6.261760999999999910e+00	1.286741899469123936e-02
6.277693000000000190e+00	1.296357779054199862e-02
6.293619999999999770e+00	1.309478193725525930e-02
6.309692000000000078e+00	1.320474813357247999e-02
6.325668999999999542e+00	1.332881006604000156e-02
6.341860000000000497e+00	1.346070335004486036e-02
6.358189999999999564e+00	1.358060242634923954e-02
6.374475999999999587e+00	1.370400499403640060e-02
6.390924000000000049e+00	1.382996959574538109e-02
6.407445000000000057e+00	1.395427194231279970e-02
6.423867999999999689e+00	1.408463382103470121e-02
6.440699999999999648e+00	1.424434409275856031e-02
6.457409000000000177e+00	1.436773817223975860e-02
6.474261999999999517e+00	1.449829018821812039e-02
6.491206999999999283e+00	1.458712792578240047e-02
6.508250000000000313e+00	1.477265388054635822e-02
6.525384000000000739e+00	1.493697055493957947e-02
6.542563000000000351e+00	1.541749068187938006e-02
6.559934000000000154e+00	1.558012872140468116e-02
6.577211999999999392e+00	1.575023896702800255e-02
6.594844000000000150e+00	1.588164093083579975e-02
6.612334999999999852e+00	1.599833023581849825e-02
6.629964999999999442e+00	1.623559359680440059e-02
6.647789000000000392e+00	1.633956982056839966e-02
6.665559000000000012e+00	1.656699854070744007e-02
6.683618000000000059e+00	1.665966648662050090e-02
6.701725000000000598e+00	1.682084514607225939e-02
6.719751999999999725e+00	1.698112129257972266e-02
6.738004000000000104e+00	1.713764087536783984e-02
6.756484000000000378e+00	1.735166809399183926e-02
6.774922000000000111e+00	1.749361629977207871e-02
6.793236999999999526e+00	1.764236415126639937e-02
6.812101000000000184e+00	1.782627198426976062e-02
6.830865999999999438e+00	1.791517291439399806e-02
6.849864000000000175e+00	1.808525643226794113e-02
6.868869000000000113e+00	1.824178931233499945e-02
6.890023999999999482e+00	1.849468615408079997e-02
6.909448999999999508e+00	1.861191120869285995e-02
6.928619999999999557e+00	1.878660133120159739e-02
6.947861999999999760e+00	1.898054802764639892e-02
6.967242999999999853e+00	1.918695395774430018e-02
6.986816000000000138e+00	1.929717045012240006e-02
7.006601000000000745e+00	1.950124477576415868e-02
7.026593999999999340e+00	1.966300481361659899e-02
7.046618000000000492e+00	1.984696175712979960e-02
7.066756000000000704e+00	1.999802656771779846e-02
7.086867999999999945e+00	2.021175930626020051e-02
7.107082000000000122e+00	2.039642670808079761e-02
7.127383999999999276e+00	2.057518380669179706e-02
7.147854999999999848e+00	2.076450154014599855e-02
7.168324000000000140e+00	2.095325544976960053e-02
7.189480999999999788e+00	2.112894996350440230e-02
7.210282000000000302e+00	2.138324293130880113e-02
7.231152999999999942e+00	2.156250136449359631e-02
7.252216999999999913e+00	2.179064851245359966e-02
7.273873000000000033e+00	2.202079783941620142e-02
7.294840000000000657e+00	2.223314458447399680e-02
7.316562000000000232e+00	2.249830419082840191e-02
7.338192000000000270e+00	2.273275656654880073e-02
7.359583999999999904e+00	2.295666656627600236e-02
7.381948999999999650e+00	2.321457190021259873e-02
7.403742999999999519e+00	2.342999329106099787e-02
7.426270999999999844e+00	2.370980599427279997e-02
7.448189000000000171e+00	2.396947213994259779e-02
7.470906999999999520e+00	2.423515553938999922e-02
7.493058000000000440e+00	2.453652649005800060e-02
7.515965000000000451e+00	2.484902647895679759e-02
7.538330000000000197e+00	2.516778815983320219e-02
7.561449999999999783e+00	2.543504114196519852e-02
7.584475999999999551e+00	2.573910161475120167e-02
7.607624000000000386e+00	2.605396376786400098e-02
7.631002999999999759e+00	2.641879546434360015e-02
7.654601999999999684e+00	2.672335929582040151e-02
7.678314000000000306e+00	2.708873503892639950e-02
7.702144000000000545e+00	2.742358625877400202e-02
7.726142000000000287e+00	2.778230073184720025e-02
7.750281000000000198e+00	2.813967184886320000e-02
7.774516999999999456e+00	2.846415329133840377e-02
7.798983999999999916e+00	2.882976838687760154e-02
7.823599999999999888e+00	2.921063921307279904e-02
7.848308000000000284e+00	2.956201851744399978e-02
7.873272000000000936e+00	2.993827484094719812e-02
7.898340000000000138e+00	3.029756708695499970e-02
7.923522000000000176e+00	3.068084459153780016e-02
7.948866000000000653e+00	3.107649672906299607e-02
7.974428999999999768e+00	3.157021379404979788e-02
8.000182000000000571e+00	3.198843454921040247e-02
8.026092000000000226e+00	3.249358393402240058e-02
8.052060999999998359e+00	3.299190708627660479e-02
8.078350999999999615e+00	3.355263578542799774e-02
8.104722999999999900e+00	3.416807028716800643e-02
8.131320999999999799e+00	3.481640041556319926e-02
8.158066999999999069e+00	3.559614609280500191e-02
8.184958000000001732e+00	3.648577853939759946e-02
8.212080999999999520e+00	3.738638927677440105e-02
8.239307000000000158e+00	3.838596630103620344e-02
8.266808000000001044e+00	3.955153724350139732e-02
8.294477000000000544e+00	4.067636496416100061e-02
8.322215000000001695e+00	4.202698731643800256e-02
8.350244999999999251e+00	4.348311742610920516e-02
8.378510000000000346e+00	4.513286316535640441e-02
8.406886999999999333e+00	4.690358032063560167e-02
8.435458000000000567e+00	4.879112843174959746e-02
8.464171000000000333e+00	5.070745628238079727e-02
8.493143999999999139e+00	5.253263241504160103e-02
8.522327999999999903e+00	5.777099552246639513e-02
8.551707000000000392e+00	6.075514062875279897e-02
8.581253999999999493e+00	6.420032372648400154e-02
8.611083000000000709e+00	6.777449631848998790e-02
8.641073000000000448e+00	7.151298006820119846e-02
8.671229000000000298e+00	7.494943018923000411e-02
8.701652000000001053e+00	7.750039352244340873e-02
8.732307999999999737e+00	7.910410988160239409e-02
8.763161000000000200e+00	7.985627828124400307e-02
8.794128000000000611e+00	7.923598056036600112e-02
8.825464999999999449e+00	7.695089420662001856e-02
8.856980999999999327e+00	7.334913078355799476e-02
8.888609000000000648e+00	6.718453663132799292e-02
8.920669000000000182e+00	6.059299526515199430e-02
8.952799999999999869e+00	4.781435852583599405e-02
8.985260000000000247e+00	3.722406422160000339e-02
9.017957000000000889e+00	3.025996313253999717e-02
9.050819000000000614e+00	2.433729542590600328e-02
9.083989000000000757e+00	2.852922967318200290e-02
9.117376000000000147e+00	3.671771788005000203e-02
9.151050000000001461e+00	3.083713633472999829e-02
9.184858000000000189e+00	2.088064869631999984e-02
9.218977999999999895e+00	1.867928011306200023e-02
9.253413999999999362e+00	1.910001465574800300e-02
9.288032999999998651e+00	1.409782184938400060e-02
9.323079999999999146e+00	1.355736927640559947e-02
9.358292999999999751e+00	1.715573999558300117e-02
9.393580999999999293e+00	1.062469602300400093e-02
9.429266000000000147e+00	9.440142784969601797e-03
9.465193000000001078e+00	9.091603132920801286e-03
9.501570000000000960e+00	9.054696989302999863e-03
9.538016000000000716e+00	8.929265446684798990e-03
9.574844999999999828e+00	9.028742043379799076e-03
9.611959999999999837e+00	8.773511893013999016e-03
9.649499000000000493e+00	8.764225995040000536e-03
9.686946000000000723e+00	8.968841998208399585e-03
9.725127000000000521e+00	9.203993481360920464e-03
9.763426000000000826e+00	9.443020212077759754e-03
9.801850000000001728e+00	9.661829114353901599e-03
9.840624000000000038e+00	9.939354554585000390e-03
9.880012999999999934e+00	1.016704159434235998e-02
9.919361999999999568e+00	1.040769750991950120e-02
9.959281000000000716e+00	1.065847990910495820e-02
9.999651999999999319e+00	1.089817464102400130e-02
1.004023000000000110e+01	1.113803610159572188e-02
1.008074500000000029e+01	1.137515705503839951e-02
1.012219900000000017e+01	1.160868296914320009e-02
1.016354600000000019e+01	1.181943688301550013e-02
1.020534199999999991e+01	1.205044483918698076e-02
1.024742299999999950e+01	1.226813949946927926e-02
1.029016000000000020e+01	1.250275753339861844e-02
1.033318700000000057e+01	1.274922396739579938e-02
1.037614899999999984e+01	1.296790129326398124e-02
1.041947000000000045e+01	1.319416675576037985e-02
1.046340100000000106e+01	1.340194355554415878e-02
1.050768700000000067e+01	1.360945748909609884e-02
1.055243800000000043e+01	1.383109488472420052e-02
1.059748300000000043e+01	1.403039384677486068e-02
1.064301299999999983e+01	1.425196500823000013e-02
1.068890000000000029e+01	1.446786497444634001e-02
1.073511899999999919e+01	1.469152323096037903e-02
1.078183399999999992e+01	1.490334130247255966e-02
1.082881500000000052e+01	1.512273847293117875e-02
1.087635900000000078e+01	1.535147348172282052e-02
1.092426599999999937e+01	1.555688610148530000e-02
1.097257600000000011e+01	1.576826420690552108e-02
1.102131600000000056e+01	1.597713009773957943e-02
1.107049100000000053e+01	1.619805960648000240e-02
1.112012700000000009e+01	1.640840905414400058e-02
1.117022000000000048e+01	1.661479245417887829e-02
1.122077600000000075e+01	1.684670463629647785e-02
1.127172000000000018e+01	1.706956613189100289e-02
1.132327399999999962e+01	1.727786404574688239e-02
1.137513400000000097e+01	1.748660870287161925e-02
1.142762999999999884e+01	1.769662258254089959e-02
1.148047399999999918e+01	1.792710133274902015e-02
1.153384199999999993e+01	1.816361674374435825e-02
1.158777300000000032e+01	1.838570704849686044e-02
1.164215599999999995e+01	1.859831541355183929e-02
1.169705199999999934e+01	1.884562173151679842e-02
1.175244599999999906e+01	1.907678330620464144e-02
1.180847900000000017e+01	1.931275015214789850e-02
1.186493600000000015e+01	1.957449226700043801e-02
1.192193499999999950e+01	1.985750566236359899e-02
1.197946100000000058e+01	2.006316919521999864e-02
1.203768499999999975e+01	2.021566392017999994e-02
1.209634900000000002e+01	2.057143763058300046e-02
1.215571800000000025e+01	2.090689225531519937e-02
1.221554000000000073e+01	2.107298497680600013e-02
1.227590499999999984e+01	2.113273429103160184e-02
1.233707900000000102e+01	2.151619036794399920e-02
1.239935000000000009e+01	2.174633523821600106e-02
1.246169500000000063e+01	2.201703568609759964e-02
1.252468299999999957e+01	2.226170511429840029e-02
1.258831099999999914e+01	2.250494441206440238e-02
1.265258600000000122e+01	2.275584673965780000e-02
1.271732199999999935e+01	2.299627184324560050e-02
1.278271699999999989e+01	2.324302980629700324e-02
1.284911799999999893e+01	2.347321324791199967e-02
1.291585399999999950e+01	2.371724464827959858e-02
1.298366400000000098e+01	2.396112219074180219e-02
1.305207000000000050e+01	2.419048989993860185e-02
1.312102499999999949e+01	2.444493837307859865e-02
1.319086000000000070e+01	2.467520935772759758e-02
1.326134200000000085e+01	2.493129155618879766e-02
1.333292500000000125e+01	2.519202713954000333e-02
1.340467699999999951e+01	2.545448334070439869e-02
1.347773799999999866e+01	2.571896332784799621e-02
1.355139600000000044e+01	2.597095070978539672e-02
1.362596600000000002e+01	2.622559064944019955e-02
1.370067900000000094e+01	2.650627874360700006e-02
1.377689500000000145e+01	2.677512416371599993e-02
1.385366400000000020e+01	2.710056065445299797e-02
1.393153500000000022e+01	2.737600914585600065e-02
1.401020899999999969e+01	2.763200288917900052e-02
1.408972699999999989e+01	2.790703992119999977e-02
1.417022400000000104e+01	2.818393420201039876e-02
1.425167700000000082e+01	2.848578832423040094e-02
1.433394700000000022e+01	2.876057912029400185e-02
1.441731199999999902e+01	2.905127231394399878e-02
1.450159500000000001e+01	2.933933881021439857e-02
1.458685000000000009e+01	2.962811343766499905e-02
1.467323400000000078e+01	2.994193187671840076e-02
1.476055099999999953e+01	3.025359776208319876e-02
1.484894500000000050e+01	3.053332857243519841e-02
1.493841199999999958e+01	3.083511167591879848e-02
1.502889100000000155e+01	3.117323073714999698e-02
1.512049700000000030e+01	3.149117633772879898e-02
1.521317600000000070e+01	3.184111377550240263e-02
1.530705599999999933e+01	3.219111092254120510e-02
1.540224999999999866e+01	3.250594309891599587e-02
1.549845499999999987e+01	3.286320339502400018e-02
1.559594799999999992e+01	3.321127698209639517e-02
1.569459999999999944e+01	3.362340566498760175e-02
1.579461299999999824e+01	3.395976694869359824e-02
1.589566300000000076e+01	3.435557693368559984e-02
1.599840599999999924e+01	3.469797167567379576e-02
1.610230899999999821e+01	3.512434751271360095e-02
1.620755199999999974e+01	3.551917675836640392e-02
1.631425600000000031e+01	3.594599384859960278e-02
1.642207499999999953e+01	3.638278799521559720e-02
1.653151400000000137e+01	3.676941376213600093e-02
1.664290100000000194e+01	3.724400531367000333e-02
1.675491700000000250e+01	3.771952261634479997e-02
1.686899899999999874e+01	3.815466613213040065e-02
1.698501700000000270e+01	3.865511226925399946e-02
1.710174400000000006e+01	3.911483409988959770e-02
1.722085799999999978e+01	3.961762157405779999e-02
1.734125300000000180e+01	4.003087920031739994e-02
1.746336299999999753e+01	4.056629461684799903e-02
1.758719500000000124e+01	4.108977225473119804e-02
1.771279300000000134e+01	4.161110863020160006e-02
1.784021100000000004e+01	4.212557838119839609e-02
1.796943900000000127e+01	4.271926358129820439e-02
1.810061100000000067e+01	4.324636264286800535e-02
1.823359400000000008e+01	4.383844595916500109e-02
1.836866700000000208e+01	4.440995213286119681e-02
1.850576500000000024e+01	4.501541393910959976e-02
1.864486400000000188e+01	4.559716708804620322e-02
1.878602899999999920e+01	4.621964881023359756e-02
1.892953699999999984e+01	4.674529037625600042e-02
1.907502200000000059e+01	4.735994827769159782e-02
1.922293600000000069e+01	4.791147023590200393e-02
1.937312599999999918e+01	4.853370578845439542e-02
1.952574800000000010e+01	4.912644344513519834e-02
1.968061399999999850e+01	4.981826284428340218e-02
1.983810800000000185e+01	5.044280265701759497e-02
1.999801999999999680e+01	5.113033231104859716e-02
2.016080400000000239e+01	5.180791163955360268e-02
2.032588300000000103e+01	5.251142018163299646e-02
2.049398599999999959e+01	5.329359929506399807e-02
2.066457199999999972e+01	5.403745370912839407e-02
2.083818600000000032e+01	5.482587640450500149e-02
2.101534499999999994e+01	5.564391962115059626e-02
2.119438500000000047e+01	5.651047202909759148e-02
2.137711499999999987e+01	5.736955977979839999e-02
2.156294699999999764e+01	5.824618640583040241e-02
2.175211599999999734e+01	5.928472877800500251e-02
2.194458200000000048e+01	6.021468621064959142e-02
2.214049200000000184e+01	6.124202104285760007e-02
2.233995999999999782e+01	6.226644979943440211e-02
2.254307100000000119e+01	6.338565449923860839e-02
2.274981800000000121e+01	6.457876535603200574e-02
2.296051899999999790e+01	6.581177140701699457e-02
2.317510399999999748e+01	6.687990381169439669e-02
2.339381700000000208e+01	6.814979148071820259e-02
2.361670600000000064e+01	6.944182179742999783e-02
2.384365899999999883e+01	7.095587292114860500e-02
2.407522600000000068e+01	7.278614415321979503e-02
2.431107799999999841e+01	7.487164235166719750e-02
2.455230099999999993e+01	7.710116448080281404e-02
2.479734799999999950e+01	7.932123849096180124e-02
2.492220100000000116e+01	7.890915168820031300e-02
2.504798399999999958e+01	7.979870852820504512e-02
2.517497600000000091e+01	8.076916396028550882e-02
2.530348400000000098e+01	8.181136738084721083e-02
2.543280499999999833e+01	8.291782504582459468e-02
2.556457200000000185e+01	8.410219839612000092e-02
2.569692399999999921e+01	8.534743974677180822e-02
2.583060400000000101e+01	8.665960744430756257e-02
2.596568299999999851e+01	8.803891622203216527e-02
2.610250600000000176e+01	8.948873542624080635e-02
2.624042299999999983e+01	9.100154378314646852e-02
2.637985600000000019e+01	9.258141212881398907e-02
2.652123199999999770e+01	9.423297331830327028e-02
2.666442999999999941e+01	9.595467827068239475e-02
2.680751400000000118e+01	9.772202912007536824e-02
2.695335399999999737e+01	9.956973585005500504e-02
2.710071199999999791e+01	1.014820528355595414e-01
2.724955899999999787e+01	1.034578903513499876e-01
2.740005699999999678e+01	1.054987005064435129e-01
2.755306399999999911e+01	1.076158298413908004e-01
2.770690499999999901e+01	1.097853163299318396e-01
2.786224100000000092e+01	1.120153006341644969e-01
2.802001999999999882e+01	1.143186870952344614e-01
2.817920399999999859e+01	1.166795159933272097e-01
2.833972900000000195e+01	1.190954185636459300e-01
2.850295699999999854e+01	1.215857576387699007e-01
2.866784499999999980e+01	1.241332271484604927e-01
2.883545699999999812e+01	1.267517718930916137e-01
2.900396100000000033e+01	1.294087508613108173e-01
2.917437699999999978e+01	1.321105082949762255e-01
2.934665499999999838e+01	1.347945880632638871e-01
2.952043799999999862e+01	1.410380793488530127e-01
2.969948600000000027e+01	1.438582757347890151e-01
2.987608200000000025e+01	1.460681438258349951e-01
3.005958599999999947e+01	1.492879570126255939e-01
3.024166100000000057e+01	1.531175413938783980e-01
3.042598599999999820e+01	1.569047248883099765e-01
3.061334200000000294e+01	1.608693492270304171e-01
3.080353200000000058e+01	1.643661116679777934e-01
3.099734899999999982e+01	1.680331656840423904e-01
3.109427400000000219e+01	1.709211161701464088e-01
3.119209699999999685e+01	1.714643980987722027e-01
3.129095600000000132e+01	1.738599806840639972e-01
3.138947500000000090e+01	1.745971637531379961e-01
3.148912699999999987e+01	1.755361352872559788e-01
3.158950299999999700e+01	1.789105093969599880e-01
3.169066699999999770e+01	1.805845823175939724e-01
3.179202400000000139e+01	1.833663909997919894e-01
3.189411300000000082e+01	1.847601787698119891e-01
3.199691000000000329e+01	1.872702268370319834e-01
3.210051299999999941e+01	1.886003033114879990e-01
3.220471400000000273e+01	1.909920703128480113e-01
3.230963500000000010e+01	1.934017084066979864e-01
3.241535300000000319e+01	1.956550196932060059e-01
3.252148299999999637e+01	1.970769980759999873e-01
3.262844000000000477e+01	2.000023803237959974e-01
3.273628300000000024e+01	2.013883856739160094e-01
3.284444200000000080e+01	2.052389219779840179e-01
3.295352800000000570e+01	2.077499579345639946e-01
3.306328800000000001e+01	2.091498284781080075e-01
3.317399400000000043e+01	2.117023333726079926e-01
3.328498900000000305e+01	2.139866847043359888e-01
3.339738600000000446e+01	2.180610181491999811e-01
3.351010000000000133e+01	2.194036667813880070e-01
3.362322300000000297e+01	2.238722176565839939e-01
3.373817600000000283e+01	2.257258466997759949e-01
3.385310499999999934e+01	2.295632366816419967e-01
3.396937799999999896e+01	2.320435307200480191e-01
3.408574000000000126e+01	2.363077897927799986e-01
3.420380800000000221e+01	2.361891163261699844e-01
3.432179400000000413e+01	2.404780987839719719e-01
3.444090400000000329e+01	2.494239547345740160e-01
3.456142000000000536e+01	2.493637857065000019e-01
3.468193899999999985e+01	2.516700922416900132e-01
3.480327300000000434e+01	2.571379330127079865e-01
3.492589100000000002e+01	2.603682158679540004e-01
3.504955399999999344e+01	2.655869307756160147e-01
3.517379700000000042e+01	2.687135038074239812e-01
3.529909500000000122e+01	2.710805402433679734e-01
3.542516700000000185e+01	2.765234686445240397e-01
3.555228600000000228e+01	2.818758650022260004e-01
3.568018600000000617e+01	2.848584833967999774e-01
3.580878299999999825e+01	2.909178764256800109e-01
3.593823700000000088e+01	2.953601288804040270e-01
3.606886200000000287e+01	3.002617258176359938e-01
3.620091500000000195e+01	3.045509837478220239e-01
3.633339499999999589e+01	3.092237220037680201e-01
3.646627000000000152e+01	3.160338210388799474e-01
3.660155699999999968e+01	3.211942727820980004e-01
3.673695899999999881e+01	3.267250690788520151e-01
3.687367400000000117e+01	3.327787424861939902e-01
3.701151999999999731e+01	3.377593838717280472e-01
3.714986700000000042e+01	3.428601825633480482e-01
3.728880300000000148e+01	3.501190180120559714e-01
3.743030700000000621e+01	3.567882913969360192e-01
3.757208200000000176e+01	3.632045918344800062e-01
3.771435999999999922e+01	3.694746425944320234e-01
3.785818299999999681e+01	3.764704536432479931e-01
3.800360799999999983e+01	3.821049018126000396e-01
3.814984899999999612e+01	3.898952569349999897e-01
3.829720899999999517e+01	3.976507446359039410e-01
3.844555599999999629e+01	4.036718835116159809e-01
3.859474399999999861e+01	4.114480354081120339e-01
3.874576099999999457e+01	4.194133764837760237e-01
3.889787900000000320e+01	4.291796198487760061e-01
3.905110900000000385e+01	4.370857176935200039e-01
3.920462299999999800e+01	4.466237617859680209e-01
3.936088399999999865e+01	4.523752814116180354e-01
3.951765300000000281e+01	4.639741876062720149e-01
3.967546100000000564e+01	4.731455025821559857e-01
3.983426400000000456e+01	4.796768501656560324e-01
3.999608599999999825e+01	4.896361160528399648e-01
4.015712099999999651e+01	5.025958276481999887e-01
4.032027099999999820e+01	5.088203441364359536e-01
4.048536000000000001e+01	5.173766775853080313e-01
4.065136600000000300e+01	5.298409889467200484e-01
4.081875300000000095e+01	5.337389618969400340e-01
4.098759200000000646e+01	5.461130206855799862e-01
4.115660400000000152e+01	5.546408245308800389e-01
4.132837899999999820e+01	5.656978271527599578e-01
4.150065000000000026e+01	5.774766747154440605e-01
4.167696800000000223e+01	5.812523298372779257e-01
4.185207799999999878e+01	5.907129969374159684e-01
4.202779699999999963e+01	6.005158405250399234e-01
4.220818799999999982e+01	6.011866496707999330e-01
4.238733599999999768e+01	6.146048290897919708e-01
4.256893300000000124e+01	6.151836220379360842e-01
4.275468699999999700e+01	6.279424264631400243e-01
4.293919799999999753e+01	6.312617780619319552e-01
4.312514499999999629e+01	6.393469673766659644e-01
4.331230000000000047e+01	6.432786091322501010e-01
4.350209399999999960e+01	6.519616084858080862e-01
4.369371300000000247e+01	6.642415924926599047e-01
4.388694999999999879e+01	6.702551580531039832e-01
4.408202800000000110e+01	6.831383746053200090e-01
4.427900700000000001e+01	6.668973755429600248e-01
4.447738799999999770e+01	6.722820819357999689e-01
4.467801999999999651e+01	6.728802738124000093e-01
4.487977300000000014e+01	6.719188709318399955e-01
4.508406099999999839e+01	6.744021094459599075e-01
4.528996899999999926e+01	6.812303401640399381e-01
4.549766600000000238e+01	6.834633052575999068e-01
4.570712499999999778e+01	6.852787381518999910e-01
4.591859000000000179e+01	6.936043655460399915e-01
4.613229499999999916e+01	6.676464943124799101e-01
4.634792900000000060e+01	6.787503108716800293e-01
4.656537900000000008e+01	6.780946465986000815e-01
4.678516199999999969e+01	6.809240099359601395e-01
4.700665400000000460e+01	6.907482069390000756e-01
4.723066800000000143e+01	6.869779882770200574e-01
4.745602799999999633e+01	6.888684807060000415e-01
4.768420899999999563e+01	7.189598602093999480e-01
4.791463099999999997e+01	6.983444443553999958e-01
4.814706699999999984e+01	6.971946398207999884e-01
4.838163799999999526e+01	6.984834899292000632e-01
4.861924799999999891e+01	7.054711632875999561e-01
4.885876100000000122e+01	7.022895131900800392e-01
4.910031500000000193e+01	6.913785239201200028e-01
4.934472099999999983e+01	6.776980179512599456e-01
4.959123499999999751e+01	6.636792531499199344e-01
4.984028500000000150e+01	6.534074110808999469e-01
5.009195000000000420e+01	6.330759947279999134e-01
5.034680300000000130e+01	6.169161707346000334e-01
5.060304399999999703e+01	5.979169587560400068e-01
5.086240699999999748e+01	5.849166410874399036e-01
5.112513899999999722e+01	5.625421745136000018e-01
5.138949099999999959e+01	5.588399597184000589e-01
5.166306999999999761e+01	5.475222255992799880e-01
5.193461700000000292e+01	5.441877630338399774e-01
5.220795700000000039e+01	5.349914330459399903e-01
5.248356700000000075e+01	5.346507329539998965e-01
5.276237199999999916e+01	5.357780480678399071e-01
5.304365599999999858e+01	5.321183417048400699e-01
5.332988100000000031e+01	5.453118904184000026e-01
5.361884100000000331e+01	5.304847839130399922e-01
5.390970800000000196e+01	5.334746097696400069e-01
5.420315500000000242e+01	5.265537729611600160e-01
5.450172999999999490e+01	5.212179823238399790e-01
5.480429199999999668e+01	5.080257010580000454e-01
5.510741399999999857e+01	5.045313118547800624e-01
5.541571700000000078e+01	4.991992505849999762e-01
5.572525900000000121e+01	4.775848714933200179e-01
5.604005200000000286e+01	4.653997503875400010e-01
5.635849799999999732e+01	4.522693693221200295e-01
5.839999500000000410e+01	4.185676719834000026e-01
6.719999199999999462e+01	2.183077134275400177e-01
7.439999299999999494e+01	8.666654390369800398e-02
8.339999200000001167e+01	1.005958339562340043e-01
8.759999399999999525e+01	1.006268761169910042e-01
9.199999400000000094e+01	1.217871441953035927e-01
9.639998700000001008e+01	1.422728811869100052e-01
1.024999849999999952e+02	1.735805346425040030e-01
1.067999939999999981e+02	2.244563025027400127e-01
1.097999939999999981e+02	2.563592308876099790e-01
1.134999889999999994e+02	2.892777024757080540e-01
1.199999839999999978e+02	3.443039445774800367e-01
1.242999840000000091e+02	3.780064237759779844e-01
1.319999930000000177e+02	4.563974192113439687e-01
1.412999930000000006e+02	5.792833480775040345e-01
1.491999840000000006e+02	6.365916051114238750e-01
