8.826510000000000744e-01	2.049850000000000034e-04
8.858019999999999783e-01	2.069340000000000079e-04
8.889489999999999892e-01	2.088360000000000043e-04
8.921480000000000521e-01	2.100690000000000109e-04
8.953849999999999865e-01	2.116359999999999910e-04
8.986140000000000239e-01	2.134939999999999993e-04
9.018559999999999910e-01	2.147999999999999899e-04
9.051839999999999886e-01	2.163520000000000048e-04
9.084790000000000365e-01	2.181019999999999931e-04
9.117920000000000469e-01	2.215759999999999941e-04
9.151679999999999815e-01	2.236329999999999915e-04
9.185670000000000224e-01	2.255260000000000088e-04
9.219479999999999897e-01	2.276120000000000020e-04
9.254060000000000619e-01	2.297429999999999991e-04
9.288330000000000197e-01	2.315220000000000103e-04
9.323619999999999131e-01	2.333640000000000107e-04
9.358460000000000667e-01	2.351280000000000026e-04
9.394040000000000168e-01	2.376660000000000111e-04
9.429850000000000732e-01	2.399170000000000003e-04
9.465459999999999985e-01	2.424969999999999925e-04
9.502039999999999376e-01	2.444270000000000232e-04
9.538510000000000044e-01	2.470819999999999766e-04
9.574979999999999603e-01	2.498620000000000008e-04
9.612319999999999753e-01	2.526909999999999833e-04
9.649990000000000512e-01	2.557540000000000182e-04
9.687419999999999920e-01	2.586530000000000187e-04
9.724909999999999943e-01	2.616019999999999934e-04
9.763290000000000024e-01	2.649659999999999971e-04
9.802039999999999642e-01	2.680040000000000178e-04
9.841089999999999005e-01	2.703439999999999988e-04
9.880039999999999933e-01	2.732340000000000203e-04
9.919769999999999976e-01	2.764840000000000179e-04
9.959590000000000387e-01	2.801519999999999835e-04
9.999500000000001165e-01	2.839119999999999882e-04
1.003999000000000086e+00	2.869330000000000123e-04
1.008075000000000054e+00	2.881739999999999823e-04
1.012166000000000121e+00	2.909809999999999979e-04
1.016320000000000112e+00	2.947159999999999884e-04
1.020558000000000076e+00	3.001170000000000270e-04
1.024755000000000082e+00	3.030840000000000140e-04
1.028966000000000047e+00	3.041909999999999883e-04
1.033271000000000051e+00	3.054430000000000231e-04
1.035436999999999941e+00	2.984859999999999879e-04
1.035848000000000102e+00	3.003840000000000026e-04
1.036238999999999910e+00	3.029840000000000116e-04
1.036700999999999873e+00	2.971639999999999894e-04
1.037115999999999927e+00	3.021200000000000144e-04
1.037584000000000062e+00	3.047699999999999975e-04
1.037979999999999903e+00	3.003999999999999834e-04
1.038417999999999841e+00	3.015180000000000225e-04
1.038847000000000076e+00	3.001340000000000236e-04
1.039233000000000073e+00	3.018040000000000262e-04
1.039720999999999895e+00	3.026880000000000130e-04
1.040111000000000008e+00	3.043659999999999790e-04
1.040602000000000027e+00	3.032609999999999820e-04
1.040982999999999992e+00	3.039809999999999886e-04
1.041449999999999987e+00	3.055430000000000255e-04
1.041842000000000157e+00	3.122719999999999945e-04
1.042242000000000113e+00	3.083410000000000079e-04
1.042738000000000165e+00	3.088799999999999836e-04
1.043124000000000162e+00	3.086249999999999801e-04
1.043619999999999992e+00	3.116080000000000022e-04
1.044002000000000097e+00	3.121500000000000251e-04
1.044463000000000141e+00	3.137729999999999925e-04
1.044860000000000122e+00	3.171350000000000189e-04
1.045307999999999904e+00	3.141069999999999930e-04
1.045743000000000089e+00	3.154809999999999971e-04
1.046148000000000078e+00	3.185980000000000149e-04
1.046634000000000064e+00	3.180710000000000113e-04
1.047020000000000062e+00	3.199160000000000046e-04
1.047497000000000122e+00	3.194140000000000152e-04
1.047892999999999963e+00	3.184029999999999803e-04
1.048373999999999917e+00	3.199139999999999731e-04
1.048785000000000078e+00	3.186059999999999782e-04
1.049193999999999960e+00	3.175890000000000115e-04
1.049695000000000045e+00	3.185800000000000025e-04
1.050070999999999977e+00	3.209299999999999783e-04
1.050562999999999914e+00	3.199960000000000174e-04
1.050986999999999894e+00	3.192289999999999755e-04
1.051464999999999872e+00	3.171159999999999908e-04
1.051873000000000058e+00	3.183799999999999976e-04
1.052331000000000127e+00	3.174729999999999740e-04
1.052757000000000165e+00	3.135799999999999894e-04
1.053151999999999866e+00	3.136580000000000249e-04
1.053642999999999885e+00	3.137859999999999803e-04
1.054047999999999874e+00	3.129459999999999816e-04
1.054543999999999926e+00	3.106280000000000217e-04
1.054945000000000022e+00	3.081380000000000100e-04
1.055455000000000032e+00	3.053040000000000029e-04
1.055855999999999906e+00	3.024920000000000169e-04
1.056308000000000025e+00	3.062769999999999816e-04
1.056748000000000021e+00	3.019930000000000205e-04
1.057161999999999935e+00	3.025200000000000241e-04
1.057644000000000029e+00	3.023430000000000019e-04
1.058038999999999952e+00	3.032500000000000256e-04
1.058529999999999971e+00	3.014399999999999870e-04
1.058949999999999836e+00	3.036930000000000076e-04
1.059441999999999995e+00	3.038860000000000107e-04
1.059846999999999984e+00	3.059110000000000193e-04
1.060332999999999970e+00	3.052490000000000043e-04
1.060742999999999991e+00	3.060580000000000028e-04
1.061209999999999987e+00	3.086510000000000100e-04
1.061655000000000015e+00	3.100140000000000035e-04
1.062068999999999930e+00	3.109230000000000045e-04
1.062573999999999907e+00	3.145789999999999980e-04
1.062964999999999938e+00	3.209689999999999961e-04
1.063469999999999915e+00	3.262229999999999969e-04
1.063879999999999937e+00	3.325900000000000124e-04
1.064381999999999939e+00	3.420610000000000035e-04
1.064800999999999886e+00	3.541080000000000052e-04
1.065271999999999997e+00	3.702259999999999752e-04
1.065703000000000067e+00	3.880309999999999987e-04
1.066154999999999964e+00	4.122299999999999749e-04
1.066618000000000066e+00	4.303269999999999882e-04
1.067066000000000070e+00	4.578529999999999818e-04
1.067538000000000098e+00	4.992409999999999860e-04
1.067938999999999972e+00	5.570129999999999743e-04
1.068448000000000064e+00	6.327140000000000411e-04
1.068877999999999995e+00	7.364850000000000476e-04
1.069363999999999981e+00	8.483250000000000339e-04
1.069784000000000068e+00	9.283520000000000183e-04
1.070261000000000129e+00	9.968589999999998962e-04
1.070699000000000067e+00	1.030143000000000074e-03
1.071147999999999989e+00	9.690649999999999655e-04
1.071623999999999910e+00	8.239739999999999955e-04
1.072042999999999857e+00	6.488509999999999851e-04
1.072534000000000098e+00	4.945560000000000537e-04
1.072955000000000103e+00	3.694969999999999895e-04
1.073474000000000039e+00	2.827640000000000188e-04
1.073907999999999863e+00	2.398730000000000122e-04
1.074410000000000087e+00	2.168170000000000080e-04
1.074815000000000076e+00	2.082589999999999995e-04
1.075325000000000086e+00	2.024940000000000030e-04
1.075730000000000075e+00	2.004499999999999934e-04
1.076188000000000144e+00	1.989399999999999892e-04
1.076664000000000065e+00	1.987129999999999929e-04
1.077099000000000029e+00	1.984479999999999946e-04
1.077602999999999867e+00	1.994639999999999998e-04
1.078003999999999962e+00	1.988249999999999946e-04
1.078537999999999997e+00	1.990489999999999979e-04
1.078953999999999969e+00	1.998459999999999972e-04
1.079477000000000020e+00	1.991440000000000029e-04
1.079868999999999968e+00	1.997000000000000023e-04
1.080392999999999937e+00	1.992379999999999921e-04
1.080797999999999925e+00	1.981789999999999875e-04
1.081336999999999993e+00	1.966670000000000061e-04
1.081747999999999932e+00	1.962939999999999878e-04
1.082243999999999984e+00	1.966519999999999868e-04
1.082681999999999922e+00	1.944209999999999873e-04
1.083201999999999998e+00	1.941160000000000097e-04
1.083625999999999978e+00	1.955360000000000062e-04
1.084122000000000030e+00	1.947759999999999932e-04
1.084560999999999886e+00	1.955439999999999967e-04
1.085010000000000030e+00	1.960789999999999907e-04
1.085509999999999975e+00	1.974439999999999887e-04
1.085948999999999831e+00	2.007380000000000015e-04
1.086464000000000096e+00	2.004340000000000125e-04
1.086859000000000020e+00	2.064939999999999918e-04
1.087393999999999972e+00	2.077430000000000064e-04
1.087822999999999984e+00	2.131110000000000133e-04
1.088351999999999986e+00	2.212700000000000008e-04
1.088775999999999966e+00	2.319920000000000109e-04
1.089308999999999861e+00	2.483070000000000199e-04
1.089729999999999865e+00	2.683280000000000235e-04
1.090254999999999974e+00	2.897320000000000104e-04
1.090683000000000069e+00	3.097789999999999897e-04
1.091183999999999932e+00	3.372949999999999885e-04
1.091636999999999968e+00	3.767900000000000025e-04
1.092171999999999921e+00	4.308229999999999916e-04
1.092595999999999901e+00	4.761109999999999821e-04
1.093110000000000026e+00	5.101720000000000343e-04
1.093544999999999989e+00	5.202060000000000538e-04
1.094064000000000147e+00	5.049710000000000006e-04
1.094507999999999814e+00	4.934870000000000272e-04
1.094955000000000123e+00	5.330359999999999699e-04
1.095466000000000051e+00	6.273550000000000133e-04
1.095938999999999997e+00	8.068150000000000061e-04
1.096428999999999876e+00	1.071143000000000095e-03
1.096844999999999848e+00	1.317283999999999946e-03
1.097392999999999841e+00	1.331628999999999972e-03
1.097796999999999912e+00	1.148104000000000052e-03
1.098365000000000036e+00	9.196249999999999781e-04
1.098765999999999909e+00	6.745339999999999626e-04
1.099308999999999870e+00	4.914669999999999889e-04
1.099743000000000137e+00	3.494929999999999825e-04
1.100278000000000089e+00	2.489880000000000088e-04
1.100707000000000102e+00	1.852850000000000124e-04
1.101245000000000029e+00	1.496810000000000057e-04
1.101694000000000173e+00	1.280599999999999902e-04
1.102219000000000060e+00	1.150639999999999947e-04
1.102638000000000007e+00	1.106000000000000049e-04
1.103196999999999983e+00	1.024759999999999994e-04
1.103634999999999922e+00	9.697720000000000385e-05
1.104163000000000006e+00	9.046530000000000272e-05
1.104627000000000026e+00	8.896780000000000562e-05
1.105136000000000118e+00	8.532850000000000135e-05
1.105590000000000073e+00	8.412519999999999883e-05
1.106133999999999951e+00	8.256460000000000567e-05
1.106566999999999856e+00	8.249790000000000172e-05
1.107091999999999965e+00	8.003420000000000022e-05
1.107539999999999969e+00	7.831430000000000335e-05
1.108074000000000003e+00	7.780050000000000160e-05
1.108508000000000049e+00	7.770299999999999787e-05
1.109060999999999853e+00	7.594989999999999597e-05
1.109499000000000013e+00	7.709579999999999461e-05
1.110019000000000089e+00	7.659610000000000344e-05
1.110485999999999862e+00	7.514959999999999620e-05
1.110995999999999873e+00	7.543060000000000249e-05
1.111463000000000090e+00	7.625980000000000464e-05
1.111968999999999985e+00	7.440440000000000205e-05
1.112446999999999964e+00	7.505409999999999686e-05
1.112970000000000015e+00	7.389019999999999941e-05
1.113442999999999961e+00	7.432609999999999976e-05
1.113971999999999962e+00	7.495810000000000320e-05
1.114420999999999884e+00	7.507470000000000137e-05
1.114949999999999886e+00	7.458289999999999365e-05
1.115417000000000103e+00	7.392149999999999351e-05
1.115965000000000096e+00	7.371420000000000652e-05
1.116418000000000132e+00	7.422810000000000172e-05
1.116962000000000010e+00	7.260339999999999676e-05
1.117404999999999982e+00	7.401159999999999456e-05
1.117930000000000090e+00	7.442150000000000566e-05
1.118392999999999970e+00	7.422429999999999339e-05
1.118917000000000161e+00	7.335250000000000624e-05
1.119388999999999967e+00	7.358440000000000651e-05
1.119938000000000100e+00	7.474819999999999696e-05
1.120389999999999997e+00	7.454049999999999554e-05
1.120934000000000097e+00	7.329280000000000408e-05
1.121402000000000010e+00	7.412970000000000280e-05
1.121955000000000036e+00	7.305609999999999329e-05
1.122402999999999818e+00	7.446250000000000069e-05
1.122932000000000041e+00	7.395360000000000291e-05
1.123403999999999847e+00	7.347080000000000136e-05
1.123947999999999947e+00	7.377799999999999734e-05
1.124423999999999868e+00	7.522060000000000280e-05
1.124964000000000075e+00	7.395559999999999374e-05
1.125436000000000103e+00	7.338139999999999507e-05
1.125984000000000096e+00	7.473169999999999466e-05
1.126438000000000050e+00	7.354950000000000452e-05
1.127018999999999993e+00	7.346660000000000571e-05
1.127451999999999899e+00	7.243050000000000389e-05
1.128015999999999908e+00	7.280199999999999855e-05
1.128468000000000027e+00	7.352069999999999558e-05
1.129002000000000061e+00	7.225810000000000533e-05
1.129484000000000155e+00	7.460869999999999601e-05
1.130036999999999958e+00	7.330609999999999936e-05
1.130485000000000184e+00	7.369269999999999326e-05
1.131066999999999823e+00	7.373479999999999748e-05
1.131515999999999966e+00	7.313470000000000300e-05
1.132063999999999959e+00	7.471859999999999982e-05
1.132545999999999831e+00	7.420390000000000286e-05
1.133075000000000054e+00	7.494650000000000487e-05
1.133546999999999860e+00	7.524709999999999992e-05
1.134089999999999820e+00	7.541220000000000280e-05
1.134576999999999947e+00	7.538889999999999914e-05
1.135106000000000170e+00	7.553060000000000492e-05
1.135607999999999951e+00	7.652890000000000517e-05
1.136127000000000109e+00	7.602989999999999521e-05
1.136670999999999987e+00	7.575639999999999859e-05
1.137151999999999941e+00	7.617409999999999969e-05
1.137696000000000041e+00	7.620869999999999424e-05
1.138190999999999953e+00	7.565309999999999570e-05
1.138724999999999987e+00	7.651320000000000462e-05
1.139206999999999859e+00	7.573070000000000322e-05
1.139803999999999817e+00	7.638599999999999676e-05
1.140247000000000011e+00	7.825970000000000561e-05
1.140819000000000027e+00	7.756790000000000657e-05
1.141280999999999990e+00	7.694070000000000011e-05
1.141854000000000147e+00	7.763919999999999350e-05
1.142311000000000076e+00	7.804460000000000152e-05
1.142894000000000077e+00	7.779539999999999719e-05
1.143335999999999908e+00	7.838939999999999862e-05
1.143918999999999908e+00	7.834470000000000225e-05
1.144370000000000109e+00	7.828649999999999661e-05
1.144973000000000019e+00	7.778569999999999625e-05
1.145444999999999824e+00	7.884539999999999561e-05
1.145996999999999932e+00	7.906580000000000454e-05
1.146522000000000041e+00	7.948709999999999999e-05
1.147037000000000084e+00	7.893879999999999712e-05
1.147575999999999929e+00	7.982649999999999880e-05
1.148080999999999907e+00	7.824380000000000462e-05
1.148662999999999990e+00	7.970439999999999535e-05
1.149140000000000050e+00	7.948420000000000040e-05
1.149702999999999919e+00	7.899890000000000015e-05
1.150198999999999971e+00	8.054160000000000149e-05
1.150765999999999956e+00	7.971799999999999806e-05
1.151253000000000082e+00	7.835079999999999530e-05
1.151853000000000016e+00	7.871079999999999863e-05
1.152311000000000085e+00	7.885429999999999480e-05
1.152897999999999978e+00	7.806509999999999903e-05
1.153355999999999826e+00	7.873959999999999401e-05
1.153961999999999932e+00	7.741859999999999768e-05
1.154405000000000125e+00	7.841540000000000142e-05
1.155011000000000010e+00	7.826669999999999385e-05
1.155486999999999931e+00	7.809919999999999926e-05
1.156060000000000088e+00	7.732220000000000315e-05
1.156570000000000098e+00	7.778859999999999583e-05
1.157098999999999878e+00	7.806019999999999506e-05
1.157676000000000149e+00	7.761860000000000254e-05
1.158161999999999914e+00	7.801799999999999740e-05
1.158745000000000136e+00	7.841589999999999574e-05
1.159229999999999983e+00	7.727340000000000456e-05
1.159831999999999974e+00	7.871220000000000170e-05
1.160293000000000019e+00	7.850079999999999894e-05
1.160908000000000051e+00	7.889960000000000603e-05
1.161362000000000005e+00	7.948239999999999646e-05
1.161962000000000161e+00	8.010030000000000286e-05
1.162519999999999998e+00	7.915450000000000253e-05
1.163022000000000000e+00	7.911670000000000096e-05
1.163598000000000132e+00	8.019120000000000566e-05
1.164093999999999962e+00	8.009620000000000064e-05
1.164695000000000036e+00	8.193200000000000092e-05
1.165173000000000014e+00	8.147910000000000395e-05
1.165772999999999948e+00	8.068500000000000422e-05
1.166273999999999811e+00	8.154469999999999872e-05
1.166841999999999935e+00	8.128750000000000396e-05
1.167362000000000011e+00	8.157569999999999893e-05
1.167915000000000036e+00	8.194870000000000366e-05
1.168495999999999979e+00	8.190729999999999420e-05
1.168977000000000155e+00	8.245709999999999357e-05
1.169612000000000096e+00	8.245920000000000495e-05
1.170059999999999878e+00	8.237019999999999954e-05
1.170662000000000091e+00	8.230949999999999519e-05
1.171157000000000004e+00	8.313100000000000079e-05
1.171757999999999855e+00	8.291759999999999365e-05
1.172277999999999931e+00	8.343959999999999984e-05
1.172811999999999966e+00	8.338190000000000207e-05
1.173407000000000089e+00	8.348340000000000101e-05
1.173907999999999952e+00	8.405630000000000360e-05
1.174514000000000058e+00	8.413530000000000065e-05
1.175005000000000077e+00	8.544269999999999426e-05
1.175615999999999994e+00	8.357879999999999335e-05
1.176091999999999915e+00	8.519780000000000614e-05
1.176701999999999915e+00	8.497429999999999719e-05
1.177255000000000162e+00	8.456150000000000006e-05
1.177799000000000040e+00	8.391089999999999649e-05
1.178409999999999958e+00	8.475029999999999391e-05
1.178907000000000149e+00	8.609209999999999519e-05
1.179497999999999935e+00	8.499969999999999867e-05
1.179996999999999963e+00	8.581619999999999331e-05
1.180613000000000135e+00	8.585169999999999661e-05
1.181109999999999882e+00	8.650840000000000678e-05
1.181694999999999940e+00	8.579760000000000674e-05
1.182285999999999948e+00	8.488570000000000620e-05
1.182826000000000155e+00	8.577069999999999519e-05
1.183427000000000007e+00	8.645510000000000510e-05
1.183936000000000099e+00	8.663830000000000023e-05
1.184534000000000198e+00	8.714400000000000455e-05
1.185009000000000201e+00	8.651070000000000504e-05
1.185643999999999920e+00	8.674109999999999525e-05
1.186196999999999946e+00	8.641400000000000307e-05
1.186750000000000194e+00	8.772520000000000502e-05
1.187346000000000013e+00	8.684310000000000206e-05
1.187857000000000163e+00	8.646320000000000253e-05
1.188471000000000055e+00	8.731080000000000438e-05
1.188962999999999992e+00	8.754059999999999327e-05
1.189572999999999992e+00	8.662010000000000098e-05
1.190115999999999952e+00	8.702049999999999803e-05
1.190693999999999919e+00	8.748010000000000291e-05
1.191338000000000008e+00	8.756150000000000521e-05
1.191829000000000027e+00	8.851219999999999596e-05
1.192458000000000018e+00	8.926710000000000460e-05
1.192939999999999889e+00	8.870279999999999376e-05
1.193578999999999946e+00	8.840560000000000616e-05
1.194084999999999841e+00	8.901459999999999982e-05
1.194636999999999949e+00	8.928129999999999508e-05
1.195270999999999972e+00	8.880290000000000319e-05
1.195786999999999933e+00	8.922270000000000212e-05
1.196405999999999858e+00	9.038610000000000524e-05
1.196911999999999976e+00	8.951939999999999540e-05
1.197567000000000048e+00	8.973159999999999990e-05
1.198080000000000034e+00	8.943709999999999789e-05
1.198682000000000025e+00	9.019200000000000654e-05
1.199262000000000050e+00	9.027569999999999356e-05
1.199797000000000002e+00	9.113660000000000424e-05
1.200441000000000091e+00	9.041200000000000105e-05
1.200922000000000045e+00	9.096019999999999692e-05
1.201561000000000101e+00	9.142310000000000226e-05
1.202153000000000027e+00	9.042730000000000071e-05
1.202682999999999947e+00	9.089179999999999601e-05
1.203340999999999994e+00	9.119649999999999328e-05
1.203826999999999980e+00	9.172059999999999729e-05
1.204489999999999839e+00	9.148800000000000226e-05
1.205005000000000104e+00	9.148499999999999569e-05
1.205618999999999996e+00	9.137950000000000152e-05
1.206236000000000086e+00	9.291339999999999712e-05
1.206741000000000064e+00	9.161109999999999436e-05
1.207373999999999947e+00	9.220139999999999445e-05
1.207899999999999974e+00	9.210020000000000294e-05
1.208534999999999915e+00	9.307279999999999427e-05
1.209158000000000177e+00	9.341850000000000013e-05
1.209672999999999998e+00	9.257549999999999482e-05
1.210298000000000096e+00	9.383310000000000121e-05
1.210803000000000074e+00	9.299470000000000598e-05
1.211462000000000039e+00	9.397039999999999733e-05
1.212096999999999980e+00	9.426699999999999717e-05
1.212610999999999883e+00	9.361179999999999707e-05
1.213263999999999898e+00	9.386359999999999355e-05
1.213794000000000040e+00	9.411290000000000486e-05
1.214442999999999939e+00	9.406040000000000494e-05
1.215004999999999891e+00	9.450420000000000229e-05
1.215577000000000130e+00	9.437939999999999969e-05
1.216188000000000047e+00	9.296179999999999483e-05
1.216736000000000040e+00	9.473820000000000038e-05
1.217374999999999874e+00	9.566399999999999752e-05
1.217888999999999999e+00	9.556780000000000342e-05
1.218532999999999866e+00	9.543869999999999817e-05
1.219196000000000168e+00	9.650260000000000673e-05
1.219721000000000055e+00	9.529379999999999893e-05
1.220347000000000071e+00	9.608589999999999427e-05
1.220890000000000031e+00	9.509889999999999847e-05
1.221508999999999956e+00	9.683939999999999985e-05
1.222144000000000119e+00	9.602580000000000479e-05
1.222701999999999956e+00	9.643300000000000320e-05
1.223340000000000094e+00	9.624470000000000366e-05
1.223851000000000022e+00	9.656679999999999843e-05
1.224509999999999987e+00	9.764839999999999837e-05
1.225128999999999913e+00	9.729960000000000605e-05
1.225697000000000036e+00	9.652480000000000120e-05
1.226334999999999953e+00	9.719369999999999746e-05
1.226864999999999872e+00	9.683400000000000156e-05
1.227513999999999994e+00	9.696790000000000379e-05
1.228018999999999972e+00	9.865049999999999340e-05
1.228654000000000135e+00	9.830850000000000244e-05
1.229354000000000058e+00	9.803690000000000321e-05
1.229870000000000019e+00	9.798019999999999408e-05
1.230555999999999983e+00	9.814529999999999695e-05
1.231200000000000072e+00	9.907499999999999586e-05
1.231735000000000024e+00	9.829659999999999667e-05
1.232386999999999899e+00	9.957730000000000628e-05
1.232983999999999858e+00	9.878350000000000043e-05
1.233518000000000114e+00	9.990999999999999718e-05
1.234246999999999872e+00	9.946189999999999719e-05
1.234752999999999989e+00	1.000339999999999980e-04
1.235423999999999856e+00	9.974689999999999869e-05
1.236059999999999937e+00	9.989619999999999403e-05
1.236560000000000104e+00	9.970149999999999401e-05
1.237165999999999988e+00	1.004580000000000062e-04
1.237843000000000027e+00	1.002299999999999941e-04
1.238407000000000036e+00	1.004370000000000008e-04
1.239125999999999950e+00	1.005680000000000034e-04
1.239621000000000084e+00	1.015279999999999942e-04
1.240247000000000099e+00	1.016089999999999957e-04
1.240966999999999931e+00	1.016620000000000034e-04
1.241534000000000137e+00	1.022860000000000029e-04
1.242210999999999954e+00	1.017730000000000029e-04
1.242701999999999973e+00	1.024979999999999934e-04
1.243336999999999914e+00	1.026409999999999953e-04
1.244075999999999960e+00	1.030720000000000052e-04
1.244628000000000068e+00	1.026400000000000066e-04
1.245292000000000066e+00	1.026070000000000020e-04
1.245912000000000130e+00	1.027740000000000023e-04
1.246488999999999958e+00	1.038769999999999949e-04
1.247165999999999997e+00	1.035600000000000046e-04
1.247695999999999916e+00	1.036950000000000024e-04
1.248364000000000029e+00	1.028660000000000007e-04
1.249069999999999903e+00	1.037679999999999999e-04
1.249603000000000019e+00	1.030220000000000040e-04
1.250280999999999976e+00	1.042599999999999945e-04
1.250914000000000081e+00	1.038700000000000067e-04
1.251487000000000016e+00	1.048340000000000063e-04
1.252139999999999809e+00	1.042010000000000007e-04
1.252712000000000048e+00	1.049419999999999991e-04
1.253385000000000193e+00	1.053799999999999973e-04
1.254056999999999977e+00	1.049659999999999976e-04
1.254611000000000143e+00	1.054649999999999940e-04
1.255287999999999959e+00	1.055490000000000020e-04
1.255936999999999859e+00	1.061800000000000032e-04
1.256479999999999819e+00	1.060729999999999990e-04
1.257190000000000030e+00	1.061509999999999938e-04
1.257709999999999884e+00	1.065649999999999936e-04
1.258435999999999888e+00	1.066779999999999974e-04
1.259098000000000050e+00	1.072800000000000029e-04
1.259722000000000008e+00	1.068569999999999969e-04
1.260318000000000049e+00	1.075040000000000061e-04
1.261033999999999988e+00	1.075020000000000017e-04
1.261601999999999890e+00	1.071890000000000066e-04
1.262234999999999996e+00	1.082190000000000018e-04
1.262793999999999972e+00	1.073939999999999953e-04
1.263494999999999813e+00	1.077490000000000012e-04
1.264162999999999926e+00	1.082859999999999997e-04
1.264839999999999964e+00	1.090089999999999993e-04
1.265365000000000073e+00	1.072529999999999979e-04
1.266004000000000129e+00	1.088289999999999977e-04
1.266765999999999837e+00	1.079999999999999960e-04
1.267338999999999993e+00	1.087899999999999935e-04
1.268021000000000065e+00	1.078870000000000057e-04
1.268678999999999890e+00	1.092570000000000010e-04
1.269279999999999964e+00	1.091859999999999944e-04
1.269860999999999907e+00	1.104429999999999995e-04
1.270496000000000070e+00	1.085449999999999984e-04
1.271158000000000010e+00	1.096090000000000004e-04
1.271921999999999997e+00	1.105060000000000021e-04
1.272450999999999999e+00	1.096569999999999972e-04
1.273176000000000085e+00	1.090480000000000035e-04
1.273742999999999848e+00	1.108749999999999981e-04
1.274397000000000002e+00	1.110279999999999948e-04
1.275064999999999893e+00	1.106610000000000032e-04
1.275697999999999999e+00	1.100019999999999947e-04
1.276414999999999855e+00	1.114059999999999969e-04
1.277032999999999863e+00	1.116370000000000020e-04
1.277668000000000026e+00	1.113790000000000055e-04
1.278321000000000041e+00	1.106120000000000042e-04
1.278988999999999931e+00	1.119640000000000007e-04
1.279628999999999905e+00	1.126969999999999952e-04
1.280337999999999976e+00	1.123990000000000058e-04
1.281054999999999833e+00	1.112889999999999978e-04
1.281601999999999908e+00	1.129240000000000051e-04
1.282303999999999888e+00	1.126609999999999976e-04
1.282937999999999912e+00	1.130350000000000045e-04
1.283576999999999968e+00	1.130480000000000059e-04
1.284254000000000007e+00	1.130910000000000053e-04
1.284917000000000087e+00	1.136140000000000001e-04
1.285570999999999797e+00	1.136960000000000038e-04
1.286309999999999842e+00	1.133599999999999989e-04
1.286924999999999875e+00	1.143059999999999996e-04
1.287568999999999964e+00	1.145469999999999995e-04
1.288241000000000192e+00	1.154450000000000035e-04
1.288909000000000082e+00	1.142900000000000052e-04
1.289557000000000064e+00	1.151430000000000053e-04
1.290297000000000027e+00	1.149500000000000023e-04
1.290916999999999870e+00	1.159169999999999949e-04
1.291584999999999983e+00	1.153909999999999935e-04
1.294205000000000050e+00	1.159150000000000040e-04
1.296899000000000024e+00	1.153129999999999986e-04
1.299649000000000054e+00	1.173670000000000030e-04
1.302348000000000061e+00	1.182020000000000043e-04
1.305093000000000059e+00	1.186330000000000007e-04
1.307857000000000047e+00	1.200329999999999941e-04
1.310605000000000020e+00	1.210599999999999963e-04
1.313374000000000041e+00	1.217630000000000063e-04
1.316183000000000103e+00	1.225909999999999923e-04
1.318970999999999894e+00	1.232770000000000057e-04
1.321756000000000153e+00	1.251950000000000101e-04
1.324592999999999909e+00	1.258870000000000095e-04
1.327442000000000011e+00	1.271889999999999913e-04
1.330278999999999989e+00	1.288550000000000123e-04
1.333118000000000025e+00	1.292470000000000045e-04
1.335990000000000011e+00	1.297159999999999893e-04
1.338894000000000029e+00	1.319930000000000083e-04
1.341792000000000096e+00	1.318819999999999953e-04
1.344694000000000056e+00	1.322859999999999867e-04
1.347836000000000034e+00	1.342840000000000038e-04
1.350800999999999918e+00	1.351070000000000060e-04
1.353739000000000026e+00	1.367739999999999885e-04
1.356667999999999985e+00	1.372839999999999954e-04
1.359658999999999951e+00	1.385459999999999979e-04
1.362661000000000122e+00	1.394950000000000053e-04
1.365646000000000138e+00	1.401019999999999946e-04
1.368632000000000071e+00	1.408930000000000078e-04
1.371674999999999978e+00	1.412379999999999918e-04
1.374722999999999917e+00	1.423859999999999883e-04
1.377776000000000112e+00	1.436280000000000011e-04
1.380830999999999920e+00	1.441860000000000049e-04
1.383895000000000097e+00	1.453369999999999944e-04
1.386973999999999929e+00	1.465109999999999937e-04
1.390101999999999949e+00	1.476989999999999965e-04
1.393218999999999985e+00	1.493750000000000123e-04
1.396365999999999996e+00	1.507579999999999955e-04
1.399504000000000081e+00	1.513859999999999902e-04
1.402662000000000075e+00	1.520340000000000016e-04
1.405840999999999896e+00	1.534340000000000085e-04
1.409014999999999906e+00	1.553349999999999891e-04
1.412220000000000031e+00	1.553220000000000013e-04
1.415426000000000073e+00	1.551900000000000100e-04
1.418673000000000073e+00	1.573249999999999887e-04
1.421904999999999974e+00	1.577630000000000005e-04
1.425183000000000089e+00	1.594020000000000029e-04
1.428456999999999866e+00	1.612659999999999972e-04
1.431745999999999963e+00	1.617520000000000058e-04
1.435071999999999903e+00	1.632059999999999956e-04
1.438403000000000098e+00	1.651939999999999908e-04
1.441744999999999832e+00	1.663849999999999867e-04
1.445106999999999919e+00	1.678740000000000126e-04
1.448474000000000039e+00	1.687650000000000012e-04
1.451873999999999887e+00	1.698020000000000117e-04
1.455272000000000121e+00	1.713270000000000081e-04
1.459037000000000139e+00	1.713890000000000086e-04
1.462486999999999870e+00	1.720629999999999957e-04
1.465912999999999800e+00	1.734480000000000104e-04
1.469414999999999916e+00	1.753840000000000000e-04
1.472876999999999992e+00	1.763120000000000019e-04
1.476391000000000009e+00	1.785819999999999920e-04
1.479920000000000124e+00	1.772099999999999923e-04
1.483420999999999879e+00	1.788450000000000131e-04
1.487005999999999828e+00	1.806540000000000088e-04
1.490578999999999876e+00	1.805579999999999880e-04
1.494124999999999925e+00	1.834550000000000113e-04
1.497757000000000005e+00	1.844399999999999892e-04
1.501406000000000018e+00	1.856940000000000012e-04
1.505030000000000090e+00	1.873009999999999877e-04
1.508659000000000194e+00	1.887489999999999914e-04
1.512373999999999885e+00	1.906260000000000007e-04
1.516062000000000021e+00	1.915119999999999919e-04
1.519750000000000156e+00	1.932240000000000053e-04
1.523477999999999888e+00	1.936730000000000005e-04
1.527241999999999988e+00	1.966659999999999903e-04
1.531007999999999925e+00	1.980899999999999957e-04
1.534804999999999975e+00	2.000039999999999913e-04
1.538614999999999844e+00	2.022779999999999901e-04
1.542430999999999885e+00	2.032980000000000041e-04
1.546241999999999894e+00	2.047250000000000025e-04
1.550085000000000157e+00	2.069010000000000033e-04
1.553986000000000089e+00	2.081979999999999877e-04
1.557884999999999964e+00	2.104069999999999931e-04
1.561798999999999937e+00	2.111419999999999920e-04
1.565776000000000057e+00	2.118830000000000041e-04
1.569726999999999872e+00	2.143710000000000114e-04
1.573704999999999909e+00	2.164260000000000044e-04
1.577709000000000028e+00	2.184400000000000024e-04
1.581710999999999867e+00	2.198240000000000014e-04
1.585747000000000018e+00	2.217110000000000055e-04
1.589801000000000020e+00	2.230760000000000035e-04
1.593889000000000111e+00	2.249750000000000068e-04
1.597988999999999882e+00	2.267179999999999933e-04
1.602101999999999915e+00	2.290240000000000082e-04
1.606246000000000063e+00	2.306490000000000070e-04
1.610389999999999988e+00	2.318750000000000119e-04
1.614586000000000077e+00	2.337250000000000026e-04
1.618808999999999942e+00	2.360309999999999904e-04
1.623049000000000186e+00	2.381990000000000008e-04
1.627310999999999952e+00	2.397389999999999894e-04
1.631577999999999973e+00	2.415039999999999971e-04
1.635850000000000026e+00	2.437650000000000081e-04
1.640188000000000201e+00	2.470209999999999919e-04
1.644538000000000055e+00	2.476649999999999945e-04
1.648907999999999818e+00	2.501340000000000009e-04
1.653264000000000067e+00	2.516439999999999779e-04
1.657725000000000115e+00	2.538250000000000033e-04
1.662158000000000024e+00	2.559910000000000093e-04
1.666567000000000132e+00	2.570030000000000057e-04
1.671116000000000046e+00	2.590299999999999916e-04
1.675602000000000036e+00	2.610339999999999948e-04
1.680126000000000008e+00	2.635280000000000153e-04
1.684701999999999922e+00	2.654740000000000268e-04
1.689257999999999926e+00	2.679909999999999758e-04
1.693891000000000036e+00	2.707200000000000101e-04
1.698517999999999972e+00	2.723660000000000143e-04
1.703221999999999792e+00	2.745860000000000033e-04
1.707881999999999900e+00	2.762899999999999991e-04
1.712643999999999833e+00	2.789849999999999860e-04
1.717303000000000024e+00	2.811530000000000236e-04
1.722110000000000030e+00	2.830970000000000036e-04
1.726876999999999995e+00	2.853900000000000035e-04
1.731703999999999910e+00	2.876929999999999982e-04
1.736569000000000029e+00	2.892770000000000020e-04
1.741369999999999862e+00	2.918700000000000092e-04
1.746323999999999987e+00	2.936090000000000141e-04
1.751292000000000071e+00	2.971699999999999754e-04
1.756201999999999819e+00	2.991839999999999734e-04
1.761201999999999934e+00	3.013599999999999743e-04
1.766201999999999828e+00	3.035679999999999911e-04
1.771659000000000095e+00	3.066000000000000257e-04
1.776723000000000052e+00	3.113650000000000250e-04
1.781826000000000132e+00	3.130879999999999948e-04
1.786954000000000153e+00	3.158219999999999994e-04
1.792123000000000133e+00	3.172189999999999862e-04
1.797310000000000185e+00	3.196779999999999978e-04
1.802519999999999900e+00	3.192900000000000143e-04
1.807755000000000001e+00	3.234679999999999869e-04
1.813057000000000141e+00	3.255660000000000064e-04
1.818367000000000067e+00	3.295899999999999937e-04
1.823703000000000074e+00	3.317570000000000154e-04
1.829080000000000039e+00	3.335279999999999820e-04
1.834464000000000095e+00	3.360950000000000135e-04
1.839848999999999846e+00	3.383610000000000220e-04
1.845384000000000135e+00	3.409379999999999941e-04
1.850876999999999883e+00	3.423680000000000126e-04
1.856402000000000108e+00	3.447459999999999956e-04
1.861926999999999888e+00	3.469589999999999827e-04
1.867593000000000059e+00	3.489000000000000239e-04
1.873234999999999983e+00	3.538999999999999828e-04
1.878875999999999991e+00	3.558489999999999874e-04
1.884590999999999905e+00	3.598680000000000043e-04
1.890341000000000049e+00	3.615709999999999844e-04
1.896080999999999905e+00	3.651409999999999790e-04
1.901904999999999957e+00	3.676600000000000137e-04
1.907769999999999966e+00	3.691899999999999804e-04
1.913617000000000123e+00	3.709559999999999767e-04
1.919556999999999958e+00	3.731399999999999951e-04
1.925463000000000147e+00	3.734070000000000249e-04
1.931510999999999978e+00	3.769080000000000173e-04
1.937499000000000082e+00	3.789940000000000106e-04
1.943653999999999993e+00	3.867960000000000148e-04
1.949676999999999882e+00	3.907849999999999930e-04
1.955872999999999973e+00	3.929960000000000029e-04
1.962028000000000105e+00	3.979440000000000104e-04
1.968288999999999733e+00	4.009080000000000044e-04
1.974525999999999781e+00	4.036560000000000126e-04
1.980772999999999895e+00	4.066319999999999787e-04
1.987198999999999716e+00	4.081530000000000206e-04
1.993561000000000138e+00	4.069049999999999946e-04
1.999924000000000035e+00	4.073710000000000135e-04
2.006416999999999895e+00	4.100710000000000249e-04
2.012969000000000008e+00	4.137119999999999990e-04
2.019530000000000047e+00	4.228680000000000177e-04
2.026132000000000044e+00	4.335310000000000205e-04
2.032715000000000050e+00	4.385409999999999742e-04
2.039376999999999995e+00	4.450489999999999871e-04
2.046108999999999956e+00	4.518319999999999932e-04
2.052884999999999849e+00	4.549099999999999932e-04
2.059710000000000374e+00	4.582090000000000034e-04
2.066552000000000167e+00	4.610770000000000038e-04
2.073459999999999859e+00	4.625230000000000031e-04
2.080418000000000323e+00	4.660040000000000059e-04
2.087407999999999930e+00	4.685460000000000232e-04
2.094431999999999849e+00	4.711180000000000250e-04
2.101557000000000119e+00	4.748369999999999804e-04
2.108778999999999737e+00	4.786470000000000134e-04
2.115927000000000113e+00	4.817770000000000190e-04
2.123156999999999961e+00	4.908039999999999582e-04
2.130428999999999906e+00	4.946749999999999758e-04
2.137909999999999755e+00	4.946199999999999772e-04
2.145287999999999862e+00	4.957699999999999781e-04
2.152661000000000158e+00	5.024769999999999801e-04
2.160108000000000139e+00	5.053189999999999505e-04
2.167768000000000139e+00	5.084259999999999734e-04
2.175907999999999731e+00	5.136389999999999793e-04
2.177811999999999859e+00	5.150330000000000272e-04
2.179715999999999987e+00	5.170939999999999521e-04
2.181621999999999950e+00	5.174589999999999529e-04
2.183533000000000168e+00	5.207119999999999978e-04
2.185446999999999917e+00	5.214469999999999696e-04
2.187351000000000045e+00	5.204030000000000114e-04
2.189283000000000090e+00	5.222210000000000133e-04
2.191207000000000349e+00	5.267470000000000442e-04
2.193127999999999744e+00	5.255070000000000357e-04
2.195059999999999789e+00	5.262900000000000043e-04
2.197001999999999899e+00	5.272859999999999657e-04
2.198941000000000034e+00	5.322010000000000499e-04
2.200882999999999701e+00	5.287480000000000001e-04
2.202824999999999811e+00	5.321969999999999869e-04
2.204774000000000012e+00	5.308920000000000392e-04
2.206724000000000352e+00	5.349750000000000338e-04
2.208692999999999795e+00	5.341999999999999743e-04
2.210669999999999913e+00	5.351239999999999946e-04
2.212630000000000319e+00	5.350630000000000100e-04
2.214579999999999771e+00	5.359030000000000087e-04
2.216556999999999888e+00	5.386050000000000516e-04
2.218509000000000064e+00	5.405349999999999738e-04
2.220513999999999655e+00	5.414830000000000467e-04
2.222481000000000151e+00	5.430349999999999804e-04
2.224485999999999741e+00	5.450750000000000083e-04
2.226463999999999999e+00	5.449209999999999688e-04
2.228442999999999952e+00	5.473420000000000325e-04
2.230456000000000216e+00	5.485489999999999550e-04
2.232435999999999865e+00	5.491680000000000519e-04
2.234458999999999751e+00	5.507380000000000522e-04
2.236445999999999934e+00	5.544309999999999777e-04
2.238480000000000025e+00	5.561859999999999634e-04
2.240512999999999977e+00	5.599490000000000153e-04
2.242518000000000011e+00	5.616119999999999619e-04
2.244550000000000267e+00	5.637450000000000447e-04
2.246573000000000153e+00	5.670370000000000531e-04
2.248596000000000039e+00	5.673839999999999873e-04
2.250639999999999752e+00	5.690470000000000424e-04
2.252683000000000213e+00	5.719969999999999785e-04
2.254715999999999720e+00	5.713590000000000162e-04
2.256756999999999902e+00	5.736219999999999774e-04
2.258789000000000158e+00	5.709859999999999979e-04
2.260841000000000101e+00	5.728219999999999579e-04
2.262900999999999829e+00	5.712370000000000468e-04
2.264952000000000076e+00	5.734250000000000198e-04
2.267012999999999945e+00	5.738979999999999863e-04
2.269101999999999730e+00	5.766080000000000467e-04
2.271152999999999977e+00	5.765549999999999712e-04
2.273251999999999828e+00	5.806750000000000063e-04
2.275319999999999787e+00	5.801610000000000447e-04
2.277409000000000017e+00	5.826299999999999969e-04
2.279478000000000115e+00	5.831299999999999548e-04
2.281594000000000122e+00	5.848640000000000436e-04
2.283694000000000113e+00	5.849120000000000404e-04
2.285762000000000072e+00	5.882310000000000403e-04
2.287841000000000236e+00	5.902890000000000264e-04
2.289956999999999798e+00	5.915239999999999561e-04
2.292053000000000118e+00	5.966940000000000438e-04
2.294179999999999886e+00	5.978729999999999592e-04
2.296313000000000049e+00	5.988690000000000289e-04
2.298418999999999990e+00	6.023689999999999514e-04
2.300574000000000119e+00	6.029170000000000145e-04
2.302669999999999995e+00	6.070399999999999885e-04
2.304804000000000297e+00	6.095630000000000319e-04
2.306929000000000229e+00	6.098009999999999846e-04
2.309073999999999849e+00	6.086320000000000098e-04
2.311226000000000003e+00	6.126200000000000265e-04
2.313378000000000156e+00	6.154179999999999547e-04
2.315522000000000080e+00	6.128559999999999477e-04
2.317712999999999912e+00	6.114010000000000234e-04
2.319865000000000066e+00	6.107210000000000503e-04
2.322007000000000154e+00	6.123889999999999672e-04
2.324159000000000308e+00	6.232100000000000183e-04
2.326341999999999910e+00	6.386290000000000413e-04
2.328530000000000211e+00	6.484789999999999825e-04
2.330738000000000198e+00	6.457830000000000341e-04
2.332899999999999974e+00	6.305459999999999494e-04
2.335096999999999756e+00	6.134489999999999605e-04
2.337269999999999737e+00	6.082509999999999740e-04
2.339431999999999956e+00	6.047150000000000268e-04
2.341676000000000091e+00	6.104899999999999910e-04
2.343875999999999848e+00	6.119260000000000498e-04
2.346102000000000132e+00	6.141519999999999705e-04
2.348326999999999831e+00	6.156199999999999910e-04
2.350517999999999663e+00	6.174320000000000069e-04
2.352697999999999734e+00	6.177659999999999532e-04
2.354922999999999877e+00	6.182089999999999894e-04
2.357204999999999995e+00	6.159269999999999459e-04
2.359440999999999899e+00	6.210999999999999724e-04
2.361693999999999960e+00	6.238049999999999541e-04
2.363913000000000153e+00	6.235039999999999853e-04
2.366155999999999704e+00	6.232499999999999976e-04
2.368419999999999970e+00	6.268299999999999870e-04
2.370683000000000096e+00	6.282580000000000282e-04
2.372974999999999834e+00	6.308989999999999780e-04
2.375218000000000274e+00	6.328380000000000420e-04
2.377419000000000171e+00	6.354449999999999986e-04
2.379745999999999917e+00	6.394390000000000013e-04
2.382034999999999680e+00	6.370279999999999866e-04
2.384319000000000077e+00	6.345259999999999486e-04
2.393583000000000016e+00	6.273859999999999593e-04
2.402950000000000141e+00	6.335629999999999647e-04
2.412147000000000041e+00	6.434340000000000198e-04
2.421756999999999938e+00	6.502399999999999543e-04
2.431154999999999955e+00	6.591389999999999923e-04
2.440574999999999939e+00	6.630460000000000347e-04
2.450461000000000222e+00	6.707910000000000088e-04
2.459928000000000115e+00	6.758950000000000331e-04
2.469916999999999696e+00	6.861400000000000138e-04
2.480428999999999995e+00	6.897379999999999614e-04
2.485644999999999882e+00	6.664569999999999652e-04
2.490656999999999677e+00	7.016410000000000268e-04
2.495654999999999735e+00	7.117059999999999923e-04
2.500729000000000202e+00	7.095530000000000283e-04
2.505727000000000260e+00	7.159580000000000458e-04
2.510476000000000152e+00	7.165920000000000536e-04
2.515559999999999796e+00	7.195259999999999547e-04
2.520666999999999991e+00	7.228780000000000405e-04
2.526028000000000162e+00	7.306969999999999871e-04
2.531242999999999910e+00	7.369170000000000191e-04
2.536097000000000268e+00	7.366099999999999558e-04
2.541290000000000049e+00	7.475850000000000464e-04
2.546505999999999936e+00	7.455849999999999977e-04
2.551720999999999684e+00	7.466359999999999577e-04
2.556960000000000122e+00	7.557389999999999551e-04
2.562238000000000238e+00	7.496389999999999694e-04
2.567536000000000040e+00	7.667009999999999494e-04
2.573232999999999659e+00	7.639069999999999758e-04
2.578495000000000203e+00	7.669029999999999857e-04
2.583568999999999782e+00	7.739889999999999921e-04
2.588953000000000060e+00	7.786979999999999770e-04
2.594504000000000143e+00	7.819020000000000093e-04
2.599829000000000168e+00	7.862109999999999845e-04
2.605248000000000008e+00	7.914849999999999750e-04
2.610714000000000201e+00	7.952750000000000184e-04
2.616194000000000131e+00	7.962219999999999671e-04
2.621744999999999770e+00	8.005860000000000493e-04
2.627274000000000331e+00	8.070249999999999516e-04
2.632816000000000045e+00	8.059760000000000231e-04
2.638412999999999897e+00	8.174680000000000141e-04
2.644060000000000077e+00	8.190089999999999914e-04
2.649683999999999706e+00	8.175899999999999834e-04
2.655335000000000001e+00	8.327259999999999957e-04
2.661040999999999990e+00	8.411630000000000235e-04
2.666761000000000159e+00	8.364219999999999685e-04
2.672505999999999826e+00	8.373299999999999537e-04
2.678225999999999996e+00	8.295750000000000389e-04
2.684054000000000162e+00	8.298650000000000514e-04
2.689869000000000288e+00	8.539790000000000445e-04
2.695683999999999969e+00	8.593469999999999972e-04
2.701570999999999945e+00	8.507089999999999487e-04
2.707459000000000060e+00	8.485030000000000176e-04
2.713358999999999632e+00	8.532369999999999625e-04
2.719332999999999778e+00	8.578480000000000306e-04
2.725269000000000386e+00	8.702270000000000014e-04
2.731266000000000194e+00	8.754700000000000459e-04
2.737308000000000074e+00	8.785470000000000302e-04
2.743303999999999743e+00	8.811650000000000515e-04
2.749458000000000180e+00	8.873900000000000537e-04
2.755500000000000060e+00	8.908250000000000370e-04
2.761687000000000225e+00	8.969549999999999529e-04
2.767805000000000071e+00	8.991370000000000482e-04
2.774004999999999832e+00	9.058980000000000331e-04
2.780241000000000184e+00	9.089400000000000084e-04
2.786477999999999788e+00	9.154189999999999983e-04
2.792761000000000049e+00	9.145909999999999717e-04
2.799043000000000170e+00	9.236510000000000510e-04
2.805352000000000068e+00	9.246550000000000298e-04
2.811732999999999816e+00	9.300209999999999510e-04
2.818087999999999926e+00	9.342950000000000256e-04
2.824542000000000108e+00	9.373510000000000045e-04
2.830919999999999881e+00	9.440050000000000394e-04
2.837469000000000019e+00	9.456459999999999649e-04
2.843922999999999757e+00	9.541870000000000039e-04
2.850481999999999960e+00	9.579630000000000437e-04
2.857067000000000245e+00	9.628110000000000487e-04
2.863603000000000343e+00	9.661179999999999681e-04
2.870283999999999835e+00	9.708779999999999971e-04
2.876916000000000029e+00	9.748769999999999701e-04
2.883534000000000042e+00	9.769579999999999931e-04
2.890324000000000115e+00	9.863000000000000673e-04
2.897027000000000019e+00	9.881510000000000467e-04
2.903756999999999699e+00	9.967050000000000735e-04
2.910629000000000133e+00	1.000498999999999963e-03
2.917488000000000081e+00	1.005622000000000070e-03
2.924336999999999964e+00	1.012702000000000090e-03
2.931221999999999994e+00	1.017864000000000052e-03
2.938203000000000120e+00	1.026608000000000034e-03
2.945196000000000147e+00	1.035029000000000027e-03
2.952187000000000339e+00	1.043106000000000025e-03
2.959203000000000028e+00	1.047442999999999898e-03
2.966256000000000004e+00	1.054782999999999893e-03
2.973355000000000192e+00	1.061534999999999953e-03
2.980539999999999967e+00	1.069391000000000048e-03
2.987736999999999643e+00	1.076874999999999924e-03
2.994934999999999903e+00	1.085580999999999959e-03
3.002228000000000119e+00	1.090117000000000039e-03
3.009481999999999768e+00	1.098657000000000062e-03
3.016789000000000165e+00	1.103091000000000054e-03
3.024092000000000002e+00	1.111545999999999932e-03
3.031480000000000175e+00	1.126602999999999893e-03
3.038905999999999885e+00	1.143092999999999974e-03
3.046356999999999982e+00	1.137313999999999947e-03
3.053828000000000209e+00	1.090169999999999898e-03
3.061348000000000180e+00	1.041959000000000071e-03
3.068904999999999994e+00	1.038763999999999963e-03
3.076524000000000036e+00	1.082176999999999922e-03
3.084163000000000210e+00	1.137830000000000048e-03
3.091841000000000061e+00	1.169911999999999948e-03
3.101033000000000150e+00	1.177564999999999992e-03
3.108765000000000001e+00	1.149945000000000090e-03
3.116598999999999897e+00	1.110010999999999940e-03
3.124375000000000124e+00	1.088034000000000093e-03
3.132312999999999903e+00	1.141382000000000030e-03
3.140146000000000104e+00	1.159857999999999939e-03
3.148145000000000415e+00	1.173329000000000082e-03
3.156128999999999962e+00	1.184918000000000082e-03
3.164171999999999763e+00	1.188227000000000033e-03
3.172287999999999997e+00	1.203323000000000066e-03
3.180343999999999838e+00	1.211437000000000104e-03
3.188582000000000249e+00	1.217317000000000095e-03
3.196771000000000029e+00	1.208805000000000079e-03
3.204965000000000064e+00	1.231553999999999939e-03
3.213332999999999995e+00	1.228013999999999929e-03
3.221626999999999796e+00	1.238532999999999995e-03
3.229950000000000099e+00	1.241569000000000093e-03
3.238410000000000011e+00	1.245578999999999914e-03
3.246866000000000252e+00	1.265906999999999926e-03
3.255367999999999817e+00	1.267251999999999962e-03
3.263857000000000230e+00	1.277864999999999990e-03
3.272445999999999966e+00	1.280117000000000104e-03
3.281186000000000380e+00	1.285298000000000039e-03
3.289854000000000056e+00	1.299760000000000065e-03
3.298561000000000298e+00	1.303029999999999944e-03
3.307300999999999824e+00	1.316160000000000030e-03
3.316116999999999759e+00	1.318383999999999919e-03
3.325018999999999725e+00	1.323292000000000001e-03
3.333965000000000067e+00	1.338350000000000086e-03
3.342955999999999595e+00	1.344532999999999969e-03
3.351951000000000125e+00	1.340753999999999991e-03
3.361075000000000035e+00	1.349701000000000026e-03
3.370171000000000028e+00	1.358936999999999949e-03
3.379353000000000051e+00	1.359781000000000011e-03
3.388570000000000082e+00	1.371414999999999960e-03
3.397799000000000014e+00	1.386738999999999897e-03
3.407113999999999976e+00	1.387875000000000003e-03
3.416510000000000158e+00	1.390998000000000061e-03
3.425930000000000142e+00	1.402370999999999913e-03
3.435353000000000101e+00	1.401726999999999964e-03
3.444922999999999735e+00	1.409501999999999977e-03
3.454463999999999757e+00	1.415695999999999925e-03
3.464050000000000296e+00	1.411371999999999930e-03
3.473752999999999869e+00	1.426547999999999922e-03
3.483517000000000419e+00	1.431868999999999894e-03
3.493354000000000070e+00	1.435244999999999924e-03
3.503191000000000166e+00	1.444966999999999909e-03
3.513071000000000055e+00	1.452385000000000047e-03
3.522968999999999795e+00	1.459446000000000094e-03
3.533056999999999892e+00	1.457339999999999894e-03
3.543161000000000005e+00	1.487735999999999920e-03
3.553297000000000150e+00	1.482000000000000027e-03
3.563445000000000196e+00	1.491902999999999936e-03
3.573759000000000352e+00	1.494553999999999935e-03
3.584086000000000105e+00	1.500926000000000083e-03
3.594425000000000203e+00	1.505070000000000062e-03
3.604932999999999943e+00	1.518454000000000028e-03
3.615315999999999974e+00	1.525733000000000037e-03
3.625910000000000188e+00	1.537245999999999925e-03
3.636508000000000074e+00	1.554459000000000006e-03
3.647306999999999633e+00	1.562294000000000096e-03
3.657960999999999796e+00	1.565760999999999932e-03
3.668851000000000084e+00	1.586766000000000088e-03
3.679622999999999866e+00	1.589659999999999901e-03
3.690660999999999969e+00	1.603019000000000015e-03
3.701527000000000012e+00	1.610885000000000051e-03
3.712666000000000022e+00	1.615029999999999938e-03
3.723810000000000286e+00	1.624723999999999917e-03
3.734938000000000091e+00	1.636454000000000077e-03
3.746288999999999980e+00	1.649747000000000019e-03
3.757671999999999901e+00	1.667052000000000030e-03
3.768949000000000105e+00	1.674408999999999967e-03
3.780478000000000005e+00	1.681760999999999933e-03
3.792095000000000216e+00	1.693162999999999916e-03
3.803740999999999595e+00	1.707142999999999942e-03
3.815287000000000095e+00	1.714105999999999963e-03
3.827020999999999784e+00	1.723024000000000083e-03
3.838910000000000267e+00	1.735788000000000044e-03
3.850823000000000107e+00	1.745142000000000091e-03
3.862886000000000042e+00	1.762920999999999976e-03
3.877123000000000097e+00	1.769605000000000049e-03
3.883356000000000030e+00	1.782544000000000056e-03
3.889507999999999743e+00	1.794730000000000023e-03
3.895477999999999774e+00	1.823664000000000014e-03
3.901529999999999720e+00	1.797624999999999961e-03
3.907713999999999466e+00	1.817597000000000006e-03
3.913952000000000098e+00	1.816707999999999995e-03
3.920016999999999641e+00	1.810593000000000098e-03
3.926037999999999695e+00	1.817578999999999939e-03
3.932421000000000166e+00	1.836252000000000023e-03
3.938642000000000198e+00	1.843805999999999917e-03
3.944974999999999898e+00	1.851655999999999918e-03
3.951144000000000212e+00	1.857305999999999974e-03
3.957295999999999925e+00	1.869205000000000085e-03
3.963747999999999383e+00	1.873188999999999931e-03
3.970086999999999922e+00	1.884690999999999970e-03
3.976590000000000291e+00	1.883766000000000043e-03
3.982926999999999662e+00	1.893266999999999910e-03
3.989061999999999664e+00	1.898616000000000106e-03
3.995481999999999978e+00	1.899084000000000102e-03
4.001934000000000324e+00	1.894393999999999982e-03
4.008521999999999252e+00	1.908214000000000091e-03
4.015093000000000245e+00	1.923353000000000042e-03
4.021575999999999596e+00	1.928746000000000063e-03
4.027715000000000600e+00	1.923634999999999928e-03
4.034303000000000416e+00	1.933232000000000006e-03
4.040936999999999557e+00	1.961201999999999997e-03
4.047526000000000401e+00	1.969478000000000201e-03
4.054246000000000016e+00	1.971004000000000159e-03
4.060948999999999920e+00	1.980476000000000111e-03
4.067656000000000382e+00	1.988086000000000020e-03
4.074208000000000496e+00	1.995082000000000019e-03
4.080977999999999994e+00	1.998680000000000075e-03
4.087634999999999685e+00	2.002864000000000033e-03
4.094106000000000023e+00	2.022028999999999840e-03
4.100908000000000442e+00	2.036243000000000081e-03
4.107695999999999792e+00	2.034281000000000197e-03
4.114572000000000784e+00	2.047595000000000144e-03
4.121355999999999575e+00	2.052909999999999804e-03
4.128063000000000038e+00	2.075266999999999997e-03
4.135034000000000098e+00	2.095771000000000179e-03
4.142007999999999690e+00	2.105991000000000200e-03
4.148928999999999867e+00	2.092338999999999918e-03
4.155869000000000035e+00	2.099273999999999932e-03
4.162807999999999176e+00	2.109891000000000023e-03
4.169846999999999859e+00	2.093353000000000054e-03
4.176816999999999780e+00	2.134126000000000078e-03
4.183875000000000455e+00	2.129525000000000168e-03
4.190913000000000110e+00	2.128811999999999892e-03
4.197919999999999874e+00	2.157445999999999930e-03
4.204809000000000019e+00	2.153533000000000010e-03
4.211898999999999837e+00	2.149940999999999831e-03
4.219223999999999641e+00	2.173012000000000207e-03
4.226393999999999984e+00	2.139563000000000142e-03
4.233420999999999879e+00	2.120144000000000022e-03
4.240642000000000245e+00	2.132640999999999790e-03
4.247899000000000314e+00	2.156111999999999959e-03
4.255173999999999346e+00	2.210726000000000097e-03
4.262463000000000335e+00	2.229509000000000178e-03
4.269771000000000427e+00	2.209449999999999956e-03
4.277146000000000114e+00	2.225707999999999853e-03
4.284502999999999950e+00	2.220783999999999953e-03
4.291897000000000517e+00	2.209813000000000142e-03
4.299337000000000408e+00	2.263331999999999844e-03
4.306794000000000011e+00	2.235948000000000189e-03
4.314288000000000345e+00	2.155405999999999902e-03
4.321745999999999199e+00	2.221510999999999798e-03
4.329302999999999457e+00	2.283368999999999937e-03
4.336847999999999814e+00	2.197334000000000006e-03
4.344436999999999216e+00	2.173627999999999932e-03
4.352049000000000056e+00	2.239936000000000097e-03
4.359688999999999481e+00	2.274158999999999990e-03
4.367315000000000502e+00	2.280788000000000173e-03
4.375007999999999342e+00	2.298554999999999869e-03
4.382766000000000162e+00	2.309545000000000087e-03
4.390509999999999913e+00	2.312423000000000083e-03
4.398286999999999836e+00	2.316883000000000050e-03
4.406079999999999330e+00	2.312535000000000111e-03
4.413906000000000773e+00	2.330047999999999928e-03
4.421750999999999543e+00	2.355930000000000003e-03
4.429613999999999940e+00	2.356605999999999805e-03
4.437502999999999531e+00	2.373141000000000053e-03
4.445484000000000435e+00	2.369446999999999786e-03
4.453427999999999720e+00	2.360949000000000207e-03
4.461386000000000074e+00	2.391435999999999822e-03
4.469447999999999865e+00	2.402078000000000199e-03
4.477492999999999945e+00	2.398702999999999860e-03
4.485537000000000774e+00	2.411941999999999819e-03
4.493681999999999732e+00	2.425030999999999801e-03
4.501826999999999579e+00	2.430282000000000189e-03
4.509956999999999994e+00	2.440863000000000147e-03
4.518183000000000504e+00	2.451876999999999876e-03
4.526413999999999938e+00	2.454410000000000185e-03
4.534645000000000259e+00	2.454097000000000136e-03
4.543021000000000420e+00	2.459171999999999920e-03
4.551252999999999993e+00	2.471141999999999957e-03
4.559633999999999965e+00	2.483836000000000117e-03
4.568010000000000126e+00	2.495722000000000131e-03
4.576391000000000098e+00	2.506665999999999842e-03
4.584921999999999720e+00	2.524056000000000216e-03
4.593317000000000760e+00	2.532999000000000188e-03
4.601867000000000374e+00	2.542761000000000153e-03
4.610329000000000121e+00	2.553254999999999934e-03
4.618941999999999659e+00	2.549468999999999954e-03
4.627524000000000193e+00	2.565199000000000212e-03
4.636192000000000313e+00	2.585580000000000083e-03
4.644836000000000631e+00	2.595495000000000180e-03
4.653567999999999927e+00	2.613481999999999871e-03
4.662285000000000679e+00	2.629238999999999795e-03
4.671085000000000598e+00	2.636531000000000118e-03
4.679848000000000674e+00	2.656086000000000211e-03
4.688730000000000508e+00	2.673880999999999914e-03
4.697510999999999548e+00	2.685812000000000095e-03
4.706496999999999709e+00	2.702487999999999852e-03
4.715328999999999660e+00	2.728893999999999938e-03
4.724378999999999884e+00	2.746019000000000151e-03
4.733379000000000225e+00	2.753348000000000080e-03
4.742377000000000287e+00	2.773006000000000169e-03
4.751545999999999381e+00	2.792071000000000136e-03
4.760577000000000503e+00	2.794360999999999980e-03
4.769731999999999417e+00	2.800247999999999973e-03
4.778931999999999292e+00	2.819551000000000002e-03
4.788032999999999539e+00	2.827242000000000210e-03
4.797367999999999633e+00	2.831309000000000169e-03
4.806686000000000014e+00	2.825333000000000185e-03
4.815953999999999624e+00	2.838502000000000126e-03
4.825305000000000177e+00	2.845579999999999898e-03
4.834741000000000177e+00	2.838645999999999791e-03
4.844160000000000466e+00	2.845994000000000128e-03
4.853564000000000433e+00	2.847581999999999978e-03
4.863132000000000232e+00	2.853301999999999835e-03
4.872700000000000031e+00	2.855284999999999941e-03
4.882255000000000678e+00	2.870812999999999837e-03
4.891809999999999548e+00	2.873511999999999941e-03
4.901460000000000150e+00	2.872424000000000158e-03
4.911233000000000182e+00	2.890957999999999896e-03
4.920970000000000510e+00	2.896536999999999810e-03
4.930725999999999942e+00	2.898593999999999997e-03
4.940444000000000280e+00	2.915183000000000010e-03
4.950284999999999158e+00	2.926022999999999818e-03
4.960220999999999769e+00	2.944636000000000042e-03
4.970195000000000363e+00	2.955517999999999861e-03
4.980151000000000217e+00	2.974352999999999893e-03
4.990223000000000297e+00	2.979381000000000130e-03
5.000259999999999927e+00	3.002446000000000195e-03
5.010302000000000255e+00	3.024914000000000075e-03
5.020407999999999760e+00	3.037371999999999989e-03
5.030528999999999584e+00	3.044246999999999925e-03
5.040771999999999586e+00	3.059024000000000031e-03
5.050978000000000634e+00	3.081153000000000104e-03
5.061303999999999803e+00	3.100853000000000203e-03
5.071660000000000501e+00	3.117406000000000083e-03
5.082071000000000005e+00	3.132198000000000100e-03
5.092476999999999698e+00	3.148961999999999942e-03
5.102986000000000466e+00	3.172326999999999959e-03
5.113476999999999606e+00	3.188907999999999847e-03
5.124056999999999640e+00	3.217502000000000122e-03
5.134612000000000620e+00	3.229899999999999959e-03
5.145309000000000133e+00	3.259834000000000082e-03
5.155948999999999671e+00	3.283883000000000028e-03
5.166691999999999396e+00	3.296407999999999804e-03
5.177468999999999433e+00	3.307410000000000211e-03
5.188297999999999632e+00	3.329729000000000022e-03
5.199158999999999864e+00	3.356488999999999827e-03
5.210069999999999979e+00	3.375428000000000196e-03
5.221048999999999829e+00	3.401824999999999814e-03
5.231994000000000256e+00	3.427415000000000062e-03
5.243092000000000752e+00	3.441768999999999905e-03
5.254184000000000410e+00	3.472845000000000012e-03
5.265316000000000329e+00	3.489093999999999876e-03
5.276494999999999713e+00	3.511016999999999957e-03
5.287725000000000009e+00	3.530576000000000114e-03
5.298954000000000164e+00	3.558682000000000078e-03
5.310386000000000273e+00	3.586675000000000106e-03
5.321765000000000079e+00	3.604359000000000122e-03
5.333130000000000592e+00	3.632297000000000043e-03
5.344732999999999734e+00	3.656963000000000054e-03
5.356262000000000079e+00	3.684400000000000001e-03
5.367793999999999954e+00	3.702031000000000158e-03
5.379479000000000788e+00	3.734630999999999975e-03
5.391162999999999705e+00	3.760696000000000004e-03
5.402811000000000696e+00	3.781169999999999930e-03
5.414729000000000347e+00	3.805479000000000066e-03
5.426575999999999844e+00	3.823106000000000160e-03
5.438447000000000031e+00	3.858889999999999803e-03
5.450413000000000174e+00	3.891915000000000131e-03
5.462282000000000082e+00	3.921985999999999702e-03
5.474454999999999849e+00	3.937572999999999768e-03
5.486470000000000624e+00	3.976643999999999665e-03
5.498738999999999599e+00	4.004414999999999884e-03
5.510826999999999920e+00	4.029402999999999978e-03
5.523212000000000010e+00	4.057080999999999708e-03
5.535400999999999350e+00	4.086031999999999859e-03
5.547889999999999766e+00	4.123355999999999896e-03
5.560177999999999621e+00	4.148744000000000216e-03
5.572780999999999985e+00	4.188657999999999618e-03
5.585205000000000197e+00	4.214629000000000118e-03
5.597895000000000287e+00	4.249959999999999676e-03
5.610651999999999973e+00	4.278617000000000184e-03
5.623190000000000133e+00	4.317117999999999997e-03
5.636079999999999757e+00	4.350010999999999982e-03
5.649005000000000720e+00	4.385436000000000369e-03
5.661628999999999579e+00	4.422442999999999860e-03
5.674735999999999336e+00	4.456942999999999669e-03
5.687812000000000090e+00	4.477998999999999868e-03
5.700821000000000360e+00	4.523461000000000322e-03
5.713830999999999882e+00	4.561212000000000252e-03
5.727038000000000295e+00	4.595535999999999892e-03
5.740382999999999569e+00	4.639429999999999943e-03
5.753714000000000439e+00	4.663818000000000130e-03
5.766939999999999955e+00	4.704200999999999869e-03
5.780351000000000461e+00	4.750042000000000326e-03
5.793914000000000009e+00	4.796981999999999982e-03
5.807441999999999993e+00	4.827536999999999801e-03
5.821187000000000111e+00	4.866719999999999727e-03
5.834953999999999752e+00	4.913146000000000180e-03
5.848700000000000010e+00	4.950864000000000133e-03
5.862497000000000291e+00	4.997424000000000310e-03
5.876344999999999708e+00	5.039586000000000413e-03
5.890376999999999974e+00	5.083856999999999786e-03
5.904327000000000325e+00	5.134673000000000188e-03
5.918440999999999619e+00	5.175528000000000420e-03
5.932592999999999783e+00	5.216016000000000402e-03
5.946825999999999723e+00	5.272871000000000155e-03
5.961044999999999483e+00	5.312126000000000348e-03
5.975398000000000209e+00	5.360855000000000307e-03
5.989783000000000079e+00	5.406061000000000200e-03
6.004268999999999856e+00	5.462429000000000416e-03
6.018734999999999502e+00	5.502919999999999687e-03
6.033590000000000231e+00	5.549539000000000034e-03
6.048343000000000025e+00	5.603257000000000376e-03
6.062948000000000448e+00	5.655519000000000344e-03
6.077754999999999797e+00	5.710385999999999587e-03
6.092959999999999710e+00	5.758051999999999615e-03
6.107898999999999745e+00	5.807114000000000373e-03
6.122821000000000069e+00	5.856690000000000333e-03
6.138097999999999388e+00	5.901784000000000197e-03
6.153357999999999883e+00	5.962517999999999985e-03
6.168446999999999569e+00	6.018622999999999855e-03
6.184108000000000160e+00	6.067608999999999850e-03
6.199273999999999951e+00	6.264681999999999716e-03
6.214824000000000126e+00	6.339108000000000416e-03
6.230399000000000242e+00	6.379509999999999695e-03
6.246093000000000117e+00	6.451581999999999976e-03
6.261760999999999910e+00	6.496758000000000047e-03
6.277693000000000190e+00	6.545574999999999657e-03
6.293619999999999770e+00	6.612086999999999999e-03
6.309692000000000078e+00	6.667868000000000406e-03
6.325668999999999542e+00	6.730800000000000324e-03
6.341860000000000497e+00	6.797667000000000292e-03
6.358189999999999564e+00	6.858481999999999947e-03
6.374475999999999587e+00	6.921092999999999690e-03
6.390924000000000049e+00	6.985011000000000171e-03
6.407445000000000057e+00	7.048114999999999762e-03
6.423867999999999689e+00	7.114317000000000210e-03
6.440699999999999648e+00	7.195306000000000271e-03
6.457409000000000177e+00	7.257931999999999925e-03
6.474261999999999517e+00	7.324217000000000054e-03
6.491206999999999283e+00	7.369607999999999715e-03
6.508250000000000313e+00	7.463957999999999704e-03
6.525384000000000739e+00	7.547797000000000187e-03
6.542563000000000351e+00	7.790876999999999872e-03
6.559934000000000154e+00	7.872758000000000533e-03
6.577211999999999392e+00	7.958700000000000843e-03
6.594844000000000150e+00	8.025153999999999621e-03
6.612334999999999852e+00	8.084424999999999251e-03
6.629964999999999442e+00	8.204496999999999832e-03
6.647789000000000392e+00	8.257195999999999633e-03
6.665559000000000012e+00	8.372268000000000418e-03
6.683618000000000059e+00	8.419195000000000845e-03
6.701725000000000598e+00	8.500956999999999958e-03
6.719751999999999725e+00	8.582202000000000580e-03
6.738004000000000104e+00	8.661607999999999460e-03
6.756484000000000378e+00	8.769963999999999885e-03
6.774922000000000111e+00	8.841807000000000138e-03
6.793236999999999526e+00	8.917220000000000008e-03
6.812101000000000184e+00	9.010297999999999918e-03
6.830865999999999438e+00	9.055466999999999336e-03
6.849864000000000175e+00	9.141849000000000502e-03
6.868869000000000113e+00	9.221375000000000405e-03
6.890023999999999482e+00	9.349464000000000038e-03
6.909448999999999508e+00	9.408922999999999592e-03
6.928619999999999557e+00	9.497647999999999160e-03
6.947861999999999760e+00	9.596027999999999503e-03
6.967242999999999853e+00	9.700508999999999521e-03
6.986816000000000138e+00	9.756493999999999236e-03
7.006601000000000745e+00	9.860054000000000041e-03
7.026593999999999340e+00	9.942134000000000041e-03
7.046618000000000492e+00	1.003546999999999946e-02
7.066756000000000704e+00	1.011226999999999959e-02
7.086867999999999945e+00	1.022077000000000055e-02
7.107082000000000122e+00	1.031445999999999925e-02
7.127383999999999276e+00	1.040522999999999969e-02
7.147854999999999848e+00	1.050137999999999940e-02
7.168324000000000140e+00	1.059724000000000083e-02
7.189480999999999788e+00	1.068667000000000054e-02
7.210282000000000302e+00	1.081576000000000065e-02
7.231152999999999942e+00	1.090683999999999924e-02
7.252216999999999913e+00	1.102277999999999938e-02
7.273873000000000033e+00	1.113967000000000082e-02
7.294840000000000657e+00	1.124761999999999984e-02
7.316562000000000232e+00	1.138225999999999995e-02
7.338192000000000270e+00	1.150125999999999926e-02
7.359583999999999904e+00	1.161502000000000021e-02
7.381948999999999650e+00	1.174598999999999956e-02
7.403742999999999519e+00	1.185554999999999942e-02
7.426270999999999844e+00	1.199777999999999956e-02
7.448189000000000171e+00	1.212971000000000014e-02
7.470906999999999520e+00	1.226481999999999919e-02
7.493058000000000440e+00	1.241798000000000034e-02
7.515965000000000451e+00	1.257667999999999980e-02
7.538330000000000197e+00	1.273837000000000060e-02
7.561449999999999783e+00	1.287405999999999967e-02
7.584475999999999551e+00	1.302857999999999968e-02
7.607624000000000386e+00	1.318859999999999998e-02
7.631002999999999759e+00	1.337374000000000028e-02
7.654601999999999684e+00	1.352836999999999963e-02
7.678314000000000306e+00	1.371383999999999971e-02
7.702144000000000545e+00	1.388377000000000014e-02
7.726142000000000287e+00	1.406581999999999971e-02
7.750281000000000198e+00	1.424708000000000051e-02
7.774516999999999456e+00	1.441182000000000053e-02
7.798983999999999916e+00	1.459754000000000086e-02
7.823599999999999888e+00	1.479085999999999942e-02
7.848308000000000284e+00	1.496929999999999962e-02
7.873272000000000936e+00	1.516046000000000060e-02
7.898340000000000138e+00	1.534316999999999973e-02
7.923522000000000176e+00	1.553826999999999986e-02
7.948866000000000653e+00	1.573994999999999908e-02
7.974428999999999768e+00	1.599118999999999888e-02
8.000182000000000571e+00	1.620428000000000146e-02
8.026092000000000226e+00	1.646175999999999889e-02
8.052060999999998359e+00	1.671593000000000037e-02
8.078350999999999615e+00	1.700209999999999916e-02
8.104722999999999900e+00	1.731616000000000058e-02
8.131320999999999799e+00	1.764732999999999927e-02
8.158066999999999069e+00	1.804545000000000107e-02
8.184958000000001732e+00	1.849893000000000023e-02
8.212080999999999520e+00	1.895791999999999963e-02
8.239307000000000158e+00	1.946747000000000061e-02
8.266808000000001044e+00	2.006068999999999908e-02
8.294477000000000544e+00	2.063330999999999846e-02
8.322215000000001695e+00	2.132070000000000146e-02
8.350244999999999251e+00	2.206106000000000039e-02
8.378510000000000346e+00	2.289893000000000137e-02
8.406886999999999333e+00	2.379687000000000122e-02
8.435458000000000567e+00	2.475277999999999853e-02
8.464171000000000333e+00	2.572303999999999910e-02
8.493143999999999139e+00	2.665843999999999853e-02
8.522327999999999903e+00	2.930873999999999979e-02
8.551707000000000392e+00	3.078857999999999942e-02
8.581253999999999493e+00	3.250019999999999992e-02
8.611083000000000709e+00	3.426197999999999744e-02
8.641073000000000448e+00	3.608553999999999928e-02
8.671229000000000298e+00	3.772849999999999815e-02
8.701652000000001053e+00	3.890038999999999997e-02
8.732307999999999737e+00	3.957995999999999737e-02
8.763161000000000200e+00	3.981917000000000095e-02
8.794128000000000611e+00	3.936541000000000345e-02
8.825464999999999449e+00	3.809015000000000317e-02
8.856980999999999327e+00	3.617606999999999767e-02
8.888609000000000648e+00	3.303095999999999810e-02
8.920669000000000182e+00	2.970015999999999975e-02
8.952799999999999869e+00	2.340276999999999982e-02
8.985260000000000247e+00	1.824430000000000149e-02
9.017957000000000889e+00	1.486697000000000018e-02
9.050819000000000614e+00	1.200323000000000015e-02
9.083989000000000757e+00	1.411977000000000024e-02
9.117376000000000147e+00	1.814324999999999966e-02
9.151050000000001461e+00	1.518604999999999955e-02
9.184858000000000189e+00	1.028944000000000039e-02
9.218977999999999895e+00	9.227304999999999882e-03
9.253413999999999362e+00	9.441345000000000293e-03
9.288032999999998651e+00	6.975058999999999600e-03
9.323079999999999146e+00	6.722381999999999837e-03
9.358292999999999751e+00	8.504800999999999334e-03
9.393580999999999293e+00	5.266772000000000294e-03
9.429266000000000147e+00	4.688486000000000389e-03
9.465193000000001078e+00	4.521436000000000205e-03
9.501570000000000960e+00	4.507769000000000012e-03
9.538016000000000716e+00	4.449248999999999739e-03
9.574844999999999828e+00	4.502210999999999887e-03
9.611959999999999837e+00	4.378054999999999621e-03
9.649499000000000493e+00	4.376800000000000135e-03
9.686946000000000723e+00	4.482093000000000362e-03
9.725127000000000521e+00	4.602417999999999614e-03
9.763426000000000826e+00	4.724527000000000067e-03
9.801850000000001728e+00	4.836469000000000358e-03
9.840624000000000038e+00	4.977729999999999655e-03
9.880012999999999934e+00	5.093977000000000400e-03
9.919361999999999568e+00	5.216715000000000241e-03
9.959281000000000716e+00	5.344502999999999580e-03
9.999651999999999319e+00	5.466712000000000307e-03
1.004023000000000110e+01	5.588993000000000433e-03
1.008074500000000029e+01	5.709859999999999762e-03
1.012219900000000017e+01	5.828932000000000210e-03
1.016354600000000019e+01	5.936577000000000173e-03
1.020534199999999991e+01	6.054417000000000305e-03
1.024742299999999950e+01	6.165572000000000240e-03
1.029016000000000020e+01	6.285268999999999578e-03
1.033318700000000057e+01	6.410878000000000063e-03
1.037614899999999984e+01	6.522487000000000423e-03
1.041947000000000045e+01	6.637922999999999567e-03
1.046340100000000106e+01	6.744075999999999890e-03
1.050768700000000067e+01	6.850148999999999821e-03
1.055243800000000043e+01	6.963335000000000184e-03
1.059748300000000043e+01	7.065301000000000393e-03
1.064301299999999983e+01	7.178524999999999837e-03
1.068890000000000029e+01	7.288893000000000282e-03
1.073511899999999919e+01	7.403172999999999872e-03
1.078183399999999992e+01	7.511508000000000074e-03
1.082881500000000052e+01	7.623696999999999592e-03
1.087635900000000078e+01	7.740577000000000221e-03
1.092426599999999937e+01	7.845711000000000004e-03
1.097257600000000011e+01	7.953908000000000852e-03
1.102131600000000056e+01	8.060876999999999279e-03
1.107049100000000053e+01	8.173944000000000695e-03
1.112012700000000009e+01	8.281688000000000591e-03
1.117022000000000048e+01	8.387508000000000116e-03
1.122077600000000075e+01	8.506233999999999670e-03
1.127172000000000018e+01	8.620353000000000737e-03
1.132327399999999962e+01	8.727164000000000796e-03
1.137513400000000097e+01	8.834266999999999814e-03
1.142762999999999884e+01	8.942095000000000599e-03
1.148047399999999918e+01	9.060300999999999771e-03
1.153384199999999993e+01	9.181530999999999720e-03
1.158777300000000032e+01	9.295483000000000218e-03
1.164215599999999995e+01	9.404756000000000227e-03
1.169705199999999934e+01	9.531609999999999389e-03
1.175244599999999906e+01	9.650291999999999551e-03
1.180847900000000017e+01	9.771504999999999774e-03
1.186493600000000015e+01	9.905785999999999758e-03
1.192193499999999950e+01	1.005065999999999946e-02
1.197946100000000058e+01	1.015633999999999981e-02
1.203768499999999975e+01	1.023566000000000059e-02
1.209634900000000002e+01	1.041795000000000047e-02
1.215571800000000025e+01	1.058923999999999976e-02
1.221554000000000073e+01	1.067465000000000080e-02
1.227590499999999984e+01	1.070720999999999999e-02
1.233707900000000102e+01	1.090384999999999965e-02
1.239935000000000009e+01	1.102232000000000038e-02
1.246169500000000063e+01	1.116150999999999949e-02
1.252468299999999957e+01	1.128748000000000078e-02
1.258831099999999914e+01	1.141283000000000054e-02
1.265258600000000122e+01	1.154210999999999952e-02
1.271732199999999935e+01	1.166612000000000031e-02
1.278271699999999989e+01	1.179339000000000082e-02
1.284911799999999893e+01	1.191235000000000037e-02
1.291585399999999950e+01	1.203842999999999927e-02
1.298366400000000098e+01	1.216447000000000014e-02
1.305207000000000050e+01	1.228327000000000065e-02
1.312102499999999949e+01	1.241486999999999973e-02
1.319086000000000070e+01	1.253429000000000001e-02
1.326134200000000085e+01	1.266695999999999968e-02
1.333292500000000125e+01	1.280204000000000064e-02
1.340467699999999951e+01	1.293801999999999973e-02
1.347773799999999866e+01	1.307509999999999922e-02
1.355139600000000044e+01	1.320592999999999941e-02
1.362596600000000002e+01	1.333831000000000079e-02
1.370067900000000094e+01	1.348398999999999952e-02
1.377689500000000145e+01	1.362380000000000015e-02
1.385366400000000020e+01	1.379235000000000010e-02
1.393153500000000022e+01	1.393536000000000080e-02
1.401020899999999969e+01	1.406872999999999978e-02
1.408972699999999989e+01	1.421200000000000067e-02
1.417022400000000104e+01	1.435636000000000030e-02
1.425167700000000082e+01	1.451348000000000048e-02
1.433394700000000022e+01	1.465690000000000048e-02
1.441731199999999902e+01	1.480861999999999977e-02
1.450159500000000001e+01	1.495911999999999936e-02
1.458685000000000009e+01	1.511019000000000077e-02
1.467323400000000078e+01	1.527416000000000017e-02
1.476055099999999953e+01	1.543701999999999921e-02
1.484894500000000050e+01	1.558383999999999985e-02
1.493841199999999958e+01	1.574228999999999906e-02
1.502889100000000155e+01	1.591936999999999866e-02
1.512049700000000030e+01	1.608628999999999962e-02
1.521317600000000070e+01	1.626974000000000128e-02
1.530705599999999933e+01	1.645322000000000104e-02
1.540224999999999866e+01	1.661904999999999979e-02
1.549845499999999987e+01	1.680687999999999974e-02
1.559594799999999992e+01	1.699026999999999829e-02
1.569459999999999944e+01	1.720642000000000005e-02
1.579461299999999824e+01	1.738398000000000027e-02
1.589566300000000076e+01	1.759227999999999834e-02
1.599840599999999924e+01	1.777360999999999872e-02
1.610230899999999821e+01	1.799827999999999845e-02
1.620755199999999974e+01	1.820687000000000000e-02
1.631425600000000031e+01	1.843221000000000095e-02
1.642207499999999953e+01	1.866268999999999914e-02
1.653151400000000137e+01	1.886797999999999947e-02
1.664290100000000194e+01	1.911890000000000117e-02
1.675491700000000250e+01	1.937012000000000109e-02
1.686899899999999874e+01	1.960107999999999989e-02
1.698501700000000270e+01	1.986595000000000028e-02
1.710174400000000006e+01	2.011005999999999905e-02
1.722085799999999978e+01	2.037658999999999998e-02
1.734125300000000180e+01	2.059779000000000124e-02
1.746336299999999753e+01	2.088254999999999972e-02
1.758719500000000124e+01	2.116113999999999842e-02
1.771279300000000134e+01	2.143903999999999949e-02
1.784021100000000004e+01	2.171410999999999827e-02
1.796943900000000127e+01	2.203027000000000110e-02
1.810061100000000067e+01	2.231249000000000079e-02
1.823359400000000008e+01	2.262886999999999885e-02
1.836866700000000208e+01	2.293502000000000041e-02
1.850576500000000024e+01	2.325918999999999903e-02
1.864486400000000188e+01	2.357162999999999967e-02
1.878602899999999920e+01	2.390544000000000002e-02
1.892953699999999984e+01	2.419007999999999922e-02
1.907502200000000059e+01	2.452174000000000020e-02
1.922293600000000069e+01	2.482155000000000125e-02
1.937312599999999918e+01	2.515906999999999866e-02
1.952574800000000010e+01	2.548235999999999904e-02
1.968061399999999850e+01	2.585776999999999867e-02
1.983810800000000185e+01	2.619911999999999935e-02
1.999801999999999680e+01	2.657448999999999922e-02
2.016080400000000239e+01	2.694579000000000071e-02
2.032588300000000103e+01	2.733212999999999962e-02
2.049398599999999959e+01	2.776042000000000093e-02
2.066457199999999972e+01	2.816986999999999963e-02
2.083818600000000032e+01	2.860433000000000073e-02
2.101534499999999994e+01	2.905593000000000065e-02
2.119438500000000047e+01	2.953412999999999872e-02
2.137711499999999987e+01	3.001016000000000100e-02
2.156294699999999764e+01	3.049804000000000057e-02
2.175211599999999734e+01	3.107205000000000036e-02
2.194458200000000048e+01	3.159085999999999839e-02
2.214049200000000184e+01	3.216368000000000005e-02
2.233995999999999782e+01	3.273763999999999841e-02
2.254307100000000119e+01	3.336453000000000335e-02
2.274981800000000121e+01	3.403264000000000289e-02
2.296051899999999790e+01	3.472354999999999886e-02
2.317510399999999748e+01	3.533229000000000231e-02
2.339381700000000208e+01	3.605349000000000054e-02
2.361670600000000064e+01	3.679174999999999807e-02
2.384365899999999883e+01	3.765432999999999975e-02
2.407522600000000068e+01	3.868918999999999830e-02
2.431107799999999841e+01	3.986111999999999989e-02
2.455230099999999993e+01	4.110873000000000305e-02
2.479734799999999950e+01	4.233837000000000017e-02
2.492220100000000116e+01	4.215163200000000138e-02
2.504798399999999958e+01	4.267856400000000217e-02
2.517497600000000091e+01	4.324366500000000058e-02
2.530348400000000098e+01	4.384827100000000116e-02
2.543280499999999833e+01	4.448887399999999770e-02
2.556457200000000185e+01	4.517368499999999815e-02
2.569692399999999921e+01	4.589303899999999659e-02
2.583060400000000101e+01	4.665057799999999810e-02
2.596568299999999851e+01	4.744655300000000242e-02
2.610250600000000176e+01	4.828298000000000312e-02
2.624042299999999983e+01	4.915573899999999691e-02
2.637985600000000019e+01	5.006725399999999854e-02
2.652123199999999770e+01	5.102032299999999937e-02
2.666442999999999941e+01	5.201418499999999751e-02
2.680751400000000118e+01	5.303483600000000187e-02
2.695335399999999737e+01	5.410244599999999848e-02
2.710071199999999791e+01	5.520807700000000123e-02
2.724955899999999787e+01	5.635124999999999856e-02
2.740005699999999678e+01	5.753296799999999683e-02
2.755306399999999911e+01	5.875998300000000174e-02
2.770690499999999901e+01	6.001860800000000107e-02
2.786224100000000092e+01	6.131376499999999924e-02
2.802001999999999882e+01	6.265320100000000558e-02
2.817920399999999859e+01	6.402794000000000540e-02
2.833972900000000195e+01	6.543695400000000550e-02
2.850295699999999854e+01	6.689202399999999438e-02
2.866784499999999980e+01	6.838367600000000435e-02
2.883545699999999812e+01	6.992134699999999481e-02
2.900396100000000033e+01	7.148788200000000259e-02
2.917437699999999978e+01	7.309223300000000645e-02
2.934665499999999838e+01	7.473355700000000601e-02
2.952043799999999862e+01	7.828308999999999962e-02
2.969948600000000027e+01	7.986429000000000444e-02
2.987608200000000025e+01	8.118187000000000320e-02
3.005958599999999947e+01	8.310088000000000197e-02
3.024166100000000057e+01	8.534740999999999855e-02
3.042598599999999820e+01	8.755844999999999601e-02
3.061334200000000294e+01	8.985943999999999876e-02
3.080353200000000058e+01	9.190302999999999667e-02
3.099734899999999982e+01	9.407187999999999661e-02
3.109427400000000219e+01	9.570628000000000468e-02
3.119209699999999685e+01	9.604316999999999716e-02
3.129095600000000132e+01	9.743880000000000596e-02
3.138947500000000090e+01	9.789609999999999979e-02
3.148912699999999987e+01	9.855419999999999459e-02
3.158950299999999700e+01	1.005429999999999935e-01
3.169066699999999770e+01	1.015390999999999933e-01
3.179202400000000139e+01	1.031576000000000021e-01
3.189411300000000082e+01	1.039970999999999951e-01
3.199691000000000329e+01	1.054747999999999936e-01
3.210051299999999941e+01	1.062967999999999968e-01
3.220471400000000273e+01	1.077440999999999954e-01
3.230963500000000010e+01	1.091733000000000009e-01
3.241535300000000319e+01	1.105001000000000039e-01
3.252148299999999637e+01	1.113999999999999990e-01
3.262844000000000477e+01	1.131462000000000023e-01
3.273628300000000024e+01	1.140454000000000051e-01
3.284444200000000080e+01	1.163296000000000052e-01
3.295352800000000570e+01	1.177713999999999983e-01
3.306328800000000001e+01	1.186534000000000061e-01
3.317399400000000043e+01	1.202314000000000022e-01
3.328498900000000305e+01	1.216707999999999956e-01
3.339738600000000446e+01	1.240674999999999972e-01
3.351010000000000133e+01	1.249398000000000036e-01
3.362322300000000297e+01	1.275921999999999890e-01
3.373817600000000283e+01	1.287283999999999928e-01
3.385310499999999934e+01	1.310279000000000027e-01
3.396937799999999896e+01	1.325404000000000027e-01
3.408574000000000126e+01	1.350121999999999989e-01
3.420380800000000221e+01	1.351084999999999925e-01
3.432179400000000413e+01	1.379317999999999933e-01
3.444090400000000329e+01	1.429873000000000116e-01
3.456142000000000536e+01	1.428264999999999951e-01
3.468193899999999985e+01	1.444094999999999962e-01
3.480327300000000434e+01	1.476870999999999878e-01
3.492589100000000002e+01	1.496168999999999971e-01
3.504955399999999344e+01	1.526695999999999886e-01
3.517379700000000042e+01	1.544636000000000065e-01
3.529909500000000122e+01	1.560133999999999965e-01
3.542516700000000185e+01	1.593401000000000123e-01
3.555228600000000228e+01	1.624249000000000109e-01
3.568018600000000617e+01	1.642399999999999971e-01
3.580878299999999825e+01	1.678389999999999882e-01
3.593823700000000088e+01	1.704017999999999922e-01
3.606886200000000287e+01	1.732622000000000051e-01
3.620091500000000195e+01	1.757926999999999962e-01
3.633339499999999589e+01	1.786356000000000055e-01
3.646627000000000152e+01	1.825991999999999893e-01
3.660155699999999968e+01	1.855180999999999913e-01
3.673695899999999881e+01	1.887118000000000129e-01
3.687367400000000117e+01	1.921406999999999976e-01
3.701151999999999731e+01	1.949556000000000067e-01
3.714986700000000042e+01	1.979702000000000128e-01
3.728880300000000148e+01	2.021547999999999956e-01
3.743030700000000621e+01	2.058483999999999869e-01
3.757208200000000176e+01	2.093894000000000033e-01
3.771435999999999922e+01	2.128606000000000109e-01
3.785818299999999681e+01	2.166887999999999870e-01
3.800360799999999983e+01	2.197900000000000131e-01
3.814984899999999612e+01	2.241356999999999933e-01
3.829720899999999517e+01	2.282492999999999883e-01
3.844555599999999629e+01	2.314448000000000061e-01
3.859474399999999861e+01	2.357132000000000116e-01
3.874576099999999457e+01	2.400056000000000134e-01
3.889787900000000320e+01	2.451243999999999923e-01
3.905110900000000385e+01	2.490698000000000079e-01
3.920462299999999800e+01	2.538266000000000133e-01
3.936088399999999865e+01	2.566020999999999996e-01
3.951765300000000281e+01	2.626176000000000066e-01
3.967546100000000564e+01	2.667613999999999819e-01
3.983426400000000456e+01	2.697201000000000182e-01
3.999608599999999825e+01	2.747214000000000045e-01
4.015712099999999651e+01	2.807025000000000214e-01
4.032027099999999820e+01	2.828739000000000114e-01
4.048536000000000001e+01	2.867978999999999945e-01
4.065136600000000300e+01	2.922480000000000078e-01
4.081875300000000095e+01	2.932184999999999930e-01
4.098759200000000646e+01	2.989844999999999864e-01
4.115660400000000152e+01	3.021724000000000077e-01
4.132837899999999820e+01	3.067044999999999910e-01
4.150065000000000026e+01	3.109566000000000274e-01
4.167696800000000223e+01	3.112200999999999995e-01
4.185207799999999878e+01	3.148931999999999842e-01
4.202779699999999963e+01	3.179837999999999831e-01
4.220818799999999982e+01	3.169069999999999943e-01
4.238733599999999768e+01	3.223552000000000084e-01
4.256893300000000124e+01	3.209891000000000272e-01
4.275468699999999700e+01	3.260410000000000252e-01
4.293919799999999753e+01	3.258022999999999891e-01
4.312514499999999629e+01	3.283288999999999791e-01
4.331230000000000047e+01	3.287375000000000158e-01
4.350209399999999960e+01	3.317068000000000239e-01
4.369371300000000247e+01	3.355953999999999882e-01
4.388694999999999879e+01	3.360596000000000139e-01
4.408202800000000110e+01	3.389773999999999843e-01
4.427900700000000001e+01	3.288518000000000274e-01
4.447738799999999770e+01	3.308101999999999987e-01
4.467801999999999651e+01	3.293851999999999891e-01
4.487977300000000014e+01	3.277175999999999978e-01
4.508406099999999839e+01	3.279031000000000029e-01
4.528996899999999926e+01	3.296170999999999962e-01
4.549766600000000238e+01	3.288039999999999852e-01
4.570712499999999778e+01	3.280434999999999879e-01
4.591859000000000179e+01	3.292354000000000114e-01
4.613229499999999916e+01	3.161595999999999851e-01
4.634792900000000060e+01	3.216292000000000040e-01
4.656537900000000008e+01	3.199826000000000059e-01
4.678516199999999969e+01	3.205237000000000225e-01
4.700665400000000460e+01	3.234485000000000277e-01
4.723066800000000143e+01	3.201181000000000165e-01
4.745602799999999633e+01	3.206157000000000035e-01
4.768420899999999563e+01	3.312802000000000247e-01
4.791463099999999997e+01	3.186188999999999827e-01
4.814706699999999984e+01	3.173839999999999995e-01
4.838163799999999526e+01	3.165159000000000167e-01
4.861924799999999891e+01	3.173628000000000005e-01
4.885876100000000122e+01	3.131020999999999943e-01
4.910031500000000193e+01	3.060338000000000225e-01
4.934472099999999983e+01	2.984447000000000072e-01
4.959123499999999751e+01	2.912027999999999839e-01
4.984028500000000150e+01	2.855138999999999871e-01
5.009195000000000420e+01	2.757707999999999826e-01
5.034680300000000130e+01	2.684011000000000036e-01
5.060304399999999703e+01	2.600829000000000057e-01
5.086240699999999748e+01	2.544451999999999825e-01
5.112513899999999722e+01	2.452686000000000033e-01
5.138949099999999959e+01	2.442864999999999898e-01
5.166306999999999761e+01	2.396203000000000083e-01
5.193461700000000292e+01	2.384436000000000055e-01
5.220795700000000039e+01	2.347136999999999973e-01
5.248356700000000075e+01	2.349414999999999976e-01
5.276237199999999916e+01	2.353265999999999969e-01
5.304365599999999858e+01	2.337519000000000124e-01
5.332988100000000031e+01	2.387272000000000005e-01
5.361884100000000331e+01	2.314377999999999991e-01
5.390970800000000196e+01	2.324003000000000041e-01
5.420315500000000242e+01	2.286137000000000030e-01
5.450172999999999490e+01	2.256527999999999867e-01
5.480429199999999668e+01	2.196055000000000090e-01
5.510741399999999857e+01	2.178547000000000122e-01
5.541571700000000078e+01	2.147249999999999992e-01
5.572525900000000121e+01	2.051045999999999980e-01
5.604005200000000286e+01	2.001253000000000060e-01
5.635849799999999732e+01	1.947957999999999912e-01
5.839999500000000410e+01	1.805582000000000020e-01
6.719999199999999462e+01	9.565611000000000252e-02
7.439999299999999494e+01	4.021781499999999704e-02
8.339999200000001167e+01	5.067989999999999995e-02
8.759999399999999525e+01	5.257387000000000171e-02
9.199999400000000094e+01	6.628101999999999605e-02
9.639998700000001008e+01	8.057954999999999979e-02
1.024999849999999952e+02	1.048946800000000040e-01
1.067999939999999981e+02	1.418746999999999925e-01
1.097999939999999981e+02	1.657530999999999866e-01
1.134999889999999994e+02	1.921701000000000104e-01
1.199999839999999978e+02	2.402694999999999970e-01
1.242999840000000091e+02	2.735916999999999932e-01
1.319999930000000177e+02	3.498872000000000093e-01
1.412999930000000006e+02	4.552527000000000101e-01
1.491999840000000006e+02	5.091175999999999480e-01
