 400.00000	   3.55165
 401.00000	   3.54002
 402.00000	   3.52838
 403.00000	   3.51672
 404.00000	   3.50505
 405.00000	   3.49335
 406.00000	   3.48165
 407.00000	   3.46993
 408.00000	   3.45819
 409.00000	   3.44644
 410.00000	   3.43467
 411.00000	   3.42289
 412.00000	   3.41109
 413.00000	   3.39927
 414.00000	   3.38744
 415.00000	   3.37560
 416.00000	   3.36374
 417.00000	   3.35186
 418.00000	   3.33997
 419.00000	   3.32806
 420.00000	   3.31515
 421.00000	   3.29861
 422.00000	   3.28205
 423.00000	   3.26547
 424.00000	   3.24873
 425.00000	   3.23144
 426.00000	   3.21412
 427.00000	   3.19680
 428.00000	   3.17946
 429.00000	   3.16211
 430.00000	   3.14474
 431.00000	   3.12737
 432.00000	   3.10998
 433.00000	   3.09257
 434.00000	   3.07516
 435.00000	   3.05773
 436.00000	   3.04029
 437.00000	   3.02283
 438.00000	   3.00537
 439.00000	   2.98789
 440.00000	   2.96915
 441.00000	   2.94394
 442.00000	   2.91875
 443.00000	   2.89360
 444.00000	   2.86848
 445.00000	   2.84340
 446.00000	   2.81834
 447.00000	   2.79332
 448.00000	   2.76833
 449.00000	   2.74337
 450.00000	   2.71845
 451.00000	   2.69355
 452.00000	   2.66869
 453.00000	   2.64387
 454.00000	   2.61907
 455.00000	   2.59431
 456.00000	   2.56958
 457.00000	   2.54490
 458.00000	   2.52026
 459.00000	   2.49567
 460.00000	   2.47113
 461.00000	   2.44664
 462.00000	   2.42219
 463.00000	   2.39779
 464.00000	   2.37344
 465.00000	   2.34913
 466.00000	   2.32486
 467.00000	   2.30065
 468.00000	   2.27648
 469.00000	   2.25236
 470.00000	   2.22828
 471.00000	   2.20425
 472.00000	   2.18035
 473.00000	   2.15750
 474.00000	   2.13467
 475.00000	   2.11186
 476.00000	   2.08960
 477.00000	   2.07493
 478.00000	   2.06027
 479.00000	   2.04563
 480.00000	   2.03100
 481.00000	   2.01639
 482.00000	   2.00180
 483.00000	   1.98722
 484.00000	   1.97265
 485.00000	   1.95810
 486.00000	   1.94357
 487.00000	   1.92905
 488.00000	   1.91455
 489.00000	   1.90006
 490.00000	   1.88559
 491.00000	   1.87114
 492.00000	   1.85683
 493.00000	   1.84889
 494.00000	   1.84095
 495.00000	   1.83303
 496.00000	   1.82512
 497.00000	   1.81722
 498.00000	   1.80934
 499.00000	   1.80147
 500.00000	   1.79361
 501.00000	   1.78576
 502.00000	   1.77793
 503.00000	   1.77011
 504.00000	   1.76231
 505.00000	   1.75451
 506.00000	   1.74673
 507.00000	   1.73896
 508.00000	   1.73121
 509.00000	   1.72409
 510.00000	   1.71699
 511.00000	   1.70991
 512.00000	   1.70283
 513.00000	   1.69576
 514.00000	   1.68869
 515.00000	   1.68164
 516.00000	   1.67459
 517.00000	   1.66597
 518.00000	   1.65729
 519.00000	   1.64862
 520.00000	   1.63996
 521.00000	   1.63132
 522.00000	   1.62268
 523.00000	   1.61405
 524.00000	   1.60544
 525.00000	   1.59617
 526.00000	   1.58686
 527.00000	   1.57758
 528.00000	   1.56831
 529.00000	   1.55907
 530.00000	   1.54983
 531.00000	   1.54062
 532.00000	   1.53143
 533.00000	   1.52225
 534.00000	   1.51309
 535.00000	   1.50395
 536.00000	   1.49482
 537.00000	   1.48571
 538.00000	   1.47662
 539.00000	   1.46755
 540.00000	   1.45850
 541.00000	   1.44946
 542.00000	   1.44044
 543.00000	   1.43144
 544.00000	   1.42246
 545.00000	   1.41872
 546.00000	   1.41569
 547.00000	   1.41265
 548.00000	   1.40962
 549.00000	   1.40659
 550.00000	   1.40356
 551.00000	   1.40054
 552.00000	   1.39752
 553.00000	   1.39450
 554.00000	   1.39148
 555.00000	   1.38847
 556.00000	   1.38546
 557.00000	   1.38245
 558.00000	   1.37945
 559.00000	   1.37645
 560.00000	   1.37345
 561.00000	   1.37045
 562.00000	   1.36746
 563.00000	   1.36447
 564.00000	   1.36148
 565.00000	   1.35850
 566.00000	   1.35552
 567.00000	   1.35254
 568.00000	   1.34956
 569.00000	   1.34659
 570.00000	   1.34361
 571.00000	   1.34065
 572.00000	   1.33768
 573.00000	   1.33472
 574.00000	   1.33176
 575.00000	   1.32880
 576.00000	   1.32585
 577.00000	   1.32289
 578.00000	   1.31994
 579.00000	   1.31700
 580.00000	   1.31405
 581.00000	   1.31111
 582.00000	   1.30818
 583.00000	   1.30524
 584.00000	   1.30231
 585.00000	   1.29938
 586.00000	   1.29645
 587.00000	   1.29353
 588.00000	   1.29061
 589.00000	   1.28769
 590.00000	   1.28477
 591.00000	   1.28186
 592.00000	   1.27895
 593.00000	   1.27604
 594.00000	   1.27314
 595.00000	   1.27023
 596.00000	   1.26733
 597.00000	   1.26444
 598.00000	   1.26154
 599.00000	   1.25865
 600.00000	   1.25577
 601.00000	   1.25302
 602.00000	   1.25033
 603.00000	   1.24763
 604.00000	   1.24494
 605.00000	   1.24226
 606.00000	   1.23957
 607.00000	   1.23689
 608.00000	   1.23421
 609.00000	   1.23585
 610.00000	   1.23923
 611.00000	   1.24261
 612.00000	   1.24599
 613.00000	   1.24936
 614.00000	   1.25273
 615.00000	   1.25609
 616.00000	   1.25945
 617.00000	   1.26281
 618.00000	   1.26616
 619.00000	   1.26951
 620.00000	   1.27285
 621.00000	   1.27619
 622.00000	   1.27952
 623.00000	   1.28285
 624.00000	   1.28618
 625.00000	   1.28937
 626.00000	   1.29248
 627.00000	   1.29560
 628.00000	   1.29870
 629.00000	   1.30181
 630.00000	   1.30490
 631.00000	   1.30799
 632.00000	   1.31108
 633.00000	   1.31416
 634.00000	   1.31723
 635.00000	   1.32030
 636.00000	   1.32336
 637.00000	   1.32642
 638.00000	   1.32947
 639.00000	   1.33252
 640.00000	   1.33556
 641.00000	   1.33611
 642.00000	   1.33518
 643.00000	   1.33425
 644.00000	   1.33332
 645.00000	   1.33238
 646.00000	   1.33145
 647.00000	   1.33052
 648.00000	   1.32959
 649.00000	   1.32866
 650.00000	   1.32772
 651.00000	   1.32679
 652.00000	   1.32586
 653.00000	   1.32497
 654.00000	   1.32410
 655.00000	   1.32323
 656.00000	   1.32236
 657.00000	   1.32149
 658.00000	   1.32062
 659.00000	   1.31975
 660.00000	   1.31888
 661.00000	   1.31801
 662.00000	   1.31714
 663.00000	   1.31627
 664.00000	   1.31540
 665.00000	   1.31453
 666.00000	   1.31366
 667.00000	   1.31279
 668.00000	   1.31192
 669.00000	   1.31105
 670.00000	   1.31018
 671.00000	   1.30931
 672.00000	   1.30844
 673.00000	   1.30765
 674.00000	   1.30693
 675.00000	   1.30620
 676.00000	   1.30548
 677.00000	   1.30612
 678.00000	   1.30797
 679.00000	   1.30983
 680.00000	   1.31167
 681.00000	   1.31352
 682.00000	   1.31536
 683.00000	   1.31720
 684.00000	   1.31904
 685.00000	   1.32088
 686.00000	   1.32271
 687.00000	   1.32454
 688.00000	   1.32636
 689.00000	   1.32819
 690.00000	   1.33001
 691.00000	   1.33183
 692.00000	   1.33364
 693.00000	   1.33545
 694.00000	   1.33726
 695.00000	   1.33907
 696.00000	   1.34087
 697.00000	   1.34267
 698.00000	   1.34447
 699.00000	   1.34626
 700.00000	   1.34806
 701.00000	   1.35024
 702.00000	   1.35287
 703.00000	   1.35551
 704.00000	   1.35813
 705.00000	   1.36076
 706.00000	   1.36337
 707.00000	   1.36599
 708.00000	   1.36860
 709.00000	   1.37121
 710.00000	   1.37381
 711.00000	   1.37641
 712.00000	   1.37901
 713.00000	   1.38160
 714.00000	   1.38419
 715.00000	   1.38678
 716.00000	   1.38936
 717.00000	   1.39193
 718.00000	   1.39451
 719.00000	   1.39708
 720.00000	   1.39964
 721.00000	   1.40229
 722.00000	   1.40505
 723.00000	   1.40780
 724.00000	   1.41055
 725.00000	   1.41330
 726.00000	   1.41605
 727.00000	   1.41879
 728.00000	   1.42154
 729.00000	   1.42427
 730.00000	   1.42701
 731.00000	   1.42974
 732.00000	   1.43247
 733.00000	   1.43520
 734.00000	   1.43792
 735.00000	   1.44064
 736.00000	   1.44336
 737.00000	   1.44608
 738.00000	   1.44879
 739.00000	   1.45150
 740.00000	   1.45421
 741.00000	   1.45691
 742.00000	   1.45961
 743.00000	   1.46231
 744.00000	   1.46500
 745.00000	   1.46770
 746.00000	   1.47039
 747.00000	   1.47307
 748.00000	   1.47576
 749.00000	   1.47844
 750.00000	   1.48111
 751.00000	   1.48379
 752.00000	   1.48646
 753.00000	   1.48911
 754.00000	   1.49172
 755.00000	   1.49432
 756.00000	   1.49693
 757.00000	   1.49952
 758.00000	   1.50212
 759.00000	   1.50471
 760.00000	   1.50730
 761.00000	   1.50989
 762.00000	   1.51247
 763.00000	   1.51505
 764.00000	   1.51763
 765.00000	   1.52020
 766.00000	   1.52277
 767.00000	   1.52534
 768.00000	   1.52790
 769.00000	   1.53046
 770.00000	   1.53302
 771.00000	   1.53557
 772.00000	   1.53812
 773.00000	   1.54139
 774.00000	   1.54656
 775.00000	   1.55172
 776.00000	   1.55688
 777.00000	   1.56203
 778.00000	   1.56718
 779.00000	   1.57232
 780.00000	   1.57745
 781.00000	   1.58258
 782.00000	   1.58770
 783.00000	   1.59282
 784.00000	   1.59793
 785.00000	   1.60304
 786.00000	   1.60814
 787.00000	   1.61324
 788.00000	   1.61833
 789.00000	   1.62341
 790.00000	   1.62849
 791.00000	   1.63356
 792.00000	   1.63863
 793.00000	   1.64369
 794.00000	   1.64875
 795.00000	   1.65380
 796.00000	   1.65884
 797.00000	   1.66395
 798.00000	   1.66930
 799.00000	   1.67464
 800.00000	   1.67998
 801.00000	   1.68532
 802.00000	   1.69065
 803.00000	   1.69598
 804.00000	   1.70130
 805.00000	   1.70663
 806.00000	   1.71195
 807.00000	   1.71726
 808.00000	   1.72257
 809.00000	   1.72788
 810.00000	   1.73319
 811.00000	   1.73849
 812.00000	   1.74379
 813.00000	   1.74847
 814.00000	   1.75002
 815.00000	   1.75158
 816.00000	   1.75313
 817.00000	   1.75469
 818.00000	   1.75624
 819.00000	   1.75779
 820.00000	   1.75934
 821.00000	   1.76089
 822.00000	   1.76244
 823.00000	   1.76398
 824.00000	   1.76553
 825.00000	   1.76707
 826.00000	   1.76861
 827.00000	   1.77015
 828.00000	   1.77169
 829.00000	   1.77323
 830.00000	   1.77477
 831.00000	   1.77631
 832.00000	   1.77784
 833.00000	   1.77938
 834.00000	   1.78091
 835.00000	   1.78244
 836.00000	   1.78397
 837.00000	   1.78550
 838.00000	   1.78703
 839.00000	   1.78855
 840.00000	   1.79008
 841.00000	   1.79179
 842.00000	   1.79537
 843.00000	   1.79895
 844.00000	   1.80252
 845.00000	   1.80611
 846.00000	   1.80986
 847.00000	   1.81361
 848.00000	   1.81736
 849.00000	   1.82110
 850.00000	   1.82485
 851.00000	   1.82859
 852.00000	   1.83233
 853.00000	   1.83607
 854.00000	   1.83981
 855.00000	   1.84355
 856.00000	   1.84728
 857.00000	   1.85101
 858.00000	   1.85475
 859.00000	   1.85848
 860.00000	   1.86220
 861.00000	   1.86593
 862.00000	   1.86965
 863.00000	   1.87338
 864.00000	   1.87710
 865.00000	   1.88082
 866.00000	   1.88454
 867.00000	   1.88825
 868.00000	   1.89197
 869.00000	   1.89570
 870.00000	   1.90069
 871.00000	   1.90568
 872.00000	   1.91067
 873.00000	   1.91565
 874.00000	   1.92063
 875.00000	   1.92561
 876.00000	   1.93059
 877.00000	   1.93556
 878.00000	   1.94054
 879.00000	   1.94551
 880.00000	   1.95048
 881.00000	   1.95544
 882.00000	   1.95980
 883.00000	   1.96414
 884.00000	   1.96847
 885.00000	   1.97280
 886.00000	   1.97713
 887.00000	   1.98144
 888.00000	   1.98576
 889.00000	   1.99006
 890.00000	   1.99437
 891.00000	   1.99866
 892.00000	   2.00295
 893.00000	   2.00724
 894.00000	   2.01152
 895.00000	   2.01579
 896.00000	   2.02006
 897.00000	   2.02432
 898.00000	   2.02858
 899.00000	   2.03283
 900.00000	   2.03708
 901.00000	   2.04132
 902.00000	   2.04555
 903.00000	   2.04978
 904.00000	   2.05401
 905.00000	   2.05823
 906.00000	   2.06244
 907.00000	   2.06665
 908.00000	   2.07085
 909.00000	   2.07505
 910.00000	   2.07973
 911.00000	   2.08446
 912.00000	   2.08919
 913.00000	   2.09392
 914.00000	   2.09865
 915.00000	   2.10337
 916.00000	   2.10809
 917.00000	   2.11280
 918.00000	   2.11752
 919.00000	   2.12223
 920.00000	   2.12694
 921.00000	   2.13164
 922.00000	   2.13634
 923.00000	   2.14104
 924.00000	   2.14574
 925.00000	   2.15043
 926.00000	   2.15513
 927.00000	   2.15981
 928.00000	   2.16450
 929.00000	   2.16918
 930.00000	   2.17386
 931.00000	   2.17854
 932.00000	   2.18322
 933.00000	   2.18789
 934.00000	   2.19256
 935.00000	   2.19722
 936.00000	   2.20189
 937.00000	   2.20655
 938.00000	   2.21169
 939.00000	   2.21693
 940.00000	   2.22218
 941.00000	   2.22742
 942.00000	   2.23266
 943.00000	   2.23790
 944.00000	   2.24314
 945.00000	   2.24838
 946.00000	   2.25363
 947.00000	   2.25887
 948.00000	   2.26411
 949.00000	   2.26935
 950.00000	   2.27459
 951.00000	   2.27983
 952.00000	   2.28507
 953.00000	   2.29032
 954.00000	   2.29556
 955.00000	   2.30080
 956.00000	   2.30604
 957.00000	   2.31128
 958.00000	   2.31652
 959.00000	   2.32176
 960.00000	   2.32701
 961.00000	   2.33225
 962.00000	   2.33749
 963.00000	   2.34273
 964.00000	   2.34797
 965.00000	   2.35321
 966.00000	   2.35846
 967.00000	   2.36370
 968.00000	   2.36894
 969.00000	   2.37418
 970.00000	   2.37915
 971.00000	   2.38402
 972.00000	   2.38889
 973.00000	   2.39376
 974.00000	   2.39863
 975.00000	   2.40350
 976.00000	   2.40837
 977.00000	   2.41323
 978.00000	   2.41809
 979.00000	   2.42295
 980.00000	   2.42781
 981.00000	   2.43267
 982.00000	   2.43753
 983.00000	   2.44238
 984.00000	   2.44723
 985.00000	   2.45209
 986.00000	   2.45694
 987.00000	   2.46178
 988.00000	   2.46663
 989.00000	   2.47148
 990.00000	   2.47632
 991.00000	   2.48116
 992.00000	   2.48600
 993.00000	   2.49084
 994.00000	   2.49568
 995.00000	   2.50051
 996.00000	   2.50534
 997.00000	   2.51018
 998.00000	   2.51551
 999.00000	   2.52108
1000.00000	   2.52665
1001.00000	   2.53222
1002.00000	   2.53779
1003.00000	   2.54336
1004.00000	   2.54892
1005.00000	   2.55449
1006.00000	   2.56005
1007.00000	   2.56561
1008.00000	   2.57117
1009.00000	   2.57672
1010.00000	   2.58227
1011.00000	   2.58783
1012.00000	   2.59338
1013.00000	   2.59892
1014.00000	   2.60447
1015.00000	   2.61002
1016.00000	   2.61556
1017.00000	   2.62110
1018.00000	   2.62712
1019.00000	   2.63345
1020.00000	   2.63977
1021.00000	   2.64610
1022.00000	   2.65243
1023.00000	   2.65876
1024.00000	   2.66509
1025.00000	   2.67142
1026.00000	   2.67881
1027.00000	   2.68692
1028.00000	   2.69502
1029.00000	   2.70312
1030.00000	   2.71123
1031.00000	   2.71934
1032.00000	   2.72745
1033.00000	   2.73557
1034.00000	   2.74369
1035.00000	   2.75180
1036.00000	   2.75993
1037.00000	   2.76805
1038.00000	   2.77617
1039.00000	   2.78430
1040.00000	   2.79243
1041.00000	   2.80056
1042.00000	   2.80870
1043.00000	   2.81684
1044.00000	   2.82497
1045.00000	   2.83312
1046.00000	   2.84126
1047.00000	   2.84940
1048.00000	   2.85755
1049.00000	   2.86570
1050.00000	   2.87385
1051.00000	   2.88201
1052.00000	   2.89016
1053.00000	   2.89832
1054.00000	   2.90648
1055.00000	   2.91465
1056.00000	   2.92281
1057.00000	   2.93098
1058.00000	   2.93915
1059.00000	   2.94732
1060.00000	   2.95549
1061.00000	   2.96367
1062.00000	   2.97006
1063.00000	   2.97467
1064.00000	   2.97928
1065.00000	   2.98389
1066.00000	   2.98851
1067.00000	   2.99313
1068.00000	   2.99774
1069.00000	   3.00236
1070.00000	   3.00662
1071.00000	   3.01049
1072.00000	   3.01435
1073.00000	   3.01821
1074.00000	   3.02208
1075.00000	   3.02594
1076.00000	   3.02980
1077.00000	   3.03366
1078.00000	   3.03752
1079.00000	   3.04138
1080.00000	   3.04524
1081.00000	   3.04909
1082.00000	   3.05295
1083.00000	   3.05680
1084.00000	   3.06066
1085.00000	   3.06451
1086.00000	   3.06836
1087.00000	   3.07222
1088.00000	   3.07607
1089.00000	   3.07992
1090.00000	   3.08376
1091.00000	   3.08761
1092.00000	   3.09146
1093.00000	   3.09530
1094.00000	   3.09915
1095.00000	   3.10299
1096.00000	   3.10684
1097.00000	   3.11068
1098.00000	   3.11452
1099.00000	   3.11836
1100.00000	   3.12220
1101.00000	   3.12604
1102.00000	   3.13043
1103.00000	   3.13566
1104.00000	   3.14088
1105.00000	   3.14611
1106.00000	   3.15134
1107.00000	   3.15656
1108.00000	   3.16178
1109.00000	   3.16701
1110.00000	   3.17223
1111.00000	   3.17745
1112.00000	   3.18267
1113.00000	   3.18788
1114.00000	   3.19310
1115.00000	   3.19831
1116.00000	   3.20353
1117.00000	   3.20874
1118.00000	   3.21395
1119.00000	   3.21916
1120.00000	   3.22437
1121.00000	   3.22958
1122.00000	   3.23478
1123.00000	   3.23999
1124.00000	   3.24519
1125.00000	   3.25039
1126.00000	   3.25559
1127.00000	   3.26080
1128.00000	   3.26599
1129.00000	   3.27119
1130.00000	   3.27639
1131.00000	   3.28158
1132.00000	   3.28678
1133.00000	   3.29197
1134.00000	   3.29716
1135.00000	   3.30235
1136.00000	   3.30754
1137.00000	   3.31273
1138.00000	   3.31836
1139.00000	   3.32504
1140.00000	   3.33171
1141.00000	   3.33840
1142.00000	   3.34526
1143.00000	   3.35257
1144.00000	   3.35988
1145.00000	   3.36719
1146.00000	   3.37451
1147.00000	   3.38184
1148.00000	   3.38917
1149.00000	   3.39650
1150.00000	   3.40384
1151.00000	   3.41118
1152.00000	   3.41852
1153.00000	   3.42587
1154.00000	   3.43322
1155.00000	   3.44058
1156.00000	   3.44794
1157.00000	   3.45531
1158.00000	   3.46268
1159.00000	   3.47005
1160.00000	   3.47743
1161.00000	   3.48481
1162.00000	   3.49220
1163.00000	   3.49959
1164.00000	   3.50698
1165.00000	   3.51438
1166.00000	   3.52179
1167.00000	   3.52919
1168.00000	   3.53661
1169.00000	   3.54402
1170.00000	   3.55144
1171.00000	   3.55887
1172.00000	   3.56629
1173.00000	   3.57373
1174.00000	   3.58116
1175.00000	   3.58860
1176.00000	   3.59605
1177.00000	   3.60350
1178.00000	   3.61091
1179.00000	   3.61814
1180.00000	   3.62538
1181.00000	   3.63262
1182.00000	   3.63993
1183.00000	   3.64751
1184.00000	   3.65509
1185.00000	   3.66268
1186.00000	   3.67027
1187.00000	   3.67787
1188.00000	   3.68547
1189.00000	   3.69308
1190.00000	   3.70069
1191.00000	   3.70831
1192.00000	   3.71593
1193.00000	   3.72356
1194.00000	   3.73120
1195.00000	   3.73883
1196.00000	   3.74648
1197.00000	   3.75413
1198.00000	   3.76178
1199.00000	   3.76944
1200.00000	   3.77711
1201.00000	   3.78477
1202.00000	   3.79245
1203.00000	   3.80013
1204.00000	   3.80781
1205.00000	   3.81550
1206.00000	   3.82298
1207.00000	   3.82885
1208.00000	   3.83473
1209.00000	   3.84060
1210.00000	   3.84649
1211.00000	   3.85237
1212.00000	   3.85826
1213.00000	   3.86415
1214.00000	   3.87005
1215.00000	   3.87594
1216.00000	   3.88185
1217.00000	   3.88775
1218.00000	   3.89366
1219.00000	   3.89958
1220.00000	   3.90549
1221.00000	   3.91141
1222.00000	   3.91734
1223.00000	   3.92326
1224.00000	   3.92920
1225.00000	   3.93513
1226.00000	   3.94107
1227.00000	   3.94701
1228.00000	   3.95296
1229.00000	   3.95890
1230.00000	   3.96486
1231.00000	   3.97081
1232.00000	   3.97677
1233.00000	   3.98274
1234.00000	   3.98866
1235.00000	   3.99352
1236.00000	   3.99839
1237.00000	   4.00326
1238.00000	   4.00814
1239.00000	   4.01301
1240.00000	   4.01788
1241.00000	   4.02276
1242.00000	   4.02764
1243.00000	   4.03251
1244.00000	   4.03739
1245.00000	   4.04227
1246.00000	   4.04717
1247.00000	   4.05327
1248.00000	   4.05938
1249.00000	   4.06548
1250.00000	   4.07159
1251.00000	   4.07770
1252.00000	   4.08381
1253.00000	   4.08992
1254.00000	   4.09603
1255.00000	   4.10215
1256.00000	   4.10826
1257.00000	   4.11438
1258.00000	   4.12050
1259.00000	   4.12662
1260.00000	   4.13275
1261.00000	   4.13887
1262.00000	   4.14499
1263.00000	   4.15112
1264.00000	   4.15725
1265.00000	   4.16338
1266.00000	   4.16951
1267.00000	   4.17565
1268.00000	   4.18178
1269.00000	   4.18792
1270.00000	   4.19405
1271.00000	   4.20019
1272.00000	   4.20633
1273.00000	   4.21248
1274.00000	   4.21862
1275.00000	   4.22477
1276.00000	   4.23091
1277.00000	   4.23706
1278.00000	   4.24321
1279.00000	   4.24936
1280.00000	   4.25552
1281.00000	   4.26167
1282.00000	   4.26783
1283.00000	   4.27398
1284.00000	   4.28014
1285.00000	   4.28630
1286.00000	   4.29247
1287.00000	   4.29983
1288.00000	   4.30732
1289.00000	   4.31482
1290.00000	   4.32232
1291.00000	   4.32983
1292.00000	   4.33734
1293.00000	   4.34486
1294.00000	   4.35239
1295.00000	   4.35991
1296.00000	   4.36745
1297.00000	   4.37499
1298.00000	   4.38253
1299.00000	   4.38981
1300.00000	   4.39706
1301.00000	   4.40431
1302.00000	   4.41156
1303.00000	   4.41883
1304.00000	   4.42609
1305.00000	   4.43336
1306.00000	   4.44064
1307.00000	   4.44792
1308.00000	   4.45520
1309.00000	   4.46249
1310.00000	   4.46978
1311.00000	   4.47708
1312.00000	   4.48439
1313.00000	   4.49169
1314.00000	   4.49901
1315.00000	   4.50632
1316.00000	   4.51365
1317.00000	   4.52097
1318.00000	   4.52830
1319.00000	   4.53564
1320.00000	   4.54298
1321.00000	   4.55033
1322.00000	   4.55768
1323.00000	   4.56503
1324.00000	   4.57239
1325.00000	   4.57975
1326.00000	   4.58712
1327.00000	   4.59450
1328.00000	   4.60188
1329.00000	   4.60926
1330.00000	   4.61665
1331.00000	   4.62404
1332.00000	   4.63144
1333.00000	   4.63884
1334.00000	   4.64624
1335.00000	   4.65271
1336.00000	   4.65891
1337.00000	   4.66511
1338.00000	   4.67131
1339.00000	   4.67751
1340.00000	   4.68371
1341.00000	   4.68992
1342.00000	   4.69613
1343.00000	   4.70200
1344.00000	   4.70776
1345.00000	   4.71353
1346.00000	   4.71929
1347.00000	   4.72506
1348.00000	   4.73083
1349.00000	   4.73660
1350.00000	   4.74237
1351.00000	   4.74814
1352.00000	   4.75392
1353.00000	   4.75970
1354.00000	   4.76548
1355.00000	   4.77126
1356.00000	   4.77704
1357.00000	   4.78283
1358.00000	   4.78861
1359.00000	   4.79440
1360.00000	   4.80019
1361.00000	   4.80598
1362.00000	   4.81178
1363.00000	   4.81757
1364.00000	   4.82337
1365.00000	   4.82917
1366.00000	   4.83497
1367.00000	   4.84077
1368.00000	   4.84657
1369.00000	   4.85238
1370.00000	   4.85818
1371.00000	   4.86399
1372.00000	   4.86980
1373.00000	   4.87561
1374.00000	   4.88143
1375.00000	   4.88762
1376.00000	   4.89400
1377.00000	   4.90039
1378.00000	   4.90678
1379.00000	   4.91317
1380.00000	   4.91956
1381.00000	   4.92596
1382.00000	   4.93236
1383.00000	   4.93876
1384.00000	   4.94516
1385.00000	   4.95157
1386.00000	   4.95798
1387.00000	   4.96440
1388.00000	   4.97081
1389.00000	   4.97723
1390.00000	   4.98366
1391.00000	   4.99008
1392.00000	   4.99651
1393.00000	   5.00294
1394.00000	   5.00938
1395.00000	   5.01581
1396.00000	   5.02225
1397.00000	   5.02869
1398.00000	   5.03514
1399.00000	   5.04159
1400.00000	   5.04804
1401.00000	   5.05449
1402.00000	   5.06095
1403.00000	   5.06741
1404.00000	   5.07387
1405.00000	   5.08034
1406.00000	   5.08681
1407.00000	   5.09328
1408.00000	   5.09975
1409.00000	   5.10623
1410.00000	   5.11271
1411.00000	   5.11919
1412.00000	   5.12568
1413.00000	   5.13217
1414.00000	   5.13866
1415.00000	   5.14444
1416.00000	   5.14968
1417.00000	   5.15493
1418.00000	   5.16017
1419.00000	   5.16542
1420.00000	   5.17066
1421.00000	   5.17591
1422.00000	   5.18117
1423.00000	   5.18722
1424.00000	   5.19395
1425.00000	   5.20069
1426.00000	   5.20743
1427.00000	   5.21418
1428.00000	   5.22093
1429.00000	   5.22769
1430.00000	   5.23445
1431.00000	   5.24121
1432.00000	   5.24798
1433.00000	   5.25475
1434.00000	   5.26153
1435.00000	   5.26831
1436.00000	   5.27510
1437.00000	   5.28189
1438.00000	   5.28868
1439.00000	   5.29548
1440.00000	   5.30229
1441.00000	   5.30909
1442.00000	   5.31591
1443.00000	   5.32272
1444.00000	   5.32954
1445.00000	   5.33637
1446.00000	   5.34320
1447.00000	   5.35003
1448.00000	   5.35687
1449.00000	   5.36371
1450.00000	   5.37055
1451.00000	   5.37741
1452.00000	   5.38426
1453.00000	   5.39112
1454.00000	   5.39798
1455.00000	   5.40485
1456.00000	   5.41172
1457.00000	   5.41860
1458.00000	   5.42548
1459.00000	   5.43236
1460.00000	   5.43925
1461.00000	   5.44615
1462.00000	   5.45304
1463.00000	   5.46050
1464.00000	   5.46870
1465.00000	   5.47690
1466.00000	   5.48511
1467.00000	   5.49332
1468.00000	   5.50154
1469.00000	   5.50977
1470.00000	   5.51800
1471.00000	   5.52592
1472.00000	   5.53340
1473.00000	   5.54088
1474.00000	   5.54836
1475.00000	   5.55585
1476.00000	   5.56334
1477.00000	   5.57084
1478.00000	   5.57834
1479.00000	   5.58585
1480.00000	   5.59336
1481.00000	   5.60087
1482.00000	   5.60839
1483.00000	   5.61591
1484.00000	   5.62344
1485.00000	   5.63097
1486.00000	   5.63851
1487.00000	   5.64605
1488.00000	   5.65359
1489.00000	   5.66114
1490.00000	   5.66870
1491.00000	   5.67625
1492.00000	   5.68381
1493.00000	   5.69138
1494.00000	   5.69895
1495.00000	   5.70653
1496.00000	   5.71411
1497.00000	   5.72169
1498.00000	   5.72928
1499.00000	   5.73687
1500.00000	   5.74446
1501.00000	   5.75206
1502.00000	   5.75967
1503.00000	   5.76728
1504.00000	   5.77489
1505.00000	   5.78251
1506.00000	   5.79013
1507.00000	   5.79776
1508.00000	   5.80539
1509.00000	   5.81302
1510.00000	   5.82066
1511.00000	   5.82773
1512.00000	   5.83350
1513.00000	   5.83927
1514.00000	   5.84504
1515.00000	   5.85082
1516.00000	   5.85660
1517.00000	   5.86238
1518.00000	   5.86816
1519.00000	   5.87387
1520.00000	   5.87939
1521.00000	   5.88492
1522.00000	   5.89045
1523.00000	   5.89598
1524.00000	   5.90151
1525.00000	   5.90705
1526.00000	   5.91258
1527.00000	   5.91812
1528.00000	   5.92367
1529.00000	   5.92921
1530.00000	   5.93476
1531.00000	   5.94031
1532.00000	   5.94586
1533.00000	   5.95142
1534.00000	   5.95698
1535.00000	   5.96253
1536.00000	   5.96810
1537.00000	   5.97366
1538.00000	   5.97923
1539.00000	   5.98480
1540.00000	   5.99037
1541.00000	   5.99595
1542.00000	   6.00152
1543.00000	   6.00710
1544.00000	   6.01268
1545.00000	   6.01827
1546.00000	   6.02386
1547.00000	   6.02945
1548.00000	   6.03504
1549.00000	   6.04063
1550.00000	   6.04623
1551.00000	   6.05183
1552.00000	   6.05743
1553.00000	   6.06303
1554.00000	   6.06864
1555.00000	   6.07434
1556.00000	   6.08045
1557.00000	   6.08656
1558.00000	   6.09267
1559.00000	   6.09878
1560.00000	   6.10490
1561.00000	   6.11102
1562.00000	   6.11714
1563.00000	   6.12327
1564.00000	   6.12940
1565.00000	   6.13553
1566.00000	   6.14167
1567.00000	   6.14785
1568.00000	   6.15425
1569.00000	   6.16066
1570.00000	   6.16708
1571.00000	   6.17350
1572.00000	   6.17992
1573.00000	   6.18634
1574.00000	   6.19277
1575.00000	   6.19920
1576.00000	   6.20563
1577.00000	   6.21207
1578.00000	   6.21851
1579.00000	   6.22495
1580.00000	   6.23140
1581.00000	   6.23785
1582.00000	   6.24430
1583.00000	   6.25076
1584.00000	   6.25722
1585.00000	   6.26368
1586.00000	   6.27015
1587.00000	   6.27662
1588.00000	   6.28309
1589.00000	   6.28956
1590.00000	   6.29604
1591.00000	   6.30253
1592.00000	   6.30901
1593.00000	   6.31550
1594.00000	   6.32199
1595.00000	   6.32849
1596.00000	   6.33499
1597.00000	   6.34149
1598.00000	   6.34799
1599.00000	   6.35450
1600.00000	   6.36095
1601.00000	   6.36740
1602.00000	   6.37386
1603.00000	   6.38032
1604.00000	   6.38678
1605.00000	   6.39325
1606.00000	   6.39972
1607.00000	   6.40619
1608.00000	   6.41267
1609.00000	   6.41915
1610.00000	   6.42563
1611.00000	   6.43212
1612.00000	   6.43860
1613.00000	   6.44510
1614.00000	   6.45159
1615.00000	   6.45809
1616.00000	   6.46459
1617.00000	   6.47110
1618.00000	   6.47760
1619.00000	   6.48411
1620.00000	   6.49011
1621.00000	   6.49612
1622.00000	   6.50214
1623.00000	   6.50815
1624.00000	   6.51417
1625.00000	   6.52019
1626.00000	   6.52621
1627.00000	   6.53224
1628.00000	   6.53827
1629.00000	   6.54430
1630.00000	   6.55033
1631.00000	   6.55637
1632.00000	   6.56241
1633.00000	   6.56845
1634.00000	   6.57449
1635.00000	   6.58054
1636.00000	   6.58659
1637.00000	   6.59265
1638.00000	   6.59870
1639.00000	   6.60476
1640.00000	   6.61082
1641.00000	   6.61689
1642.00000	   6.62295
1643.00000	   6.62902
1644.00000	   6.63510
1645.00000	   6.64117
1646.00000	   6.64725
1647.00000	   6.65333
1648.00000	   6.65941
1649.00000	   6.66550
1650.00000	   6.67159
1651.00000	   6.67768
1652.00000	   6.68378
1653.00000	   6.68987
1654.00000	   6.69597
1655.00000	   6.70208
1656.00000	   6.70818
1657.00000	   6.71429
1658.00000	   6.72040
1659.00000	   6.72652
1660.00000	   6.73263
1661.00000	   6.73875
1662.00000	   6.74487
1663.00000	   6.75100
1664.00000	   6.75713
1665.00000	   6.76326
1666.00000	   6.76939
1667.00000	   6.77553
1668.00000	   6.78166
1669.00000	   6.78781
1670.00000	   6.79395
1671.00000	   6.80010
1672.00000	   6.80625
1673.00000	   6.81240
1674.00000	   6.81855
1675.00000	   6.82471
1676.00000	   6.83087
1677.00000	   6.83704
1678.00000	   6.84320
1679.00000	   6.84937
1680.00000	   6.85554
1681.00000	   6.86172
1682.00000	   6.86790
1683.00000	   6.87408
1684.00000	   6.88026
1685.00000	   6.88644
1686.00000	   6.89263
1687.00000	   6.89882
1688.00000	   6.90502
1689.00000	   6.91121
1690.00000	   6.91741
1691.00000	   6.92361
1692.00000	   6.92982
1693.00000	   6.93603
1694.00000	   6.94224
1695.00000	   6.94845
1696.00000	   6.95467
1697.00000	   6.96088
1698.00000	   6.96711
1699.00000	   6.97333
1700.00000	   6.97956
1701.00000	   6.98579
1702.00000	   6.99202
1703.00000	   6.99825
1704.00000	   7.00449
1705.00000	   7.01073
1706.00000	   7.01698
1707.00000	   7.02322
1708.00000	   7.02947
1709.00000	   7.03572
1710.00000	   7.04198
1711.00000	   7.04823
1712.00000	   7.05449
1713.00000	   7.06076
1714.00000	   7.06702
1715.00000	   7.07329
1716.00000	   7.07956
1717.00000	   7.08583
1718.00000	   7.09211
1719.00000	   7.09839
1720.00000	   7.10520
1721.00000	   7.11220
1722.00000	   7.11920
1723.00000	   7.12620
1724.00000	   7.13321
1725.00000	   7.14022
1726.00000	   7.14723
1727.00000	   7.15425
1728.00000	   7.16127
1729.00000	   7.16830
1730.00000	   7.17532
1731.00000	   7.18235
1732.00000	   7.18939
1733.00000	   7.19643
1734.00000	   7.20347
1735.00000	   7.21051
1736.00000	   7.21756
1737.00000	   7.22461
1738.00000	   7.23167
1739.00000	   7.23872
1740.00000	   7.24538
1741.00000	   7.25187
1742.00000	   7.25836
1743.00000	   7.26485
1744.00000	   7.27134
1745.00000	   7.27784
1746.00000	   7.28434
1747.00000	   7.29085
1748.00000	   7.29735
1749.00000	   7.30386
1750.00000	   7.31037
1751.00000	   7.31689
1752.00000	   7.32340
1753.00000	   7.32992
1754.00000	   7.33645
1755.00000	   7.34297
1756.00000	   7.34950
1757.00000	   7.35603
1758.00000	   7.36257
1759.00000	   7.36911
1760.00000	   7.37565
1761.00000	   7.38219
1762.00000	   7.38874
1763.00000	   7.39529
1764.00000	   7.40184
1765.00000	   7.40839
1766.00000	   7.41495
1767.00000	   7.42151
1768.00000	   7.42770
1769.00000	   7.43366
1770.00000	   7.43962
1771.00000	   7.44559
1772.00000	   7.45156
1773.00000	   7.45753
1774.00000	   7.46350
1775.00000	   7.46947
1776.00000	   7.47545
1777.00000	   7.48143
1778.00000	   7.48741
1779.00000	   7.49340
1780.00000	   7.49939
1781.00000	   7.50538
1782.00000	   7.51137
1783.00000	   7.51736
1784.00000	   7.52336
1785.00000	   7.52936
1786.00000	   7.53536
1787.00000	   7.54136
1788.00000	   7.54737
1789.00000	   7.55338
1790.00000	   7.55939
1791.00000	   7.56540
1792.00000	   7.57142
1793.00000	   7.57744
1794.00000	   7.58346
1795.00000	   7.58948
1796.00000	   7.59550
1797.00000	   7.60153
1798.00000	   7.60756
1799.00000	   7.61359
1800.00000	   7.61963
1801.00000	   7.62567
1802.00000	   7.63171
1803.00000	   7.63775
1804.00000	   7.64379
1805.00000	   7.64984
1806.00000	   7.65589
1807.00000	   7.66194
1808.00000	   7.66799
1809.00000	   7.67405
1810.00000	   7.68011
1811.00000	   7.68617
1812.00000	   7.69179
1813.00000	   7.69698
1814.00000	   7.70217
1815.00000	   7.70736
1816.00000	   7.71255
1817.00000	   7.71774
1818.00000	   7.72294
1819.00000	   7.72814
1820.00000	   7.73334
1821.00000	   7.73854
1822.00000	   7.74374
1823.00000	   7.74894
1824.00000	   7.75415
1825.00000	   7.75935
1826.00000	   7.76456
1827.00000	   7.76977
1828.00000	   7.77499
1829.00000	   7.78020
1830.00000	   7.78542
1831.00000	   7.79063
1832.00000	   7.79585
1833.00000	   7.80107
1834.00000	   7.80630
1835.00000	   7.81152
1836.00000	   7.81675
1837.00000	   7.82197
1838.00000	   7.82720
1839.00000	   7.83243
1840.00000	   7.83808
1841.00000	   7.84427
1842.00000	   7.85046
1843.00000	   7.85666
1844.00000	   7.86286
1845.00000	   7.86906
1846.00000	   7.87527
1847.00000	   7.88147
1848.00000	   7.88768
1849.00000	   7.89389
1850.00000	   7.90011
1851.00000	   7.90632
1852.00000	   7.91254
1853.00000	   7.91876
1854.00000	   7.92498
1855.00000	   7.93120
1856.00000	   7.93743
1857.00000	   7.94366
1858.00000	   7.94989
1859.00000	   7.95612
1860.00000	   7.96236
1861.00000	   7.96860
1862.00000	   7.97484
1863.00000	   7.98108
1864.00000	   7.98732
1865.00000	   7.99357
1866.00000	   7.99982
1867.00000	   8.00607
1868.00000	   8.01232
1869.00000	   8.01857
1870.00000	   8.02483
1871.00000	   8.03109
1872.00000	   8.03735
1873.00000	   8.04362
1874.00000	   8.04988
1875.00000	   8.05615
1876.00000	   8.06242
1877.00000	   8.06869
1878.00000	   8.07497
1879.00000	   8.08125
1880.00000	   8.08728
1881.00000	   8.09281
1882.00000	   8.09834
1883.00000	   8.10387
1884.00000	   8.10894
1885.00000	   8.11297
1886.00000	   8.11700
1887.00000	   8.12104
1888.00000	   8.12507
1889.00000	   8.12911
1890.00000	   8.13315
1891.00000	   8.13718
1892.00000	   8.14122
1893.00000	   8.14526
1894.00000	   8.14930
1895.00000	   8.15335
1896.00000	   8.15739
1897.00000	   8.16143
1898.00000	   8.16548
1899.00000	   8.16952
1900.00000	   8.17357
1901.00000	   8.17761
1902.00000	   8.18166
1903.00000	   8.18571
1904.00000	   8.18976
1905.00000	   8.19381
1906.00000	   8.19786
1907.00000	   8.20192
1908.00000	   8.20597
1909.00000	   8.21003
1910.00000	   8.21408
1911.00000	   8.21814
1912.00000	   8.22219
1913.00000	   8.22625
1914.00000	   8.23031
1915.00000	   8.23437
1916.00000	   8.23843
1917.00000	   8.24249
1918.00000	   8.24656
1919.00000	   8.25062
1920.00000	   8.25469
1921.00000	   8.25875
1922.00000	   8.26282
1923.00000	   8.26688
1924.00000	   8.27095
1925.00000	   8.27502
1926.00000	   8.27909
1927.00000	   8.28316
1928.00000	   8.28724
1929.00000	   8.29131
1930.00000	   8.29538
1931.00000	   8.29946
1932.00000	   8.30403
1933.00000	   8.31084
1934.00000	   8.31766
1935.00000	   8.32447
1936.00000	   8.33149
1937.00000	   8.33949
1938.00000	   8.34749
1939.00000	   8.35549
1940.00000	   8.36349
1941.00000	   8.37150
1942.00000	   8.37952
1943.00000	   8.38753
1944.00000	   8.39555
1945.00000	   8.40358
1946.00000	   8.41161
1947.00000	   8.41964
1948.00000	   8.42767
1949.00000	   8.43571
1950.00000	   8.44376
1951.00000	   8.45181
1952.00000	   8.45986
1953.00000	   8.46791
1954.00000	   8.47597
1955.00000	   8.48403
1956.00000	   8.49210
1957.00000	   8.50017
1958.00000	   8.50825
1959.00000	   8.51632
1960.00000	   8.52441
1961.00000	   8.53249
1962.00000	   8.54058
1963.00000	   8.54867
1964.00000	   8.55677
1965.00000	   8.56487
1966.00000	   8.57298
1967.00000	   8.58109
1968.00000	   8.58902
1969.00000	   8.59501
1970.00000	   8.60100
1971.00000	   8.60700
1972.00000	   8.61299
1973.00000	   8.61899
1974.00000	   8.62499
1975.00000	   8.63099
1976.00000	   8.63700
1977.00000	   8.64300
1978.00000	   8.64901
1979.00000	   8.65502
1980.00000	   8.66103
1981.00000	   8.66705
1982.00000	   8.67306
1983.00000	   8.67908
1984.00000	   8.68506
1985.00000	   8.69011
1986.00000	   8.69516
1987.00000	   8.70022
1988.00000	   8.70527
1989.00000	   8.71033
1990.00000	   8.71539
1991.00000	   8.72045
1992.00000	   8.72551
1993.00000	   8.73057
1994.00000	   8.73563
1995.00000	   8.74070
1996.00000	   8.74577
1997.00000	   8.75083
1998.00000	   8.75590
1999.00000	   8.76098
2000.00000	   8.76605
