 400.00000	   5.91173
 401.00000	   5.92278
 402.00000	   5.93382
 403.00000	   5.94485
 404.00000	   5.95587
 405.00000	   5.96688
 406.00000	   5.97788
 407.00000	   5.98886
 408.00000	   5.99984
 409.00000	   6.01081
 410.00000	   6.02177
 411.00000	   6.03271
 412.00000	   6.04365
 413.00000	   6.05457
 414.00000	   6.06549
 415.00000	   6.07639
 416.00000	   6.08729
 417.00000	   6.09817
 418.00000	   6.10904
 419.00000	   6.11991
 420.00000	   6.13101
 421.00000	   6.14301
 422.00000	   6.15498
 423.00000	   6.16694
 424.00000	   6.17831
 425.00000	   6.18746
 426.00000	   6.19658
 427.00000	   6.20568
 428.00000	   6.21475
 429.00000	   6.22380
 430.00000	   6.23282
 431.00000	   6.24182
 432.00000	   6.25080
 433.00000	   6.25975
 434.00000	   6.26868
 435.00000	   6.27758
 436.00000	   6.28646
 437.00000	   6.29532
 438.00000	   6.30415
 439.00000	   6.31296
 440.00000	   6.31968
 441.00000	   6.31556
 442.00000	   6.31142
 443.00000	   6.30724
 444.00000	   6.30303
 445.00000	   6.29878
 446.00000	   6.29450
 447.00000	   6.29018
 448.00000	   6.28583
 449.00000	   6.28145
 450.00000	   6.27703
 451.00000	   6.27258
 452.00000	   6.26810
 453.00000	   6.26358
 454.00000	   6.25902
 455.00000	   6.25444
 456.00000	   6.24926
 457.00000	   6.23985
 458.00000	   6.23042
 459.00000	   6.22096
 460.00000	   6.21148
 461.00000	   6.20198
 462.00000	   6.19246
 463.00000	   6.18291
 464.00000	   6.17334
 465.00000	   6.16375
 466.00000	   6.15414
 467.00000	   6.14450
 468.00000	   6.13484
 469.00000	   6.12516
 470.00000	   6.11546
 471.00000	   6.10573
 472.00000	   6.09645
 473.00000	   6.09298
 474.00000	   6.08947
 475.00000	   6.08594
 476.00000	   6.08228
 477.00000	   6.07733
 478.00000	   6.07238
 479.00000	   6.06741
 480.00000	   6.06244
 481.00000	   6.05746
 482.00000	   6.05246
 483.00000	   6.04745
 484.00000	   6.04244
 485.00000	   6.03741
 486.00000	   6.03237
 487.00000	   6.02733
 488.00000	   6.02227
 489.00000	   6.01720
 490.00000	   6.01212
 491.00000	   6.00703
 492.00000	   6.00178
 493.00000	   5.98932
 494.00000	   5.97688
 495.00000	   5.96445
 496.00000	   5.95204
 497.00000	   5.93963
 498.00000	   5.92723
 499.00000	   5.91485
 500.00000	   5.90248
 501.00000	   5.89012
 502.00000	   5.87777
 503.00000	   5.86544
 504.00000	   5.85311
 505.00000	   5.84080
 506.00000	   5.82850
 507.00000	   5.81621
 508.00000	   5.80393
 509.00000	   5.79594
 510.00000	   5.78805
 511.00000	   5.78016
 512.00000	   5.77228
 513.00000	   5.76439
 514.00000	   5.75652
 515.00000	   5.74864
 516.00000	   5.74077
 517.00000	   5.73313
 518.00000	   5.72550
 519.00000	   5.71787
 520.00000	   5.71025
 521.00000	   5.70262
 522.00000	   5.69500
 523.00000	   5.68738
 524.00000	   5.67976
 525.00000	   5.66729
 526.00000	   5.65450
 527.00000	   5.64173
 528.00000	   5.62896
 529.00000	   5.61621
 530.00000	   5.60347
 531.00000	   5.59074
 532.00000	   5.57802
 533.00000	   5.56531
 534.00000	   5.55262
 535.00000	   5.53994
 536.00000	   5.52726
 537.00000	   5.51461
 538.00000	   5.50196
 539.00000	   5.48932
 540.00000	   5.47670
 541.00000	   5.46409
 542.00000	   5.45149
 543.00000	   5.43890
 544.00000	   5.42632
 545.00000	   5.41870
 546.00000	   5.41175
 547.00000	   5.40480
 548.00000	   5.39785
 549.00000	   5.39091
 550.00000	   5.38397
 551.00000	   5.37704
 552.00000	   5.37011
 553.00000	   5.36319
 554.00000	   5.35626
 555.00000	   5.34935
 556.00000	   5.34244
 557.00000	   5.33553
 558.00000	   5.32863
 559.00000	   5.32173
 560.00000	   5.31483
 561.00000	   5.30794
 562.00000	   5.30106
 563.00000	   5.29418
 564.00000	   5.28730
 565.00000	   5.28043
 566.00000	   5.27356
 567.00000	   5.26670
 568.00000	   5.25984
 569.00000	   5.25298
 570.00000	   5.24613
 571.00000	   5.23928
 572.00000	   5.23244
 573.00000	   5.22560
 574.00000	   5.21877
 575.00000	   5.21194
 576.00000	   5.20512
 577.00000	   5.19830
 578.00000	   5.19148
 579.00000	   5.18467
 580.00000	   5.17786
 581.00000	   5.17106
 582.00000	   5.16426
 583.00000	   5.15746
 584.00000	   5.15067
 585.00000	   5.14389
 586.00000	   5.13711
 587.00000	   5.13033
 588.00000	   5.12356
 589.00000	   5.11679
 590.00000	   5.11003
 591.00000	   5.10327
 592.00000	   5.09651
 593.00000	   5.08976
 594.00000	   5.08301
 595.00000	   5.07627
 596.00000	   5.06953
 597.00000	   5.06280
 598.00000	   5.05607
 599.00000	   5.04934
 600.00000	   5.04262
 601.00000	   5.03704
 602.00000	   5.03187
 603.00000	   5.02671
 604.00000	   5.02155
 605.00000	   5.01639
 606.00000	   5.01123
 607.00000	   5.00608
 608.00000	   5.00093
 609.00000	   4.99525
 610.00000	   4.98937
 611.00000	   4.98348
 612.00000	   4.97760
 613.00000	   4.97172
 614.00000	   4.96584
 615.00000	   4.95996
 616.00000	   4.95408
 617.00000	   4.94820
 618.00000	   4.94233
 619.00000	   4.93645
 620.00000	   4.93058
 621.00000	   4.92471
 622.00000	   4.91884
 623.00000	   4.91297
 624.00000	   4.90710
 625.00000	   4.90021
 626.00000	   4.89282
 627.00000	   4.88543
 628.00000	   4.87805
 629.00000	   4.87067
 630.00000	   4.86329
 631.00000	   4.85591
 632.00000	   4.84854
 633.00000	   4.84117
 634.00000	   4.83380
 635.00000	   4.82644
 636.00000	   4.81908
 637.00000	   4.81172
 638.00000	   4.80436
 639.00000	   4.79701
 640.00000	   4.78967
 641.00000	   4.78266
 642.00000	   4.77586
 643.00000	   4.76907
 644.00000	   4.76229
 645.00000	   4.75550
 646.00000	   4.74873
 647.00000	   4.74195
 648.00000	   4.73519
 649.00000	   4.72842
 650.00000	   4.72166
 651.00000	   4.71491
 652.00000	   4.70816
 653.00000	   4.70168
 654.00000	   4.69539
 655.00000	   4.68911
 656.00000	   4.68283
 657.00000	   4.67655
 658.00000	   4.67027
 659.00000	   4.66400
 660.00000	   4.65774
 661.00000	   4.65148
 662.00000	   4.64522
 663.00000	   4.63897
 664.00000	   4.63272
 665.00000	   4.62647
 666.00000	   4.62023
 667.00000	   4.61399
 668.00000	   4.60776
 669.00000	   4.60153
 670.00000	   4.59531
 671.00000	   4.58909
 672.00000	   4.58287
 673.00000	   4.57722
 674.00000	   4.57205
 675.00000	   4.56687
 676.00000	   4.56171
 677.00000	   4.55635
 678.00000	   4.55082
 679.00000	   4.54530
 680.00000	   4.53978
 681.00000	   4.53426
 682.00000	   4.52874
 683.00000	   4.52323
 684.00000	   4.51772
 685.00000	   4.51221
 686.00000	   4.50670
 687.00000	   4.50119
 688.00000	   4.49569
 689.00000	   4.49019
 690.00000	   4.48469
 691.00000	   4.47919
 692.00000	   4.47369
 693.00000	   4.46820
 694.00000	   4.46271
 695.00000	   4.45722
 696.00000	   4.45173
 697.00000	   4.44625
 698.00000	   4.44077
 699.00000	   4.43529
 700.00000	   4.42981
 701.00000	   4.42427
 702.00000	   4.41867
 703.00000	   4.41307
 704.00000	   4.40748
 705.00000	   4.40188
 706.00000	   4.39628
 707.00000	   4.39069
 708.00000	   4.38510
 709.00000	   4.37951
 710.00000	   4.37392
 711.00000	   4.36834
 712.00000	   4.36275
 713.00000	   4.35717
 714.00000	   4.35159
 715.00000	   4.34601
 716.00000	   4.34043
 717.00000	   4.33485
 718.00000	   4.32927
 719.00000	   4.32370
 720.00000	   4.31813
 721.00000	   4.31308
 722.00000	   4.30877
 723.00000	   4.30446
 724.00000	   4.30015
 725.00000	   4.29584
 726.00000	   4.29153
 727.00000	   4.28722
 728.00000	   4.28291
 729.00000	   4.27860
 730.00000	   4.27429
 731.00000	   4.26999
 732.00000	   4.26568
 733.00000	   4.26137
 734.00000	   4.25707
 735.00000	   4.25276
 736.00000	   4.24845
 737.00000	   4.24415
 738.00000	   4.23984
 739.00000	   4.23554
 740.00000	   4.23123
 741.00000	   4.22693
 742.00000	   4.22263
 743.00000	   4.21832
 744.00000	   4.21402
 745.00000	   4.20972
 746.00000	   4.20542
 747.00000	   4.20111
 748.00000	   4.19681
 749.00000	   4.19251
 750.00000	   4.18821
 751.00000	   4.18391
 752.00000	   4.17961
 753.00000	   4.17520
 754.00000	   4.17056
 755.00000	   4.16592
 756.00000	   4.16128
 757.00000	   4.15665
 758.00000	   4.15201
 759.00000	   4.14738
 760.00000	   4.14274
 761.00000	   4.13811
 762.00000	   4.13348
 763.00000	   4.12884
 764.00000	   4.12421
 765.00000	   4.11958
 766.00000	   4.11495
 767.00000	   4.11032
 768.00000	   4.10569
 769.00000	   4.10106
 770.00000	   4.09644
 771.00000	   4.09181
 772.00000	   4.08718
 773.00000	   4.08242
 774.00000	   4.07732
 775.00000	   4.07221
 776.00000	   4.06710
 777.00000	   4.06199
 778.00000	   4.05687
 779.00000	   4.05175
 780.00000	   4.04664
 781.00000	   4.04151
 782.00000	   4.03639
 783.00000	   4.03126
 784.00000	   4.02614
 785.00000	   4.02101
 786.00000	   4.01587
 787.00000	   4.01074
 788.00000	   4.00560
 789.00000	   4.00046
 790.00000	   3.99532
 791.00000	   3.99018
 792.00000	   3.98503
 793.00000	   3.97988
 794.00000	   3.97473
 795.00000	   3.96958
 796.00000	   3.96442
 797.00000	   3.95959
 798.00000	   3.95598
 799.00000	   3.95236
 800.00000	   3.94875
 801.00000	   3.94512
 802.00000	   3.94150
 803.00000	   3.93787
 804.00000	   3.93424
 805.00000	   3.93060
 806.00000	   3.92696
 807.00000	   3.92332
 808.00000	   3.91967
 809.00000	   3.91603
 810.00000	   3.91237
 811.00000	   3.90872
 812.00000	   3.90506
 813.00000	   3.90153
 814.00000	   3.89866
 815.00000	   3.89580
 816.00000	   3.89293
 817.00000	   3.89007
 818.00000	   3.88720
 819.00000	   3.88434
 820.00000	   3.88147
 821.00000	   3.87861
 822.00000	   3.87575
 823.00000	   3.87288
 824.00000	   3.87002
 825.00000	   3.86716
 826.00000	   3.86429
 827.00000	   3.86143
 828.00000	   3.85857
 829.00000	   3.85571
 830.00000	   3.85284
 831.00000	   3.84998
 832.00000	   3.84712
 833.00000	   3.84426
 834.00000	   3.84140
 835.00000	   3.83854
 836.00000	   3.83568
 837.00000	   3.83281
 838.00000	   3.82995
 839.00000	   3.82709
 840.00000	   3.82423
 841.00000	   3.82133
 842.00000	   3.81801
 843.00000	   3.81469
 844.00000	   3.81137
 845.00000	   3.80811
 846.00000	   3.80558
 847.00000	   3.80306
 848.00000	   3.80053
 849.00000	   3.79800
 850.00000	   3.79546
 851.00000	   3.79293
 852.00000	   3.79039
 853.00000	   3.78786
 854.00000	   3.78532
 855.00000	   3.78277
 856.00000	   3.78023
 857.00000	   3.77769
 858.00000	   3.77514
 859.00000	   3.77259
 860.00000	   3.77004
 861.00000	   3.76749
 862.00000	   3.76493
 863.00000	   3.76238
 864.00000	   3.75982
 865.00000	   3.75726
 866.00000	   3.75470
 867.00000	   3.75213
 868.00000	   3.74957
 869.00000	   3.74700
 870.00000	   3.74412
 871.00000	   3.74125
 872.00000	   3.73836
 873.00000	   3.73548
 874.00000	   3.73259
 875.00000	   3.72970
 876.00000	   3.72681
 877.00000	   3.72391
 878.00000	   3.72101
 879.00000	   3.71811
 880.00000	   3.71520
 881.00000	   3.71229
 882.00000	   3.70692
 883.00000	   3.70151
 884.00000	   3.69610
 885.00000	   3.69069
 886.00000	   3.68527
 887.00000	   3.67986
 888.00000	   3.67444
 889.00000	   3.66902
 890.00000	   3.66360
 891.00000	   3.65818
 892.00000	   3.65276
 893.00000	   3.64733
 894.00000	   3.64190
 895.00000	   3.63648
 896.00000	   3.63105
 897.00000	   3.62562
 898.00000	   3.62018
 899.00000	   3.61475
 900.00000	   3.60932
 901.00000	   3.60388
 902.00000	   3.59844
 903.00000	   3.59300
 904.00000	   3.58756
 905.00000	   3.58212
 906.00000	   3.57667
 907.00000	   3.57123
 908.00000	   3.56578
 909.00000	   3.56033
 910.00000	   3.55671
 911.00000	   3.55326
 912.00000	   3.54982
 913.00000	   3.54637
 914.00000	   3.54292
 915.00000	   3.53946
 916.00000	   3.53600
 917.00000	   3.53254
 918.00000	   3.52908
 919.00000	   3.52561
 920.00000	   3.52214
 921.00000	   3.51866
 922.00000	   3.51519
 923.00000	   3.51171
 924.00000	   3.50822
 925.00000	   3.50474
 926.00000	   3.50125
 927.00000	   3.49776
 928.00000	   3.49426
 929.00000	   3.49076
 930.00000	   3.48726
 931.00000	   3.48376
 932.00000	   3.48025
 933.00000	   3.47674
 934.00000	   3.47322
 935.00000	   3.46971
 936.00000	   3.46618
 937.00000	   3.46266
 938.00000	   3.46080
 939.00000	   3.45927
 940.00000	   3.45773
 941.00000	   3.45619
 942.00000	   3.45464
 943.00000	   3.45310
 944.00000	   3.45154
 945.00000	   3.44999
 946.00000	   3.44843
 947.00000	   3.44687
 948.00000	   3.44530
 949.00000	   3.44373
 950.00000	   3.44216
 951.00000	   3.44058
 952.00000	   3.43900
 953.00000	   3.43742
 954.00000	   3.43583
 955.00000	   3.43424
 956.00000	   3.43264
 957.00000	   3.43104
 958.00000	   3.42944
 959.00000	   3.42783
 960.00000	   3.42622
 961.00000	   3.42461
 962.00000	   3.42299
 963.00000	   3.42137
 964.00000	   3.41975
 965.00000	   3.41812
 966.00000	   3.41649
 967.00000	   3.41485
 968.00000	   3.41321
 969.00000	   3.41157
 970.00000	   3.40905
 971.00000	   3.40624
 972.00000	   3.40342
 973.00000	   3.40060
 974.00000	   3.39777
 975.00000	   3.39495
 976.00000	   3.39211
 977.00000	   3.38928
 978.00000	   3.38644
 979.00000	   3.38360
 980.00000	   3.38075
 981.00000	   3.37790
 982.00000	   3.37505
 983.00000	   3.37220
 984.00000	   3.36934
 985.00000	   3.36647
 986.00000	   3.36361
 987.00000	   3.36074
 988.00000	   3.35787
 989.00000	   3.35499
 990.00000	   3.35211
 991.00000	   3.34923
 992.00000	   3.34634
 993.00000	   3.34345
 994.00000	   3.34056
 995.00000	   3.33766
 996.00000	   3.33476
 997.00000	   3.33185
 998.00000	   3.32878
 999.00000	   3.32562
1000.00000	   3.32245
1001.00000	   3.31928
1002.00000	   3.31610
1003.00000	   3.31292
1004.00000	   3.30974
1005.00000	   3.30655
1006.00000	   3.30335
1007.00000	   3.30016
1008.00000	   3.29695
1009.00000	   3.29375
1010.00000	   3.29053
1011.00000	   3.28732
1012.00000	   3.28410
1013.00000	   3.28087
1014.00000	   3.27764
1015.00000	   3.27441
1016.00000	   3.27117
1017.00000	   3.26792
1018.00000	   3.26605
1019.00000	   3.26502
1020.00000	   3.26399
1021.00000	   3.26295
1022.00000	   3.26191
1023.00000	   3.26086
1024.00000	   3.25981
1025.00000	   3.25875
1026.00000	   3.25731
1027.00000	   3.25561
1028.00000	   3.25390
1029.00000	   3.25218
1030.00000	   3.25046
1031.00000	   3.24872
1032.00000	   3.24698
1033.00000	   3.24524
1034.00000	   3.24348
1035.00000	   3.24172
1036.00000	   3.23994
1037.00000	   3.23817
1038.00000	   3.23638
1039.00000	   3.23458
1040.00000	   3.23278
1041.00000	   3.23097
1042.00000	   3.22915
1043.00000	   3.22733
1044.00000	   3.22549
1045.00000	   3.22365
1046.00000	   3.22180
1047.00000	   3.21994
1048.00000	   3.21808
1049.00000	   3.21620
1050.00000	   3.21432
1051.00000	   3.21244
1052.00000	   3.21054
1053.00000	   3.20863
1054.00000	   3.20672
1055.00000	   3.20480
1056.00000	   3.20287
1057.00000	   3.20094
1058.00000	   3.19900
1059.00000	   3.19704
1060.00000	   3.19509
1061.00000	   3.19312
1062.00000	   3.19185
1063.00000	   3.19128
1064.00000	   3.19070
1065.00000	   3.19012
1066.00000	   3.18954
1067.00000	   3.18896
1068.00000	   3.18837
1069.00000	   3.18778
1070.00000	   3.18628
1071.00000	   3.18379
1072.00000	   3.18130
1073.00000	   3.17881
1074.00000	   3.17631
1075.00000	   3.17381
1076.00000	   3.17131
1077.00000	   3.16881
1078.00000	   3.16630
1079.00000	   3.16380
1080.00000	   3.16129
1081.00000	   3.15878
1082.00000	   3.15626
1083.00000	   3.15375
1084.00000	   3.15123
1085.00000	   3.14871
1086.00000	   3.14618
1087.00000	   3.14366
1088.00000	   3.14113
1089.00000	   3.13860
1090.00000	   3.13607
1091.00000	   3.13354
1092.00000	   3.13100
1093.00000	   3.12846
1094.00000	   3.12592
1095.00000	   3.12338
1096.00000	   3.12083
1097.00000	   3.11829
1098.00000	   3.11574
1099.00000	   3.11319
1100.00000	   3.11063
1101.00000	   3.10807
1102.00000	   3.10529
1103.00000	   3.10214
1104.00000	   3.09900
1105.00000	   3.09585
1106.00000	   3.09269
1107.00000	   3.08954
1108.00000	   3.08637
1109.00000	   3.08321
1110.00000	   3.08004
1111.00000	   3.07686
1112.00000	   3.07368
1113.00000	   3.07050
1114.00000	   3.06731
1115.00000	   3.06412
1116.00000	   3.06093
1117.00000	   3.05773
1118.00000	   3.05453
1119.00000	   3.05132
1120.00000	   3.04811
1121.00000	   3.04489
1122.00000	   3.04168
1123.00000	   3.03845
1124.00000	   3.03523
1125.00000	   3.03199
1126.00000	   3.02876
1127.00000	   3.02552
1128.00000	   3.02228
1129.00000	   3.01903
1130.00000	   3.01578
1131.00000	   3.01252
1132.00000	   3.00926
1133.00000	   3.00600
1134.00000	   3.00273
1135.00000	   2.99946
1136.00000	   2.99619
1137.00000	   2.99291
1138.00000	   2.99062
1139.00000	   2.99067
1140.00000	   2.99072
1141.00000	   2.99077
1142.00000	   2.99073
1143.00000	   2.99049
1144.00000	   2.99025
1145.00000	   2.99000
1146.00000	   2.98975
1147.00000	   2.98950
1148.00000	   2.98924
1149.00000	   2.98897
1150.00000	   2.98870
1151.00000	   2.98843
1152.00000	   2.98816
1153.00000	   2.98787
1154.00000	   2.98759
1155.00000	   2.98730
1156.00000	   2.98701
1157.00000	   2.98671
1158.00000	   2.98641
1159.00000	   2.98610
1160.00000	   2.98579
1161.00000	   2.98547
1162.00000	   2.98516
1163.00000	   2.98483
1164.00000	   2.98451
1165.00000	   2.98417
1166.00000	   2.98384
1167.00000	   2.98350
1168.00000	   2.98315
1169.00000	   2.98280
1170.00000	   2.98245
1171.00000	   2.98209
1172.00000	   2.98173
1173.00000	   2.98137
1174.00000	   2.98100
1175.00000	   2.98062
1176.00000	   2.98024
1177.00000	   2.97986
1178.00000	   2.97949
1179.00000	   2.97921
1180.00000	   2.97892
1181.00000	   2.97862
1182.00000	   2.97845
1183.00000	   2.97884
1184.00000	   2.97923
1185.00000	   2.97961
1186.00000	   2.97999
1187.00000	   2.98036
1188.00000	   2.98073
1189.00000	   2.98110
1190.00000	   2.98146
1191.00000	   2.98183
1192.00000	   2.98218
1193.00000	   2.98254
1194.00000	   2.98289
1195.00000	   2.98324
1196.00000	   2.98358
1197.00000	   2.98392
1198.00000	   2.98426
1199.00000	   2.98460
1200.00000	   2.98493
1201.00000	   2.98525
1202.00000	   2.98558
1203.00000	   2.98590
1204.00000	   2.98622
1205.00000	   2.98653
1206.00000	   2.98695
1207.00000	   2.98815
1208.00000	   2.98935
1209.00000	   2.99055
1210.00000	   2.99175
1211.00000	   2.99294
1212.00000	   2.99414
1213.00000	   2.99533
1214.00000	   2.99653
1215.00000	   2.99772
1216.00000	   2.99891
1217.00000	   3.00010
1218.00000	   3.00129
1219.00000	   3.00248
1220.00000	   3.00367
1221.00000	   3.00486
1222.00000	   3.00605
1223.00000	   3.00723
1224.00000	   3.00842
1225.00000	   3.00960
1226.00000	   3.01078
1227.00000	   3.01197
1228.00000	   3.01315
1229.00000	   3.01433
1230.00000	   3.01551
1231.00000	   3.01668
1232.00000	   3.01786
1233.00000	   3.01904
1234.00000	   3.02012
1235.00000	   3.01908
1236.00000	   3.01804
1237.00000	   3.01699
1238.00000	   3.01594
1239.00000	   3.01489
1240.00000	   3.01384
1241.00000	   3.01279
1242.00000	   3.01173
1243.00000	   3.01068
1244.00000	   3.00962
1245.00000	   3.00855
1246.00000	   3.00748
1247.00000	   3.00580
1248.00000	   3.00412
1249.00000	   3.00243
1250.00000	   3.00074
1251.00000	   2.99904
1252.00000	   2.99734
1253.00000	   2.99564
1254.00000	   2.99394
1255.00000	   2.99223
1256.00000	   2.99051
1257.00000	   2.98880
1258.00000	   2.98707
1259.00000	   2.98535
1260.00000	   2.98362
1261.00000	   2.98189
1262.00000	   2.98015
1263.00000	   2.97842
1264.00000	   2.97667
1265.00000	   2.97493
1266.00000	   2.97318
1267.00000	   2.97142
1268.00000	   2.96967
1269.00000	   2.96790
1270.00000	   2.96614
1271.00000	   2.96437
1272.00000	   2.96260
1273.00000	   2.96082
1274.00000	   2.95904
1275.00000	   2.95726
1276.00000	   2.95547
1277.00000	   2.95368
1278.00000	   2.95189
1279.00000	   2.95009
1280.00000	   2.94829
1281.00000	   2.94648
1282.00000	   2.94468
1283.00000	   2.94286
1284.00000	   2.94105
1285.00000	   2.93923
1286.00000	   2.93740
1287.00000	   2.93784
1288.00000	   2.93852
1289.00000	   2.93920
1290.00000	   2.93988
1291.00000	   2.94055
1292.00000	   2.94122
1293.00000	   2.94189
1294.00000	   2.94256
1295.00000	   2.94322
1296.00000	   2.94388
1297.00000	   2.94454
1298.00000	   2.94520
1299.00000	   2.94600
1300.00000	   2.94682
1301.00000	   2.94763
1302.00000	   2.94845
1303.00000	   2.94926
1304.00000	   2.95007
1305.00000	   2.95088
1306.00000	   2.95168
1307.00000	   2.95249
1308.00000	   2.95329
1309.00000	   2.95409
1310.00000	   2.95489
1311.00000	   2.95569
1312.00000	   2.95648
1313.00000	   2.95727
1314.00000	   2.95807
1315.00000	   2.95886
1316.00000	   2.95964
1317.00000	   2.96043
1318.00000	   2.96122
1319.00000	   2.96200
1320.00000	   2.96278
1321.00000	   2.96356
1322.00000	   2.96434
1323.00000	   2.96511
1324.00000	   2.96589
1325.00000	   2.96666
1326.00000	   2.96743
1327.00000	   2.96820
1328.00000	   2.96896
1329.00000	   2.96973
1330.00000	   2.97049
1331.00000	   2.97125
1332.00000	   2.97201
1333.00000	   2.97277
1334.00000	   2.97352
1335.00000	   2.97256
1336.00000	   2.97109
1337.00000	   2.96961
1338.00000	   2.96814
1339.00000	   2.96666
1340.00000	   2.96517
1341.00000	   2.96369
1342.00000	   2.96220
1343.00000	   2.96089
1344.00000	   2.95964
1345.00000	   2.95839
1346.00000	   2.95714
1347.00000	   2.95589
1348.00000	   2.95463
1349.00000	   2.95337
1350.00000	   2.95211
1351.00000	   2.95084
1352.00000	   2.94957
1353.00000	   2.94830
1354.00000	   2.94703
1355.00000	   2.94575
1356.00000	   2.94448
1357.00000	   2.94319
1358.00000	   2.94191
1359.00000	   2.94062
1360.00000	   2.93934
1361.00000	   2.93804
1362.00000	   2.93675
1363.00000	   2.93545
1364.00000	   2.93415
1365.00000	   2.93285
1366.00000	   2.93155
1367.00000	   2.93024
1368.00000	   2.92893
1369.00000	   2.92762
1370.00000	   2.92630
1371.00000	   2.92499
1372.00000	   2.92367
1373.00000	   2.92234
1374.00000	   2.92102
1375.00000	   2.92035
1376.00000	   2.92002
1377.00000	   2.91968
1378.00000	   2.91934
1379.00000	   2.91900
1380.00000	   2.91865
1381.00000	   2.91831
1382.00000	   2.91796
1383.00000	   2.91761
1384.00000	   2.91725
1385.00000	   2.91690
1386.00000	   2.91654
1387.00000	   2.91618
1388.00000	   2.91582
1389.00000	   2.91545
1390.00000	   2.91509
1391.00000	   2.91472
1392.00000	   2.91435
1393.00000	   2.91398
1394.00000	   2.91360
1395.00000	   2.91322
1396.00000	   2.91284
1397.00000	   2.91246
1398.00000	   2.91208
1399.00000	   2.91169
1400.00000	   2.91131
1401.00000	   2.91092
1402.00000	   2.91052
1403.00000	   2.91013
1404.00000	   2.90973
1405.00000	   2.90933
1406.00000	   2.90893
1407.00000	   2.90853
1408.00000	   2.90813
1409.00000	   2.90772
1410.00000	   2.90731
1411.00000	   2.90690
1412.00000	   2.90649
1413.00000	   2.90607
1414.00000	   2.90565
1415.00000	   2.90564
1416.00000	   2.90596
1417.00000	   2.90627
1418.00000	   2.90658
1419.00000	   2.90689
1420.00000	   2.90720
1421.00000	   2.90751
1422.00000	   2.90781
1423.00000	   2.90948
1424.00000	   2.91231
1425.00000	   2.91513
1426.00000	   2.91796
1427.00000	   2.92080
1428.00000	   2.92363
1429.00000	   2.92646
1430.00000	   2.92929
1431.00000	   2.93213
1432.00000	   2.93497
1433.00000	   2.93781
1434.00000	   2.94065
1435.00000	   2.94349
1436.00000	   2.94633
1437.00000	   2.94917
1438.00000	   2.95202
1439.00000	   2.95486
1440.00000	   2.95771
1441.00000	   2.96056
1442.00000	   2.96341
1443.00000	   2.96626
1444.00000	   2.96911
1445.00000	   2.97196
1446.00000	   2.97482
1447.00000	   2.97767
1448.00000	   2.98053
1449.00000	   2.98339
1450.00000	   2.98625
1451.00000	   2.98911
1452.00000	   2.99197
1453.00000	   2.99483
1454.00000	   2.99770
1455.00000	   3.00057
1456.00000	   3.00343
1457.00000	   3.00630
1458.00000	   3.00917
1459.00000	   3.01204
1460.00000	   3.01491
1461.00000	   3.01779
1462.00000	   3.02066
1463.00000	   3.02321
1464.00000	   3.02533
1465.00000	   3.02744
1466.00000	   3.02956
1467.00000	   3.03168
1468.00000	   3.03379
1469.00000	   3.03591
1470.00000	   3.03803
1471.00000	   3.03961
1472.00000	   3.04043
1473.00000	   3.04125
1474.00000	   3.04207
1475.00000	   3.04289
1476.00000	   3.04370
1477.00000	   3.04452
1478.00000	   3.04533
1479.00000	   3.04615
1480.00000	   3.04696
1481.00000	   3.04777
1482.00000	   3.04858
1483.00000	   3.04938
1484.00000	   3.05019
1485.00000	   3.05099
1486.00000	   3.05180
1487.00000	   3.05260
1488.00000	   3.05340
1489.00000	   3.05420
1490.00000	   3.05500
1491.00000	   3.05580
1492.00000	   3.05660
1493.00000	   3.05739
1494.00000	   3.05818
1495.00000	   3.05898
1496.00000	   3.05977
1497.00000	   3.06056
1498.00000	   3.06135
1499.00000	   3.06213
1500.00000	   3.06292
1501.00000	   3.06371
1502.00000	   3.06449
1503.00000	   3.06527
1504.00000	   3.06605
1505.00000	   3.06683
1506.00000	   3.06761
1507.00000	   3.06839
1508.00000	   3.06917
1509.00000	   3.06994
1510.00000	   3.07071
1511.00000	   3.07183
1512.00000	   3.07374
1513.00000	   3.07565
1514.00000	   3.07755
1515.00000	   3.07946
1516.00000	   3.08137
1517.00000	   3.08328
1518.00000	   3.08519
1519.00000	   3.08697
1520.00000	   3.08844
1521.00000	   3.08991
1522.00000	   3.09138
1523.00000	   3.09285
1524.00000	   3.09432
1525.00000	   3.09579
1526.00000	   3.09726
1527.00000	   3.09873
1528.00000	   3.10020
1529.00000	   3.10167
1530.00000	   3.10314
1531.00000	   3.10461
1532.00000	   3.10608
1533.00000	   3.10755
1534.00000	   3.10903
1535.00000	   3.11050
1536.00000	   3.11197
1537.00000	   3.11344
1538.00000	   3.11491
1539.00000	   3.11638
1540.00000	   3.11785
1541.00000	   3.11932
1542.00000	   3.12080
1543.00000	   3.12227
1544.00000	   3.12374
1545.00000	   3.12521
1546.00000	   3.12668
1547.00000	   3.12816
1548.00000	   3.12963
1549.00000	   3.13110
1550.00000	   3.13257
1551.00000	   3.13404
1552.00000	   3.13552
1553.00000	   3.13699
1554.00000	   3.13846
1555.00000	   3.14009
1556.00000	   3.14237
1557.00000	   3.14466
1558.00000	   3.14694
1559.00000	   3.14923
1560.00000	   3.15151
1561.00000	   3.15380
1562.00000	   3.15609
1563.00000	   3.15838
1564.00000	   3.16067
1565.00000	   3.16296
1566.00000	   3.16525
1567.00000	   3.16752
1568.00000	   3.16965
1569.00000	   3.17178
1570.00000	   3.17391
1571.00000	   3.17604
1572.00000	   3.17817
1573.00000	   3.18031
1574.00000	   3.18244
1575.00000	   3.18457
1576.00000	   3.18671
1577.00000	   3.18884
1578.00000	   3.19098
1579.00000	   3.19312
1580.00000	   3.19525
1581.00000	   3.19739
1582.00000	   3.19953
1583.00000	   3.20167
1584.00000	   3.20381
1585.00000	   3.20595
1586.00000	   3.20809
1587.00000	   3.21023
1588.00000	   3.21237
1589.00000	   3.21451
1590.00000	   3.21665
1591.00000	   3.21880
1592.00000	   3.22094
1593.00000	   3.22308
1594.00000	   3.22523
1595.00000	   3.22737
1596.00000	   3.22952
1597.00000	   3.23166
1598.00000	   3.23381
1599.00000	   3.23595
1600.00000	   3.23800
1601.00000	   3.24005
1602.00000	   3.24210
1603.00000	   3.24415
1604.00000	   3.24620
1605.00000	   3.24825
1606.00000	   3.25030
1607.00000	   3.25235
1608.00000	   3.25441
1609.00000	   3.25646
1610.00000	   3.25851
1611.00000	   3.26057
1612.00000	   3.26262
1613.00000	   3.26467
1614.00000	   3.26673
1615.00000	   3.26879
1616.00000	   3.27084
1617.00000	   3.27290
1618.00000	   3.27495
1619.00000	   3.27702
1620.00000	   3.27939
1621.00000	   3.28176
1622.00000	   3.28413
1623.00000	   3.28650
1624.00000	   3.28888
1625.00000	   3.29125
1626.00000	   3.29363
1627.00000	   3.29600
1628.00000	   3.29838
1629.00000	   3.30076
1630.00000	   3.30313
1631.00000	   3.30551
1632.00000	   3.30789
1633.00000	   3.31027
1634.00000	   3.31266
1635.00000	   3.31504
1636.00000	   3.31742
1637.00000	   3.31980
1638.00000	   3.32219
1639.00000	   3.32457
1640.00000	   3.32696
1641.00000	   3.32935
1642.00000	   3.33174
1643.00000	   3.33412
1644.00000	   3.33651
1645.00000	   3.33890
1646.00000	   3.34130
1647.00000	   3.34369
1648.00000	   3.34608
1649.00000	   3.34847
1650.00000	   3.35087
1651.00000	   3.35326
1652.00000	   3.35566
1653.00000	   3.35806
1654.00000	   3.36045
1655.00000	   3.36285
1656.00000	   3.36525
1657.00000	   3.36765
1658.00000	   3.37005
1659.00000	   3.37245
1660.00000	   3.37486
1661.00000	   3.37726
1662.00000	   3.37966
1663.00000	   3.38207
1664.00000	   3.38447
1665.00000	   3.38688
1666.00000	   3.38929
1667.00000	   3.39169
1668.00000	   3.39410
1669.00000	   3.39651
1670.00000	   3.39892
1671.00000	   3.40133
1672.00000	   3.40375
1673.00000	   3.40616
1674.00000	   3.40857
1675.00000	   3.41099
1676.00000	   3.41340
1677.00000	   3.41582
1678.00000	   3.41824
1679.00000	   3.42065
1680.00000	   3.42307
1681.00000	   3.42549
1682.00000	   3.42791
1683.00000	   3.43033
1684.00000	   3.43275
1685.00000	   3.43518
1686.00000	   3.43760
1687.00000	   3.44002
1688.00000	   3.44245
1689.00000	   3.44487
1690.00000	   3.44730
1691.00000	   3.44973
1692.00000	   3.45216
1693.00000	   3.45458
1694.00000	   3.45701
1695.00000	   3.45944
1696.00000	   3.46188
1697.00000	   3.46431
1698.00000	   3.46674
1699.00000	   3.46917
1700.00000	   3.47161
1701.00000	   3.47404
1702.00000	   3.47648
1703.00000	   3.47892
1704.00000	   3.48135
1705.00000	   3.48379
1706.00000	   3.48623
1707.00000	   3.48867
1708.00000	   3.49111
1709.00000	   3.49356
1710.00000	   3.49600
1711.00000	   3.49844
1712.00000	   3.50089
1713.00000	   3.50333
1714.00000	   3.50578
1715.00000	   3.50822
1716.00000	   3.51067
1717.00000	   3.51312
1718.00000	   3.51557
1719.00000	   3.51802
1720.00000	   3.52133
1721.00000	   3.52492
1722.00000	   3.52852
1723.00000	   3.53213
1724.00000	   3.53573
1725.00000	   3.53934
1726.00000	   3.54294
1727.00000	   3.54655
1728.00000	   3.55016
1729.00000	   3.55378
1730.00000	   3.55739
1731.00000	   3.56101
1732.00000	   3.56463
1733.00000	   3.56825
1734.00000	   3.57187
1735.00000	   3.57549
1736.00000	   3.57912
1737.00000	   3.58275
1738.00000	   3.58638
1739.00000	   3.59001
1740.00000	   3.59389
1741.00000	   3.59789
1742.00000	   3.60188
1743.00000	   3.60588
1744.00000	   3.60988
1745.00000	   3.61389
1746.00000	   3.61789
1747.00000	   3.62190
1748.00000	   3.62591
1749.00000	   3.62992
1750.00000	   3.63393
1751.00000	   3.63795
1752.00000	   3.64197
1753.00000	   3.64599
1754.00000	   3.65001
1755.00000	   3.65404
1756.00000	   3.65806
1757.00000	   3.66209
1758.00000	   3.66612
1759.00000	   3.67015
1760.00000	   3.67419
1761.00000	   3.67823
1762.00000	   3.68227
1763.00000	   3.68631
1764.00000	   3.69035
1765.00000	   3.69440
1766.00000	   3.69845
1767.00000	   3.70250
1768.00000	   3.70594
1769.00000	   3.70902
1770.00000	   3.71210
1771.00000	   3.71518
1772.00000	   3.71825
1773.00000	   3.72134
1774.00000	   3.72442
1775.00000	   3.72750
1776.00000	   3.73059
1777.00000	   3.73367
1778.00000	   3.73676
1779.00000	   3.73985
1780.00000	   3.74294
1781.00000	   3.74603
1782.00000	   3.74912
1783.00000	   3.75222
1784.00000	   3.75531
1785.00000	   3.75841
1786.00000	   3.76150
1787.00000	   3.76460
1788.00000	   3.76770
1789.00000	   3.77080
1790.00000	   3.77391
1791.00000	   3.77701
1792.00000	   3.78012
1793.00000	   3.78322
1794.00000	   3.78633
1795.00000	   3.78944
1796.00000	   3.79255
1797.00000	   3.79566
1798.00000	   3.79877
1799.00000	   3.80189
1800.00000	   3.80500
1801.00000	   3.80812
1802.00000	   3.81124
1803.00000	   3.81436
1804.00000	   3.81748
1805.00000	   3.82060
1806.00000	   3.82372
1807.00000	   3.82685
1808.00000	   3.82997
1809.00000	   3.83310
1810.00000	   3.83623
1811.00000	   3.83936
1812.00000	   3.84276
1813.00000	   3.84644
1814.00000	   3.85011
1815.00000	   3.85379
1816.00000	   3.85747
1817.00000	   3.86115
1818.00000	   3.86484
1819.00000	   3.86852
1820.00000	   3.87221
1821.00000	   3.87590
1822.00000	   3.87959
1823.00000	   3.88328
1824.00000	   3.88697
1825.00000	   3.89067
1826.00000	   3.89437
1827.00000	   3.89806
1828.00000	   3.90176
1829.00000	   3.90546
1830.00000	   3.90917
1831.00000	   3.91287
1832.00000	   3.91658
1833.00000	   3.92029
1834.00000	   3.92400
1835.00000	   3.92771
1836.00000	   3.93142
1837.00000	   3.93514
1838.00000	   3.93885
1839.00000	   3.94257
1840.00000	   3.94696
1841.00000	   3.95223
1842.00000	   3.95751
1843.00000	   3.96280
1844.00000	   3.96809
1845.00000	   3.97338
1846.00000	   3.97867
1847.00000	   3.98397
1848.00000	   3.98927
1849.00000	   3.99457
1850.00000	   3.99987
1851.00000	   4.00518
1852.00000	   4.01049
1853.00000	   4.01581
1854.00000	   4.02113
1855.00000	   4.02645
1856.00000	   4.03177
1857.00000	   4.03710
1858.00000	   4.04243
1859.00000	   4.04776
1860.00000	   4.05310
1861.00000	   4.05844
1862.00000	   4.06378
1863.00000	   4.06913
1864.00000	   4.07447
1865.00000	   4.07983
1866.00000	   4.08518
1867.00000	   4.09054
1868.00000	   4.09590
1869.00000	   4.10126
1870.00000	   4.10663
1871.00000	   4.11200
1872.00000	   4.11737
1873.00000	   4.12275
1874.00000	   4.12813
1875.00000	   4.13351
1876.00000	   4.13889
1877.00000	   4.14428
1878.00000	   4.14967
1879.00000	   4.15507
1880.00000	   4.16061
1881.00000	   4.16647
1882.00000	   4.17234
1883.00000	   4.17820
1884.00000	   4.18331
1885.00000	   4.18672
1886.00000	   4.19013
1887.00000	   4.19354
1888.00000	   4.19695
1889.00000	   4.20037
1890.00000	   4.20378
1891.00000	   4.20720
1892.00000	   4.21061
1893.00000	   4.21403
1894.00000	   4.21745
1895.00000	   4.22088
1896.00000	   4.22430
1897.00000	   4.22772
1898.00000	   4.23115
1899.00000	   4.23457
1900.00000	   4.23800
1901.00000	   4.24143
1902.00000	   4.24486
1903.00000	   4.24829
1904.00000	   4.25172
1905.00000	   4.25516
1906.00000	   4.25859
1907.00000	   4.26203
1908.00000	   4.26546
1909.00000	   4.26890
1910.00000	   4.27234
1911.00000	   4.27578
1912.00000	   4.27922
1913.00000	   4.28267
1914.00000	   4.28611
1915.00000	   4.28956
1916.00000	   4.29301
1917.00000	   4.29645
1918.00000	   4.29990
1919.00000	   4.30335
1920.00000	   4.30681
1921.00000	   4.31026
1922.00000	   4.31371
1923.00000	   4.31717
1924.00000	   4.32063
1925.00000	   4.32408
1926.00000	   4.32754
1927.00000	   4.33100
1928.00000	   4.33446
1929.00000	   4.33793
1930.00000	   4.34139
1931.00000	   4.34486
1932.00000	   4.34802
1933.00000	   4.34983
1934.00000	   4.35165
1935.00000	   4.35346
1936.00000	   4.35560
1937.00000	   4.35935
1938.00000	   4.36310
1939.00000	   4.36685
1940.00000	   4.37060
1941.00000	   4.37435
1942.00000	   4.37810
1943.00000	   4.38186
1944.00000	   4.38562
1945.00000	   4.38938
1946.00000	   4.39314
1947.00000	   4.39690
1948.00000	   4.40066
1949.00000	   4.40443
1950.00000	   4.40819
1951.00000	   4.41196
1952.00000	   4.41573
1953.00000	   4.41951
1954.00000	   4.42328
1955.00000	   4.42705
1956.00000	   4.43083
1957.00000	   4.43461
1958.00000	   4.43839
1959.00000	   4.44217
1960.00000	   4.44595
1961.00000	   4.44974
1962.00000	   4.45352
1963.00000	   4.45731
1964.00000	   4.46110
1965.00000	   4.46489
1966.00000	   4.46868
1967.00000	   4.47248
1968.00000	   4.47638
1969.00000	   4.48147
1970.00000	   4.48656
1971.00000	   4.49165
1972.00000	   4.49674
1973.00000	   4.50184
1974.00000	   4.50694
1975.00000	   4.51204
1976.00000	   4.51714
1977.00000	   4.52225
1978.00000	   4.52736
1979.00000	   4.53247
1980.00000	   4.53759
1981.00000	   4.54270
1982.00000	   4.54782
1983.00000	   4.55294
1984.00000	   4.55800
1985.00000	   4.56152
1986.00000	   4.56505
1987.00000	   4.56857
1988.00000	   4.57209
1989.00000	   4.57562
1990.00000	   4.57915
1991.00000	   4.58268
1992.00000	   4.58621
1993.00000	   4.58974
1994.00000	   4.59327
1995.00000	   4.59681
1996.00000	   4.60034
1997.00000	   4.60388
1998.00000	   4.60742
1999.00000	   4.61096
2000.00000	   4.61450
