 400.00000	   0.70173
 401.00000	   0.69903
 402.00000	   0.69634
 403.00000	   0.69365
 404.00000	   0.69095
 405.00000	   0.68826
 406.00000	   0.68556
 407.00000	   0.68287
 408.00000	   0.68017
 409.00000	   0.67748
 410.00000	   0.67478
 411.00000	   0.67209
 412.00000	   0.66939
 413.00000	   0.66670
 414.00000	   0.66401
 415.00000	   0.66131
 416.00000	   0.65862
 417.00000	   0.65592
 418.00000	   0.65323
 419.00000	   0.65053
 420.00000	   0.64765
 421.00000	   0.64405
 422.00000	   0.64046
 423.00000	   0.63687
 424.00000	   0.63328
 425.00000	   0.62968
 426.00000	   0.62609
 427.00000	   0.62250
 428.00000	   0.61890
 429.00000	   0.61531
 430.00000	   0.61172
 431.00000	   0.60813
 432.00000	   0.60453
 433.00000	   0.60094
 434.00000	   0.59735
 435.00000	   0.59376
 436.00000	   0.59016
 437.00000	   0.58657
 438.00000	   0.58298
 439.00000	   0.57939
 440.00000	   0.57565
 441.00000	   0.57116
 442.00000	   0.56667
 443.00000	   0.56218
 444.00000	   0.55768
 445.00000	   0.55319
 446.00000	   0.54870
 447.00000	   0.54421
 448.00000	   0.53972
 449.00000	   0.53523
 450.00000	   0.53074
 451.00000	   0.52625
 452.00000	   0.52176
 453.00000	   0.51727
 454.00000	   0.51278
 455.00000	   0.50829
 456.00000	   0.50382
 457.00000	   0.49950
 458.00000	   0.49519
 459.00000	   0.49088
 460.00000	   0.48657
 461.00000	   0.48226
 462.00000	   0.47795
 463.00000	   0.47364
 464.00000	   0.46933
 465.00000	   0.46501
 466.00000	   0.46070
 467.00000	   0.45639
 468.00000	   0.45208
 469.00000	   0.44777
 470.00000	   0.44346
 471.00000	   0.43915
 472.00000	   0.43484
 473.00000	   0.43052
 474.00000	   0.42621
 475.00000	   0.42190
 476.00000	   0.41769
 477.00000	   0.41500
 478.00000	   0.41231
 479.00000	   0.40961
 480.00000	   0.40692
 481.00000	   0.40422
 482.00000	   0.40153
 483.00000	   0.39883
 484.00000	   0.39614
 485.00000	   0.39344
 486.00000	   0.39075
 487.00000	   0.38805
 488.00000	   0.38536
 489.00000	   0.38267
 490.00000	   0.37997
 491.00000	   0.37728
 492.00000	   0.37461
 493.00000	   0.37342
 494.00000	   0.37222
 495.00000	   0.37102
 496.00000	   0.36982
 497.00000	   0.36863
 498.00000	   0.36743
 499.00000	   0.36623
 500.00000	   0.36503
 501.00000	   0.36384
 502.00000	   0.36264
 503.00000	   0.36144
 504.00000	   0.36024
 505.00000	   0.35905
 506.00000	   0.35785
 507.00000	   0.35665
 508.00000	   0.35545
 509.00000	   0.35426
 510.00000	   0.35306
 511.00000	   0.35186
 512.00000	   0.35066
 513.00000	   0.34947
 514.00000	   0.34827
 515.00000	   0.34707
 516.00000	   0.34587
 517.00000	   0.34435
 518.00000	   0.34281
 519.00000	   0.34127
 520.00000	   0.33973
 521.00000	   0.33819
 522.00000	   0.33665
 523.00000	   0.33511
 524.00000	   0.33357
 525.00000	   0.33203
 526.00000	   0.33049
 527.00000	   0.32895
 528.00000	   0.32741
 529.00000	   0.32587
 530.00000	   0.32433
 531.00000	   0.32279
 532.00000	   0.32125
 533.00000	   0.31971
 534.00000	   0.31817
 535.00000	   0.31663
 536.00000	   0.31509
 537.00000	   0.31355
 538.00000	   0.31201
 539.00000	   0.31047
 540.00000	   0.30893
 541.00000	   0.30739
 542.00000	   0.30585
 543.00000	   0.30431
 544.00000	   0.30277
 545.00000	   0.30220
 546.00000	   0.30175
 547.00000	   0.30130
 548.00000	   0.30085
 549.00000	   0.30040
 550.00000	   0.29995
 551.00000	   0.29950
 552.00000	   0.29905
 553.00000	   0.29860
 554.00000	   0.29816
 555.00000	   0.29771
 556.00000	   0.29726
 557.00000	   0.29681
 558.00000	   0.29636
 559.00000	   0.29591
 560.00000	   0.29546
 561.00000	   0.29501
 562.00000	   0.29456
 563.00000	   0.29411
 564.00000	   0.29366
 565.00000	   0.29322
 566.00000	   0.29277
 567.00000	   0.29232
 568.00000	   0.29187
 569.00000	   0.29142
 570.00000	   0.29097
 571.00000	   0.29052
 572.00000	   0.29007
 573.00000	   0.28962
 574.00000	   0.28917
 575.00000	   0.28872
 576.00000	   0.28828
 577.00000	   0.28783
 578.00000	   0.28738
 579.00000	   0.28693
 580.00000	   0.28648
 581.00000	   0.28603
 582.00000	   0.28558
 583.00000	   0.28513
 584.00000	   0.28468
 585.00000	   0.28423
 586.00000	   0.28378
 587.00000	   0.28334
 588.00000	   0.28289
 589.00000	   0.28244
 590.00000	   0.28199
 591.00000	   0.28154
 592.00000	   0.28109
 593.00000	   0.28064
 594.00000	   0.28019
 595.00000	   0.27974
 596.00000	   0.27929
 597.00000	   0.27884
 598.00000	   0.27840
 599.00000	   0.27795
 600.00000	   0.27750
 601.00000	   0.27705
 602.00000	   0.27660
 603.00000	   0.27615
 604.00000	   0.27570
 605.00000	   0.27525
 606.00000	   0.27480
 607.00000	   0.27435
 608.00000	   0.27390
 609.00000	   0.27441
 610.00000	   0.27531
 611.00000	   0.27621
 612.00000	   0.27711
 613.00000	   0.27801
 614.00000	   0.27890
 615.00000	   0.27980
 616.00000	   0.28070
 617.00000	   0.28160
 618.00000	   0.28250
 619.00000	   0.28340
 620.00000	   0.28429
 621.00000	   0.28519
 622.00000	   0.28609
 623.00000	   0.28699
 624.00000	   0.28789
 625.00000	   0.28878
 626.00000	   0.28968
 627.00000	   0.29058
 628.00000	   0.29148
 629.00000	   0.29238
 630.00000	   0.29328
 631.00000	   0.29417
 632.00000	   0.29507
 633.00000	   0.29597
 634.00000	   0.29687
 635.00000	   0.29777
 636.00000	   0.29866
 637.00000	   0.29956
 638.00000	   0.30046
 639.00000	   0.30136
 640.00000	   0.30226
 641.00000	   0.30259
 642.00000	   0.30259
 643.00000	   0.30259
 644.00000	   0.30259
 645.00000	   0.30259
 646.00000	   0.30259
 647.00000	   0.30259
 648.00000	   0.30259
 649.00000	   0.30259
 650.00000	   0.30259
 651.00000	   0.30259
 652.00000	   0.30259
 653.00000	   0.30259
 654.00000	   0.30259
 655.00000	   0.30259
 656.00000	   0.30259
 657.00000	   0.30259
 658.00000	   0.30259
 659.00000	   0.30259
 660.00000	   0.30259
 661.00000	   0.30259
 662.00000	   0.30259
 663.00000	   0.30259
 664.00000	   0.30259
 665.00000	   0.30259
 666.00000	   0.30259
 667.00000	   0.30259
 668.00000	   0.30259
 669.00000	   0.30259
 670.00000	   0.30259
 671.00000	   0.30259
 672.00000	   0.30259
 673.00000	   0.30259
 674.00000	   0.30259
 675.00000	   0.30259
 676.00000	   0.30259
 677.00000	   0.30291
 678.00000	   0.30351
 679.00000	   0.30411
 680.00000	   0.30471
 681.00000	   0.30531
 682.00000	   0.30590
 683.00000	   0.30650
 684.00000	   0.30710
 685.00000	   0.30770
 686.00000	   0.30830
 687.00000	   0.30890
 688.00000	   0.30950
 689.00000	   0.31010
 690.00000	   0.31069
 691.00000	   0.31129
 692.00000	   0.31189
 693.00000	   0.31249
 694.00000	   0.31309
 695.00000	   0.31369
 696.00000	   0.31429
 697.00000	   0.31489
 698.00000	   0.31549
 699.00000	   0.31608
 700.00000	   0.31668
 701.00000	   0.31737
 702.00000	   0.31817
 703.00000	   0.31897
 704.00000	   0.31977
 705.00000	   0.32057
 706.00000	   0.32137
 707.00000	   0.32216
 708.00000	   0.32296
 709.00000	   0.32376
 710.00000	   0.32456
 711.00000	   0.32536
 712.00000	   0.32616
 713.00000	   0.32695
 714.00000	   0.32775
 715.00000	   0.32855
 716.00000	   0.32935
 717.00000	   0.33015
 718.00000	   0.33095
 719.00000	   0.33175
 720.00000	   0.33254
 721.00000	   0.33334
 722.00000	   0.33414
 723.00000	   0.33494
 724.00000	   0.33574
 725.00000	   0.33654
 726.00000	   0.33733
 727.00000	   0.33813
 728.00000	   0.33893
 729.00000	   0.33973
 730.00000	   0.34053
 731.00000	   0.34133
 732.00000	   0.34212
 733.00000	   0.34292
 734.00000	   0.34372
 735.00000	   0.34452
 736.00000	   0.34532
 737.00000	   0.34612
 738.00000	   0.34691
 739.00000	   0.34771
 740.00000	   0.34851
 741.00000	   0.34931
 742.00000	   0.35011
 743.00000	   0.35091
 744.00000	   0.35170
 745.00000	   0.35250
 746.00000	   0.35330
 747.00000	   0.35410
 748.00000	   0.35490
 749.00000	   0.35570
 750.00000	   0.35649
 751.00000	   0.35729
 752.00000	   0.35809
 753.00000	   0.35889
 754.00000	   0.35969
 755.00000	   0.36049
 756.00000	   0.36129
 757.00000	   0.36208
 758.00000	   0.36288
 759.00000	   0.36368
 760.00000	   0.36448
 761.00000	   0.36528
 762.00000	   0.36608
 763.00000	   0.36687
 764.00000	   0.36767
 765.00000	   0.36847
 766.00000	   0.36927
 767.00000	   0.37007
 768.00000	   0.37087
 769.00000	   0.37166
 770.00000	   0.37246
 771.00000	   0.37326
 772.00000	   0.37406
 773.00000	   0.37503
 774.00000	   0.37647
 775.00000	   0.37791
 776.00000	   0.37934
 777.00000	   0.38078
 778.00000	   0.38222
 779.00000	   0.38365
 780.00000	   0.38509
 781.00000	   0.38653
 782.00000	   0.38797
 783.00000	   0.38940
 784.00000	   0.39084
 785.00000	   0.39228
 786.00000	   0.39371
 787.00000	   0.39515
 788.00000	   0.39659
 789.00000	   0.39802
 790.00000	   0.39946
 791.00000	   0.40090
 792.00000	   0.40234
 793.00000	   0.40377
 794.00000	   0.40521
 795.00000	   0.40665
 796.00000	   0.40808
 797.00000	   0.40952
 798.00000	   0.41096
 799.00000	   0.41240
 800.00000	   0.41383
 801.00000	   0.41527
 802.00000	   0.41671
 803.00000	   0.41814
 804.00000	   0.41958
 805.00000	   0.42102
 806.00000	   0.42246
 807.00000	   0.42389
 808.00000	   0.42533
 809.00000	   0.42677
 810.00000	   0.42820
 811.00000	   0.42964
 812.00000	   0.43108
 813.00000	   0.43236
 814.00000	   0.43287
 815.00000	   0.43339
 816.00000	   0.43390
 817.00000	   0.43441
 818.00000	   0.43493
 819.00000	   0.43544
 820.00000	   0.43595
 821.00000	   0.43647
 822.00000	   0.43698
 823.00000	   0.43749
 824.00000	   0.43801
 825.00000	   0.43852
 826.00000	   0.43903
 827.00000	   0.43955
 828.00000	   0.44006
 829.00000	   0.44057
 830.00000	   0.44109
 831.00000	   0.44160
 832.00000	   0.44211
 833.00000	   0.44263
 834.00000	   0.44314
 835.00000	   0.44365
 836.00000	   0.44417
 837.00000	   0.44468
 838.00000	   0.44519
 839.00000	   0.44571
 840.00000	   0.44622
 841.00000	   0.44678
 842.00000	   0.44781
 843.00000	   0.44883
 844.00000	   0.44986
 845.00000	   0.45089
 846.00000	   0.45191
 847.00000	   0.45294
 848.00000	   0.45396
 849.00000	   0.45499
 850.00000	   0.45602
 851.00000	   0.45704
 852.00000	   0.45807
 853.00000	   0.45910
 854.00000	   0.46012
 855.00000	   0.46115
 856.00000	   0.46218
 857.00000	   0.46320
 858.00000	   0.46423
 859.00000	   0.46526
 860.00000	   0.46628
 861.00000	   0.46731
 862.00000	   0.46834
 863.00000	   0.46936
 864.00000	   0.47039
 865.00000	   0.47141
 866.00000	   0.47244
 867.00000	   0.47347
 868.00000	   0.47449
 869.00000	   0.47553
 870.00000	   0.47687
 871.00000	   0.47822
 872.00000	   0.47957
 873.00000	   0.48091
 874.00000	   0.48226
 875.00000	   0.48361
 876.00000	   0.48496
 877.00000	   0.48630
 878.00000	   0.48765
 879.00000	   0.48900
 880.00000	   0.49035
 881.00000	   0.49169
 882.00000	   0.49304
 883.00000	   0.49439
 884.00000	   0.49573
 885.00000	   0.49708
 886.00000	   0.49843
 887.00000	   0.49978
 888.00000	   0.50112
 889.00000	   0.50247
 890.00000	   0.50382
 891.00000	   0.50517
 892.00000	   0.50651
 893.00000	   0.50786
 894.00000	   0.50921
 895.00000	   0.51055
 896.00000	   0.51190
 897.00000	   0.51325
 898.00000	   0.51460
 899.00000	   0.51594
 900.00000	   0.51729
 901.00000	   0.51864
 902.00000	   0.51999
 903.00000	   0.52133
 904.00000	   0.52268
 905.00000	   0.52403
 906.00000	   0.52537
 907.00000	   0.52672
 908.00000	   0.52807
 909.00000	   0.52942
 910.00000	   0.53076
 911.00000	   0.53211
 912.00000	   0.53346
 913.00000	   0.53481
 914.00000	   0.53615
 915.00000	   0.53750
 916.00000	   0.53885
 917.00000	   0.54019
 918.00000	   0.54154
 919.00000	   0.54289
 920.00000	   0.54424
 921.00000	   0.54558
 922.00000	   0.54693
 923.00000	   0.54828
 924.00000	   0.54963
 925.00000	   0.55097
 926.00000	   0.55232
 927.00000	   0.55367
 928.00000	   0.55501
 929.00000	   0.55636
 930.00000	   0.55771
 931.00000	   0.55906
 932.00000	   0.56040
 933.00000	   0.56175
 934.00000	   0.56310
 935.00000	   0.56445
 936.00000	   0.56579
 937.00000	   0.56714
 938.00000	   0.56849
 939.00000	   0.56983
 940.00000	   0.57118
 941.00000	   0.57253
 942.00000	   0.57388
 943.00000	   0.57522
 944.00000	   0.57657
 945.00000	   0.57792
 946.00000	   0.57927
 947.00000	   0.58061
 948.00000	   0.58196
 949.00000	   0.58331
 950.00000	   0.58465
 951.00000	   0.58600
 952.00000	   0.58735
 953.00000	   0.58870
 954.00000	   0.59004
 955.00000	   0.59139
 956.00000	   0.59274
 957.00000	   0.59409
 958.00000	   0.59543
 959.00000	   0.59678
 960.00000	   0.59813
 961.00000	   0.59947
 962.00000	   0.60082
 963.00000	   0.60217
 964.00000	   0.60352
 965.00000	   0.60486
 966.00000	   0.60621
 967.00000	   0.60756
 968.00000	   0.60890
 969.00000	   0.61025
 970.00000	   0.61160
 971.00000	   0.61295
 972.00000	   0.61429
 973.00000	   0.61564
 974.00000	   0.61699
 975.00000	   0.61834
 976.00000	   0.61968
 977.00000	   0.62103
 978.00000	   0.62238
 979.00000	   0.62372
 980.00000	   0.62507
 981.00000	   0.62642
 982.00000	   0.62777
 983.00000	   0.62911
 984.00000	   0.63046
 985.00000	   0.63181
 986.00000	   0.63316
 987.00000	   0.63450
 988.00000	   0.63585
 989.00000	   0.63720
 990.00000	   0.63854
 991.00000	   0.63989
 992.00000	   0.64124
 993.00000	   0.64259
 994.00000	   0.64393
 995.00000	   0.64528
 996.00000	   0.64663
 997.00000	   0.64798
 998.00000	   0.64945
 999.00000	   0.65099
1000.00000	   0.65253
1001.00000	   0.65407
1002.00000	   0.65561
1003.00000	   0.65715
1004.00000	   0.65869
1005.00000	   0.66023
1006.00000	   0.66177
1007.00000	   0.66331
1008.00000	   0.66485
1009.00000	   0.66639
1010.00000	   0.66793
1011.00000	   0.66947
1012.00000	   0.67101
1013.00000	   0.67255
1014.00000	   0.67409
1015.00000	   0.67563
1016.00000	   0.67717
1017.00000	   0.67871
1018.00000	   0.68025
1019.00000	   0.68179
1020.00000	   0.68333
1021.00000	   0.68487
1022.00000	   0.68641
1023.00000	   0.68795
1024.00000	   0.68949
1025.00000	   0.69103
1026.00000	   0.69284
1027.00000	   0.69483
1028.00000	   0.69683
1029.00000	   0.69883
1030.00000	   0.70082
1031.00000	   0.70282
1032.00000	   0.70481
1033.00000	   0.70681
1034.00000	   0.70881
1035.00000	   0.71080
1036.00000	   0.71280
1037.00000	   0.71479
1038.00000	   0.71679
1039.00000	   0.71879
1040.00000	   0.72078
1041.00000	   0.72278
1042.00000	   0.72477
1043.00000	   0.72677
1044.00000	   0.72877
1045.00000	   0.73076
1046.00000	   0.73276
1047.00000	   0.73475
1048.00000	   0.73675
1049.00000	   0.73874
1050.00000	   0.74074
1051.00000	   0.74274
1052.00000	   0.74473
1053.00000	   0.74673
1054.00000	   0.74872
1055.00000	   0.75072
1056.00000	   0.75272
1057.00000	   0.75471
1058.00000	   0.75671
1059.00000	   0.75870
1060.00000	   0.76070
1061.00000	   0.76270
1062.00000	   0.76423
1063.00000	   0.76531
1064.00000	   0.76639
1065.00000	   0.76746
1066.00000	   0.76854
1067.00000	   0.76962
1068.00000	   0.77070
1069.00000	   0.77178
1070.00000	   0.77285
1071.00000	   0.77393
1072.00000	   0.77501
1073.00000	   0.77609
1074.00000	   0.77716
1075.00000	   0.77824
1076.00000	   0.77932
1077.00000	   0.78040
1078.00000	   0.78148
1079.00000	   0.78255
1080.00000	   0.78363
1081.00000	   0.78471
1082.00000	   0.78579
1083.00000	   0.78686
1084.00000	   0.78794
1085.00000	   0.78902
1086.00000	   0.79010
1087.00000	   0.79118
1088.00000	   0.79225
1089.00000	   0.79333
1090.00000	   0.79441
1091.00000	   0.79549
1092.00000	   0.79656
1093.00000	   0.79764
1094.00000	   0.79872
1095.00000	   0.79980
1096.00000	   0.80088
1097.00000	   0.80195
1098.00000	   0.80303
1099.00000	   0.80411
1100.00000	   0.80519
1101.00000	   0.80627
1102.00000	   0.80749
1103.00000	   0.80892
1104.00000	   0.81036
1105.00000	   0.81180
1106.00000	   0.81323
1107.00000	   0.81467
1108.00000	   0.81611
1109.00000	   0.81754
1110.00000	   0.81898
1111.00000	   0.82042
1112.00000	   0.82186
1113.00000	   0.82329
1114.00000	   0.82473
1115.00000	   0.82617
1116.00000	   0.82760
1117.00000	   0.82904
1118.00000	   0.83048
1119.00000	   0.83192
1120.00000	   0.83335
1121.00000	   0.83479
1122.00000	   0.83623
1123.00000	   0.83766
1124.00000	   0.83910
1125.00000	   0.84054
1126.00000	   0.84198
1127.00000	   0.84341
1128.00000	   0.84485
1129.00000	   0.84629
1130.00000	   0.84772
1131.00000	   0.84916
1132.00000	   0.85060
1133.00000	   0.85203
1134.00000	   0.85347
1135.00000	   0.85491
1136.00000	   0.85635
1137.00000	   0.85778
1138.00000	   0.85922
1139.00000	   0.86066
1140.00000	   0.86209
1141.00000	   0.86353
1142.00000	   0.86501
1143.00000	   0.86661
1144.00000	   0.86821
1145.00000	   0.86980
1146.00000	   0.87140
1147.00000	   0.87300
1148.00000	   0.87459
1149.00000	   0.87619
1150.00000	   0.87779
1151.00000	   0.87939
1152.00000	   0.88098
1153.00000	   0.88258
1154.00000	   0.88418
1155.00000	   0.88577
1156.00000	   0.88737
1157.00000	   0.88897
1158.00000	   0.89056
1159.00000	   0.89216
1160.00000	   0.89376
1161.00000	   0.89535
1162.00000	   0.89695
1163.00000	   0.89855
1164.00000	   0.90014
1165.00000	   0.90174
1166.00000	   0.90334
1167.00000	   0.90493
1168.00000	   0.90653
1169.00000	   0.90813
1170.00000	   0.90972
1171.00000	   0.91132
1172.00000	   0.91292
1173.00000	   0.91451
1174.00000	   0.91611
1175.00000	   0.91771
1176.00000	   0.91930
1177.00000	   0.92090
1178.00000	   0.92249
1179.00000	   0.92403
1180.00000	   0.92557
1181.00000	   0.92711
1182.00000	   0.92865
1183.00000	   0.93019
1184.00000	   0.93172
1185.00000	   0.93326
1186.00000	   0.93480
1187.00000	   0.93634
1188.00000	   0.93788
1189.00000	   0.93942
1190.00000	   0.94096
1191.00000	   0.94250
1192.00000	   0.94404
1193.00000	   0.94558
1194.00000	   0.94712
1195.00000	   0.94866
1196.00000	   0.95020
1197.00000	   0.95174
1198.00000	   0.95328
1199.00000	   0.95482
1200.00000	   0.95636
1201.00000	   0.95790
1202.00000	   0.95944
1203.00000	   0.96098
1204.00000	   0.96252
1205.00000	   0.96406
1206.00000	   0.96554
1207.00000	   0.96662
1208.00000	   0.96770
1209.00000	   0.96878
1210.00000	   0.96986
1211.00000	   0.97093
1212.00000	   0.97201
1213.00000	   0.97309
1214.00000	   0.97417
1215.00000	   0.97524
1216.00000	   0.97632
1217.00000	   0.97740
1218.00000	   0.97848
1219.00000	   0.97956
1220.00000	   0.98063
1221.00000	   0.98171
1222.00000	   0.98279
1223.00000	   0.98387
1224.00000	   0.98495
1225.00000	   0.98602
1226.00000	   0.98710
1227.00000	   0.98818
1228.00000	   0.98926
1229.00000	   0.99033
1230.00000	   0.99141
1231.00000	   0.99249
1232.00000	   0.99357
1233.00000	   0.99465
1234.00000	   0.99572
1235.00000	   0.99680
1236.00000	   0.99788
1237.00000	   0.99896
1238.00000	   1.00003
1239.00000	   1.00111
1240.00000	   1.00219
1241.00000	   1.00327
1242.00000	   1.00435
1243.00000	   1.00542
1244.00000	   1.00650
1245.00000	   1.00758
1246.00000	   1.00866
1247.00000	   1.01004
1248.00000	   1.01142
1249.00000	   1.01281
1250.00000	   1.01419
1251.00000	   1.01557
1252.00000	   1.01695
1253.00000	   1.01833
1254.00000	   1.01971
1255.00000	   1.02110
1256.00000	   1.02248
1257.00000	   1.02386
1258.00000	   1.02524
1259.00000	   1.02662
1260.00000	   1.02801
1261.00000	   1.02939
1262.00000	   1.03077
1263.00000	   1.03215
1264.00000	   1.03353
1265.00000	   1.03491
1266.00000	   1.03630
1267.00000	   1.03768
1268.00000	   1.03906
1269.00000	   1.04044
1270.00000	   1.04182
1271.00000	   1.04321
1272.00000	   1.04459
1273.00000	   1.04597
1274.00000	   1.04735
1275.00000	   1.04873
1276.00000	   1.05011
1277.00000	   1.05150
1278.00000	   1.05288
1279.00000	   1.05426
1280.00000	   1.05564
1281.00000	   1.05702
1282.00000	   1.05841
1283.00000	   1.05979
1284.00000	   1.06117
1285.00000	   1.06255
1286.00000	   1.06393
1287.00000	   1.06531
1288.00000	   1.06670
1289.00000	   1.06808
1290.00000	   1.06946
1291.00000	   1.07084
1292.00000	   1.07222
1293.00000	   1.07361
1294.00000	   1.07499
1295.00000	   1.07637
1296.00000	   1.07775
1297.00000	   1.07913
1298.00000	   1.08051
1299.00000	   1.08183
1300.00000	   1.08314
1301.00000	   1.08444
1302.00000	   1.08575
1303.00000	   1.08706
1304.00000	   1.08836
1305.00000	   1.08967
1306.00000	   1.09098
1307.00000	   1.09228
1308.00000	   1.09359
1309.00000	   1.09489
1310.00000	   1.09620
1311.00000	   1.09751
1312.00000	   1.09881
1313.00000	   1.10012
1314.00000	   1.10143
1315.00000	   1.10273
1316.00000	   1.10404
1317.00000	   1.10535
1318.00000	   1.10665
1319.00000	   1.10796
1320.00000	   1.10927
1321.00000	   1.11057
1322.00000	   1.11188
1323.00000	   1.11318
1324.00000	   1.11449
1325.00000	   1.11580
1326.00000	   1.11710
1327.00000	   1.11841
1328.00000	   1.11972
1329.00000	   1.12102
1330.00000	   1.12233
1331.00000	   1.12364
1332.00000	   1.12494
1333.00000	   1.12625
1334.00000	   1.12756
1335.00000	   1.12886
1336.00000	   1.13017
1337.00000	   1.13147
1338.00000	   1.13278
1339.00000	   1.13409
1340.00000	   1.13539
1341.00000	   1.13670
1342.00000	   1.13801
1343.00000	   1.13923
1344.00000	   1.14043
1345.00000	   1.14163
1346.00000	   1.14282
1347.00000	   1.14402
1348.00000	   1.14522
1349.00000	   1.14642
1350.00000	   1.14761
1351.00000	   1.14881
1352.00000	   1.15001
1353.00000	   1.15121
1354.00000	   1.15240
1355.00000	   1.15360
1356.00000	   1.15480
1357.00000	   1.15600
1358.00000	   1.15720
1359.00000	   1.15839
1360.00000	   1.15959
1361.00000	   1.16079
1362.00000	   1.16199
1363.00000	   1.16318
1364.00000	   1.16438
1365.00000	   1.16558
1366.00000	   1.16678
1367.00000	   1.16797
1368.00000	   1.16917
1369.00000	   1.17037
1370.00000	   1.17157
1371.00000	   1.17276
1372.00000	   1.17396
1373.00000	   1.17516
1374.00000	   1.17636
1375.00000	   1.17755
1376.00000	   1.17875
1377.00000	   1.17995
1378.00000	   1.18115
1379.00000	   1.18234
1380.00000	   1.18354
1381.00000	   1.18474
1382.00000	   1.18594
1383.00000	   1.18713
1384.00000	   1.18833
1385.00000	   1.18953
1386.00000	   1.19073
1387.00000	   1.19192
1388.00000	   1.19312
1389.00000	   1.19432
1390.00000	   1.19552
1391.00000	   1.19671
1392.00000	   1.19791
1393.00000	   1.19911
1394.00000	   1.20031
1395.00000	   1.20150
1396.00000	   1.20270
1397.00000	   1.20390
1398.00000	   1.20510
1399.00000	   1.20630
1400.00000	   1.20749
1401.00000	   1.20869
1402.00000	   1.20989
1403.00000	   1.21109
1404.00000	   1.21228
1405.00000	   1.21348
1406.00000	   1.21468
1407.00000	   1.21588
1408.00000	   1.21707
1409.00000	   1.21827
1410.00000	   1.21947
1411.00000	   1.22067
1412.00000	   1.22186
1413.00000	   1.22306
1414.00000	   1.22426
1415.00000	   1.22529
1416.00000	   1.22619
1417.00000	   1.22708
1418.00000	   1.22798
1419.00000	   1.22888
1420.00000	   1.22978
1421.00000	   1.23068
1422.00000	   1.23158
1423.00000	   1.23247
1424.00000	   1.23337
1425.00000	   1.23427
1426.00000	   1.23517
1427.00000	   1.23607
1428.00000	   1.23696
1429.00000	   1.23786
1430.00000	   1.23876
1431.00000	   1.23966
1432.00000	   1.24056
1433.00000	   1.24146
1434.00000	   1.24235
1435.00000	   1.24325
1436.00000	   1.24415
1437.00000	   1.24505
1438.00000	   1.24595
1439.00000	   1.24684
1440.00000	   1.24774
1441.00000	   1.24864
1442.00000	   1.24954
1443.00000	   1.25044
1444.00000	   1.25134
1445.00000	   1.25223
1446.00000	   1.25313
1447.00000	   1.25403
1448.00000	   1.25493
1449.00000	   1.25583
1450.00000	   1.25672
1451.00000	   1.25762
1452.00000	   1.25852
1453.00000	   1.25942
1454.00000	   1.26032
1455.00000	   1.26122
1456.00000	   1.26211
1457.00000	   1.26301
1458.00000	   1.26391
1459.00000	   1.26481
1460.00000	   1.26571
1461.00000	   1.26660
1462.00000	   1.26750
1463.00000	   1.26853
1464.00000	   1.26973
1465.00000	   1.27093
1466.00000	   1.27212
1467.00000	   1.27332
1468.00000	   1.27452
1469.00000	   1.27572
1470.00000	   1.27691
1471.00000	   1.27811
1472.00000	   1.27931
1473.00000	   1.28051
1474.00000	   1.28170
1475.00000	   1.28290
1476.00000	   1.28410
1477.00000	   1.28530
1478.00000	   1.28649
1479.00000	   1.28769
1480.00000	   1.28889
1481.00000	   1.29009
1482.00000	   1.29128
1483.00000	   1.29248
1484.00000	   1.29368
1485.00000	   1.29488
1486.00000	   1.29607
1487.00000	   1.29727
1488.00000	   1.29847
1489.00000	   1.29967
1490.00000	   1.30086
1491.00000	   1.30206
1492.00000	   1.30326
1493.00000	   1.30446
1494.00000	   1.30565
1495.00000	   1.30685
1496.00000	   1.30805
1497.00000	   1.30925
1498.00000	   1.31045
1499.00000	   1.31164
1500.00000	   1.31284
1501.00000	   1.31404
1502.00000	   1.31524
1503.00000	   1.31643
1504.00000	   1.31763
1505.00000	   1.31883
1506.00000	   1.32003
1507.00000	   1.32122
1508.00000	   1.32242
1509.00000	   1.32362
1510.00000	   1.32482
1511.00000	   1.32588
1512.00000	   1.32665
1513.00000	   1.32742
1514.00000	   1.32819
1515.00000	   1.32896
1516.00000	   1.32973
1517.00000	   1.33050
1518.00000	   1.33127
1519.00000	   1.33204
1520.00000	   1.33281
1521.00000	   1.33358
1522.00000	   1.33435
1523.00000	   1.33512
1524.00000	   1.33589
1525.00000	   1.33666
1526.00000	   1.33743
1527.00000	   1.33820
1528.00000	   1.33897
1529.00000	   1.33974
1530.00000	   1.34051
1531.00000	   1.34128
1532.00000	   1.34205
1533.00000	   1.34282
1534.00000	   1.34359
1535.00000	   1.34436
1536.00000	   1.34513
1537.00000	   1.34590
1538.00000	   1.34667
1539.00000	   1.34744
1540.00000	   1.34821
1541.00000	   1.34898
1542.00000	   1.34975
1543.00000	   1.35052
1544.00000	   1.35129
1545.00000	   1.35206
1546.00000	   1.35283
1547.00000	   1.35360
1548.00000	   1.35437
1549.00000	   1.35514
1550.00000	   1.35591
1551.00000	   1.35668
1552.00000	   1.35745
1553.00000	   1.35822
1554.00000	   1.35899
1555.00000	   1.35976
1556.00000	   1.36053
1557.00000	   1.36130
1558.00000	   1.36207
1559.00000	   1.36284
1560.00000	   1.36361
1561.00000	   1.36438
1562.00000	   1.36515
1563.00000	   1.36592
1564.00000	   1.36669
1565.00000	   1.36746
1566.00000	   1.36823
1567.00000	   1.36900
1568.00000	   1.36983
1569.00000	   1.37066
1570.00000	   1.37149
1571.00000	   1.37232
1572.00000	   1.37315
1573.00000	   1.37398
1574.00000	   1.37481
1575.00000	   1.37564
1576.00000	   1.37647
1577.00000	   1.37730
1578.00000	   1.37812
1579.00000	   1.37895
1580.00000	   1.37978
1581.00000	   1.38061
1582.00000	   1.38144
1583.00000	   1.38227
1584.00000	   1.38310
1585.00000	   1.38393
1586.00000	   1.38476
1587.00000	   1.38559
1588.00000	   1.38642
1589.00000	   1.38724
1590.00000	   1.38807
1591.00000	   1.38890
1592.00000	   1.38973
1593.00000	   1.39056
1594.00000	   1.39139
1595.00000	   1.39222
1596.00000	   1.39305
1597.00000	   1.39388
1598.00000	   1.39471
1599.00000	   1.39554
1600.00000	   1.39636
1601.00000	   1.39719
1602.00000	   1.39802
1603.00000	   1.39885
1604.00000	   1.39968
1605.00000	   1.40051
1606.00000	   1.40134
1607.00000	   1.40217
1608.00000	   1.40300
1609.00000	   1.40383
1610.00000	   1.40466
1611.00000	   1.40548
1612.00000	   1.40631
1613.00000	   1.40714
1614.00000	   1.40797
1615.00000	   1.40880
1616.00000	   1.40963
1617.00000	   1.41046
1618.00000	   1.41129
1619.00000	   1.41212
1620.00000	   1.41283
1621.00000	   1.41355
1622.00000	   1.41427
1623.00000	   1.41499
1624.00000	   1.41571
1625.00000	   1.41643
1626.00000	   1.41715
1627.00000	   1.41786
1628.00000	   1.41858
1629.00000	   1.41930
1630.00000	   1.42002
1631.00000	   1.42074
1632.00000	   1.42146
1633.00000	   1.42217
1634.00000	   1.42289
1635.00000	   1.42361
1636.00000	   1.42433
1637.00000	   1.42505
1638.00000	   1.42577
1639.00000	   1.42649
1640.00000	   1.42720
1641.00000	   1.42792
1642.00000	   1.42864
1643.00000	   1.42936
1644.00000	   1.43008
1645.00000	   1.43080
1646.00000	   1.43152
1647.00000	   1.43223
1648.00000	   1.43295
1649.00000	   1.43367
1650.00000	   1.43439
1651.00000	   1.43511
1652.00000	   1.43583
1653.00000	   1.43655
1654.00000	   1.43726
1655.00000	   1.43798
1656.00000	   1.43870
1657.00000	   1.43942
1658.00000	   1.44014
1659.00000	   1.44086
1660.00000	   1.44158
1661.00000	   1.44229
1662.00000	   1.44301
1663.00000	   1.44373
1664.00000	   1.44445
1665.00000	   1.44517
1666.00000	   1.44589
1667.00000	   1.44661
1668.00000	   1.44732
1669.00000	   1.44804
1670.00000	   1.44876
1671.00000	   1.44948
1672.00000	   1.45020
1673.00000	   1.45092
1674.00000	   1.45163
1675.00000	   1.45235
1676.00000	   1.45307
1677.00000	   1.45379
1678.00000	   1.45451
1679.00000	   1.45523
1680.00000	   1.45595
1681.00000	   1.45666
1682.00000	   1.45738
1683.00000	   1.45810
1684.00000	   1.45882
1685.00000	   1.45954
1686.00000	   1.46026
1687.00000	   1.46098
1688.00000	   1.46169
1689.00000	   1.46241
1690.00000	   1.46313
1691.00000	   1.46385
1692.00000	   1.46457
1693.00000	   1.46529
1694.00000	   1.46601
1695.00000	   1.46672
1696.00000	   1.46744
1697.00000	   1.46816
1698.00000	   1.46888
1699.00000	   1.46960
1700.00000	   1.47032
1701.00000	   1.47104
1702.00000	   1.47175
1703.00000	   1.47247
1704.00000	   1.47319
1705.00000	   1.47391
1706.00000	   1.47463
1707.00000	   1.47535
1708.00000	   1.47607
1709.00000	   1.47678
1710.00000	   1.47750
1711.00000	   1.47822
1712.00000	   1.47894
1713.00000	   1.47966
1714.00000	   1.48038
1715.00000	   1.48110
1716.00000	   1.48181
1717.00000	   1.48253
1718.00000	   1.48325
1719.00000	   1.48397
1720.00000	   1.48469
1721.00000	   1.48541
1722.00000	   1.48612
1723.00000	   1.48684
1724.00000	   1.48756
1725.00000	   1.48828
1726.00000	   1.48900
1727.00000	   1.48972
1728.00000	   1.49044
1729.00000	   1.49115
1730.00000	   1.49187
1731.00000	   1.49259
1732.00000	   1.49331
1733.00000	   1.49403
1734.00000	   1.49475
1735.00000	   1.49547
1736.00000	   1.49618
1737.00000	   1.49690
1738.00000	   1.49762
1739.00000	   1.49834
1740.00000	   1.49898
1741.00000	   1.49957
1742.00000	   1.50017
1743.00000	   1.50077
1744.00000	   1.50137
1745.00000	   1.50197
1746.00000	   1.50257
1747.00000	   1.50317
1748.00000	   1.50377
1749.00000	   1.50436
1750.00000	   1.50496
1751.00000	   1.50556
1752.00000	   1.50616
1753.00000	   1.50676
1754.00000	   1.50736
1755.00000	   1.50796
1756.00000	   1.50856
1757.00000	   1.50915
1758.00000	   1.50975
1759.00000	   1.51035
1760.00000	   1.51095
1761.00000	   1.51155
1762.00000	   1.51215
1763.00000	   1.51275
1764.00000	   1.51335
1765.00000	   1.51394
1766.00000	   1.51454
1767.00000	   1.51514
1768.00000	   1.51574
1769.00000	   1.51634
1770.00000	   1.51694
1771.00000	   1.51754
1772.00000	   1.51814
1773.00000	   1.51874
1774.00000	   1.51933
1775.00000	   1.51993
1776.00000	   1.52053
1777.00000	   1.52113
1778.00000	   1.52173
1779.00000	   1.52233
1780.00000	   1.52293
1781.00000	   1.52353
1782.00000	   1.52412
1783.00000	   1.52472
1784.00000	   1.52532
1785.00000	   1.52592
1786.00000	   1.52652
1787.00000	   1.52712
1788.00000	   1.52772
1789.00000	   1.52832
1790.00000	   1.52891
1791.00000	   1.52951
1792.00000	   1.53011
1793.00000	   1.53071
1794.00000	   1.53131
1795.00000	   1.53191
1796.00000	   1.53251
1797.00000	   1.53311
1798.00000	   1.53370
1799.00000	   1.53430
1800.00000	   1.53490
1801.00000	   1.53550
1802.00000	   1.53610
1803.00000	   1.53670
1804.00000	   1.53730
1805.00000	   1.53790
1806.00000	   1.53850
1807.00000	   1.53909
1808.00000	   1.53969
1809.00000	   1.54029
1810.00000	   1.54089
1811.00000	   1.54149
1812.00000	   1.54200
1813.00000	   1.54242
1814.00000	   1.54284
1815.00000	   1.54327
1816.00000	   1.54369
1817.00000	   1.54411
1818.00000	   1.54454
1819.00000	   1.54496
1820.00000	   1.54538
1821.00000	   1.54580
1822.00000	   1.54623
1823.00000	   1.54665
1824.00000	   1.54707
1825.00000	   1.54749
1826.00000	   1.54792
1827.00000	   1.54834
1828.00000	   1.54876
1829.00000	   1.54918
1830.00000	   1.54961
1831.00000	   1.55003
1832.00000	   1.55045
1833.00000	   1.55088
1834.00000	   1.55130
1835.00000	   1.55172
1836.00000	   1.55214
1837.00000	   1.55257
1838.00000	   1.55299
1839.00000	   1.55341
1840.00000	   1.55383
1841.00000	   1.55426
1842.00000	   1.55468
1843.00000	   1.55510
1844.00000	   1.55552
1845.00000	   1.55595
1846.00000	   1.55637
1847.00000	   1.55679
1848.00000	   1.55722
1849.00000	   1.55764
1850.00000	   1.55806
1851.00000	   1.55848
1852.00000	   1.55891
1853.00000	   1.55933
1854.00000	   1.55975
1855.00000	   1.56017
1856.00000	   1.56060
1857.00000	   1.56102
1858.00000	   1.56144
1859.00000	   1.56186
1860.00000	   1.56229
1861.00000	   1.56271
1862.00000	   1.56313
1863.00000	   1.56356
1864.00000	   1.56398
1865.00000	   1.56440
1866.00000	   1.56482
1867.00000	   1.56525
1868.00000	   1.56567
1869.00000	   1.56609
1870.00000	   1.56651
1871.00000	   1.56694
1872.00000	   1.56736
1873.00000	   1.56778
1874.00000	   1.56820
1875.00000	   1.56863
1876.00000	   1.56905
1877.00000	   1.56947
1878.00000	   1.56990
1879.00000	   1.57032
1880.00000	   1.57069
1881.00000	   1.57097
1882.00000	   1.57125
1883.00000	   1.57152
1884.00000	   1.57180
1885.00000	   1.57208
1886.00000	   1.57235
1887.00000	   1.57263
1888.00000	   1.57290
1889.00000	   1.57318
1890.00000	   1.57346
1891.00000	   1.57373
1892.00000	   1.57401
1893.00000	   1.57429
1894.00000	   1.57456
1895.00000	   1.57484
1896.00000	   1.57512
1897.00000	   1.57539
1898.00000	   1.57567
1899.00000	   1.57594
1900.00000	   1.57622
1901.00000	   1.57650
1902.00000	   1.57677
1903.00000	   1.57705
1904.00000	   1.57733
1905.00000	   1.57760
1906.00000	   1.57788
1907.00000	   1.57816
1908.00000	   1.57843
1909.00000	   1.57871
1910.00000	   1.57898
1911.00000	   1.57926
1912.00000	   1.57954
1913.00000	   1.57981
1914.00000	   1.58009
1915.00000	   1.58037
1916.00000	   1.58064
1917.00000	   1.58092
1918.00000	   1.58120
1919.00000	   1.58147
1920.00000	   1.58175
1921.00000	   1.58202
1922.00000	   1.58230
1923.00000	   1.58258
1924.00000	   1.58285
1925.00000	   1.58313
1926.00000	   1.58341
1927.00000	   1.58368
1928.00000	   1.58396
1929.00000	   1.58424
1930.00000	   1.58451
1931.00000	   1.58479
1932.00000	   1.58516
1933.00000	   1.58596
1934.00000	   1.58676
1935.00000	   1.58755
1936.00000	   1.58835
1937.00000	   1.58915
1938.00000	   1.58995
1939.00000	   1.59075
1940.00000	   1.59155
1941.00000	   1.59234
1942.00000	   1.59314
1943.00000	   1.59394
1944.00000	   1.59474
1945.00000	   1.59554
1946.00000	   1.59634
1947.00000	   1.59714
1948.00000	   1.59793
1949.00000	   1.59873
1950.00000	   1.59953
1951.00000	   1.60033
1952.00000	   1.60113
1953.00000	   1.60193
1954.00000	   1.60272
1955.00000	   1.60352
1956.00000	   1.60432
1957.00000	   1.60512
1958.00000	   1.60592
1959.00000	   1.60672
1960.00000	   1.60751
1961.00000	   1.60831
1962.00000	   1.60911
1963.00000	   1.60991
1964.00000	   1.61071
1965.00000	   1.61151
1966.00000	   1.61230
1967.00000	   1.61310
1968.00000	   1.61387
1969.00000	   1.61427
1970.00000	   1.61467
1971.00000	   1.61506
1972.00000	   1.61546
1973.00000	   1.61586
1974.00000	   1.61626
1975.00000	   1.61666
1976.00000	   1.61706
1977.00000	   1.61746
1978.00000	   1.61786
1979.00000	   1.61826
1980.00000	   1.61866
1981.00000	   1.61906
1982.00000	   1.61946
1983.00000	   1.61985
1984.00000	   1.62025
1985.00000	   1.62065
1986.00000	   1.62105
1987.00000	   1.62145
1988.00000	   1.62185
1989.00000	   1.62225
1990.00000	   1.62265
1991.00000	   1.62305
1992.00000	   1.62345
1993.00000	   1.62385
1994.00000	   1.62425
1995.00000	   1.62465
1996.00000	   1.62504
1997.00000	   1.62544
1998.00000	   1.62584
1999.00000	   1.62624
2000.00000	   1.62664
