1.538460000000000036e+03	2.000000000000000164e-05
1.539409999999999854e+03	2.000000000000000164e-05
1.540359999999999900e+03	2.000000000000000164e-05
1.541309999999999945e+03	2.000000000000000164e-05
1.542259999999999991e+03	2.000000000000000164e-05
1.543210000000000036e+03	2.000000000000000164e-05
1.544160000000000082e+03	2.000000000000000164e-05
1.545120000000000118e+03	2.000000000000000164e-05
1.546070000000000164e+03	2.000000000000000164e-05
1.547029999999999973e+03	2.000000000000000164e-05
1.547990000000000009e+03	2.000000000000000164e-05
1.548950000000000045e+03	2.000000000000000164e-05
1.549909999999999854e+03	2.000000000000000164e-05
1.550869999999999891e+03	2.000000000000000164e-05
1.551830000000000155e+03	2.000000000000000164e-05
1.552799999999999955e+03	2.000000000000000164e-05
1.553759999999999991e+03	2.000000000000000164e-05
1.554730000000000018e+03	2.000000000000000164e-05
1.555690000000000055e+03	2.000000000000000164e-05
1.556659999999999854e+03	2.000000000000000164e-05
1.557630000000000109e+03	2.000000000000000164e-05
1.558599999999999909e+03	2.000000000000000164e-05
1.559579999999999927e+03	2.000000000000000164e-05
1.560550000000000182e+03	2.000000000000000164e-05
1.561519999999999982e+03	2.000000000000000164e-05
1.562500000000000000e+03	2.000000000000000164e-05
1.563480000000000018e+03	2.000000000000000164e-05
1.564460000000000036e+03	2.000000000000000164e-05
1.565440000000000055e+03	2.000000000000000164e-05
1.566419999999999845e+03	2.000000000000000164e-05
1.567399999999999864e+03	2.000000000000000164e-05
1.568380000000000109e+03	2.000000000000000164e-05
1.569369999999999891e+03	2.000000000000000164e-05
1.570349999999999909e+03	2.000000000000000164e-05
1.571339999999999918e+03	2.000000000000000164e-05
1.572329999999999927e+03	2.000000000000000164e-05
1.573320000000000164e+03	2.000000000000000164e-05
1.574310000000000173e+03	2.000000000000000164e-05
1.575299999999999955e+03	2.000000000000000164e-05
1.576289999999999964e+03	2.000000000000000164e-05
1.577290000000000191e+03	2.000000000000000164e-05
1.578279999999999973e+03	2.000000000000000164e-05
1.579279999999999973e+03	2.000000000000000164e-05
1.580279999999999973e+03	2.000000000000000164e-05
1.581279999999999973e+03	2.000000000000000164e-05
1.582279999999999973e+03	2.000000000000000164e-05
1.583279999999999973e+03	2.000000000000000164e-05
1.584279999999999973e+03	2.000000000000000164e-05
1.585290000000000191e+03	2.000000000000000164e-05
1.586289999999999964e+03	2.000000000000000164e-05
1.587299999999999955e+03	2.000000000000000164e-05
1.588310000000000173e+03	2.000000000000000164e-05
1.589320000000000164e+03	2.000000000000000164e-05
1.590329999999999927e+03	2.000000000000000164e-05
1.591339999999999918e+03	2.000000000000000164e-05
1.592359999999999900e+03	2.000000000000000164e-05
1.593369999999999891e+03	2.000000000000000164e-05
1.594389999999999873e+03	2.000000000000000164e-05
1.595410000000000082e+03	2.000000000000000164e-05
1.596419999999999845e+03	2.000000000000000164e-05
1.597440000000000055e+03	2.000000000000000164e-05
1.598470000000000027e+03	2.000000000000000164e-05
1.599490000000000009e+03	2.000000000000000164e-05
1.600509999999999991e+03	2.000000000000000164e-05
1.601539999999999964e+03	2.000000000000000164e-05
1.602559999999999945e+03	2.000000000000000164e-05
1.603590000000000146e+03	2.000000000000000164e-05
1.604619999999999891e+03	2.000000000000000164e-05
1.605650000000000091e+03	2.000000000000000164e-05
1.606680000000000064e+03	2.000000000000000164e-05
1.607720000000000027e+03	2.000000000000000164e-05
1.608750000000000000e+03	2.000000000000000164e-05
1.609789999999999964e+03	2.000000000000000164e-05
1.610819999999999936e+03	2.000000000000000164e-05
1.611860000000000127e+03	2.000000000000000164e-05
1.612900000000000091e+03	2.000000000000000164e-05
1.613939999999999827e+03	2.000000000000000164e-05
1.614990000000000009e+03	2.000000000000000164e-05
1.616029999999999973e+03	2.000000000000000164e-05
1.617080000000000155e+03	2.000000000000000164e-05
1.618119999999999891e+03	2.000000000000000164e-05
1.619170000000000073e+03	2.000000000000000164e-05
1.620220000000000027e+03	2.000000000000000164e-05
1.621269999999999982e+03	2.000000000000000164e-05
1.622319999999999936e+03	2.000000000000000164e-05
1.623380000000000109e+03	2.000000000000000164e-05
1.624430000000000064e+03	2.000000000000000164e-05
1.625490000000000009e+03	2.000000000000000164e-05
1.626549999999999955e+03	2.000000000000000164e-05
1.627599999999999909e+03	2.000000000000000164e-05
1.628660000000000082e+03	2.000000000000000164e-05
1.629729999999999791e+03	2.000000000000000164e-05
1.630789999999999964e+03	2.000000000000000164e-05
1.631849999999999909e+03	2.000000000000000164e-05
1.632919999999999845e+03	2.000000000000000164e-05
1.633990000000000009e+03	2.000000000000000164e-05
1.635059999999999945e+03	2.000000000000000164e-05
1.636130000000000109e+03	2.000000000000000164e-05
1.637200000000000045e+03	2.000000000000000164e-05
1.638269999999999982e+03	2.000000000000000164e-05
1.639339999999999918e+03	2.000000000000000164e-05
1.640420000000000073e+03	2.000000000000000164e-05
1.641500000000000000e+03	2.000000000000000164e-05
1.642579999999999927e+03	2.000000000000000164e-05
1.643659999999999854e+03	2.000000000000000164e-05
1.644740000000000009e+03	2.000000000000000164e-05
1.645820000000000164e+03	2.000000000000000164e-05
1.646900000000000091e+03	2.000000000000000164e-05
1.647990000000000009e+03	2.000000000000000164e-05
1.649080000000000155e+03	2.000000000000000164e-05
1.650169999999999845e+03	2.000000000000000164e-05
1.651250000000000000e+03	2.000000000000000164e-05
1.652349999999999909e+03	2.000000000000000164e-05
1.653440000000000055e+03	2.000000000000000164e-05
1.654529999999999973e+03	2.000000000000000164e-05
1.655629999999999882e+03	2.000000000000000164e-05
1.656730000000000018e+03	2.000000000000000164e-05
1.657820000000000164e+03	2.000000000000000164e-05
1.658930000000000064e+03	2.000000000000000164e-05
1.660029999999999973e+03	2.000000000000000164e-05
1.661130000000000109e+03	2.000000000000000164e-05
1.662230000000000018e+03	2.000000000000000164e-05
1.663340000000000146e+03	2.000000000000000164e-05
1.664450000000000045e+03	2.000000000000000164e-05
1.665559999999999945e+03	2.000000000000000164e-05
1.666670000000000073e+03	2.000000000000000164e-05
1.667779999999999973e+03	2.000000000000000164e-05
1.668889999999999873e+03	2.000000000000000164e-05
1.670009999999999991e+03	2.000000000000000164e-05
1.671119999999999891e+03	2.000000000000000164e-05
1.672240000000000009e+03	2.000000000000000164e-05
1.673359999999999900e+03	2.000000000000000164e-05
1.674480000000000018e+03	2.000000000000000164e-05
1.675599999999999909e+03	2.000000000000000164e-05
1.676730000000000018e+03	2.000000000000000164e-05
1.677850000000000136e+03	2.000000000000000164e-05
1.678980000000000018e+03	2.000000000000000164e-05
1.680109999999999900e+03	2.000000000000000164e-05
1.681240000000000009e+03	2.000000000000000164e-05
1.682369999999999891e+03	2.000000000000000164e-05
1.683500000000000000e+03	2.000000000000000164e-05
1.684639999999999873e+03	2.000000000000000164e-05
1.685769999999999982e+03	2.000000000000000164e-05
1.686909999999999854e+03	2.000000000000000164e-05
1.688049999999999955e+03	2.000000000000000164e-05
1.689190000000000055e+03	2.000000000000000164e-05
1.690330000000000155e+03	2.000000000000000164e-05
1.691470000000000027e+03	2.000000000000000164e-05
1.692620000000000118e+03	2.000000000000000164e-05
1.693769999999999982e+03	2.000000000000000164e-05
1.694920000000000073e+03	2.000000000000000164e-05
1.696069999999999936e+03	2.000000000000000164e-05
1.697220000000000027e+03	2.000000000000000164e-05
1.698369999999999891e+03	2.000000000000000164e-05
1.699519999999999982e+03	2.000000000000000164e-05
1.700680000000000064e+03	2.000000000000000164e-05
1.701839999999999918e+03	2.000000000000000164e-05
1.703000000000000000e+03	2.000000000000000164e-05
1.704159999999999854e+03	2.000000000000000164e-05
1.705319999999999936e+03	2.000000000000000164e-05
1.706480000000000018e+03	2.000000000000000164e-05
1.707649999999999864e+03	2.000000000000000164e-05
1.708819999999999936e+03	2.000000000000000164e-05
1.709990000000000009e+03	2.000000000000000164e-05
1.711160000000000082e+03	2.000000000000000164e-05
1.712329999999999927e+03	2.000000000000000164e-05
1.713500000000000000e+03	2.000000000000000164e-05
1.714680000000000064e+03	2.000000000000000164e-05
1.715850000000000136e+03	2.000000000000000164e-05
1.717029999999999973e+03	2.000000000000000164e-05
1.718210000000000036e+03	2.000000000000000164e-05
1.719389999999999873e+03	2.000000000000000164e-05
1.720579999999999927e+03	2.000000000000000164e-05
1.721759999999999991e+03	2.000000000000000164e-05
1.722950000000000045e+03	2.000000000000000164e-05
1.724140000000000100e+03	2.000000000000000164e-05
1.725329999999999927e+03	2.000000000000000164e-05
1.726519999999999982e+03	2.000000000000000164e-05
1.727710000000000036e+03	2.000000000000000164e-05
1.728909999999999854e+03	2.000000000000000164e-05
1.730099999999999909e+03	2.000000000000000164e-05
1.731299999999999955e+03	2.000000000000000164e-05
1.732500000000000000e+03	2.000000000000000164e-05
1.733700000000000045e+03	2.000000000000000164e-05
1.734909999999999854e+03	3.000000000000000076e-05
1.736110000000000127e+03	3.000000000000000076e-05
1.737319999999999936e+03	3.000000000000000076e-05
1.738529999999999973e+03	3.000000000000000076e-05
1.739740000000000009e+03	3.000000000000000076e-05
1.740950000000000045e+03	3.000000000000000076e-05
1.742159999999999854e+03	3.000000000000000076e-05
1.743379999999999882e+03	3.000000000000000076e-05
1.744590000000000146e+03	3.000000000000000076e-05
1.745810000000000173e+03	3.000000000000000076e-05
1.747029999999999973e+03	3.000000000000000076e-05
1.748250000000000000e+03	3.000000000000000076e-05
1.749480000000000018e+03	3.000000000000000076e-05
1.750699999999999818e+03	3.000000000000000076e-05
1.751930000000000064e+03	3.000000000000000076e-05
1.753160000000000082e+03	3.000000000000000076e-05
1.754389999999999873e+03	3.000000000000000076e-05
1.755619999999999891e+03	3.000000000000000076e-05
1.756849999999999909e+03	3.000000000000000076e-05
1.758089999999999918e+03	3.000000000000000076e-05
1.759319999999999936e+03	3.000000000000000076e-05
1.760559999999999945e+03	3.000000000000000076e-05
1.761799999999999955e+03	3.000000000000000076e-05
1.763049999999999955e+03	3.000000000000000076e-05
1.764289999999999964e+03	3.000000000000000076e-05
1.765540000000000191e+03	3.000000000000000076e-05
1.766779999999999973e+03	3.000000000000000076e-05
1.768029999999999973e+03	3.000000000000000076e-05
1.769289999999999964e+03	3.000000000000000076e-05
1.770539999999999964e+03	3.000000000000000076e-05
1.771789999999999964e+03	3.000000000000000076e-05
1.773049999999999955e+03	3.000000000000000076e-05
1.774309999999999945e+03	3.000000000000000076e-05
1.775570000000000164e+03	3.000000000000000076e-05
1.776829999999999927e+03	3.000000000000000076e-05
1.778089999999999918e+03	3.000000000000000076e-05
1.779360000000000127e+03	3.000000000000000076e-05
1.780629999999999882e+03	3.000000000000000076e-05
1.781900000000000091e+03	3.000000000000000076e-05
1.783169999999999845e+03	3.000000000000000076e-05
1.784440000000000055e+03	3.000000000000000076e-05
1.785709999999999809e+03	3.000000000000000076e-05
1.786990000000000009e+03	3.000000000000000076e-05
1.788269999999999982e+03	3.000000000000000076e-05
1.789549999999999955e+03	3.000000000000000076e-05
1.790829999999999927e+03	3.000000000000000076e-05
1.792110000000000127e+03	3.000000000000000076e-05
1.793400000000000091e+03	3.000000000000000076e-05
1.794689999999999827e+03	3.000000000000000076e-05
1.795980000000000018e+03	3.000000000000000076e-05
1.797269999999999982e+03	3.000000000000000076e-05
1.798559999999999945e+03	3.000000000000000076e-05
1.799860000000000127e+03	3.000000000000000076e-05
1.801150000000000091e+03	3.000000000000000076e-05
1.802450000000000045e+03	3.000000000000000076e-05
1.803750000000000000e+03	3.000000000000000076e-05
1.805049999999999955e+03	3.000000000000000076e-05
1.806359999999999900e+03	3.000000000000000076e-05
1.807660000000000082e+03	3.000000000000000076e-05
1.808970000000000027e+03	3.000000000000000076e-05
1.810279999999999973e+03	3.000000000000000076e-05
1.811590000000000146e+03	3.000000000000000076e-05
1.812910000000000082e+03	3.000000000000000076e-05
1.814220000000000027e+03	3.000000000000000076e-05
1.815539999999999964e+03	3.000000000000000076e-05
1.816859999999999900e+03	3.000000000000000076e-05
1.818179999999999836e+03	3.000000000000000076e-05
1.819509999999999991e+03	3.000000000000000076e-05
1.820829999999999927e+03	3.000000000000000076e-05
1.822160000000000082e+03	3.000000000000000076e-05
1.823490000000000009e+03	3.000000000000000076e-05
1.824820000000000164e+03	3.000000000000000076e-05
1.826149999999999864e+03	3.000000000000000076e-05
1.827490000000000009e+03	3.000000000000000076e-05
1.828819999999999936e+03	3.000000000000000076e-05
1.830160000000000082e+03	3.000000000000000076e-05
1.831500000000000000e+03	3.000000000000000076e-05
1.832839999999999918e+03	3.000000000000000076e-05
1.834190000000000055e+03	3.000000000000000076e-05
1.835539999999999964e+03	3.000000000000000076e-05
1.836880000000000109e+03	3.000000000000000076e-05
1.838240000000000009e+03	3.000000000000000076e-05
1.839590000000000146e+03	3.000000000000000076e-05
1.840940000000000055e+03	3.000000000000000076e-05
1.842299999999999955e+03	3.000000000000000076e-05
1.843660000000000082e+03	3.000000000000000076e-05
1.845020000000000209e+03	3.000000000000000076e-05
1.846379999999999882e+03	3.000000000000000076e-05
1.847750000000000000e+03	3.000000000000000076e-05
1.849110000000000127e+03	3.000000000000000076e-05
1.850479999999999791e+03	3.000000000000000076e-05
1.851849999999999909e+03	3.000000000000000076e-05
1.853220000000000027e+03	3.000000000000000076e-05
1.854600000000000136e+03	3.000000000000000076e-05
1.855980000000000018e+03	3.000000000000000076e-05
1.857359999999999900e+03	3.000000000000000076e-05
1.858740000000000009e+03	3.000000000000000076e-05
1.860119999999999891e+03	3.000000000000000076e-05
1.861500000000000000e+03	3.000000000000000076e-05
1.862889999999999873e+03	3.000000000000000076e-05
1.864279999999999973e+03	3.000000000000000076e-05
1.865669999999999845e+03	3.000000000000000076e-05
1.867059999999999945e+03	3.000000000000000076e-05
1.868460000000000036e+03	3.000000000000000076e-05
1.869860000000000127e+03	3.000000000000000076e-05
1.871259999999999991e+03	3.000000000000000076e-05
1.872660000000000082e+03	3.000000000000000076e-05
1.874059999999999945e+03	3.000000000000000076e-05
1.875470000000000027e+03	3.000000000000000076e-05
1.876880000000000109e+03	3.000000000000000076e-05
1.878289999999999964e+03	3.000000000000000076e-05
1.879699999999999818e+03	3.000000000000000076e-05
1.881110000000000127e+03	3.000000000000000076e-05
1.882529999999999973e+03	3.000000000000000076e-05
1.883950000000000045e+03	3.000000000000000076e-05
1.885369999999999891e+03	3.000000000000000076e-05
1.886789999999999964e+03	3.000000000000000076e-05
1.888220000000000027e+03	3.000000000000000076e-05
1.889639999999999873e+03	3.000000000000000076e-05
1.891069999999999936e+03	3.000000000000000076e-05
1.892509999999999991e+03	3.000000000000000076e-05
1.893940000000000055e+03	3.000000000000000076e-05
1.895380000000000109e+03	3.000000000000000076e-05
1.896810000000000173e+03	3.000000000000000076e-05
1.898250000000000000e+03	3.000000000000000076e-05
1.899700000000000045e+03	3.000000000000000076e-05
1.901140000000000100e+03	3.000000000000000076e-05
1.902589999999999918e+03	3.000000000000000076e-05
1.904039999999999964e+03	3.000000000000000076e-05
1.905490000000000009e+03	3.000000000000000076e-05
1.906940000000000055e+03	3.000000000000000076e-05
1.908400000000000091e+03	3.000000000000000076e-05
1.909850000000000136e+03	3.000000000000000076e-05
1.911310000000000173e+03	3.000000000000000076e-05
1.912779999999999973e+03	3.000000000000000076e-05
1.914240000000000009e+03	3.000000000000000076e-05
1.915710000000000036e+03	3.000000000000000076e-05
1.917180000000000064e+03	3.000000000000000076e-05
1.918649999999999864e+03	3.000000000000000076e-05
1.920120000000000118e+03	3.000000000000000076e-05
1.921599999999999909e+03	3.000000000000000076e-05
1.923079999999999927e+03	3.000000000000000076e-05
1.924559999999999945e+03	3.000000000000000076e-05
1.926039999999999964e+03	3.000000000000000076e-05
1.927529999999999973e+03	3.000000000000000076e-05
1.929009999999999991e+03	3.000000000000000076e-05
1.930500000000000000e+03	3.000000000000000076e-05
1.931990000000000009e+03	3.000000000000000076e-05
1.933490000000000009e+03	3.000000000000000076e-05
1.934980000000000018e+03	3.000000000000000076e-05
1.936480000000000018e+03	4.000000000000000327e-05
1.937980000000000018e+03	4.000000000000000327e-05
1.939490000000000009e+03	4.000000000000000327e-05
1.940990000000000009e+03	4.000000000000000327e-05
1.942500000000000000e+03	4.000000000000000327e-05
1.944009999999999991e+03	4.000000000000000327e-05
1.945529999999999973e+03	4.000000000000000327e-05
1.947040000000000191e+03	4.000000000000000327e-05
1.948560000000000173e+03	4.000000000000000327e-05
1.950079999999999927e+03	4.000000000000000327e-05
1.951599999999999909e+03	4.000000000000000327e-05
1.953130000000000109e+03	4.000000000000000327e-05
1.954650000000000091e+03	4.000000000000000327e-05
1.956180000000000064e+03	4.000000000000000327e-05
1.957710000000000036e+03	4.000000000000000327e-05
1.959250000000000000e+03	4.000000000000000327e-05
1.960779999999999973e+03	4.000000000000000327e-05
1.962320000000000164e+03	4.000000000000000327e-05
1.963859999999999900e+03	4.000000000000000327e-05
1.965410000000000082e+03	4.000000000000000327e-05
1.966960000000000036e+03	4.000000000000000327e-05
1.968500000000000000e+03	4.000000000000000327e-05
1.970059999999999945e+03	4.000000000000000327e-05
1.971610000000000127e+03	4.000000000000000327e-05
1.973160000000000082e+03	4.000000000000000327e-05
1.974720000000000027e+03	4.000000000000000327e-05
1.976279999999999973e+03	4.000000000000000327e-05
1.977850000000000136e+03	4.000000000000000327e-05
1.979409999999999854e+03	4.000000000000000327e-05
1.980980000000000018e+03	4.000000000000000327e-05
1.982549999999999955e+03	4.000000000000000327e-05
1.984129999999999882e+03	4.000000000000000327e-05
1.985700000000000045e+03	4.000000000000000327e-05
1.987279999999999973e+03	4.000000000000000327e-05
1.988860000000000127e+03	4.000000000000000327e-05
1.990450000000000045e+03	4.000000000000000327e-05
1.992029999999999973e+03	4.000000000000000327e-05
1.993619999999999891e+03	4.000000000000000327e-05
1.995210000000000036e+03	4.000000000000000327e-05
1.996809999999999945e+03	4.000000000000000327e-05
1.998399999999999864e+03	4.000000000000000327e-05
2.000000000000000000e+03	4.000000000000000327e-05
2.001599999999999909e+03	4.000000000000000327e-05
2.003210000000000264e+03	4.000000000000000327e-05
2.004809999999999945e+03	4.000000000000000327e-05
2.006419999999999845e+03	4.000000000000000327e-05
2.008030000000000200e+03	4.000000000000000327e-05
2.009650000000000091e+03	4.000000000000000327e-05
2.011259999999999991e+03	4.000000000000000327e-05
2.012880000000000109e+03	4.000000000000000327e-05
2.014500000000000000e+03	4.000000000000000327e-05
2.016129999999999882e+03	4.000000000000000327e-05
2.017759999999999991e+03	4.000000000000000327e-05
2.019390000000000100e+03	4.000000000000000327e-05
2.021019999999999982e+03	4.000000000000000327e-05
2.022650000000000091e+03	4.000000000000000327e-05
2.024290000000000191e+03	4.000000000000000327e-05
2.025929999999999836e+03	4.000000000000000327e-05
2.027579999999999927e+03	4.000000000000000327e-05
2.029220000000000027e+03	4.000000000000000327e-05
2.030870000000000118e+03	4.000000000000000327e-05
2.032519999999999982e+03	4.000000000000000327e-05
2.034170000000000073e+03	4.000000000000000327e-05
2.035829999999999700e+03	4.000000000000000327e-05
2.037490000000000009e+03	4.000000000000000327e-05
2.039149999999999864e+03	4.000000000000000327e-05
2.040820000000000164e+03	4.000000000000000327e-05
2.042479999999999791e+03	4.000000000000000327e-05
2.044150000000000091e+03	4.000000000000000327e-05
2.045829999999999927e+03	4.000000000000000327e-05
2.047499999999999773e+03	4.000000000000000327e-05
2.049179999999999836e+03	4.000000000000000327e-05
2.050860000000000127e+03	4.000000000000000327e-05
2.052550000000000182e+03	4.000000000000000327e-05
2.054230000000000018e+03	4.000000000000000327e-05
2.055920000000000073e+03	4.000000000000000327e-05
2.057610000000000127e+03	4.000000000000000327e-05
2.059309999999999945e+03	4.000000000000000327e-05
2.061010000000000218e+03	4.000000000000000327e-05
2.062710000000000036e+03	4.000000000000000327e-05
2.064409999999999854e+03	4.000000000000000327e-05
2.066120000000000346e+03	4.000000000000000327e-05
2.067820000000000164e+03	4.000000000000000327e-05
2.069539999999999964e+03	4.000000000000000327e-05
2.071250000000000000e+03	4.000000000000000327e-05
2.072970000000000255e+03	4.000000000000000327e-05
2.074690000000000055e+03	4.000000000000000327e-05
2.076410000000000309e+03	4.000000000000000327e-05
2.078139999999999873e+03	4.000000000000000327e-05
2.079869999999999891e+03	4.000000000000000327e-05
2.081599999999999909e+03	4.000000000000000327e-05
2.083329999999999927e+03	4.000000000000000327e-05
2.085070000000000164e+03	4.000000000000000327e-05
2.086809999999999945e+03	4.000000000000000327e-05
2.088550000000000182e+03	4.000000000000000327e-05
2.090300000000000182e+03	4.000000000000000327e-05
2.092050000000000182e+03	4.000000000000000327e-05
2.093799999999999727e+03	4.000000000000000327e-05
2.095559999999999945e+03	4.000000000000000327e-05
2.097319999999999709e+03	4.000000000000000327e-05
2.099079999999999927e+03	4.000000000000000327e-05
2.100839999999999691e+03	4.000000000000000327e-05
2.102609999999999673e+03	5.000000000000000240e-05
2.104380000000000109e+03	5.000000000000000240e-05
2.106150000000000091e+03	5.000000000000000240e-05
2.107930000000000291e+03	5.000000000000000240e-05
2.109700000000000273e+03	5.000000000000000240e-05
2.111489999999999782e+03	5.000000000000000240e-05
2.113269999999999982e+03	5.000000000000000240e-05
2.115059999999999945e+03	5.000000000000000240e-05
2.116849999999999909e+03	5.000000000000000240e-05
2.118639999999999873e+03	5.000000000000000240e-05
2.120440000000000055e+03	5.000000000000000240e-05
2.122240000000000236e+03	5.000000000000000240e-05
2.124039999999999964e+03	5.000000000000000240e-05
2.125849999999999909e+03	5.000000000000000240e-05
2.127660000000000309e+03	5.000000000000000240e-05
2.129469999999999800e+03	5.000000000000000240e-05
2.131289999999999964e+03	5.000000000000000240e-05
2.133109999999999673e+03	5.000000000000000240e-05
2.134930000000000291e+03	5.000000000000000240e-05
2.136750000000000000e+03	5.000000000000000240e-05
2.138579999999999927e+03	5.000000000000000240e-05
2.140410000000000309e+03	5.000000000000000240e-05
2.142250000000000000e+03	5.000000000000000240e-05
2.144080000000000382e+03	5.000000000000000240e-05
2.145919999999999618e+03	5.000000000000000240e-05
2.147769999999999982e+03	5.000000000000000240e-05
2.149610000000000127e+03	5.000000000000000240e-05
2.151460000000000036e+03	5.000000000000000240e-05
2.153319999999999709e+03	5.000000000000000240e-05
2.155170000000000073e+03	5.000000000000000240e-05
2.157029999999999745e+03	5.000000000000000240e-05
2.158889999999999873e+03	5.000000000000000240e-05
2.160759999999999764e+03	5.000000000000000240e-05
2.162630000000000109e+03	5.000000000000000240e-05
2.164500000000000000e+03	5.000000000000000240e-05
2.166380000000000109e+03	5.000000000000000240e-05
2.168260000000000218e+03	5.000000000000000240e-05
2.170139999999999873e+03	5.000000000000000240e-05
2.172019999999999982e+03	5.000000000000000240e-05
2.173909999999999854e+03	5.000000000000000240e-05
2.175809999999999945e+03	5.000000000000000240e-05
2.177700000000000273e+03	5.000000000000000240e-05
2.179600000000000364e+03	5.000000000000000240e-05
2.181500000000000000e+03	5.000000000000000240e-05
2.183409999999999854e+03	5.000000000000000240e-05
2.185309999999999945e+03	5.000000000000000240e-05
2.187230000000000018e+03	5.000000000000000240e-05
2.189139999999999873e+03	5.000000000000000240e-05
2.191059999999999945e+03	5.000000000000000240e-05
2.192980000000000018e+03	5.000000000000000240e-05
2.194910000000000309e+03	5.000000000000000240e-05
2.196839999999999691e+03	5.000000000000000240e-05
2.198769999999999982e+03	5.000000000000000240e-05
2.200699999999999818e+03	5.000000000000000240e-05
2.202640000000000327e+03	5.000000000000000240e-05
2.204590000000000146e+03	5.000000000000000240e-05
2.206529999999999745e+03	5.000000000000000240e-05
2.208480000000000018e+03	5.000000000000000240e-05
2.210430000000000291e+03	5.000000000000000240e-05
2.212389999999999873e+03	5.000000000000000240e-05
2.214349999999999909e+03	5.000000000000000240e-05
2.216309999999999945e+03	5.000000000000000240e-05
2.218280000000000200e+03	5.000000000000000240e-05
2.220250000000000000e+03	5.000000000000000240e-05
2.222220000000000255e+03	5.000000000000000240e-05
2.224200000000000273e+03	5.000000000000000240e-05
2.226179999999999836e+03	5.000000000000000240e-05
2.228159999999999854e+03	5.000000000000000240e-05
2.230150000000000091e+03	5.000000000000000240e-05
2.232139999999999873e+03	5.000000000000000240e-05
2.234139999999999873e+03	5.000000000000000240e-05
2.236139999999999873e+03	5.000000000000000240e-05
2.238139999999999873e+03	5.000000000000000240e-05
2.240139999999999873e+03	5.000000000000000240e-05
2.242150000000000091e+03	5.000000000000000240e-05
2.244170000000000073e+03	6.000000000000000152e-05
2.246179999999999836e+03	6.000000000000000152e-05
2.248200000000000273e+03	6.000000000000000152e-05
2.250230000000000018e+03	6.000000000000000152e-05
2.252250000000000000e+03	6.000000000000000152e-05
2.254280000000000200e+03	6.000000000000000152e-05
2.256320000000000164e+03	6.000000000000000152e-05
2.258360000000000127e+03	6.000000000000000152e-05
2.260400000000000091e+03	6.000000000000000152e-05
2.262439999999999600e+03	6.000000000000000152e-05
2.264489999999999782e+03	6.000000000000000152e-05
2.266550000000000182e+03	6.000000000000000152e-05
2.268600000000000364e+03	6.000000000000000152e-05
2.270659999999999854e+03	6.000000000000000152e-05
2.272730000000000018e+03	6.000000000000000152e-05
2.274799999999999727e+03	6.000000000000000152e-05
2.276870000000000346e+03	6.000000000000000152e-05
2.278940000000000055e+03	6.000000000000000152e-05
2.281019999999999982e+03	6.000000000000000152e-05
2.283110000000000127e+03	6.000000000000000152e-05
2.285190000000000055e+03	6.000000000000000152e-05
2.287280000000000200e+03	6.000000000000000152e-05
2.289380000000000109e+03	6.000000000000000152e-05
2.291480000000000018e+03	6.000000000000000152e-05
2.293579999999999927e+03	6.000000000000000152e-05
2.295679999999999836e+03	6.000000000000000152e-05
2.297789999999999964e+03	6.000000000000000152e-05
2.299910000000000309e+03	6.000000000000000152e-05
2.302029999999999745e+03	6.000000000000000152e-05
2.304150000000000091e+03	6.000000000000000152e-05
2.306269999999999982e+03	6.000000000000000152e-05
2.308399999999999636e+03	6.000000000000000152e-05
2.310539999999999964e+03	6.000000000000000152e-05
2.312669999999999618e+03	6.000000000000000152e-05
2.314809999999999945e+03	6.000000000000000152e-05
2.316960000000000036e+03	6.000000000000000152e-05
2.319109999999999673e+03	6.000000000000000152e-05
2.321260000000000218e+03	6.000000000000000152e-05
2.323420000000000073e+03	6.000000000000000152e-05
2.325579999999999927e+03	6.000000000000000152e-05
2.327750000000000000e+03	6.000000000000000152e-05
2.329920000000000073e+03	6.000000000000000152e-05
2.332090000000000146e+03	6.000000000000000152e-05
2.334269999999999982e+03	6.000000000000000152e-05
2.336450000000000273e+03	6.000000000000000152e-05
2.338630000000000109e+03	6.000000000000000152e-05
2.340819999999999709e+03	6.000000000000000152e-05
2.343019999999999982e+03	6.000000000000000152e-05
2.345219999999999800e+03	6.000000000000000152e-05
2.347420000000000073e+03	6.000000000000000152e-05
2.349619999999999891e+03	6.000000000000000152e-05
2.351829999999999927e+03	6.000000000000000152e-05
2.354050000000000182e+03	6.000000000000000152e-05
2.356269999999999982e+03	6.000000000000000152e-05
2.358490000000000236e+03	6.000000000000000152e-05
2.360720000000000255e+03	6.000000000000000152e-05
2.362950000000000273e+03	6.000000000000000152e-05
2.365179999999999836e+03	6.000000000000000152e-05
2.367420000000000073e+03	6.000000000000000152e-05
2.369670000000000073e+03	6.999999999999999387e-05
2.371919999999999618e+03	6.999999999999999387e-05
2.374170000000000073e+03	6.999999999999999387e-05
2.376429999999999836e+03	6.999999999999999387e-05
2.378690000000000055e+03	6.999999999999999387e-05
2.380949999999999818e+03	6.999999999999999387e-05
2.383220000000000255e+03	6.999999999999999387e-05
2.385500000000000000e+03	6.999999999999999387e-05
2.387769999999999982e+03	6.999999999999999387e-05
2.390059999999999945e+03	6.999999999999999387e-05
2.392339999999999691e+03	6.999999999999999387e-05
2.394639999999999873e+03	6.999999999999999387e-05
2.396929999999999836e+03	6.999999999999999387e-05
2.399230000000000018e+03	6.999999999999999387e-05
2.401539999999999964e+03	6.999999999999999387e-05
2.403849999999999909e+03	6.999999999999999387e-05
2.406159999999999854e+03	6.999999999999999387e-05
2.408480000000000018e+03	6.999999999999999387e-05
2.410800000000000182e+03	6.999999999999999387e-05
2.413130000000000109e+03	6.999999999999999387e-05
2.415460000000000036e+03	6.999999999999999387e-05
2.417789999999999964e+03	6.999999999999999387e-05
2.420139999999999873e+03	6.999999999999999387e-05
2.422480000000000018e+03	6.999999999999999387e-05
2.424829999999999927e+03	6.999999999999999387e-05
2.427179999999999836e+03	6.999999999999999387e-05
2.429539999999999964e+03	6.999999999999999387e-05
2.431909999999999854e+03	6.999999999999999387e-05
2.434269999999999982e+03	6.999999999999999387e-05
2.436650000000000091e+03	6.999999999999999387e-05
2.439019999999999982e+03	6.999999999999999387e-05
2.441409999999999854e+03	6.999999999999999387e-05
2.443789999999999964e+03	6.999999999999999387e-05
2.446179999999999836e+03	6.999999999999999387e-05
2.448580000000000382e+03	6.999999999999999387e-05
2.450980000000000018e+03	6.999999999999999387e-05
2.453390000000000327e+03	6.999999999999999387e-05
2.455800000000000182e+03	6.999999999999999387e-05
2.458209999999999582e+03	6.999999999999999387e-05
2.460630000000000109e+03	6.999999999999999387e-05
2.463050000000000182e+03	6.999999999999999387e-05
2.465480000000000018e+03	6.999999999999999387e-05
2.467920000000000073e+03	6.999999999999999387e-05
2.470359999999999673e+03	6.999999999999999387e-05
2.472799999999999727e+03	6.999999999999999387e-05
2.475250000000000000e+03	6.999999999999999387e-05
2.477699999999999818e+03	6.999999999999999387e-05
2.480160000000000309e+03	8.000000000000000654e-05
2.482619999999999891e+03	8.000000000000000654e-05
2.485090000000000146e+03	8.000000000000000654e-05
2.487560000000000400e+03	8.000000000000000654e-05
2.490039999999999964e+03	8.000000000000000654e-05
2.492519999999999982e+03	8.000000000000000654e-05
2.495010000000000218e+03	8.000000000000000654e-05
2.497500000000000000e+03	8.000000000000000654e-05
2.500000000000000000e+03	8.000000000000000654e-05
2.502500000000000000e+03	8.000000000000000654e-05
2.505009999999999764e+03	8.000000000000000654e-05
2.507519999999999982e+03	8.000000000000000654e-05
2.510039999999999964e+03	8.000000000000000654e-05
2.512559999999999945e+03	8.000000000000000654e-05
2.515089999999999691e+03	8.000000000000000654e-05
2.517619999999999891e+03	8.000000000000000654e-05
2.520160000000000309e+03	8.000000000000000654e-05
2.522699999999999818e+03	8.000000000000000654e-05
2.525250000000000000e+03	8.000000000000000654e-05
2.527809999999999945e+03	8.000000000000000654e-05
2.530360000000000127e+03	8.000000000000000654e-05
2.532929999999999836e+03	8.000000000000000654e-05
2.535500000000000000e+03	8.000000000000000654e-05
2.538069999999999709e+03	8.000000000000000654e-05
2.540649999999999636e+03	8.000000000000000654e-05
2.543230000000000018e+03	8.000000000000000654e-05
2.545820000000000164e+03	8.000000000000000654e-05
2.548420000000000073e+03	8.000000000000000654e-05
2.551019999999999982e+03	8.000000000000000654e-05
2.553630000000000109e+03	8.000000000000000654e-05
2.556239999999999782e+03	8.000000000000000654e-05
2.558849999999999909e+03	8.000000000000000654e-05
2.561480000000000018e+03	8.000000000000000654e-05
2.564099999999999909e+03	8.000000000000000654e-05
2.566739999999999782e+03	8.000000000000000654e-05
2.569370000000000346e+03	8.000000000000000654e-05
2.572019999999999982e+03	8.000000000000000654e-05
2.574669999999999618e+03	8.000000000000000654e-05
2.577319999999999709e+03	8.000000000000000654e-05
2.579980000000000018e+03	8.000000000000000654e-05
2.582639999999999873e+03	9.000000000000000567e-05
2.585319999999999709e+03	9.000000000000000567e-05
2.587990000000000236e+03	9.000000000000000567e-05
2.590669999999999618e+03	9.000000000000000567e-05
2.593360000000000127e+03	9.000000000000000567e-05
2.596050000000000182e+03	9.000000000000000567e-05
2.598750000000000000e+03	9.000000000000000567e-05
2.601460000000000036e+03	9.000000000000000567e-05
2.604170000000000073e+03	9.000000000000000567e-05
2.606879999999999654e+03	9.000000000000000567e-05
2.609599999999999909e+03	9.000000000000000567e-05
2.612329999999999927e+03	9.000000000000000567e-05
2.615059999999999945e+03	9.000000000000000567e-05
2.617799999999999727e+03	9.000000000000000567e-05
2.620550000000000182e+03	9.000000000000000567e-05
2.623289999999999964e+03	9.000000000000000567e-05
2.626050000000000182e+03	9.000000000000000567e-05
2.628809999999999945e+03	9.000000000000000567e-05
2.631579999999999927e+03	9.000000000000000567e-05
2.634349999999999909e+03	9.000000000000000567e-05
2.637130000000000109e+03	9.000000000000000567e-05
2.639920000000000073e+03	9.000000000000000567e-05
2.642710000000000036e+03	9.000000000000000567e-05
2.645500000000000000e+03	9.000000000000000567e-05
2.648309999999999945e+03	9.000000000000000567e-05
2.651110000000000127e+03	9.000000000000000567e-05
2.653929999999999836e+03	9.000000000000000567e-05
2.656750000000000000e+03	9.000000000000000567e-05
2.659570000000000164e+03	9.000000000000000567e-05
2.662409999999999854e+03	9.000000000000000567e-05
2.665250000000000000e+03	9.000000000000000567e-05
2.668089999999999691e+03	9.000000000000000567e-05
2.670940000000000055e+03	9.000000000000000567e-05
2.673800000000000182e+03	9.000000000000000567e-05
2.676659999999999854e+03	1.000000000000000048e-04
2.679530000000000200e+03	1.000000000000000048e-04
2.682400000000000091e+03	1.000000000000000048e-04
2.685280000000000200e+03	1.000000000000000048e-04
2.688170000000000073e+03	1.000000000000000048e-04
2.691069999999999709e+03	1.000000000000000048e-04
2.693970000000000255e+03	1.000000000000000048e-04
2.696869999999999891e+03	1.000000000000000048e-04
2.699780000000000200e+03	1.000000000000000048e-04
2.702700000000000273e+03	1.000000000000000048e-04
2.705630000000000109e+03	1.000000000000000048e-04
2.708559999999999945e+03	1.000000000000000048e-04
2.711500000000000000e+03	1.000000000000000048e-04
2.714440000000000055e+03	1.000000000000000048e-04
2.717389999999999873e+03	1.000000000000000048e-04
2.720349999999999909e+03	1.000000000000000048e-04
2.723309999999999945e+03	1.000000000000000048e-04
2.726280000000000200e+03	1.000000000000000048e-04
2.729260000000000218e+03	1.000000000000000048e-04
2.732239999999999782e+03	1.000000000000000048e-04
2.735230000000000018e+03	1.000000000000000048e-04
2.738230000000000018e+03	1.000000000000000048e-04
2.741230000000000018e+03	1.000000000000000048e-04
2.744240000000000236e+03	1.000000000000000048e-04
2.747250000000000000e+03	1.000000000000000048e-04
2.750280000000000200e+03	1.000000000000000048e-04
2.753299999999999727e+03	1.000000000000000048e-04
2.756339999999999691e+03	1.000000000000000048e-04
2.759380000000000109e+03	1.000000000000000048e-04
2.762430000000000291e+03	1.000000000000000048e-04
2.765489999999999782e+03	1.100000000000000039e-04
2.768549999999999727e+03	1.100000000000000039e-04
2.771619999999999891e+03	1.100000000000000039e-04
2.774690000000000055e+03	1.100000000000000039e-04
2.777779999999999745e+03	1.100000000000000039e-04
2.780870000000000346e+03	1.100000000000000039e-04
2.783960000000000036e+03	1.100000000000000039e-04
2.787069999999999709e+03	1.100000000000000039e-04
2.790179999999999836e+03	1.100000000000000039e-04
2.793299999999999727e+03	1.100000000000000039e-04
2.796420000000000073e+03	1.100000000000000039e-04
2.799550000000000182e+03	1.100000000000000039e-04
2.802690000000000055e+03	1.100000000000000039e-04
2.805839999999999691e+03	1.100000000000000039e-04
2.808990000000000236e+03	1.100000000000000039e-04
2.812150000000000091e+03	1.100000000000000039e-04
2.815319999999999709e+03	1.100000000000000039e-04
2.818490000000000236e+03	1.100000000000000039e-04
2.821670000000000073e+03	1.100000000000000039e-04
2.824860000000000127e+03	1.100000000000000039e-04
2.828050000000000182e+03	1.100000000000000039e-04
2.831259999999999764e+03	1.100000000000000039e-04
2.834470000000000255e+03	1.100000000000000039e-04
2.837680000000000291e+03	1.100000000000000039e-04
2.840909999999999854e+03	1.100000000000000039e-04
2.844139999999999873e+03	1.200000000000000030e-04
2.847379999999999654e+03	1.200000000000000030e-04
2.850630000000000109e+03	1.200000000000000030e-04
2.853880000000000109e+03	1.200000000000000030e-04
2.857139999999999873e+03	1.200000000000000030e-04
2.860409999999999854e+03	1.200000000000000030e-04
2.863690000000000055e+03	1.200000000000000030e-04
2.866969999999999800e+03	1.200000000000000030e-04
2.870260000000000218e+03	1.200000000000000030e-04
2.873559999999999945e+03	1.200000000000000030e-04
2.876869999999999891e+03	1.200000000000000030e-04
2.880180000000000291e+03	1.200000000000000030e-04
2.883509999999999764e+03	1.200000000000000030e-04
2.886839999999999691e+03	1.200000000000000030e-04
2.890170000000000073e+03	1.200000000000000030e-04
2.893519999999999982e+03	1.200000000000000030e-04
2.896869999999999891e+03	1.200000000000000030e-04
2.900230000000000018e+03	1.200000000000000030e-04
2.903599999999999909e+03	1.200000000000000030e-04
2.906980000000000018e+03	1.200000000000000030e-04
2.910359999999999673e+03	1.200000000000000030e-04
2.913750000000000000e+03	1.200000000000000030e-04
2.917150000000000091e+03	1.200000000000000030e-04
2.920559999999999945e+03	1.299999999999999886e-04
2.923980000000000018e+03	1.299999999999999886e-04
2.927400000000000091e+03	1.299999999999999886e-04
2.930829999999999927e+03	1.299999999999999886e-04
2.934269999999999982e+03	1.299999999999999886e-04
2.937720000000000255e+03	1.299999999999999886e-04
2.941180000000000291e+03	1.299999999999999886e-04
2.944640000000000327e+03	1.299999999999999886e-04
2.948109999999999673e+03	1.299999999999999886e-04
2.951590000000000146e+03	1.299999999999999886e-04
2.955079999999999927e+03	1.299999999999999886e-04
2.958579999999999927e+03	1.299999999999999886e-04
2.962089999999999691e+03	1.299999999999999886e-04
2.965599999999999909e+03	1.299999999999999886e-04
2.969120000000000346e+03	1.299999999999999886e-04
2.972649999999999636e+03	1.299999999999999886e-04
2.976190000000000055e+03	1.299999999999999886e-04
2.979740000000000236e+03	1.299999999999999886e-04
2.983290000000000418e+03	1.299999999999999886e-04
2.986860000000000127e+03	1.299999999999999886e-04
2.990429999999999836e+03	1.299999999999999886e-04
2.994009999999999764e+03	1.399999999999999877e-04
2.997599999999999909e+03	1.399999999999999877e-04
3.001199999999999818e+03	1.399999999999999877e-04
3.004809999999999945e+03	1.399999999999999877e-04
3.008420000000000073e+03	1.399999999999999877e-04
3.012049999999999727e+03	1.399999999999999877e-04
3.015680000000000291e+03	1.399999999999999877e-04
3.019320000000000164e+03	1.399999999999999877e-04
3.022969999999999800e+03	1.399999999999999877e-04
3.026630000000000109e+03	1.399999999999999877e-04
3.030300000000000182e+03	1.399999999999999877e-04
3.033980000000000018e+03	1.399999999999999877e-04
3.037670000000000073e+03	1.399999999999999877e-04
3.041360000000000127e+03	1.399999999999999877e-04
3.045070000000000164e+03	1.399999999999999877e-04
3.048779999999999745e+03	1.399999999999999877e-04
3.052500000000000000e+03	1.399999999999999877e-04
3.056229999999999563e+03	1.399999999999999877e-04
3.059980000000000018e+03	1.399999999999999877e-04
3.063730000000000018e+03	1.499999999999999869e-04
3.067480000000000018e+03	1.499999999999999869e-04
3.071250000000000000e+03	1.499999999999999869e-04
3.075029999999999745e+03	1.499999999999999869e-04
3.078819999999999709e+03	1.499999999999999869e-04
3.082609999999999673e+03	1.499999999999999869e-04
3.086420000000000073e+03	1.499999999999999869e-04
3.090230000000000018e+03	1.499999999999999869e-04
3.094059999999999945e+03	1.499999999999999869e-04
3.097889999999999873e+03	1.499999999999999869e-04
3.101739999999999782e+03	1.499999999999999869e-04
3.105589999999999691e+03	1.499999999999999869e-04
3.109449999999999818e+03	1.499999999999999869e-04
3.113329999999999927e+03	1.499999999999999869e-04
3.117210000000000036e+03	1.499999999999999869e-04
3.121100000000000364e+03	1.499999999999999869e-04
3.125000000000000000e+03	1.499999999999999869e-04
3.128909999999999854e+03	1.600000000000000131e-04
3.132829999999999927e+03	1.600000000000000131e-04
3.136760000000000218e+03	1.600000000000000131e-04
3.140699999999999818e+03	1.600000000000000131e-04
3.144650000000000091e+03	1.600000000000000131e-04
3.148610000000000127e+03	1.600000000000000131e-04
3.152590000000000146e+03	1.600000000000000131e-04
3.156569999999999709e+03	1.600000000000000131e-04
3.160559999999999945e+03	1.600000000000000131e-04
3.164559999999999945e+03	1.600000000000000131e-04
3.168569999999999709e+03	1.600000000000000131e-04
3.172590000000000146e+03	1.600000000000000131e-04
3.176620000000000346e+03	1.600000000000000131e-04
3.180659999999999854e+03	1.600000000000000131e-04
3.184710000000000036e+03	1.600000000000000131e-04
3.188779999999999745e+03	1.700000000000000122e-04
3.192849999999999909e+03	1.700000000000000122e-04
3.196929999999999836e+03	1.700000000000000122e-04
3.201019999999999982e+03	1.700000000000000122e-04
3.205130000000000109e+03	1.700000000000000122e-04
3.209239999999999782e+03	1.700000000000000122e-04
3.213369999999999891e+03	1.700000000000000122e-04
3.217500000000000000e+03	1.700000000000000122e-04
3.221650000000000091e+03	1.700000000000000122e-04
3.225809999999999945e+03	1.700000000000000122e-04
3.229969999999999800e+03	1.700000000000000122e-04
3.234150000000000091e+03	1.700000000000000122e-04
3.238340000000000146e+03	1.700000000000000122e-04
3.242539999999999964e+03	1.700000000000000122e-04
3.246750000000000000e+03	1.800000000000000113e-04
3.250980000000000018e+03	1.800000000000000113e-04
3.255210000000000036e+03	1.800000000000000113e-04
3.259450000000000273e+03	1.800000000000000113e-04
3.263710000000000036e+03	1.800000000000000113e-04
3.267970000000000255e+03	1.800000000000000113e-04
3.272250000000000000e+03	1.800000000000000113e-04
3.276539999999999964e+03	1.800000000000000113e-04
3.280840000000000146e+03	1.800000000000000113e-04
3.285149999999999636e+03	1.800000000000000113e-04
3.289470000000000255e+03	1.800000000000000113e-04
3.293809999999999945e+03	1.800000000000000113e-04
3.298150000000000091e+03	1.800000000000000113e-04
3.302509999999999764e+03	1.800000000000000113e-04
3.306880000000000109e+03	1.900000000000000105e-04
3.311259999999999764e+03	1.900000000000000105e-04
3.315650000000000091e+03	1.900000000000000105e-04
3.320050000000000182e+03	1.900000000000000105e-04
3.324469999999999800e+03	1.900000000000000105e-04
3.328889999999999873e+03	1.900000000000000105e-04
3.333329999999999927e+03	1.900000000000000105e-04
3.337779999999999745e+03	1.900000000000000105e-04
3.342250000000000000e+03	1.900000000000000105e-04
3.346719999999999800e+03	1.900000000000000105e-04
3.351210000000000036e+03	1.900000000000000105e-04
3.355700000000000273e+03	1.900000000000000105e-04
3.360219999999999800e+03	2.000000000000000096e-04
3.364739999999999782e+03	2.000000000000000096e-04
3.369270000000000437e+03	2.000000000000000096e-04
3.373819999999999709e+03	2.000000000000000096e-04
3.378380000000000109e+03	2.000000000000000096e-04
3.382950000000000273e+03	2.000000000000000096e-04
3.387529999999999745e+03	2.000000000000000096e-04
3.392129999999999654e+03	2.000000000000000096e-04
3.396739999999999782e+03	2.000000000000000096e-04
3.401360000000000127e+03	2.000000000000000096e-04
3.405990000000000236e+03	2.000000000000000096e-04
3.410639999999999873e+03	2.100000000000000087e-04
3.415299999999999727e+03	2.100000000000000087e-04
3.419970000000000255e+03	2.100000000000000087e-04
3.424659999999999854e+03	2.100000000000000087e-04
3.429360000000000127e+03	2.100000000000000087e-04
3.434070000000000164e+03	2.100000000000000087e-04
3.438789999999999964e+03	2.100000000000000087e-04
3.443530000000000200e+03	2.100000000000000087e-04
3.448280000000000200e+03	2.100000000000000087e-04
3.453039999999999964e+03	2.100000000000000087e-04
3.457809999999999945e+03	2.100000000000000087e-04
3.462599999999999909e+03	2.200000000000000078e-04
3.467410000000000309e+03	2.200000000000000078e-04
3.472220000000000255e+03	2.200000000000000078e-04
3.477050000000000182e+03	2.200000000000000078e-04
3.481889999999999873e+03	2.200000000000000078e-04
3.486750000000000000e+03	2.200000000000000078e-04
3.491620000000000346e+03	2.200000000000000078e-04
3.496500000000000000e+03	2.200000000000000078e-04
3.501399999999999636e+03	2.200000000000000078e-04
3.506309999999999945e+03	2.200000000000000078e-04
3.511239999999999782e+03	2.300000000000000070e-04
3.516169999999999618e+03	2.300000000000000070e-04
3.521129999999999654e+03	2.300000000000000070e-04
3.526090000000000146e+03	2.300000000000000070e-04
3.531070000000000164e+03	2.300000000000000070e-04
3.536070000000000164e+03	2.300000000000000070e-04
3.541079999999999927e+03	2.300000000000000070e-04
3.546099999999999909e+03	2.300000000000000070e-04
3.551140000000000327e+03	2.300000000000000070e-04
3.556190000000000055e+03	2.300000000000000070e-04
3.561250000000000000e+03	2.400000000000000061e-04
3.566329999999999927e+03	2.400000000000000061e-04
3.571429999999999836e+03	2.400000000000000061e-04
3.576539999999999964e+03	2.400000000000000061e-04
3.581659999999999854e+03	2.400000000000000061e-04
3.586800000000000182e+03	2.400000000000000061e-04
3.591950000000000273e+03	2.400000000000000061e-04
3.597119999999999891e+03	2.400000000000000061e-04
3.602309999999999945e+03	2.400000000000000061e-04
3.607500000000000000e+03	2.500000000000000052e-04
3.612719999999999800e+03	2.500000000000000052e-04
3.617949999999999818e+03	2.500000000000000052e-04
3.623190000000000055e+03	2.500000000000000052e-04
3.628449999999999818e+03	2.500000000000000052e-04
3.633719999999999800e+03	2.500000000000000052e-04
3.639009999999999764e+03	2.500000000000000052e-04
3.644309999999999945e+03	2.500000000000000052e-04
3.649640000000000327e+03	2.599999999999999772e-04
3.654970000000000255e+03	2.599999999999999772e-04
3.660320000000000164e+03	2.599999999999999772e-04
3.665690000000000055e+03	2.599999999999999772e-04
3.671069999999999709e+03	2.599999999999999772e-04
3.676470000000000255e+03	2.599999999999999772e-04
3.681890000000000327e+03	2.599999999999999772e-04
3.687320000000000164e+03	2.599999999999999772e-04
3.692759999999999764e+03	2.700000000000000035e-04
3.698220000000000255e+03	2.700000000000000035e-04
3.703699999999999818e+03	2.700000000000000035e-04
3.709200000000000273e+03	2.700000000000000035e-04
3.714710000000000036e+03	2.700000000000000035e-04
3.720239999999999782e+03	2.700000000000000035e-04
3.725779999999999745e+03	2.700000000000000035e-04
3.731339999999999691e+03	2.700000000000000035e-04
3.736920000000000073e+03	2.799999999999999755e-04
3.742509999999999764e+03	2.799999999999999755e-04
3.748130000000000109e+03	2.799999999999999755e-04
3.753750000000000000e+03	2.799999999999999755e-04
3.759399999999999636e+03	2.799999999999999755e-04
3.765059999999999945e+03	2.799999999999999755e-04
3.770739999999999782e+03	2.799999999999999755e-04
3.776440000000000055e+03	2.900000000000000017e-04
3.782150000000000091e+03	2.900000000000000017e-04
3.787880000000000109e+03	2.900000000000000017e-04
3.793629999999999654e+03	2.900000000000000017e-04
3.799389999999999873e+03	2.900000000000000017e-04
3.805179999999999836e+03	2.900000000000000017e-04
3.810980000000000018e+03	2.900000000000000017e-04
3.816789999999999964e+03	2.999999999999999737e-04
3.822630000000000109e+03	2.999999999999999737e-04
3.828480000000000018e+03	2.999999999999999737e-04
3.834360000000000127e+03	2.999999999999999737e-04
3.840250000000000000e+03	2.999999999999999737e-04
3.846150000000000091e+03	2.999999999999999737e-04
3.852079999999999927e+03	3.099999999999999999e-04
3.858019999999999982e+03	3.099999999999999999e-04
3.863989999999999782e+03	3.099999999999999999e-04
3.869969999999999800e+03	3.099999999999999999e-04
3.875970000000000255e+03	3.099999999999999999e-04
3.881990000000000236e+03	3.099999999999999999e-04
3.888019999999999982e+03	3.099999999999999999e-04
3.894080000000000382e+03	3.200000000000000262e-04
3.900159999999999854e+03	3.200000000000000262e-04
3.906250000000000000e+03	3.200000000000000262e-04
3.912360000000000127e+03	3.200000000000000262e-04
3.918500000000000000e+03	3.200000000000000262e-04
3.924650000000000091e+03	3.200000000000000262e-04
3.930820000000000164e+03	3.299999999999999982e-04
3.937009999999999764e+03	3.299999999999999982e-04
3.943220000000000255e+03	3.299999999999999982e-04
3.949450000000000273e+03	3.299999999999999982e-04
3.955700000000000273e+03	3.299999999999999982e-04
3.961969999999999800e+03	3.400000000000000244e-04
3.968250000000000000e+03	3.400000000000000244e-04
3.974559999999999945e+03	3.400000000000000244e-04
3.980889999999999873e+03	3.400000000000000244e-04
3.987239999999999782e+03	3.400000000000000244e-04
3.993609999999999673e+03	3.400000000000000244e-04
4.000000000000000000e+03	3.499999999999999964e-04
4.006409999999999854e+03	3.499999999999999964e-04
4.012839999999999691e+03	3.499999999999999964e-04
4.019289999999999964e+03	3.499999999999999964e-04
4.025760000000000218e+03	3.499999999999999964e-04
4.032259999999999764e+03	3.600000000000000227e-04
4.038770000000000437e+03	3.600000000000000227e-04
4.045309999999999945e+03	3.600000000000000227e-04
4.051859999999999673e+03	3.600000000000000227e-04
4.058440000000000055e+03	3.600000000000000227e-04
4.065039999999999964e+03	3.699999999999999947e-04
4.071659999999999400e+03	3.699999999999999947e-04
4.078299999999999727e+03	3.699999999999999947e-04
4.084970000000000255e+03	3.699999999999999947e-04
4.091649999999999636e+03	3.699999999999999947e-04
4.098359999999999673e+03	3.800000000000000209e-04
4.105089999999999236e+03	3.800000000000000209e-04
4.111840000000000146e+03	3.800000000000000209e-04
4.118619999999999891e+03	3.800000000000000209e-04
4.125409999999999854e+03	3.800000000000000209e-04
4.132229999999999563e+03	3.899999999999999929e-04
4.139070000000000618e+03	3.899999999999999929e-04
4.145940000000000509e+03	3.899999999999999929e-04
4.152820000000000618e+03	3.899999999999999929e-04
4.159729999999999563e+03	3.899999999999999929e-04
4.166670000000000073e+03	4.000000000000000192e-04
4.173619999999999891e+03	4.000000000000000192e-04
4.180600000000000364e+03	4.000000000000000192e-04
4.187599999999999454e+03	4.000000000000000192e-04
4.194630000000000109e+03	4.099999999999999912e-04
4.201679999999999382e+03	4.099999999999999912e-04
4.208750000000000000e+03	4.099999999999999912e-04
4.215849999999999454e+03	4.099999999999999912e-04
4.222970000000000255e+03	4.200000000000000174e-04
4.230119999999999891e+03	4.200000000000000174e-04
4.237289999999999964e+03	4.200000000000000174e-04
4.244480000000000473e+03	4.200000000000000174e-04
4.251699999999999818e+03	4.299999999999999894e-04
4.258939999999999600e+03	4.299999999999999894e-04
4.266210000000000036e+03	4.299999999999999894e-04
4.273500000000000000e+03	4.299999999999999894e-04
4.280820000000000618e+03	4.400000000000000157e-04
4.288160000000000764e+03	4.400000000000000157e-04
4.295530000000000655e+03	4.400000000000000157e-04
4.302930000000000291e+03	4.400000000000000157e-04
4.310340000000000146e+03	4.499999999999999877e-04
4.317789999999999964e+03	4.499999999999999877e-04
4.325260000000000218e+03	4.499999999999999877e-04
4.332760000000000218e+03	4.499999999999999877e-04
4.340279999999999745e+03	4.600000000000000139e-04
4.347829999999999927e+03	4.600000000000000139e-04
4.355400000000000546e+03	4.600000000000000139e-04
4.363000000000000000e+03	4.699999999999999859e-04
4.370630000000000109e+03	4.699999999999999859e-04
4.378279999999999745e+03	4.699999999999999859e-04
4.385960000000000036e+03	4.699999999999999859e-04
4.393670000000000073e+03	4.800000000000000122e-04
4.401409999999999854e+03	4.800000000000000122e-04
4.409169999999999163e+03	4.800000000000000122e-04
4.416960000000000036e+03	4.899999999999999842e-04
4.424779999999999745e+03	4.899999999999999842e-04
4.432619999999999891e+03	4.899999999999999842e-04
4.440500000000000000e+03	4.899999999999999842e-04
4.448400000000000546e+03	5.000000000000000104e-04
4.456329999999999927e+03	5.000000000000000104e-04
4.464289999999999964e+03	5.000000000000000104e-04
4.472269999999999527e+03	5.100000000000000366e-04
4.480289999999999964e+03	5.100000000000000366e-04
4.488329999999999927e+03	5.100000000000000366e-04
4.496400000000000546e+03	5.199999999999999544e-04
4.504500000000000000e+03	5.199999999999999544e-04
4.512640000000000327e+03	5.199999999999999544e-04
4.520800000000000182e+03	5.299999999999999807e-04
4.528990000000000691e+03	5.299999999999999807e-04
4.537210000000000036e+03	5.299999999999999807e-04
4.545449999999999818e+03	5.400000000000000069e-04
4.553729999999999563e+03	5.400000000000000069e-04
4.562039999999999964e+03	5.400000000000000069e-04
4.570380000000000109e+03	5.500000000000000331e-04
4.578750000000000000e+03	5.500000000000000331e-04
4.587159999999999854e+03	5.500000000000000331e-04
4.595589999999999236e+03	5.599999999999999509e-04
4.604050000000000182e+03	5.599999999999999509e-04
4.612549999999999272e+03	5.699999999999999772e-04
4.621069999999999709e+03	5.699999999999999772e-04
4.629630000000000109e+03	5.699999999999999772e-04
4.638219999999999345e+03	5.800000000000000034e-04
4.646840000000000146e+03	5.800000000000000034e-04
4.655490000000000691e+03	5.800000000000000034e-04
4.664180000000000291e+03	5.900000000000000296e-04
4.672900000000000546e+03	5.900000000000000296e-04
4.681650000000000546e+03	5.999999999999999474e-04
4.690430000000000291e+03	5.999999999999999474e-04
4.699250000000000000e+03	5.999999999999999474e-04
4.708100000000000364e+03	6.099999999999999737e-04
4.716980000000000473e+03	6.099999999999999737e-04
4.725900000000000546e+03	6.199999999999999999e-04
4.734849999999999454e+03	6.199999999999999999e-04
4.743829999999999927e+03	6.199999999999999999e-04
4.752849999999999454e+03	6.300000000000000261e-04
4.761899999999999636e+03	6.300000000000000261e-04
4.770990000000000691e+03	6.400000000000000524e-04
4.780109999999999673e+03	6.400000000000000524e-04
4.789270000000000437e+03	6.499999999999999702e-04
4.798460000000000036e+03	6.499999999999999702e-04
4.807689999999999600e+03	6.599999999999999964e-04
4.816960000000000036e+03	6.599999999999999964e-04
4.826250000000000000e+03	6.700000000000000226e-04
4.835590000000000146e+03	6.700000000000000226e-04
4.844960000000000036e+03	6.700000000000000226e-04
4.854369999999999891e+03	6.800000000000000488e-04
4.863810000000000400e+03	6.800000000000000488e-04
4.873289999999999964e+03	6.899999999999999667e-04
4.882810000000000400e+03	6.899999999999999667e-04
4.892369999999999891e+03	6.999999999999999929e-04
4.901960000000000036e+03	6.999999999999999929e-04
4.911590000000000146e+03	7.100000000000000191e-04
4.921260000000000218e+03	7.100000000000000191e-04
4.930970000000000255e+03	7.200000000000000453e-04
4.940710000000000036e+03	7.299999999999999632e-04
4.950500000000000000e+03	7.299999999999999632e-04
4.960320000000000618e+03	7.399999999999999894e-04
4.970180000000000291e+03	7.399999999999999894e-04
4.980079999999999927e+03	7.500000000000000156e-04
4.990020000000000437e+03	7.500000000000000156e-04
5.000000000000000000e+03	7.600000000000000418e-04
5.010019999999999527e+03	7.600000000000000418e-04
5.020079999999999927e+03	7.699999999999999597e-04
5.030179999999999382e+03	7.799999999999999859e-04
5.040320000000000618e+03	7.799999999999999859e-04
5.050510000000000218e+03	7.900000000000000121e-04
5.060730000000000473e+03	7.900000000000000121e-04
5.070989999999999782e+03	8.000000000000000383e-04
5.081299999999999272e+03	8.099999999999999561e-04
5.091649999999999636e+03	8.099999999999999561e-04
5.102039999999999964e+03	8.199999999999999824e-04
5.112470000000000255e+03	8.199999999999999824e-04
5.122950000000000728e+03	8.300000000000000086e-04
5.133470000000000255e+03	8.400000000000000348e-04
5.144029999999999745e+03	8.400000000000000348e-04
5.154639999999999418e+03	8.499999999999999526e-04
5.165289999999999964e+03	8.599999999999999789e-04
5.175980000000000473e+03	8.599999999999999789e-04
5.186720000000000255e+03	8.700000000000000051e-04
5.197510000000000218e+03	8.800000000000000313e-04
5.208329999999999927e+03	8.899999999999999491e-04
5.219210000000000036e+03	8.899999999999999491e-04
5.230130000000000109e+03	8.999999999999999754e-04
5.241090000000000146e+03	9.100000000000000016e-04
5.252100000000000364e+03	9.100000000000000016e-04
5.263159999999999854e+03	9.200000000000000278e-04
5.274260000000000218e+03	9.300000000000000541e-04
5.285409999999999854e+03	9.399999999999999719e-04
5.296610000000000582e+03	9.499999999999999981e-04
5.307859999999999673e+03	9.499999999999999981e-04
5.319149999999999636e+03	9.600000000000000243e-04
5.330489999999999782e+03	9.700000000000000505e-04
5.341880000000000109e+03	9.799999999999999684e-04
5.353319999999999709e+03	9.899999999999999946e-04
5.364810000000000400e+03	9.899999999999999946e-04
5.376340000000000146e+03	1.000000000000000021e-03
5.387930000000000291e+03	1.010000000000000047e-03
5.399569999999999709e+03	1.020000000000000073e-03
5.411260000000000218e+03	1.030000000000000100e-03
5.422990000000000691e+03	1.039999999999999909e-03
5.434779999999999745e+03	1.049999999999999935e-03
5.446619999999999891e+03	1.059999999999999961e-03
5.458520000000000437e+03	1.069999999999999988e-03
5.470460000000000036e+03	1.080000000000000014e-03
5.482460000000000036e+03	1.090000000000000040e-03
5.494510000000000218e+03	1.100000000000000066e-03
5.506610000000000582e+03	1.110000000000000092e-03
5.518760000000000218e+03	1.119999999999999902e-03
5.530970000000000255e+03	1.129999999999999928e-03
5.543239999999999782e+03	1.139999999999999954e-03
5.555559999999999491e+03	1.149999999999999981e-03
5.567929999999999382e+03	1.160000000000000007e-03
5.580359999999999673e+03	1.170000000000000033e-03
5.592840000000000146e+03	1.180000000000000059e-03
5.605380000000000109e+03	1.190000000000000085e-03
5.617980000000000473e+03	1.199999999999999895e-03
5.630630000000000109e+03	1.209999999999999921e-03
5.643340000000000146e+03	1.219999999999999947e-03
5.656109999999999673e+03	1.240000000000000000e-03
5.668929999999999382e+03	1.250000000000000026e-03
5.681819999999999709e+03	1.260000000000000052e-03
5.694759999999999309e+03	1.270000000000000078e-03
5.707760000000000218e+03	1.289999999999999914e-03
5.720819999999999709e+03	1.299999999999999940e-03
5.733939999999999600e+03	1.309999999999999967e-03
5.747130000000000109e+03	1.319999999999999993e-03
5.760369999999999891e+03	1.340000000000000045e-03
5.773670000000000073e+03	1.350000000000000071e-03
5.787039999999999964e+03	1.369999999999999907e-03
5.800460000000000036e+03	1.379999999999999933e-03
5.813949999999999818e+03	1.389999999999999960e-03
5.827510000000000218e+03	1.410000000000000012e-03
5.841119999999999891e+03	1.420000000000000038e-03
5.854800000000000182e+03	1.440000000000000091e-03
5.868539999999999964e+03	1.449999999999999900e-03
5.882349999999999454e+03	1.469999999999999953e-03
5.896230000000000473e+03	1.490000000000000005e-03
5.910170000000000073e+03	1.500000000000000031e-03
5.924170000000000073e+03	1.520000000000000084e-03
5.938240000000000691e+03	1.529999999999999893e-03
5.952380000000000109e+03	1.549999999999999946e-03
5.966590000000000146e+03	1.569999999999999998e-03
5.980859999999999673e+03	1.590000000000000050e-03
5.995199999999999818e+03	1.600000000000000077e-03
6.009619999999999891e+03	1.619999999999999912e-03
6.024099999999999454e+03	1.639999999999999965e-03
6.038649999999999636e+03	1.660000000000000017e-03
6.053270000000000437e+03	1.680000000000000070e-03
6.067960000000000036e+03	1.699999999999999905e-03
6.082729999999999563e+03	1.719999999999999958e-03
6.097559999999999491e+03	1.740000000000000010e-03
6.112470000000000255e+03	1.760000000000000063e-03
6.127449999999999818e+03	1.779999999999999898e-03
6.142509999999999309e+03	1.809999999999999977e-03
6.157639999999999418e+03	1.830000000000000029e-03
6.172840000000000146e+03	1.850000000000000082e-03
6.188119999999999891e+03	1.869999999999999917e-03
6.203470000000000255e+03	1.899999999999999996e-03
6.218909999999999854e+03	1.920000000000000049e-03
6.234409999999999854e+03	1.949999999999999910e-03
6.250000000000000000e+03	1.969999999999999963e-03
6.265659999999999854e+03	2.000000000000000042e-03
6.281409999999999854e+03	2.030000000000000120e-03
6.297229999999999563e+03	2.050000000000000173e-03
6.313130000000000109e+03	2.079999999999999818e-03
6.329109999999999673e+03	2.109999999999999896e-03
6.345180000000000291e+03	2.139999999999999975e-03
6.361319999999999709e+03	2.170000000000000054e-03
6.377550000000000182e+03	2.200000000000000133e-03
6.393859999999999673e+03	2.230000000000000211e-03
6.410260000000000218e+03	2.269999999999999882e-03
6.426739999999999782e+03	2.299999999999999961e-03
6.443300000000000182e+03	2.330000000000000040e-03
6.459949999999999818e+03	2.370000000000000145e-03
6.476680000000000291e+03	2.409999999999999816e-03
6.493509999999999309e+03	2.439999999999999895e-03
6.510420000000000073e+03	2.480000000000000000e-03
6.527420000000000073e+03	2.520000000000000104e-03
6.544500000000000000e+03	2.560000000000000209e-03
6.561680000000000291e+03	2.609999999999999907e-03
6.578949999999999818e+03	2.650000000000000012e-03
6.596309999999999491e+03	2.690000000000000117e-03
6.613760000000000218e+03	2.739999999999999814e-03
6.631300000000000182e+03	2.789999999999999945e-03
6.648939999999999600e+03	2.840000000000000076e-03
6.666670000000000073e+03	2.890000000000000208e-03
6.684490000000000691e+03	2.949999999999999931e-03
6.702410000000000764e+03	3.000000000000000062e-03
6.720430000000000291e+03	3.059999999999999786e-03
6.738540000000000873e+03	3.119999999999999944e-03
6.756760000000000218e+03	3.180000000000000101e-03
6.775070000000000618e+03	3.249999999999999851e-03
6.793479999999999563e+03	3.310000000000000008e-03
6.811989999999999782e+03	3.389999999999999784e-03
6.830599999999999454e+03	3.459999999999999968e-03
6.849319999999999709e+03	3.540000000000000178e-03
6.868130000000000109e+03	3.619999999999999954e-03
6.887050000000000182e+03	3.700000000000000164e-03
6.906079999999999927e+03	3.789999999999999966e-03
6.925210000000000036e+03	3.889999999999999795e-03
6.944440000000000509e+03	3.980000000000000031e-03
6.963789999999999964e+03	4.089999999999999886e-03
6.983240000000000691e+03	4.199999999999999740e-03
7.002799999999999272e+03	4.320000000000000055e-03
7.022470000000000255e+03	4.440000000000000370e-03
7.042250000000000000e+03	4.570000000000000277e-03
7.062149999999999636e+03	4.709999999999999777e-03
7.082150000000000546e+03	4.859999999999999737e-03
7.102269999999999527e+03	5.020000000000000157e-03
7.122510000000000218e+03	5.199999999999999761e-03
7.142859999999999673e+03	5.380000000000000233e-03
7.163319999999999709e+03	5.579999999999999891e-03
7.183909999999999854e+03	5.799999999999999600e-03
7.204609999999999673e+03	6.029999999999999770e-03
7.225430000000000291e+03	6.289999999999999584e-03
7.246380000000000109e+03	6.570000000000000319e-03
7.267439999999999600e+03	6.879999999999999831e-03
7.288630000000000109e+03	7.219999999999999855e-03
7.309940000000000509e+03	7.590000000000000392e-03
7.331380000000000109e+03	8.000000000000000167e-03
7.352940000000000509e+03	8.460000000000000506e-03
7.374630000000000109e+03	8.980000000000000135e-03
7.396449999999999818e+03	9.560000000000000789e-03
7.418400000000000546e+03	1.021999999999999992e-02
7.440479999999999563e+03	1.095999999999999926e-02
7.462690000000000509e+03	1.180999999999999932e-02
7.485029999999999745e+03	1.277999999999999969e-02
7.507510000000000218e+03	1.389999999999999916e-02
7.530119999999999891e+03	1.519999999999999997e-02
7.552870000000000800e+03	1.671999999999999875e-02
7.575760000000000218e+03	1.848999999999999949e-02
7.598779999999999745e+03	2.058000000000000107e-02
7.621949999999999818e+03	2.307000000000000023e-02
7.645260000000000218e+03	2.603000000000000105e-02
7.668710000000000036e+03	2.959000000000000172e-02
7.692310000000000400e+03	3.388000000000000039e-02
7.716050000000000182e+03	3.907999999999999668e-02
7.739939999999999600e+03	4.542999999999999816e-02
7.763980000000000473e+03	5.319000000000000117e-02
7.788160000000000764e+03	6.271999999999999797e-02
7.812500000000000000e+03	7.442999999999999616e-02
7.836989999999999782e+03	8.881000000000000005e-02
7.861640000000000327e+03	1.063899999999999985e-01
7.886440000000000509e+03	1.277000000000000079e-01
7.911390000000000327e+03	1.531500000000000083e-01
7.936510000000000218e+03	1.828899999999999970e-01
7.961779999999999745e+03	2.165799999999999947e-01
7.987219999999999345e+03	2.534000000000000141e-01
8.012819999999999709e+03	2.921199999999999908e-01
8.038589999999999236e+03	3.315299999999999914e-01
8.064519999999999527e+03	3.707199999999999940e-01
8.090609999999999673e+03	4.092399999999999927e-01
8.116880000000000109e+03	4.469899999999999984e-01
8.143319999999998799e+03	4.840300000000000158e-01
8.169930000000001201e+03	5.203299999999999592e-01
8.196719999999999345e+03	5.556299999999999573e-01
8.223680000000000291e+03	5.894599999999999840e-01
8.250829999999999927e+03	6.211999999999999744e-01
8.278149999999999636e+03	6.502400000000000402e-01
8.305649999999999636e+03	6.762799999999999923e-01
8.333329999999999927e+03	6.994500000000000162e-01
8.361200000000000728e+03	7.203800000000000203e-01
8.389260000000000218e+03	7.400600000000000511e-01
8.417510000000000218e+03	7.595800000000000329e-01
8.445950000000000728e+03	7.798000000000000487e-01
8.474579999999999927e+03	8.010699999999999488e-01
8.503399999999999636e+03	8.230600000000000138e-01
8.532420000000000073e+03	8.450400000000000134e-01
8.561640000000001237e+03	8.667099999999999804e-01
8.591069999999999709e+03	8.891299999999999759e-01
8.620690000000000509e+03	9.146600000000000286e-01
8.650520000000000437e+03	9.454700000000000326e-01
8.680559999999999491e+03	9.826000000000000290e-01
8.710800000000001091e+03	1.026159999999999961e+00
8.741260000000000218e+03	1.076030000000000042e+00
8.771929999999998472e+03	1.132419999999999982e+00
8.802819999999999709e+03	1.195969999999999978e+00
8.833920000000000073e+03	1.267539999999999889e+00
8.865250000000000000e+03	1.347839999999999927e+00
8.896800000000001091e+03	1.437030000000000030e+00
8.928569999999999709e+03	1.534319999999999906e+00
8.960569999999999709e+03	1.637799999999999923e+00
8.992810000000001310e+03	1.744240000000000013e+00
9.025270000000000437e+03	1.849069999999999991e+00
9.057969999999999345e+03	1.946839999999999904e+00
9.090909999999999854e+03	2.032669999999999977e+00
9.124090000000000146e+03	2.104480000000000128e+00
9.157510000000000218e+03	2.164190000000000058e+00
9.191179999999998472e+03	2.215770000000000017e+00
9.225090000000000146e+03	2.260569999999999968e+00
9.259260000000000218e+03	2.293870000000000076e+00
9.293680000000000291e+03	2.307360000000000078e+00
9.328360000000000582e+03	2.297029999999999905e+00
9.363300000000001091e+03	2.267059999999999853e+00
9.398500000000000000e+03	2.223500000000000032e+00
9.433960000000000946e+03	2.164309999999999956e+00
9.469699999999998909e+03	2.084600000000000009e+00
9.505699999999998909e+03	1.994750000000000023e+00
9.541980000000001382e+03	1.899440000000000017e+00
9.578540000000000873e+03	1.789649999999999963e+00
9.615379999999999200e+03	1.665030000000000010e+00
9.652510000000000218e+03	1.536030000000000006e+00
9.689920000000000073e+03	1.410889999999999977e+00
9.727629999999999200e+03	1.289649999999999963e+00
9.765629999999999200e+03	1.168199999999999905e+00
9.803920000000000073e+03	1.044939999999999980e+00
9.842520000000000437e+03	9.232599999999999696e-01
9.881420000000000073e+03	8.088699999999999779e-01
9.920629999999999200e+03	7.056799999999999740e-01
9.960159999999999854e+03	6.141100000000000447e-01
1.000000000000000000e+04	5.321700000000000319e-01
1.004015999999999985e+04	4.575899999999999967e-01
1.008064999999999964e+04	3.892700000000000049e-01
1.012146000000000095e+04	3.273699999999999943e-01
1.016259999999999854e+04	2.726600000000000135e-01
1.020407999999999993e+04	2.256900000000000017e-01
1.024590000000000146e+04	1.864500000000000046e-01
1.028806999999999971e+04	1.543799999999999895e-01
1.033057999999999993e+04	1.285699999999999898e-01
1.037344000000000051e+04	1.080200000000000049e-01
1.041667000000000007e+04	9.174999999999999822e-02
1.046025000000000000e+04	7.893000000000000016e-02
1.050420000000000073e+04	6.886000000000000454e-02
1.054852000000000044e+04	6.099999999999999867e-02
1.059322000000000116e+04	5.491999999999999660e-02
1.063829999999999927e+04	5.029000000000000137e-02
1.068376000000000022e+04	4.685999999999999888e-02
1.072960999999999876e+04	4.445999999999999952e-02
1.077586000000000058e+04	4.295999999999999819e-02
1.082251000000000022e+04	4.227999999999999814e-02
1.086956999999999971e+04	4.236000000000000182e-02
1.091703000000000065e+04	4.317000000000000004e-02
1.096490999999999985e+04	4.470999999999999974e-02
1.101322000000000116e+04	4.696000000000000174e-02
1.106194999999999891e+04	4.995000000000000134e-02
1.111111000000000058e+04	5.365999999999999936e-02
1.116070999999999913e+04	5.809000000000000274e-02
1.121076000000000022e+04	6.320000000000000617e-02
1.126126000000000022e+04	6.894000000000000128e-02
1.131221999999999935e+04	7.524999999999999745e-02
1.136363999999999942e+04	8.204000000000000181e-02
1.141553000000000065e+04	8.923999999999999988e-02
1.146789000000000124e+04	9.678000000000000491e-02
1.152073999999999978e+04	1.046399999999999969e-01
1.157407000000000153e+04	1.128099999999999936e-01
1.162790999999999985e+04	1.213299999999999934e-01
1.168223999999999978e+04	1.301900000000000002e-01
1.173709000000000015e+04	1.393999999999999961e-01
1.179245000000000073e+04	1.488500000000000101e-01
1.184834000000000015e+04	1.583900000000000030e-01
1.190476000000000022e+04	1.677800000000000125e-01
1.196171999999999935e+04	1.767199999999999882e-01
1.201922999999999956e+04	1.849800000000000055e-01
1.207728999999999905e+04	1.923700000000000132e-01
1.213592000000000007e+04	1.988699999999999912e-01
1.219511999999999898e+04	2.045299999999999896e-01
1.225489999999999964e+04	2.094900000000000095e-01
1.231527000000000044e+04	2.138100000000000001e-01
1.237623999999999978e+04	2.174599999999999866e-01
1.243781000000000131e+04	2.201899999999999968e-01
1.250000000000000000e+04	2.217099999999999904e-01
1.256281000000000131e+04	2.218299999999999994e-01
1.262626000000000022e+04	2.206400000000000028e-01
1.269036000000000058e+04	2.184200000000000030e-01
1.275510000000000036e+04	2.154800000000000049e-01
1.282051000000000022e+04	2.119499999999999995e-01
1.288660000000000036e+04	2.078000000000000125e-01
1.295336999999999898e+04	2.029199999999999893e-01
1.302082999999999993e+04	1.971900000000000042e-01
1.308901000000000022e+04	1.905600000000000072e-01
1.315788999999999942e+04	1.831500000000000072e-01
1.322751000000000022e+04	1.751300000000000079e-01
1.329786999999999898e+04	1.667599999999999916e-01
1.336898000000000138e+04	1.582899999999999863e-01
1.344086000000000058e+04	1.498899999999999955e-01
1.351351000000000022e+04	1.416900000000000104e-01
1.358695999999999913e+04	1.336900000000000033e-01
1.366119999999999891e+04	1.258799999999999919e-01
1.373626000000000022e+04	1.182099999999999956e-01
1.381215000000000146e+04	1.106499999999999984e-01
1.388888999999999942e+04	1.031900000000000039e-01
1.396648000000000138e+04	9.586000000000000076e-02
1.404494000000000051e+04	8.873000000000000331e-02
1.412429000000000087e+04	8.189000000000000445e-02
1.420454999999999927e+04	7.543999999999999317e-02
1.428570999999999913e+04	6.945999999999999397e-02
