2.108730000000000189e+02	1.036031709381999955e+00
2.124610000000000127e+02	1.021744557090000116e+00
2.140489999999999782e+02	1.051882941199999921e+00
2.156370000000000005e+02	1.119513181880000152e+00
2.172249999999999943e+02	1.218223148767999975e+00
2.188130000000000166e+02	1.342077719070000175e+00
2.204010000000000105e+02	1.485597623075999962e+00
2.219890000000000043e+02	1.643714145768000012e+00
2.235769999999999982e+02	1.811757002064000144e+00
2.251649999999999920e+02	1.985422132793999817e+00
2.267540000000000191e+02	2.160739158994000153e+00
2.283419999999999845e+02	2.334056281360000096e+00
2.299309999999999832e+02	2.502021554424000094e+00
2.315190000000000055e+02	2.661576138593999996e+00
2.331080000000000041e+02	2.812791054527999712e+00
2.346959999999999980e+02	2.961332696943999920e+00
2.362849999999999966e+02	3.113063138354000170e+00
2.378739999999999952e+02	3.273391906133999996e+00
2.394630000000000223e+02	3.447297344532000096e+00
2.410519999999999925e+02	3.639338403948000344e+00
2.426399999999999864e+02	3.853716258399999539e+00
2.442290000000000134e+02	4.094265553760000564e+00
2.458190000000000168e+02	4.364487978239999677e+00
2.474079999999999870e+02	4.667597784359998947e+00
2.489969999999999857e+02	5.006500798319999390e+00
2.505859999999999843e+02	5.383842573055999559e+00
2.521749999999999829e+02	5.802030513503999565e+00
2.537650000000000148e+02	6.263201304408000603e+00
2.553540000000000134e+02	6.769314306168000783e+00
2.569429999999999836e+02	7.321076642699999582e+00
2.585330000000000155e+02	7.911115139290000542e+00
2.601220000000000141e+02	8.528863835087999945e+00
2.617119999999999891e+02	9.164398294144000090e+00
2.633019999999999641e+02	9.808524945399998529e+00
2.648909999999999627e+02	1.045264493522399896e+01
2.664810000000000514e+02	1.108876196773799983e+01
2.680710000000000264e+02	1.170944602219999986e+01
2.696610000000000014e+02	1.230778268641600093e+01
2.712510000000000332e+02	1.287737442195000170e+01
2.728410000000000082e+02	1.341228398586000026e+01
2.744300000000000068e+02	1.390700363775999904e+01
2.760210000000000150e+02	1.435646776564399829e+01
2.776109999999999900e+02	1.475596398557600075e+01
2.792009999999999650e+02	1.510117700662799756e+01
2.807909999999999968e+02	1.538813488704000143e+01
2.823809999999999718e+02	1.561318602500000097e+01
2.839709999999999468e+02	1.577298359208000100e+01
2.855619999999999550e+02	1.586447372307800130e+01
2.871520000000000437e+02	1.588533497443999920e+01
2.887420000000000186e+02	1.583895552692799846e+01
2.903330000000000268e+02	1.573221604343999935e+01
2.919230000000000018e+02	1.557166932103200097e+01
2.935140000000000100e+02	1.536351982324000076e+01
2.951039999999999850e+02	1.511363822893800091e+01
2.966949999999999932e+02	1.482753687940799914e+01
2.982850000000000250e+02	1.451046165160799895e+01
2.998759999999999764e+02	1.416732882770400082e+01
3.014669999999999845e+02	1.380280905154799953e+01
3.030579999999999927e+02	1.342127837062399998e+01
3.046479999999999677e+02	1.302689693170000140e+01
3.062389999999999759e+02	1.262354745712799975e+01
3.078299999999999841e+02	1.221490671203999945e+01
3.094209999999999923e+02	1.180445008248000072e+01
3.110120000000000005e+02	1.139540695047999996e+01
3.126030000000000086e+02	1.099084760466000077e+01
3.141939999999999600e+02	1.059365408045599999e+01
3.157849999999999682e+02	1.020653155395000056e+01
3.173759999999999764e+02	9.832001579704000349e+00
3.189669999999999845e+02	9.472440748680000411e+00
3.205579999999999927e+02	9.130067831199999873e+00
3.221490000000000009e+02	8.806979851308000207e+00
3.237400000000000091e+02	8.505110024904000809e+00
3.253319999999999936e+02	8.226262961028000475e+00
3.269230000000000018e+02	7.970864443740000027e+00
3.285139999999999532e+02	7.737624494808000186e+00
3.301049999999999613e+02	7.525209112820000712e+00
3.316970000000000027e+02	7.332313618411999911e+00
3.332879999999999541e+02	7.157696202666000040e+00
3.348789999999999623e+02	7.000185960123999962e+00
3.364710000000000036e+02	6.858640320063999596e+00
3.380619999999999550e+02	6.732003716858000253e+00
3.396539999999999964e+02	6.619226471460000205e+00
3.412450000000000045e+02	6.519330657695999065e+00
3.428369999999999891e+02	6.431374973319999633e+00
3.444279999999999973e+02	6.354464607936001208e+00
3.460199999999999818e+02	6.287736513999999666e+00
3.476109999999999900e+02	6.230374686756000813e+00
3.492029999999999745e+02	6.181598265831999228e+00
3.507950000000000159e+02	6.140659478580000830e+00
3.523859999999999673e+02	6.106847980799999576e+00
3.539780000000000086e+02	6.079482464569999856e+00
3.555699999999999932e+02	6.057915227456001084e+00
3.571610000000000014e+02	6.041528563887999859e+00
3.587529999999999859e+02	6.029732874095999229e+00
3.603450000000000273e+02	6.021966011152000142e+00
3.619370000000000118e+02	6.017692298653999572e+00
3.635280000000000200e+02	6.016402114619999075e+00
3.651200000000000045e+02	6.017612522800001251e+00
3.667119999999999891e+02	6.020848605072000481e+00
3.683040000000000305e+02	6.025680685176000750e+00
3.698960000000000150e+02	6.031684948558000414e+00
3.714870000000000232e+02	6.038461970411999502e+00
3.730790000000000077e+02	6.045636848795999718e+00
3.746709999999999923e+02	6.052841548182001041e+00
3.762630000000000337e+02	6.059745030720000258e+00
3.778550000000000182e+02	6.066206053979999346e+00
3.794470000000000027e+02	6.072244418758001139e+00
3.810390000000000441e+02	6.077893327879999141e+00
3.826309999999999718e+02	6.083168014182000150e+00
3.842229999999999563e+02	6.088094725062000556e+00
3.858149999999999977e+02	6.092703117305999783e+00
3.874069999999999823e+02	6.097016760407999669e+00
3.889989999999999668e+02	6.101047636026001086e+00
3.905910000000000082e+02	6.104827002893999932e+00
3.921829999999999927e+02	6.108366091479999760e+00
3.937749999999999773e+02	6.111696558034000581e+00
3.953670000000000186e+02	6.114820265056001070e+00
3.969590000000000032e+02	6.117766357272000022e+00
3.985509999999999877e+02	6.120546116342000076e+00
4.001430000000000291e+02	6.123177372516000361e+00
4.017350000000000136e+02	6.125676872071999846e+00
4.033269999999999982e+02	6.128059867750000222e+00
4.049189999999999827e+02	6.130337403780000471e+00
4.065110000000000241e+02	6.132528103760000349e+00
4.081030000000000086e+02	6.134637398189999757e+00
4.096949999999999932e+02	6.136683733920000883e+00
4.112870000000000346e+02	6.138682332543999642e+00
4.128790000000000191e+02	6.140635263119999188e+00
4.144710000000000036e+02	6.142559905121999009e+00
4.160629999999999882e+02	6.144463636920000305e+00
4.176549999999999727e+02	6.146352930678000703e+00
4.192469999999999573e+02	6.148247311500000478e+00
4.208389999999999986e+02	6.150150911729999947e+00
4.224309999999999832e+02	6.152070110683999893e+00
4.240229999999999677e+02	6.154013542679999560e+00
4.256150000000000091e+02	6.155995221081999702e+00
4.272069999999999936e+02	6.158016061735999358e+00
4.287989999999999782e+02	6.160082358738000252e+00
4.303919999999999959e+02	6.162201846839999497e+00
4.319839999999999804e+02	6.164391577967999858e+00
4.335760000000000218e+02	6.166643907555999782e+00
4.351680000000000064e+02	6.168969649440000147e+00
4.367599999999999909e+02	6.171377318047999161e+00
4.383520000000000323e+02	6.173864639744000016e+00
4.399440000000000168e+02	6.176442402000000165e+00
4.415350000000000250e+02	6.179121384543999618e+00
4.431270000000000095e+02	6.181893912401999813e+00
4.447189999999999941e+02	6.184773054627999755e+00
4.463110000000000355e+02	6.187757299520000309e+00
4.479030000000000200e+02	6.190853541300000096e+00
4.494950000000000045e+02	6.194062560359999914e+00
4.510869999999999891e+02	6.197392035701999369e+00
4.526789999999999736e+02	6.200839661303999328e+00
4.542709999999999582e+02	6.204405434573999401e+00
4.558629999999999995e+02	6.208100105855999473e+00
4.574549999999999841e+02	6.211925982900000420e+00
4.590459999999999923e+02	6.215878442772000412e+00
4.606379999999999768e+02	6.219962111617999945e+00
4.622299999999999613e+02	6.224182370339999437e+00
4.638220000000000027e+02	6.228542279710000074e+00
4.654139999999999873e+02	6.233031102972000248e+00
4.670049999999999955e+02	6.237667282304000693e+00
4.685969999999999800e+02	6.242440093303999404e+00
4.701890000000000214e+02	6.247352596112000001e+00
4.717810000000000059e+02	6.252414831714000698e+00
4.733720000000000141e+02	6.257611431288000681e+00
4.749639999999999986e+02	6.262963182270000040e+00
4.765559999999999832e+02	6.268451685499999648e+00
4.781469999999999914e+02	6.274092382303999571e+00
4.797390000000000327e+02	6.279880637324000148e+00
4.813299999999999841e+02	6.285818831435999066e+00
4.829220000000000255e+02	6.291899302910000102e+00
4.845130000000000337e+02	6.298129144124000156e+00
4.861050000000000182e+02	6.304514444930000572e+00
4.876960000000000264e+02	6.311041533280000060e+00
4.892880000000000109e+02	6.317721201408000198e+00
4.908790000000000191e+02	6.324555881494000609e+00
4.924710000000000036e+02	6.331535572752000185e+00
4.940620000000000118e+02	6.338667444227999326e+00
4.956539999999999964e+02	6.345946860239999765e+00
4.972450000000000045e+02	6.353370921640000724e+00
4.988360000000000127e+02	6.360952819759999599e+00
5.004269999999999641e+02	6.368679573680000594e+00
5.020190000000000055e+02	6.376559029637999920e+00
5.036100000000000136e+02	6.384578210184001179e+00
5.052010000000000218e+02	6.392755105611999333e+00
5.067920000000000300e+02	6.401077336664000583e+00
5.083830000000000382e+02	6.409544455908000593e+00
5.099740000000000464e+02	6.418159570065999908e+00
5.115659999999999741e+02	6.426922262161999022e+00
5.131569999999999254e+02	6.435830293370000454e+00
5.147479999999999336e+02	6.444878465336000062e+00
5.163389999999999418e+02	6.454074706244000481e+00
5.179289999999999736e+02	6.463413835623999404e+00
5.195199999999999818e+02	6.472896033355999279e+00
5.211109999999999900e+02	6.482519062888000505e+00
5.227019999999999982e+02	6.492290372775999963e+00
5.242930000000000064e+02	6.502194606830000723e+00
5.258830000000000382e+02	6.512239747656000333e+00
5.274740000000000464e+02	6.522426004665999422e+00
5.290650000000000546e+02	6.532748233215999178e+00
5.306560000000000628e+02	6.543209091744000006e+00
5.322459999999999809e+02	6.553803452760000425e+00
5.338369999999999891e+02	6.564536909150000987e+00
5.354270000000000209e+02	6.575401886467999724e+00
5.370180000000000291e+02	6.586400627024000087e+00
5.386079999999999472e+02	6.597533834999999236e+00
5.401979999999999791e+02	6.608796397725999583e+00
5.417889999999999873e+02	6.620188142539999987e+00
5.433789999999999054e+02	6.631714707599999592e+00
5.449690000000000509e+02	6.643363170585999455e+00
5.465600000000000591e+02	6.655144126848000496e+00
5.481499999999999773e+02	6.667044659995999822e+00
5.497400000000000091e+02	6.679070034204000805e+00
5.513300000000000409e+02	6.691210208228000944e+00
5.529199999999999591e+02	6.703465098944000111e+00
5.545099999999999909e+02	6.715827149254000261e+00
5.561000000000000227e+02	6.728294153322000426e+00
5.576900000000000546e+02	6.740871422208001285e+00
5.592799999999999727e+02	6.753538130220000824e+00
5.608689999999999145e+02	6.766307825880000237e+00
5.624590000000000600e+02	6.779162170924000641e+00
5.640489999999999782e+02	6.792112199466000533e+00
5.656390000000000100e+02	6.805142076095999748e+00
5.672279999999999518e+02	6.818254925583999260e+00
5.688180000000000973e+02	6.831448184608000851e+00
5.704070000000000391e+02	6.844722138431999170e+00
5.719969999999999573e+02	6.858071975936000264e+00
5.735860000000000127e+02	6.871484362328001083e+00
5.751749999999999545e+02	6.884973155916000565e+00
5.767649999999999864e+02	6.898525022879999469e+00
5.783540000000000418e+02	6.912135094073999397e+00
5.799429999999999836e+02	6.925811566063999614e+00
5.815320000000000391e+02	6.939546728499999872e+00
5.831209999999999809e+02	6.953335426296000321e+00
5.847099999999999227e+02	6.967180475200000167e+00
5.862989999999999782e+02	6.981074358495999554e+00
5.878879999999999200e+02	6.995017068480000155e+00
5.894769999999999754e+02	7.009003640226000087e+00
5.910660000000000309e+02	7.023042276821999330e+00
5.926539999999999964e+02	7.037114382540000435e+00
5.942429999999999382e+02	7.051230957563999091e+00
5.958310000000000173e+02	7.065386794920000213e+00
5.974199999999999591e+02	7.079579471376000299e+00
5.990080000000000382e+02	7.093806378357999876e+00
6.005970000000000937e+02	7.108067864559999727e+00
6.021849999999999454e+02	7.122353266314000564e+00
6.037730000000000246e+02	7.136676207952000084e+00
6.053619999999999663e+02	7.151023390409999791e+00
6.069500000000000455e+02	7.165392323824000265e+00
6.085380000000000109e+02	7.179788572159999660e+00
6.101259999999999764e+02	7.194209506552000200e+00
6.117139999999999418e+02	7.208649966720000357e+00
6.133020000000000209e+02	7.223104647219999563e+00
6.148900000000001000e+02	7.237581763356000231e+00
6.164770000000000891e+02	7.252078783432000186e+00
6.180649999999999409e+02	7.266582282856000496e+00
6.196530000000000200e+02	7.281103238126000576e+00
6.212400000000000091e+02	7.295638997520000224e+00
6.228280000000000882e+02	7.310184305240000846e+00
6.244150000000000773e+02	7.324733802879999089e+00
6.260019999999999527e+02	7.339301164335999772e+00
6.275900000000000318e+02	7.353864745260000113e+00
6.291770000000000209e+02	7.368443671200001432e+00
6.307640000000000100e+02	7.383021664509999304e+00
6.323509999999999991e+02	7.397604295484000225e+00
6.339379999999999882e+02	7.412188876487999067e+00
6.355249999999999773e+02	7.426775472214000473e+00
6.371119999999999663e+02	7.441366891919999560e+00
6.386979999999999791e+02	7.455952254776000210e+00
6.402849999999999682e+02	7.470534346019999994e+00
6.418719999999999573e+02	7.485115937907999673e+00
6.434579999999999700e+02	7.499688864011999634e+00
6.450449999999999591e+02	7.514266856409999917e+00
6.466309999999999718e+02	7.528830766704000865e+00
6.482170000000000982e+02	7.543391585092000362e+00
6.498040000000000873e+02	7.557943858651999136e+00
6.513899999999999864e+02	7.572493080212000294e+00
6.529759999999999991e+02	7.587025549380000733e+00
6.545620000000000118e+02	7.601549499143999356e+00
6.561479999999999109e+02	7.616064939518000898e+00
6.577330000000000609e+02	7.630571880156000297e+00
6.593189999999999600e+02	7.645059320976000272e+00
6.609049999999999727e+02	7.659540995193999002e+00
6.624900000000000091e+02	7.674003162817998991e+00
6.640760000000000218e+02	7.688456775896000295e+00
6.656609999999999445e+02	7.702893589140000330e+00
6.672459999999999809e+02	7.717310793402000435e+00
6.688319999999999936e+02	7.731713885967999467e+00
6.704170000000000300e+02	7.746100131324000770e+00
6.720019999999999527e+02	7.760469426688000105e+00
6.735870000000001028e+02	7.774816214677999326e+00
6.751720000000000255e+02	7.789145991552000936e+00
6.767559999999999718e+02	7.803461548844000006e+00
6.783410000000000082e+02	7.817757223119999210e+00
6.799260000000000446e+02	7.832027433971999741e+00
6.815099999999999909e+02	7.846280507843999885e+00
6.830950000000000273e+02	7.860505200893999067e+00
6.846790000000000873e+02	7.874718228789999941e+00
6.862629999999999200e+02	7.888899941664000437e+00
6.878480000000000700e+02	7.903061515024000450e+00
6.894320000000000164e+02	7.917202768878000008e+00
6.910159999999999627e+02	7.931315381199999237e+00
6.925989999999999327e+02	7.945410419772000132e+00
6.941829999999999927e+02	7.959476556200000275e+00
6.957670000000000528e+02	7.973519445023999452e+00
6.973500000000000227e+02	7.987536006370000941e+00
6.989340000000000828e+02	8.001526332239999206e+00
7.005169999999999391e+02	8.015490190559999562e+00
7.021009999999999991e+02	8.029430384927998432e+00
7.036839999999999691e+02	8.043338387564000769e+00
7.052669999999999391e+02	8.057225288229998839e+00
7.068500000000000227e+02	8.071079656248000944e+00
7.084329999999999927e+02	8.084909880449998809e+00
7.100159999999999627e+02	8.098718584320000247e+00
7.115989999999999327e+02	8.112508589232000134e+00
7.131809999999999263e+02	8.126279623411999609e+00
7.147640000000000100e+02	8.140031816641998930e+00
7.163460000000000036e+02	8.153776099368000629e+00
7.179279999999999973e+02	8.167504105687999783e+00
7.195109999999999673e+02	8.181229904580000323e+00
7.210929999999999609e+02	8.194942001199999382e+00
7.226749999999999545e+02	8.208657403309999268e+00
7.242570000000000618e+02	8.222367531600001556e+00
7.258390000000000555e+02	8.236077955056000377e+00
7.274199999999999591e+02	8.249791563069999611e+00
7.290020000000000664e+02	8.263511011028001008e+00
7.305829999999999700e+02	8.277233573840000247e+00
7.321649999999999636e+02	8.290964849311999174e+00
7.337459999999999809e+02	8.304710445681999786e+00
7.353269999999999982e+02	8.318464707280000425e+00
7.369080000000000155e+02	8.332227607609999254e+00
7.384889999999999191e+02	8.346013363096000504e+00
7.400700000000000500e+02	8.359813366367999876e+00
7.416509999999999536e+02	8.373633529203999615e+00
7.432309999999999945e+02	8.387464946739999760e+00
7.448120000000000118e+02	8.401325131737999996e+00
7.463920000000000528e+02	8.415205176183999214e+00
7.479719999999999800e+02	8.429111027449998517e+00
7.495529999999999973e+02	8.443039711645999645e+00
7.511330000000000382e+02	8.456994214070000737e+00
7.527129999999999654e+02	8.470980209283998974e+00
7.542919999999999163e+02	8.484992045958000162e+00
7.558719999999999573e+02	8.499029733007999354e+00
7.574519999999999982e+02	8.513107626615999735e+00
7.590310000000000628e+02	8.527214410400000943e+00
7.606109999999999900e+02	8.541352773527998821e+00
7.621900000000000546e+02	8.555525744298000390e+00
7.637690000000000055e+02	8.569733349709999004e+00
7.653480000000000700e+02	8.583981302419999793e+00
7.669270000000000209e+02	8.598261283570000302e+00
7.685059999999999718e+02	8.612581678146000286e+00
7.700839999999999463e+02	8.626942888343998916e+00
7.716630000000000109e+02	8.641344590423999605e+00
7.732409999999999854e+02	8.655784158339999479e+00
7.748199999999999363e+02	8.670261629952001670e+00
7.763980000000000246e+02	8.684785791989998671e+00
7.779759999999999991e+02	8.699353651920000985e+00
7.795539999999999736e+02	8.713965652784001037e+00
7.811320000000000618e+02	8.728615741567999464e+00
7.827089999999999463e+02	8.743318443812000851e+00
7.842869999999999209e+02	8.758056675938000524e+00
7.858640000000000327e+02	8.772847635487998730e+00
7.874420000000000073e+02	8.787683016943999448e+00
7.890190000000000055e+02	8.802568605011998670e+00
7.905960000000000036e+02	8.817498742290000635e+00
7.921730000000000018e+02	8.832476135280000307e+00
7.937500000000000000e+02	8.847507016307998740e+00
7.953260000000000218e+02	8.862579549721999683e+00
7.969030000000000200e+02	8.877705712361999346e+00
7.984790000000000418e+02	8.892885585407999116e+00
8.000560000000000400e+02	8.908110405656000097e+00
8.016320000000000618e+02	8.923383342139999286e+00
8.032080000000000837e+02	8.938710215624000810e+00
8.047840000000001055e+02	8.954091108080000083e+00
8.063600000000000136e+02	8.969520349757999611e+00
8.079349999999999454e+02	8.984998015249999526e+00
8.095109999999999673e+02	9.000533063209999796e+00
8.110860000000000127e+02	9.016122457691999159e+00
8.126609999999999445e+02	9.031757891677999694e+00
8.142359999999999900e+02	9.047447836010000799e+00
8.158109999999999218e+02	9.063192892015999647e+00
8.173859999999999673e+02	9.078986866079999274e+00
8.189610000000000127e+02	9.094841908848000145e+00
8.205360000000000582e+02	9.110740267764001032e+00
8.221100000000000136e+02	9.126699885784001154e+00
8.236839999999999691e+02	9.142709309999998979e+00
8.252580000000000382e+02	9.158777033984000226e+00
8.268319999999999936e+02	9.174894753611999576e+00
8.284059999999999491e+02	9.191065176496000078e+00
8.299800000000000182e+02	9.207291571919999029e+00
8.315539999999999736e+02	9.223577225895999376e+00
8.331269999999999527e+02	9.239915878271999006e+00
8.347000000000000455e+02	9.256299211446000541e+00
8.362740000000000009e+02	9.272747916607999130e+00
8.378469999999999800e+02	9.289247306900000112e+00
8.394189999999999827e+02	9.305797477956000208e+00
8.409919999999999618e+02	9.322407545256000461e+00
8.425650000000000546e+02	9.339068599279999106e+00
8.441370000000000573e+02	9.355783953263999919e+00
8.457099999999999227e+02	9.372559536059998919e+00
8.472819999999999254e+02	9.389383820836000538e+00
8.488540000000000418e+02	9.406259504738001098e+00
8.504260000000000446e+02	9.423189918883998928e+00
8.519969999999999573e+02	9.440184242592001951e+00
8.535690000000000737e+02	9.457227697920000509e+00
8.551399999999999864e+02	9.474317140782000379e+00
8.567119999999999891e+02	9.491474092363999304e+00
8.582830000000000155e+02	9.508671405791998765e+00
8.598540000000000418e+02	9.525927372054001196e+00
8.614249999999999545e+02	9.543238852576001463e+00
8.629950000000000045e+02	9.560603375959999539e+00
8.645659999999999172e+02	9.578026913289999555e+00
8.661359999999999673e+02	9.595494599111999534e+00
8.677060000000000173e+02	9.613018249613999089e+00
8.692760000000000673e+02	9.630592821135998349e+00
8.708460000000000036e+02	9.648226878943999552e+00
8.724159999999999400e+02	9.665905517303999162e+00
8.739859999999999900e+02	9.683638002720000415e+00
8.755549999999999500e+02	9.701427755735998915e+00
8.771250000000000000e+02	9.719268294830001764e+00
8.786939999999999600e+02	9.737160465723999181e+00
8.802630000000000337e+02	9.755103645720000216e+00
8.818319999999999936e+02	9.773098692119999598e+00
8.833999999999999773e+02	9.791145728104000412e+00
8.849690000000000509e+02	9.809238220440001044e+00
8.865370000000000346e+02	9.827388829462000430e+00
8.881050000000000182e+02	9.845588450633998789e+00
8.896730000000000018e+02	9.863834632211998965e+00
8.912409999999999854e+02	9.882135957360000944e+00
8.928089999999999691e+02	9.900486636480000158e+00
8.943759999999999764e+02	9.918884221783999422e+00
8.959439999999999600e+02	9.937334745152000437e+00
8.975109999999999673e+02	9.955838331432000032e+00
8.990780000000000882e+02	9.974385814410000606e+00
9.006449999999999818e+02	9.992977296200001192e+00
9.022119999999999891e+02	1.001162556217600041e+01
9.037780000000000200e+02	1.003031805571600010e+01
9.053449999999999136e+02	1.004905826454399964e+01
9.069110000000000582e+02	1.006785224461999917e+01
9.084769999999999754e+02	1.008668823465600006e+01
9.100430000000000064e+02	1.010557483594200079e+01
9.116090000000000373e+02	1.012450706647199894e+01
9.131740000000000919e+02	1.014348418451199940e+01
9.147400000000000091e+02	1.016251311653999956e+01
9.163050000000000637e+02	1.018158715973399886e+01
9.178700000000000045e+02	1.020070729412999988e+01
9.194349999999999454e+02	1.021986678893999922e+01
9.210000000000000000e+02	1.023908453836000021e+01
9.225640000000000782e+02	1.025833589061599938e+01
9.241290000000000191e+02	1.027763378280599937e+01
9.256929999999999836e+02	1.029698087347800062e+01
9.272569999999999482e+02	1.031637129387799945e+01
9.288210000000000264e+02	1.033580515008599932e+01
9.303840000000000146e+02	1.035528600412799882e+01
9.319479999999999791e+02	1.037481051497799989e+01
9.335109999999999673e+02	1.039436932391999946e+01
9.350739999999999554e+02	1.041397892407400150e+01
9.366370000000000573e+02	1.043362902712000029e+01
9.382000000000000455e+02	1.045332067086399874e+01
9.397630000000000337e+02	1.047306251052000015e+01
9.413249999999999318e+02	1.049283660779199856e+01
9.428879999999999200e+02	1.051265255976000113e+01
9.444500000000000455e+02	1.053251300461599982e+01
9.460119999999999436e+02	1.055241551857599980e+01
9.475729999999999791e+02	1.057236273843200003e+01
9.491349999999999909e+02	1.059234269525600070e+01
9.506960000000000264e+02	1.061236502645400037e+01
9.522580000000000382e+02	1.063242632172000057e+01
9.538189999999999600e+02	1.065252667516399931e+01
9.553790000000000191e+02	1.067267323384399980e+01
9.569400000000000546e+02	1.069284946860000041e+01
9.585010000000000900e+02	1.071306857955600123e+01
9.600610000000000355e+02	1.073332460900800100e+01
9.616209999999999809e+02	1.075362017625399957e+01
9.631809999999999263e+02	1.077394930225599978e+01
9.647409999999999854e+02	1.079432169767999916e+01
9.663000000000000682e+02	1.081473138840000026e+01
9.678590000000000373e+02	1.083516882252000002e+01
9.694189999999999827e+02	1.085564981171000021e+01
9.709779999999999518e+02	1.087616836926200037e+01
9.725359999999999445e+02	1.089672101400999971e+01
9.740950000000000273e+02	1.091731140522399990e+01
9.756539999999999964e+02	1.093793353119999878e+01
9.772119999999999891e+02	1.095858999364000042e+01
9.787699999999999818e+02	1.097928446420399951e+01
9.803279999999999745e+02	1.100001091808399956e+01
9.818849999999999909e+02	1.102077555633599992e+01
9.834429999999999836e+02	1.104156874022999979e+01
9.850000000000000000e+02	1.106239414526999987e+01
9.865570000000000164e+02	1.108325798423600084e+01
9.881140000000000327e+02	1.110415421004799974e+01
9.896709999999999354e+02	1.112507675836199894e+01
9.912269999999999754e+02	1.114603798778400012e+01
9.927839999999999918e+02	1.116703183758400009e+01
9.943400000000000318e+02	1.118805222955199952e+01
9.958959999999999582e+02	1.120910538731000017e+01
9.974510000000000218e+02	1.123019503110000095e+01
9.990069999999999482e+02	1.125130778541000076e+01
