2.500000000000000000e+02	1.063965000000000050e+00
2.550000000000000000e+02	9.907569999999999988e-01
2.600000000000000000e+02	9.170449999999999990e-01
2.650000000000000000e+02	8.434239999999999515e-01
2.700000000000000000e+02	7.704659999999999842e-01
2.750000000000000000e+02	6.987139999999999462e-01
2.800000000000000000e+02	6.286730000000000373e-01
2.850000000000000000e+02	5.608100000000000307e-01
2.900000000000000000e+02	4.955459999999999865e-01
2.950000000000000000e+02	4.332599999999999785e-01
3.000000000000000000e+02	3.742860000000000076e-01
3.050000000000000000e+02	3.189170000000000060e-01
3.100000000000000000e+02	2.674079999999999790e-01
3.150000000000000000e+02	2.199780000000000069e-01
3.200000000000000000e+02	1.768160000000000009e-01
3.250000000000000000e+02	1.380830000000000113e-01
3.300000000000000000e+02	1.039189999999999975e-01
3.350000000000000000e+02	7.444299999999999529e-02
3.400000000000000000e+02	5.085699999999999943e-02
3.450000000000000000e+02	3.499900000000000233e-02
3.500000000000000000e+02	2.435800000000000118e-02
3.550000000000000000e+02	1.713100000000000039e-02
3.600000000000000000e+02	1.216399999999999947e-02
3.650000000000000000e+02	8.708999999999999728e-03
3.700000000000000000e+02	6.283999999999999655e-03
3.750000000000000000e+02	4.571999999999999675e-03
3.800000000000000000e+02	3.351999999999999945e-03
3.850000000000000000e+02	2.478000000000000168e-03
3.900000000000000000e+02	1.845000000000000069e-03
3.950000000000000000e+02	1.384000000000000031e-03
4.000000000000000000e+02	1.046000000000000055e-03
4.050000000000000000e+02	7.950000000000000252e-04
4.100000000000000000e+02	6.089999999999999494e-04
4.150000000000000000e+02	4.690000000000000158e-04
4.200000000000000000e+02	3.640000000000000115e-04
4.250000000000000000e+02	2.840000000000000185e-04
4.300000000000000000e+02	2.229999999999999994e-04
4.350000000000000000e+02	1.759999999999999954e-04
4.400000000000000000e+02	1.399999999999999877e-04
4.450000000000000000e+02	1.110000000000000011e-04
4.500000000000000000e+02	8.899999999999999491e-05
4.550000000000000000e+02	7.200000000000000182e-05
4.600000000000000000e+02	5.800000000000000034e-05
4.650000000000000000e+02	4.699999999999999724e-05
4.700000000000000000e+02	3.899999999999999929e-05
4.750000000000000000e+02	3.199999999999999855e-05
4.800000000000000000e+02	2.599999999999999840e-05
4.850000000000000000e+02	2.199999999999999943e-05
4.900000000000000000e+02	1.800000000000000046e-05
4.950000000000000000e+02	1.500000000000000038e-05
5.000000000000000000e+02	1.299999999999999920e-05
5.050000000000000000e+02	1.000000000000000082e-05
5.100000000000000000e+02	9.000000000000000228e-06
5.150000000000000000e+02	6.999999999999999895e-06
5.200000000000000000e+02	6.000000000000000152e-06
5.250000000000000000e+02	5.000000000000000409e-06
5.300000000000000000e+02	5.000000000000000409e-06
5.350000000000000000e+02	3.999999999999999819e-06
5.400000000000000000e+02	3.000000000000000076e-06
5.450000000000000000e+02	3.000000000000000076e-06
5.500000000000000000e+02	3.000000000000000076e-06
5.550000000000000000e+02	1.999999999999999909e-06
5.600000000000000000e+02	1.999999999999999909e-06
5.650000000000000000e+02	1.999999999999999909e-06
5.700000000000000000e+02	9.999999999999999547e-07
5.750000000000000000e+02	9.999999999999999547e-07
5.800000000000000000e+02	9.999999999999999547e-07
5.850000000000000000e+02	9.999999999999999547e-07
5.900000000000000000e+02	9.999999999999999547e-07
5.950000000000000000e+02	9.999999999999999547e-07
6.000000000000000000e+02	9.999999999999999547e-07
6.050000000000000000e+02	9.999999999999999547e-07
6.100000000000000000e+02	9.999999999999999547e-07
6.150000000000000000e+02	0.000000000000000000e+00
6.200000000000000000e+02	0.000000000000000000e+00
6.250000000000000000e+02	0.000000000000000000e+00
6.300000000000000000e+02	0.000000000000000000e+00
6.350000000000000000e+02	0.000000000000000000e+00
6.400000000000000000e+02	0.000000000000000000e+00
6.450000000000000000e+02	0.000000000000000000e+00
6.500000000000000000e+02	0.000000000000000000e+00
6.550000000000000000e+02	0.000000000000000000e+00
6.600000000000000000e+02	0.000000000000000000e+00
6.650000000000000000e+02	0.000000000000000000e+00
6.700000000000000000e+02	0.000000000000000000e+00
6.750000000000000000e+02	0.000000000000000000e+00
6.800000000000000000e+02	0.000000000000000000e+00
6.850000000000000000e+02	0.000000000000000000e+00
6.900000000000000000e+02	0.000000000000000000e+00
6.950000000000000000e+02	0.000000000000000000e+00
7.000000000000000000e+02	0.000000000000000000e+00
7.050000000000000000e+02	0.000000000000000000e+00
7.100000000000000000e+02	0.000000000000000000e+00
7.150000000000000000e+02	0.000000000000000000e+00
7.200000000000000000e+02	0.000000000000000000e+00
7.250000000000000000e+02	0.000000000000000000e+00
7.300000000000000000e+02	0.000000000000000000e+00
7.350000000000000000e+02	0.000000000000000000e+00
7.400000000000000000e+02	0.000000000000000000e+00
7.450000000000000000e+02	0.000000000000000000e+00
7.500000000000000000e+02	0.000000000000000000e+00
7.550000000000000000e+02	0.000000000000000000e+00
7.600000000000000000e+02	0.000000000000000000e+00
7.650000000000000000e+02	0.000000000000000000e+00
7.700000000000000000e+02	0.000000000000000000e+00
7.750000000000000000e+02	0.000000000000000000e+00
7.800000000000000000e+02	0.000000000000000000e+00
7.850000000000000000e+02	0.000000000000000000e+00
7.900000000000000000e+02	0.000000000000000000e+00
7.950000000000000000e+02	0.000000000000000000e+00
8.000000000000000000e+02	0.000000000000000000e+00
8.050000000000000000e+02	0.000000000000000000e+00
8.100000000000000000e+02	0.000000000000000000e+00
8.150000000000000000e+02	0.000000000000000000e+00
8.200000000000000000e+02	0.000000000000000000e+00
8.250000000000000000e+02	0.000000000000000000e+00
8.300000000000000000e+02	0.000000000000000000e+00
8.350000000000000000e+02	0.000000000000000000e+00
8.400000000000000000e+02	0.000000000000000000e+00
8.450000000000000000e+02	0.000000000000000000e+00
8.500000000000000000e+02	0.000000000000000000e+00
8.550000000000000000e+02	0.000000000000000000e+00
8.600000000000000000e+02	0.000000000000000000e+00
8.650000000000000000e+02	0.000000000000000000e+00
8.700000000000000000e+02	0.000000000000000000e+00
8.750000000000000000e+02	0.000000000000000000e+00
8.800000000000000000e+02	0.000000000000000000e+00
8.850000000000000000e+02	0.000000000000000000e+00
8.900000000000000000e+02	0.000000000000000000e+00
8.950000000000000000e+02	0.000000000000000000e+00
9.000000000000000000e+02	0.000000000000000000e+00
9.050000000000000000e+02	0.000000000000000000e+00
9.100000000000000000e+02	0.000000000000000000e+00
9.150000000000000000e+02	0.000000000000000000e+00
9.200000000000000000e+02	0.000000000000000000e+00
9.250000000000000000e+02	0.000000000000000000e+00
9.300000000000000000e+02	0.000000000000000000e+00
9.350000000000000000e+02	0.000000000000000000e+00
9.400000000000000000e+02	0.000000000000000000e+00
9.450000000000000000e+02	0.000000000000000000e+00
9.500000000000000000e+02	0.000000000000000000e+00
9.550000000000000000e+02	0.000000000000000000e+00
9.600000000000000000e+02	0.000000000000000000e+00
9.650000000000000000e+02	0.000000000000000000e+00
9.700000000000000000e+02	0.000000000000000000e+00
9.750000000000000000e+02	0.000000000000000000e+00
9.800000000000000000e+02	0.000000000000000000e+00
9.850000000000000000e+02	0.000000000000000000e+00
9.900000000000000000e+02	0.000000000000000000e+00
9.950000000000000000e+02	0.000000000000000000e+00
1.000000000000000000e+03	0.000000000000000000e+00
1.004999999999999886e+03	0.000000000000000000e+00
1.010000000000000000e+03	0.000000000000000000e+00
1.014999999999999886e+03	0.000000000000000000e+00
1.020000000000000000e+03	0.000000000000000000e+00
1.025000000000000000e+03	0.000000000000000000e+00
1.030000000000000000e+03	0.000000000000000000e+00
1.035000000000000000e+03	0.000000000000000000e+00
1.040000000000000000e+03	0.000000000000000000e+00
1.045000000000000000e+03	0.000000000000000000e+00
1.050000000000000000e+03	0.000000000000000000e+00
1.055000000000000000e+03	0.000000000000000000e+00
1.060000000000000000e+03	0.000000000000000000e+00
1.065000000000000000e+03	0.000000000000000000e+00
1.070000000000000000e+03	0.000000000000000000e+00
1.075000000000000000e+03	0.000000000000000000e+00
1.080000000000000000e+03	0.000000000000000000e+00
1.085000000000000000e+03	0.000000000000000000e+00
1.090000000000000000e+03	0.000000000000000000e+00
1.095000000000000000e+03	0.000000000000000000e+00
1.100000000000000000e+03	0.000000000000000000e+00
1.105000000000000000e+03	0.000000000000000000e+00
1.110000000000000000e+03	0.000000000000000000e+00
1.115000000000000000e+03	0.000000000000000000e+00
1.120000000000000000e+03	0.000000000000000000e+00
1.125000000000000000e+03	0.000000000000000000e+00
1.130000000000000000e+03	0.000000000000000000e+00
1.135000000000000000e+03	0.000000000000000000e+00
1.140000000000000000e+03	0.000000000000000000e+00
1.145000000000000000e+03	0.000000000000000000e+00
1.150000000000000000e+03	0.000000000000000000e+00
1.155000000000000000e+03	0.000000000000000000e+00
1.160000000000000000e+03	0.000000000000000000e+00
1.165000000000000000e+03	0.000000000000000000e+00
1.170000000000000000e+03	0.000000000000000000e+00
1.175000000000000000e+03	0.000000000000000000e+00
1.180000000000000000e+03	0.000000000000000000e+00
1.185000000000000000e+03	0.000000000000000000e+00
1.190000000000000000e+03	0.000000000000000000e+00
1.195000000000000000e+03	0.000000000000000000e+00
1.200000000000000000e+03	0.000000000000000000e+00
1.205000000000000000e+03	0.000000000000000000e+00
1.210000000000000000e+03	0.000000000000000000e+00
1.215000000000000000e+03	0.000000000000000000e+00
1.220000000000000000e+03	0.000000000000000000e+00
1.225000000000000000e+03	0.000000000000000000e+00
1.230000000000000000e+03	0.000000000000000000e+00
1.235000000000000000e+03	0.000000000000000000e+00
1.240000000000000000e+03	0.000000000000000000e+00
1.245000000000000000e+03	0.000000000000000000e+00
1.250000000000000000e+03	0.000000000000000000e+00
1.255000000000000000e+03	0.000000000000000000e+00
1.260000000000000000e+03	0.000000000000000000e+00
1.265000000000000000e+03	0.000000000000000000e+00
1.270000000000000000e+03	0.000000000000000000e+00
1.275000000000000000e+03	0.000000000000000000e+00
1.280000000000000000e+03	0.000000000000000000e+00
1.285000000000000000e+03	0.000000000000000000e+00
1.290000000000000000e+03	0.000000000000000000e+00
1.295000000000000000e+03	0.000000000000000000e+00
1.300000000000000000e+03	0.000000000000000000e+00
1.305000000000000000e+03	0.000000000000000000e+00
1.310000000000000000e+03	0.000000000000000000e+00
1.315000000000000000e+03	0.000000000000000000e+00
1.320000000000000000e+03	0.000000000000000000e+00
1.325000000000000000e+03	0.000000000000000000e+00
1.330000000000000000e+03	0.000000000000000000e+00
1.335000000000000000e+03	0.000000000000000000e+00
1.340000000000000000e+03	0.000000000000000000e+00
1.345000000000000000e+03	0.000000000000000000e+00
1.350000000000000000e+03	0.000000000000000000e+00
1.355000000000000000e+03	0.000000000000000000e+00
1.360000000000000000e+03	0.000000000000000000e+00
1.365000000000000000e+03	0.000000000000000000e+00
1.370000000000000000e+03	0.000000000000000000e+00
1.375000000000000000e+03	0.000000000000000000e+00
1.380000000000000000e+03	0.000000000000000000e+00
1.385000000000000000e+03	0.000000000000000000e+00
1.390000000000000000e+03	0.000000000000000000e+00
1.395000000000000000e+03	0.000000000000000000e+00
1.400000000000000000e+03	0.000000000000000000e+00
1.405000000000000000e+03	0.000000000000000000e+00
1.410000000000000000e+03	0.000000000000000000e+00
1.415000000000000000e+03	0.000000000000000000e+00
1.420000000000000000e+03	0.000000000000000000e+00
1.425000000000000000e+03	0.000000000000000000e+00
1.430000000000000000e+03	0.000000000000000000e+00
1.435000000000000000e+03	0.000000000000000000e+00
1.440000000000000000e+03	0.000000000000000000e+00
1.445000000000000000e+03	0.000000000000000000e+00
1.450000000000000000e+03	0.000000000000000000e+00
1.455000000000000000e+03	0.000000000000000000e+00
1.460000000000000000e+03	0.000000000000000000e+00
1.465000000000000000e+03	0.000000000000000000e+00
1.470000000000000000e+03	0.000000000000000000e+00
1.475000000000000000e+03	0.000000000000000000e+00
1.480000000000000000e+03	0.000000000000000000e+00
1.485000000000000000e+03	0.000000000000000000e+00
1.490000000000000000e+03	0.000000000000000000e+00
1.495000000000000000e+03	0.000000000000000000e+00
1.500000000000000000e+03	0.000000000000000000e+00
1.505000000000000000e+03	0.000000000000000000e+00
1.510000000000000000e+03	0.000000000000000000e+00
1.515000000000000000e+03	0.000000000000000000e+00
1.520000000000000000e+03	0.000000000000000000e+00
1.525000000000000000e+03	0.000000000000000000e+00
1.530000000000000000e+03	0.000000000000000000e+00
1.535000000000000000e+03	0.000000000000000000e+00
1.540000000000000000e+03	0.000000000000000000e+00
1.545000000000000000e+03	0.000000000000000000e+00
1.550000000000000000e+03	0.000000000000000000e+00
1.555000000000000000e+03	0.000000000000000000e+00
1.560000000000000000e+03	0.000000000000000000e+00
1.565000000000000000e+03	0.000000000000000000e+00
1.570000000000000000e+03	0.000000000000000000e+00
1.575000000000000000e+03	0.000000000000000000e+00
1.580000000000000000e+03	0.000000000000000000e+00
1.585000000000000000e+03	0.000000000000000000e+00
1.590000000000000000e+03	0.000000000000000000e+00
1.595000000000000000e+03	0.000000000000000000e+00
1.600000000000000000e+03	0.000000000000000000e+00
1.605000000000000000e+03	0.000000000000000000e+00
1.610000000000000000e+03	0.000000000000000000e+00
1.615000000000000000e+03	0.000000000000000000e+00
1.620000000000000000e+03	0.000000000000000000e+00
1.625000000000000000e+03	0.000000000000000000e+00
1.630000000000000000e+03	0.000000000000000000e+00
1.635000000000000000e+03	0.000000000000000000e+00
1.640000000000000000e+03	0.000000000000000000e+00
1.645000000000000000e+03	0.000000000000000000e+00
1.650000000000000000e+03	0.000000000000000000e+00
1.655000000000000000e+03	0.000000000000000000e+00
1.660000000000000000e+03	0.000000000000000000e+00
1.665000000000000000e+03	0.000000000000000000e+00
1.670000000000000000e+03	0.000000000000000000e+00
1.675000000000000000e+03	0.000000000000000000e+00
1.680000000000000000e+03	0.000000000000000000e+00
1.685000000000000000e+03	0.000000000000000000e+00
1.690000000000000000e+03	0.000000000000000000e+00
1.695000000000000000e+03	0.000000000000000000e+00
1.700000000000000000e+03	0.000000000000000000e+00
1.705000000000000000e+03	0.000000000000000000e+00
1.710000000000000000e+03	0.000000000000000000e+00
1.715000000000000000e+03	0.000000000000000000e+00
1.720000000000000000e+03	0.000000000000000000e+00
1.725000000000000000e+03	0.000000000000000000e+00
1.730000000000000000e+03	0.000000000000000000e+00
1.735000000000000000e+03	0.000000000000000000e+00
1.740000000000000000e+03	0.000000000000000000e+00
1.745000000000000000e+03	0.000000000000000000e+00
1.750000000000000000e+03	0.000000000000000000e+00
1.755000000000000000e+03	0.000000000000000000e+00
1.760000000000000000e+03	0.000000000000000000e+00
1.765000000000000000e+03	0.000000000000000000e+00
1.770000000000000000e+03	0.000000000000000000e+00
1.775000000000000000e+03	0.000000000000000000e+00
1.780000000000000000e+03	0.000000000000000000e+00
1.785000000000000000e+03	0.000000000000000000e+00
1.790000000000000000e+03	0.000000000000000000e+00
1.795000000000000000e+03	0.000000000000000000e+00
1.800000000000000000e+03	0.000000000000000000e+00
1.805000000000000000e+03	0.000000000000000000e+00
1.810000000000000000e+03	0.000000000000000000e+00
1.815000000000000000e+03	0.000000000000000000e+00
1.820000000000000000e+03	0.000000000000000000e+00
1.825000000000000000e+03	0.000000000000000000e+00
1.830000000000000000e+03	0.000000000000000000e+00
1.835000000000000000e+03	0.000000000000000000e+00
1.840000000000000000e+03	0.000000000000000000e+00
1.845000000000000000e+03	0.000000000000000000e+00
1.850000000000000000e+03	0.000000000000000000e+00
1.855000000000000000e+03	0.000000000000000000e+00
1.860000000000000000e+03	0.000000000000000000e+00
1.865000000000000000e+03	0.000000000000000000e+00
1.870000000000000000e+03	0.000000000000000000e+00
1.875000000000000000e+03	0.000000000000000000e+00
1.880000000000000000e+03	0.000000000000000000e+00
1.885000000000000000e+03	0.000000000000000000e+00
1.890000000000000000e+03	0.000000000000000000e+00
1.895000000000000000e+03	0.000000000000000000e+00
1.900000000000000000e+03	0.000000000000000000e+00
1.905000000000000000e+03	0.000000000000000000e+00
1.910000000000000000e+03	0.000000000000000000e+00
1.915000000000000000e+03	0.000000000000000000e+00
1.920000000000000000e+03	0.000000000000000000e+00
1.925000000000000000e+03	0.000000000000000000e+00
1.930000000000000000e+03	0.000000000000000000e+00
1.935000000000000000e+03	0.000000000000000000e+00
1.940000000000000000e+03	0.000000000000000000e+00
1.945000000000000000e+03	0.000000000000000000e+00
1.950000000000000000e+03	0.000000000000000000e+00
1.955000000000000000e+03	0.000000000000000000e+00
1.960000000000000000e+03	0.000000000000000000e+00
1.965000000000000000e+03	0.000000000000000000e+00
1.970000000000000000e+03	0.000000000000000000e+00
1.975000000000000000e+03	0.000000000000000000e+00
1.980000000000000000e+03	0.000000000000000000e+00
1.985000000000000000e+03	0.000000000000000000e+00
1.990000000000000000e+03	0.000000000000000000e+00
1.995000000000000000e+03	0.000000000000000000e+00
2.000000000000000000e+03	0.000000000000000000e+00
2.005000000000000000e+03	0.000000000000000000e+00
2.009999999999999773e+03	0.000000000000000000e+00
2.015000000000000227e+03	0.000000000000000000e+00
2.020000000000000000e+03	0.000000000000000000e+00
2.025000000000000000e+03	0.000000000000000000e+00
2.029999999999999773e+03	0.000000000000000000e+00
2.035000000000000227e+03	0.000000000000000000e+00
2.040000000000000000e+03	0.000000000000000000e+00
2.045000000000000000e+03	0.000000000000000000e+00
2.050000000000000000e+03	0.000000000000000000e+00
2.055000000000000000e+03	0.000000000000000000e+00
2.060000000000000000e+03	0.000000000000000000e+00
2.065000000000000000e+03	0.000000000000000000e+00
2.070000000000000000e+03	0.000000000000000000e+00
2.075000000000000000e+03	0.000000000000000000e+00
2.080000000000000000e+03	0.000000000000000000e+00
2.085000000000000000e+03	0.000000000000000000e+00
2.090000000000000000e+03	0.000000000000000000e+00
2.095000000000000000e+03	0.000000000000000000e+00
2.100000000000000000e+03	0.000000000000000000e+00
2.105000000000000000e+03	0.000000000000000000e+00
2.110000000000000000e+03	0.000000000000000000e+00
2.115000000000000000e+03	0.000000000000000000e+00
2.120000000000000000e+03	0.000000000000000000e+00
2.125000000000000000e+03	0.000000000000000000e+00
2.130000000000000000e+03	0.000000000000000000e+00
2.135000000000000000e+03	0.000000000000000000e+00
2.140000000000000000e+03	0.000000000000000000e+00
2.145000000000000000e+03	0.000000000000000000e+00
2.150000000000000000e+03	0.000000000000000000e+00
2.155000000000000000e+03	0.000000000000000000e+00
2.160000000000000000e+03	0.000000000000000000e+00
2.165000000000000000e+03	0.000000000000000000e+00
2.170000000000000000e+03	0.000000000000000000e+00
2.175000000000000000e+03	0.000000000000000000e+00
2.180000000000000000e+03	0.000000000000000000e+00
2.185000000000000000e+03	0.000000000000000000e+00
2.190000000000000000e+03	0.000000000000000000e+00
2.195000000000000000e+03	0.000000000000000000e+00
2.200000000000000000e+03	0.000000000000000000e+00
2.205000000000000000e+03	0.000000000000000000e+00
2.210000000000000000e+03	0.000000000000000000e+00
2.215000000000000000e+03	0.000000000000000000e+00
2.220000000000000000e+03	0.000000000000000000e+00
2.225000000000000000e+03	0.000000000000000000e+00
2.230000000000000000e+03	0.000000000000000000e+00
2.235000000000000000e+03	0.000000000000000000e+00
2.240000000000000000e+03	0.000000000000000000e+00
2.245000000000000000e+03	0.000000000000000000e+00
2.250000000000000000e+03	0.000000000000000000e+00
2.255000000000000000e+03	0.000000000000000000e+00
2.260000000000000000e+03	0.000000000000000000e+00
2.265000000000000000e+03	0.000000000000000000e+00
2.270000000000000000e+03	0.000000000000000000e+00
2.275000000000000000e+03	0.000000000000000000e+00
2.280000000000000000e+03	0.000000000000000000e+00
2.285000000000000000e+03	0.000000000000000000e+00
2.290000000000000000e+03	0.000000000000000000e+00
2.295000000000000000e+03	0.000000000000000000e+00
2.300000000000000000e+03	0.000000000000000000e+00
2.305000000000000000e+03	0.000000000000000000e+00
2.310000000000000000e+03	0.000000000000000000e+00
2.315000000000000000e+03	0.000000000000000000e+00
2.320000000000000000e+03	0.000000000000000000e+00
2.325000000000000000e+03	0.000000000000000000e+00
2.330000000000000000e+03	0.000000000000000000e+00
2.335000000000000000e+03	0.000000000000000000e+00
2.340000000000000000e+03	0.000000000000000000e+00
2.345000000000000000e+03	0.000000000000000000e+00
2.350000000000000000e+03	0.000000000000000000e+00
2.355000000000000000e+03	0.000000000000000000e+00
2.360000000000000000e+03	0.000000000000000000e+00
2.365000000000000000e+03	0.000000000000000000e+00
2.370000000000000000e+03	0.000000000000000000e+00
2.375000000000000000e+03	0.000000000000000000e+00
2.380000000000000000e+03	0.000000000000000000e+00
2.385000000000000000e+03	0.000000000000000000e+00
2.390000000000000000e+03	0.000000000000000000e+00
2.395000000000000000e+03	0.000000000000000000e+00
2.400000000000000000e+03	0.000000000000000000e+00
2.405000000000000000e+03	0.000000000000000000e+00
2.410000000000000000e+03	0.000000000000000000e+00
2.415000000000000000e+03	0.000000000000000000e+00
2.420000000000000000e+03	0.000000000000000000e+00
2.425000000000000000e+03	0.000000000000000000e+00
2.430000000000000000e+03	0.000000000000000000e+00
2.435000000000000000e+03	0.000000000000000000e+00
2.440000000000000000e+03	0.000000000000000000e+00
2.445000000000000000e+03	0.000000000000000000e+00
2.450000000000000000e+03	0.000000000000000000e+00
2.455000000000000000e+03	0.000000000000000000e+00
2.460000000000000000e+03	0.000000000000000000e+00
2.465000000000000000e+03	0.000000000000000000e+00
2.470000000000000000e+03	0.000000000000000000e+00
2.475000000000000000e+03	0.000000000000000000e+00
2.480000000000000000e+03	0.000000000000000000e+00
2.485000000000000000e+03	0.000000000000000000e+00
2.490000000000000000e+03	0.000000000000000000e+00
2.495000000000000000e+03	0.000000000000000000e+00
2.500000000000000000e+03	0.000000000000000000e+00
