1.547999999999999821e+00	1.410000000000000120e-04
1.550000000000000044e+00	1.410000000000000120e-04
1.552000000000000046e+00	1.420000000000000092e-04
1.554000000000000048e+00	1.430000000000000064e-04
1.556000000000000050e+00	1.430000000000000064e-04
1.557999999999999829e+00	1.450000000000000009e-04
1.560000000000000053e+00	1.450000000000000009e-04
1.562000000000000055e+00	1.459999999999999981e-04
1.564000000000000057e+00	1.459999999999999981e-04
1.565999999999999837e+00	1.479999999999999925e-04
1.568000000000000060e+00	1.489999999999999897e-04
1.570000000000000062e+00	1.499999999999999869e-04
1.572000000000000064e+00	1.499999999999999869e-04
1.574000000000000066e+00	1.499999999999999869e-04
1.575999999999999845e+00	1.530000000000000056e-04
1.578000000000000069e+00	1.530000000000000056e-04
1.580000000000000071e+00	1.530000000000000056e-04
1.582000000000000073e+00	1.550000000000000000e-04
1.583999999999999853e+00	1.540000000000000028e-04
1.585999999999999854e+00	1.569999999999999944e-04
1.588000000000000078e+00	1.579999999999999916e-04
1.590000000000000080e+00	1.589999999999999888e-04
1.592000000000000082e+00	1.610000000000000103e-04
1.593999999999999861e+00	1.610000000000000103e-04
1.596000000000000085e+00	1.600000000000000131e-04
1.598000000000000087e+00	1.610000000000000103e-04
1.600000000000000089e+00	1.630000000000000047e-04
1.601999999999999869e+00	1.620000000000000075e-04
1.603999999999999870e+00	1.640000000000000019e-04
1.606000000000000094e+00	1.649999999999999991e-04
1.608000000000000096e+00	1.659999999999999963e-04
1.610000000000000098e+00	1.659999999999999963e-04
1.611999999999999877e+00	1.669999999999999935e-04
1.613999999999999879e+00	1.679999999999999907e-04
1.616000000000000103e+00	1.689999999999999879e-04
1.618000000000000105e+00	1.700000000000000122e-04
1.619999999999999885e+00	1.689999999999999879e-04
1.621999999999999886e+00	1.700000000000000122e-04
1.624000000000000110e+00	1.710000000000000094e-04
1.626000000000000112e+00	1.720000000000000066e-04
1.628000000000000114e+00	1.740000000000000010e-04
1.629999999999999893e+00	1.740000000000000010e-04
1.631999999999999895e+00	1.769999999999999926e-04
1.634000000000000119e+00	1.749999999999999982e-04
1.636000000000000121e+00	1.759999999999999954e-04
1.637999999999999901e+00	1.779999999999999898e-04
1.639999999999999902e+00	1.779999999999999898e-04
1.641999999999999904e+00	1.789999999999999870e-04
1.644000000000000128e+00	1.789999999999999870e-04
1.645999999999999908e+00	1.810000000000000085e-04
1.647999999999999909e+00	1.810000000000000085e-04
1.649999999999999911e+00	1.830000000000000029e-04
1.652000000000000135e+00	1.810000000000000085e-04
1.655999999999999917e+00	1.820000000000000057e-04
1.659999999999999920e+00	1.830000000000000029e-04
1.663999999999999924e+00	1.840000000000000001e-04
1.667999999999999927e+00	1.849999999999999973e-04
1.672000000000000153e+00	1.879999999999999890e-04
1.675999999999999934e+00	1.890000000000000133e-04
1.680000000000000160e+00	1.900000000000000105e-04
1.683999999999999941e+00	1.930000000000000021e-04
1.687999999999999945e+00	1.939999999999999993e-04
1.691999999999999948e+00	1.939999999999999993e-04
1.695999999999999952e+00	1.959999999999999937e-04
1.699999999999999956e+00	1.979999999999999881e-04
1.703999999999999959e+00	1.990000000000000124e-04
1.708000000000000185e+00	2.010000000000000068e-04
1.711999999999999966e+00	2.020000000000000040e-04
1.715999999999999970e+00	2.030000000000000012e-04
1.719999999999999973e+00	2.030000000000000012e-04
1.723999999999999977e+00	2.049999999999999956e-04
1.727999999999999980e+00	2.069999999999999900e-04
1.731999999999999984e+00	2.090000000000000115e-04
1.735999999999999988e+00	2.100000000000000087e-04
1.739999999999999991e+00	2.110000000000000059e-04
1.744000000000000217e+00	2.130000000000000003e-04
1.747999999999999998e+00	2.139999999999999975e-04
1.752000000000000002e+00	2.159999999999999919e-04
1.756000000000000005e+00	2.149999999999999947e-04
1.760000000000000009e+00	2.169999999999999891e-04
1.764000000000000012e+00	2.180000000000000134e-04
1.768000000000000016e+00	2.190000000000000106e-04
1.772000000000000020e+00	2.210000000000000050e-04
1.776000000000000023e+00	2.220000000000000022e-04
1.779999999999999805e+00	2.229999999999999994e-04
1.784000000000000030e+00	2.249999999999999938e-04
1.788000000000000034e+00	2.259999999999999910e-04
1.792000000000000037e+00	2.280000000000000126e-04
1.796000000000000041e+00	2.300000000000000070e-04
1.800000000000000044e+00	2.300000000000000070e-04
1.804000000000000048e+00	2.310000000000000042e-04
1.807999999999999829e+00	2.320000000000000014e-04
1.812000000000000055e+00	2.349999999999999930e-04
1.815999999999999837e+00	2.359999999999999902e-04
1.820000000000000062e+00	2.390000000000000089e-04
1.824000000000000066e+00	2.410000000000000033e-04
1.828000000000000069e+00	2.420000000000000005e-04
1.832000000000000073e+00	2.429999999999999977e-04
1.835999999999999854e+00	2.449999999999999921e-04
1.840000000000000080e+00	2.460000000000000164e-04
1.843999999999999861e+00	2.489999999999999809e-04
1.848000000000000087e+00	2.500000000000000052e-04
1.851999999999999869e+00	2.519999999999999996e-04
1.856000000000000094e+00	2.519999999999999996e-04
1.860000000000000098e+00	2.550000000000000183e-04
1.863999999999999879e+00	2.570000000000000127e-04
1.868000000000000105e+00	2.590000000000000071e-04
1.871999999999999886e+00	2.620000000000000258e-04
1.876000000000000112e+00	2.629999999999999959e-04
1.879999999999999893e+00	2.649999999999999903e-04
1.884000000000000119e+00	2.680000000000000090e-04
1.887999999999999901e+00	2.700000000000000035e-04
1.892000000000000126e+00	2.709999999999999735e-04
1.895999999999999908e+00	2.739999999999999923e-04
1.899999999999999911e+00	2.759999999999999867e-04
1.904000000000000137e+00	2.770000000000000110e-04
1.907999999999999918e+00	2.809999999999999998e-04
1.912000000000000144e+00	2.829999999999999942e-04
1.915999999999999925e+00	2.860000000000000129e-04
1.920000000000000151e+00	2.880000000000000073e-04
1.923999999999999932e+00	2.910000000000000260e-04
1.927999999999999936e+00	2.919999999999999961e-04
1.931999999999999940e+00	2.950000000000000148e-04
1.935999999999999943e+00	2.959999999999999849e-04
1.940000000000000169e+00	2.959999999999999849e-04
1.943999999999999950e+00	3.009999999999999980e-04
1.948000000000000176e+00	3.029999999999999924e-04
1.951999999999999957e+00	3.069999999999999812e-04
1.955999999999999739e+00	3.099999999999999999e-04
1.959999999999999964e+00	3.099999999999999999e-04
1.963999999999999968e+00	3.139999999999999888e-04
1.968000000000000194e+00	3.179999999999999776e-04
1.971999999999999753e+00	3.209999999999999963e-04
1.975999999999999979e+00	3.200000000000000262e-04
1.979999999999999982e+00	3.240000000000000150e-04
1.983999999999999986e+00	3.260000000000000094e-04
1.988000000000000211e+00	3.289999999999999739e-04
1.991999999999999771e+00	3.310000000000000225e-04
1.995999999999999996e+00	3.310000000000000225e-04
2.000000000000000000e+00	3.350000000000000113e-04
2.004000000000000004e+00	3.379999999999999758e-04
2.008000000000000007e+00	3.400000000000000244e-04
2.012000000000000011e+00	3.420000000000000188e-04
2.016000000000000014e+00	3.440000000000000132e-04
2.020000000000000018e+00	3.449999999999999833e-04
2.024000000000000021e+00	3.480000000000000020e-04
2.028000000000000025e+00	3.460000000000000076e-04
2.032000000000000028e+00	3.469999999999999777e-04
2.036000000000000032e+00	3.499999999999999964e-04
2.040000000000000036e+00	3.499999999999999964e-04
2.043999999999999595e+00	3.499999999999999964e-04
2.048000000000000043e+00	3.499999999999999964e-04
2.056000000000000050e+00	3.530000000000000152e-04
2.060000000000000053e+00	3.513799999999999866e-04
2.060999999999999943e+00	3.510240000000000192e-04
2.061999999999999833e+00	3.506870000000000256e-04
2.063000000000000167e+00	3.503690000000000060e-04
2.064000000000000057e+00	3.500700000000000144e-04
2.064999999999999947e+00	3.497910000000000125e-04
2.066000000000000281e+00	3.495309999999999845e-04
2.066999999999999726e+00	3.492890000000000231e-04
2.068000000000000060e+00	3.490669999999999971e-04
2.068999999999999950e+00	3.488639999999999992e-04
2.069999999999999840e+00	3.486790000000000137e-04
2.070999999999999730e+00	3.485140000000000178e-04
2.072000000000000064e+00	3.483669999999999801e-04
2.073000000000000398e+00	3.482390000000000247e-04
2.073999999999999844e+00	3.481289999999999732e-04
2.075000000000000178e+00	3.480390000000000198e-04
2.076000000000000068e+00	3.479660000000000088e-04
2.076999999999999957e+00	3.479129999999999875e-04
2.077999999999999847e+00	3.478779999999999785e-04
2.079000000000000181e+00	3.478609999999999819e-04
2.079999999999999627e+00	3.478619999999999976e-04
2.080999999999999961e+00	3.478819999999999872e-04
2.082000000000000295e+00	3.479199999999999893e-04
2.083000000000000185e+00	3.479760000000000036e-04
2.084000000000000075e+00	3.480509999999999919e-04
2.084999999999999964e+00	3.481429999999999768e-04
2.086000000000000298e+00	3.482539999999999898e-04
2.086999999999999744e+00	3.483819999999999994e-04
2.088000000000000078e+00	3.485289999999999829e-04
2.088999999999999968e+00	3.486930000000000173e-04
2.089999999999999858e+00	3.488750000000000098e-04
2.091000000000000192e+00	3.490750000000000146e-04
2.092000000000000082e+00	3.492929999999999776e-04
2.092999999999999972e+00	3.495279999999999915e-04
2.093999999999999861e+00	3.497810000000000177e-04
2.095000000000000195e+00	3.500509999999999863e-04
2.096000000000000085e+00	3.503399999999999830e-04
2.096999999999999975e+00	3.506450000000000148e-04
2.097999999999999865e+00	3.509680000000000048e-04
2.099000000000000199e+00	3.513079999999999914e-04
2.100000000000000089e+00	3.516659999999999903e-04
2.100999999999999979e+00	3.520409999999999859e-04
2.102000000000000313e+00	3.524329999999999781e-04
2.102999999999999758e+00	3.528420000000000211e-04
2.104000000000000092e+00	3.532690000000000222e-04
2.104999999999999982e+00	3.537120000000000043e-04
2.105999999999999872e+00	3.541729999999999987e-04
2.106999999999999762e+00	3.546499999999999739e-04
2.108000000000000096e+00	3.551450000000000158e-04
2.108999999999999986e+00	3.556559999999999843e-04
2.109999999999999876e+00	3.561840000000000036e-04
2.111000000000000210e+00	3.567290000000000196e-04
2.112000000000000099e+00	3.572909999999999780e-04
2.112999999999999989e+00	3.578690000000000256e-04
2.113999999999999879e+00	3.584640000000000157e-04
2.115000000000000213e+00	3.590760000000000024e-04
2.115999999999999659e+00	3.597040000000000242e-04
2.116999999999999993e+00	3.603480000000000268e-04
2.117999999999999883e+00	3.610099999999999876e-04
2.118999999999999773e+00	3.616870000000000219e-04
2.120000000000000107e+00	3.623809999999999987e-04
2.120999999999999996e+00	3.630910000000000105e-04
2.122000000000000330e+00	3.638170000000000032e-04
2.122999999999999776e+00	3.645599999999999926e-04
2.124000000000000110e+00	3.653190000000000170e-04
2.125000000000000000e+00	3.660930000000000065e-04
2.125999999999999890e+00	3.668839999999999927e-04
2.126999999999999780e+00	3.676910000000000139e-04
2.128000000000000114e+00	3.685140000000000160e-04
2.129000000000000004e+00	3.693529999999999990e-04
2.129999999999999893e+00	3.702080000000000171e-04
2.131000000000000227e+00	3.710780000000000003e-04
2.132000000000000117e+00	3.719649999999999801e-04
2.133000000000000007e+00	3.728669999999999793e-04
2.133999999999999897e+00	3.737850000000000135e-04
2.135000000000000231e+00	3.747180000000000129e-04
2.135999999999999677e+00	3.756669999999999931e-04
2.137000000000000011e+00	3.766320000000000084e-04
2.138000000000000345e+00	3.776119999999999889e-04
2.138999999999999790e+00	3.786080000000000044e-04
2.140000000000000124e+00	3.796189999999999851e-04
2.141000000000000014e+00	3.806449999999999851e-04
2.141999999999999904e+00	3.816870000000000202e-04
2.142999999999999794e+00	3.827440000000000204e-04
2.144000000000000128e+00	3.838170000000000015e-04
2.145000000000000018e+00	3.849039999999999862e-04
2.145999999999999908e+00	3.860070000000000059e-04
2.147000000000000242e+00	3.871249999999999908e-04
2.148000000000000131e+00	3.882579999999999950e-04
2.149000000000000021e+00	3.894060000000000186e-04
2.149999999999999911e+00	3.905690000000000073e-04
2.151000000000000245e+00	3.917470000000000153e-04
2.151999999999999691e+00	3.929399999999999885e-04
2.153000000000000025e+00	3.941470000000000195e-04
2.153999999999999915e+00	3.953699999999999771e-04
2.154999999999999805e+00	3.966069999999999925e-04
2.156000000000000139e+00	3.978589999999999731e-04
2.157000000000000028e+00	3.991259999999999730e-04
2.158000000000000362e+00	4.004069999999999765e-04
2.158999999999999808e+00	4.017029999999999993e-04
2.160000000000000142e+00	4.030139999999999873e-04
2.161000000000000032e+00	4.043389999999999788e-04
2.161999999999999922e+00	4.056789999999999897e-04
2.162999999999999812e+00	4.070330000000000042e-04
2.164000000000000146e+00	4.084010000000000223e-04
2.165000000000000036e+00	4.097840000000000055e-04
2.165999999999999925e+00	4.111809999999999922e-04
2.167000000000000259e+00	4.125919999999999826e-04
2.167999999999999705e+00	4.140179999999999924e-04
2.169000000000000039e+00	4.154580000000000057e-04
2.169999999999999929e+00	4.169120000000000226e-04
2.171000000000000263e+00	4.183799999999999889e-04
2.171999999999999709e+00	4.198620000000000130e-04
2.173000000000000043e+00	4.213579999999999865e-04
2.173999999999999932e+00	4.228680000000000177e-04
2.174999999999999822e+00	4.243919999999999984e-04
2.176000000000000156e+00	4.259299999999999827e-04
2.177000000000000046e+00	4.274820000000000247e-04
2.177999999999999936e+00	4.290470000000000004e-04
2.178999999999999826e+00	4.306269999999999955e-04
2.180000000000000160e+00	4.322199999999999783e-04
2.181000000000000050e+00	4.338270000000000190e-04
2.181999999999999940e+00	4.354480000000000091e-04
2.182999999999999829e+00	4.370819999999999870e-04
2.184000000000000163e+00	4.387300000000000227e-04
2.185000000000000053e+00	4.403909999999999921e-04
2.185999999999999943e+00	4.420660000000000193e-04
2.187000000000000277e+00	4.437539999999999801e-04
2.187999999999999723e+00	4.454559999999999987e-04
2.189000000000000057e+00	4.471710000000000051e-04
2.189999999999999947e+00	4.488989999999999994e-04
2.190999999999999837e+00	4.506409999999999973e-04
2.191999999999999726e+00	4.523959999999999830e-04
2.193000000000000060e+00	4.541650000000000266e-04
2.194000000000000394e+00	4.559459999999999880e-04
2.194999999999999840e+00	4.577410000000000073e-04
2.196000000000000174e+00	4.595479999999999986e-04
2.197000000000000064e+00	4.613689999999999935e-04
2.197999999999999954e+00	4.632029999999999763e-04
2.198999999999999844e+00	4.650500000000000011e-04
2.200000000000000178e+00	4.669100000000000138e-04
2.200999999999999623e+00	4.687830000000000144e-04
2.201999999999999957e+00	4.706690000000000027e-04
2.203000000000000291e+00	4.725670000000000174e-04
2.203999999999999737e+00	4.744789999999999815e-04
2.205000000000000071e+00	4.764030000000000261e-04
2.205999999999999961e+00	4.783400000000000043e-04
2.207000000000000295e+00	4.802890000000000089e-04
2.207999999999999741e+00	4.829999999999999767e-04
2.209636999999999851e+00	4.888670000000000342e-04
2.210660999999999987e+00	4.941330000000000071e-04
2.211634000000000100e+00	4.996669999999999714e-04
2.212448999999999888e+00	5.051170000000000226e-04
2.213187000000000015e+00	5.100830000000000424e-04
2.214002999999999943e+00	5.162829999999999763e-04
2.214596999999999927e+00	5.214329999999999660e-04
2.214999999999999858e+00	5.249999999999999676e-04
2.220000000000000195e+00	5.280000000000000405e-04
2.225000000000000089e+00	5.280000000000000405e-04
2.230000000000000426e+00	5.159999999999999656e-04
2.234999999999999876e+00	5.119999999999999768e-04
2.239999999999999769e+00	5.039999999999999992e-04
2.245000000000000107e+00	5.010000000000000347e-04
2.250000000000000000e+00	5.000000000000000104e-04
2.254999999999999893e+00	4.989999999999999861e-04
2.259999999999999787e+00	5.039999999999999992e-04
2.265000000000000124e+00	5.190000000000000386e-04
2.270000000000000018e+00	5.320000000000000293e-04
2.274999999999999911e+00	5.580000000000000107e-04
2.279999999999999805e+00	5.850000000000000165e-04
2.285000000000000142e+00	6.199999999999999999e-04
2.290000000000000036e+00	6.549999999999999833e-04
2.295000000000000373e+00	7.060000000000000303e-04
2.299999999999999822e+00	7.510000000000000399e-04
2.305000000000000160e+00	7.309999999999999875e-04
2.310000000000000053e+00	6.729999999999999871e-04
2.314999999999999947e+00	6.340000000000000149e-04
2.319999999999999840e+00	6.040000000000000447e-04
2.324999999999999734e+00	4.739999999999999747e-04
2.330000000000000071e+00	3.089999999999999756e-04
2.334999999999999964e+00	2.680000000000000090e-04
2.339999999999999858e+00	2.509999999999999753e-04
2.344999999999999751e+00	2.449999999999999921e-04
2.350000000000000089e+00	2.480000000000000108e-04
2.354999999999999982e+00	2.469999999999999865e-04
2.360000000000000320e+00	2.500000000000000052e-04
2.364999999999999769e+00	2.530000000000000239e-04
2.370000000000000107e+00	2.519999999999999996e-04
2.375000000000000000e+00	2.570000000000000127e-04
2.380000000000000338e+00	2.559999999999999884e-04
2.384999999999999787e+00	2.590000000000000071e-04
2.390000000000000124e+00	2.590000000000000071e-04
2.395000000000000018e+00	2.610000000000000015e-04
2.399999999999999911e+00	2.640000000000000202e-04
2.404999999999999805e+00	2.629999999999999959e-04
2.409999999999999698e+00	2.680000000000000090e-04
2.415000000000000036e+00	2.680000000000000090e-04
2.419999999999999929e+00	2.709999999999999735e-04
2.425000000000000266e+00	2.719999999999999979e-04
2.429999999999999716e+00	2.750000000000000166e-04
2.435000000000000053e+00	2.759999999999999867e-04
2.439999999999999947e+00	2.779999999999999811e-04
2.445000000000000284e+00	2.809999999999999998e-04
2.449999999999999734e+00	2.829999999999999942e-04
2.455000000000000071e+00	2.829999999999999942e-04
2.459999999999999964e+00	2.840000000000000185e-04
2.465000000000000302e+00	2.880000000000000073e-04
2.469999999999999751e+00	2.910000000000000260e-04
2.475000000000000089e+00	2.930000000000000204e-04
2.479999999999999982e+00	2.950000000000000148e-04
2.484999999999999876e+00	2.979999999999999793e-04
2.490000000000000213e+00	2.999999999999999737e-04
2.494999999999999662e+00	2.999999999999999737e-04
2.500000000000000000e+00	3.029999999999999924e-04
2.504999999999999893e+00	3.029999999999999924e-04
2.510000000000000231e+00	3.069999999999999812e-04
2.514999999999999680e+00	3.080000000000000055e-04
2.520000000000000018e+00	3.099999999999999999e-04
2.524999999999999911e+00	3.150000000000000131e-04
2.530000000000000249e+00	3.159999999999999832e-04
2.535000000000000142e+00	3.170000000000000075e-04
2.540000000000000036e+00	3.220000000000000206e-04
2.544999999999999929e+00	3.220000000000000206e-04
2.550000000000000266e+00	3.249999999999999851e-04
2.555000000000000160e+00	3.280000000000000038e-04
2.560000000000000053e+00	3.289999999999999739e-04
2.564999999999999947e+00	3.310000000000000225e-04
2.569999999999999840e+00	3.359999999999999814e-04
2.575000000000000178e+00	3.350000000000000113e-04
2.579999999999999627e+00	3.379999999999999758e-04
2.584999999999999964e+00	3.400000000000000244e-04
2.589999999999999858e+00	3.440000000000000132e-04
2.595000000000000195e+00	3.460000000000000076e-04
2.600000000000000089e+00	3.469999999999999777e-04
2.604999999999999982e+00	3.510000000000000208e-04
2.609999999999999876e+00	3.530000000000000152e-04
2.615000000000000213e+00	3.530000000000000152e-04
2.620000000000000107e+00	3.559999999999999797e-04
2.625000000000000000e+00	3.579999999999999741e-04
2.629999999999999893e+00	3.600000000000000227e-04
2.635000000000000231e+00	3.669999999999999760e-04
2.640000000000000124e+00	3.669999999999999760e-04
2.645000000000000018e+00	3.710000000000000190e-04
2.649999999999999911e+00	3.739999999999999835e-04
2.654999999999999805e+00	3.780000000000000265e-04
2.660000000000000142e+00	3.770000000000000022e-04
2.665000000000000036e+00	3.860000000000000041e-04
2.669999999999999929e+00	3.879999999999999985e-04
2.674999999999999822e+00	3.890000000000000228e-04
2.680000000000000160e+00	3.899999999999999929e-04
2.685000000000000053e+00	3.910000000000000172e-04
2.689999999999999947e+00	3.930000000000000117e-04
2.694999999999999840e+00	3.950000000000000061e-04
2.700000000000000178e+00	3.989999999999999949e-04
2.705000000000000071e+00	4.029999999999999837e-04
2.709999999999999964e+00	4.000000000000000192e-04
2.714999999999999858e+00	4.070000000000000267e-04
2.720000000000000195e+00	4.070000000000000267e-04
2.725000000000000089e+00	4.110000000000000155e-04
2.729999999999999982e+00	4.139999999999999800e-04
2.734999999999999876e+00	4.150000000000000043e-04
2.739999999999999769e+00	4.189999999999999931e-04
2.745000000000000107e+00	4.200000000000000174e-04
2.750000000000000000e+00	4.240000000000000062e-04
2.754999999999999893e+00	4.260000000000000006e-04
2.759999999999999787e+00	4.299999999999999894e-04
2.765000000000000124e+00	4.350000000000000026e-04
2.770000000000000018e+00	4.350000000000000026e-04
2.774999999999999911e+00	4.380000000000000213e-04
2.779999999999999805e+00	4.409999999999999858e-04
2.785000000000000142e+00	4.470000000000000232e-04
2.790000000000000036e+00	4.479999999999999933e-04
2.795000000000000373e+00	4.519999999999999821e-04
2.799999999999999822e+00	4.519999999999999821e-04
2.819999999999999840e+00	4.633829999999999915e-04
2.839999999999999858e+00	4.744889999999999763e-04
2.860000000000000320e+00	4.856680000000000263e-04
2.880000000000000338e+00	4.969139999999999929e-04
2.899999999999999911e+00	5.082199999999999825e-04
2.919999999999999929e+00	5.195809999999999708e-04
2.939999999999999947e+00	5.309919999999999874e-04
2.959999999999999964e+00	5.424479999999999537e-04
2.979999999999999982e+00	5.539429999999999918e-04
3.000000000000000000e+00	5.654730000000000390e-04
3.020000000000000018e+00	5.770330000000000164e-04
3.040000000000000036e+00	5.886210000000000010e-04
3.059999999999999609e+00	6.002299999999999910e-04
3.079999999999999627e+00	6.118579999999999549e-04
3.100000000000000089e+00	6.235010000000000465e-04
3.120000000000000107e+00	6.369999999999999794e-04
3.140000000000000124e+00	6.459999999999999814e-04
3.160000000000000142e+00	6.579999999999999478e-04
3.180000000000000160e+00	6.689999999999999983e-04
3.200000000000000178e+00	6.809999999999999647e-04
3.220000000000000195e+00	6.949999999999999798e-04
3.239999999999999769e+00	7.020000000000000415e-04
3.259999999999999787e+00	7.230000000000000098e-04
3.279999999999999805e+00	7.299999999999999632e-04
3.299999999999999822e+00	7.429999999999999539e-04
3.319999999999999840e+00	7.579999999999999932e-04
3.340000000000000302e+00	7.770000000000000214e-04
3.360000000000000320e+00	7.879999999999999635e-04
3.380000000000000338e+00	8.040000000000000271e-04
3.399999999999999911e+00	8.159999999999999936e-04
3.419999999999999929e+00	8.390000000000000105e-04
3.439999999999999947e+00	8.429999999999999993e-04
3.459999999999999964e+00	8.630000000000000518e-04
3.479999999999999982e+00	8.750000000000000182e-04
3.500000000000000000e+00	8.949999999999999623e-04
3.520000000000000018e+00	9.070000000000000371e-04
3.540000000000000036e+00	9.259999999999999568e-04
3.559999999999999609e+00	9.449999999999999850e-04
3.580000000000000071e+00	9.610000000000000486e-04
3.600000000000000089e+00	9.749999999999999552e-04
3.620000000000000107e+00	9.950000000000000077e-04
3.640000000000000124e+00	1.007000000000000083e-03
3.660000000000000142e+00	1.031000000000000015e-03
3.680000000000000160e+00	1.048000000000000103e-03
3.700000000000000178e+00	1.069000000000000072e-03
3.720000000000000195e+00	1.082000000000000062e-03
3.739999999999999769e+00	1.105000000000000079e-03
3.759999999999999787e+00	1.129000000000000012e-03
3.779999999999999805e+00	1.142000000000000003e-03
3.799999999999999822e+00	1.160000000000000007e-03
3.819999999999999840e+00	1.180000000000000059e-03
3.840000000000000302e+00	1.206000000000000041e-03
3.860000000000000320e+00	1.227000000000000009e-03
3.880000000000000338e+00	1.250000000000000026e-03
3.899999999999999911e+00	1.268999999999999946e-03
3.919999999999999929e+00	1.291000000000000047e-03
3.939999999999999947e+00	1.309000000000000051e-03
3.959999999999999964e+00	1.332999999999999984e-03
3.979999999999999982e+00	1.358000000000000049e-03
4.000000000000000000e+00	1.384999999999999946e-03
4.020000000000000462e+00	1.404000000000000083e-03
4.040000000000000036e+00	1.428999999999999932e-03
4.060000000000000497e+00	1.448000000000000068e-03
4.080000000000000071e+00	1.474000000000000050e-03
4.100000000000000533e+00	1.508000000000000009e-03
4.120000000000000107e+00	1.526999999999999929e-03
4.139999999999999680e+00	1.557999999999999923e-03
4.159999999999999254e+00	1.554999999999999959e-03
4.179999999999999716e+00	1.598999999999999944e-03
4.200000000000000178e+00	1.611000000000000019e-03
4.219999999999999751e+00	1.654000000000000088e-03
4.240000000000000213e+00	1.670000000000000043e-03
4.259999999999999787e+00	1.673999999999999924e-03
4.280000000000000249e+00	1.711000000000000064e-03
4.299999999999999822e+00	1.711000000000000064e-03
4.320000000000000284e+00	1.740999999999999926e-03
4.339999999999999858e+00	1.761999999999999894e-03
4.360000000000000320e+00	1.753999999999999917e-03
4.379999999999999893e+00	1.846999999999999901e-03
4.400000000000000355e+00	1.843999999999999936e-03
4.419999999999999929e+00	1.874999999999999931e-03
4.440000000000000391e+00	1.899999999999999996e-03
4.460000000000000853e+00	1.922000000000000097e-03
4.479999000000000287e+00	1.944999999999999897e-03
4.500000000000000000e+00	1.969999999999999963e-03
4.519999000000000322e+00	1.994000000000000113e-03
4.540000000000000036e+00	2.020000000000000094e-03
4.559999000000000358e+00	2.043999999999999810e-03
4.580000000000000071e+00	2.066999999999999827e-03
4.599999999999999645e+00	2.090999999999999977e-03
4.620000000000000107e+00	2.118999999999999790e-03
4.639998999999999540e+00	2.141999999999999807e-03
4.659999000000000002e+00	2.167999999999999788e-03
4.679999999999999716e+00	2.194000000000000204e-03
4.700000000000000178e+00	2.219000000000000052e-03
4.720000000000000639e+00	2.243999999999999901e-03
4.740000000000000213e+00	2.268000000000000051e-03
4.759998999999999647e+00	2.296999999999999997e-03
4.780000000000000249e+00	2.320000000000000014e-03
4.799998999999999683e+00	2.348999999999999960e-03
4.803333000000000297e+00	2.386999999999999799e-03
4.839999999999999858e+00	2.435000000000000098e-03
4.876666000000000167e+00	2.490000000000000026e-03
4.913332999999999728e+00	2.543999999999999821e-03
4.950000000000000178e+00	2.599999999999999881e-03
4.986665999999999599e+00	2.654000000000000109e-03
5.023333000000000048e+00	2.714999999999999965e-03
5.060000000000000497e+00	2.775999999999999822e-03
5.096665999999999919e+00	2.838999999999999944e-03
5.133333000000000368e+00	2.903999999999999897e-03
5.169998999999999789e+00	2.971000000000000116e-03
5.206666000000000238e+00	3.037000000000000203e-03
5.243332999999999799e+00	3.105000000000000121e-03
5.279998999999999221e+00	3.178999999999999968e-03
5.316666000000000558e+00	3.249000000000000152e-03
5.353333000000000119e+00	3.324000000000000132e-03
5.389999000000000429e+00	3.393999999999999882e-03
5.426665999999999990e+00	3.471000000000000127e-03
5.463332999999999551e+00	3.543000000000000142e-03
5.499998999999999860e+00	3.616999999999999989e-03
5.536666000000000309e+00	3.694999999999999934e-03
5.573332999999999871e+00	3.769999999999999914e-03
5.610000000000000320e+00	3.843000000000000062e-03
5.646665999999999741e+00	3.921000000000000006e-03
5.683332999999999302e+00	3.995000000000000287e-03
5.720000000000000639e+00	4.066000000000000170e-03
5.756666000000000061e+00	4.145000000000000247e-03
5.793333000000000510e+00	4.212999999999999731e-03
5.829998999999999931e+00	4.287000000000000012e-03
5.866666000000000381e+00	4.357999999999999895e-03
5.903332999999999942e+00	4.428999999999999777e-03
5.939998999999999363e+00	4.495999999999999996e-03
5.976666000000000700e+00	4.564000000000000348e-03
6.013333000000000261e+00	4.636000000000000364e-03
6.049999000000000571e+00	4.706000000000000114e-03
6.086666000000000132e+00	4.774999999999999731e-03
6.123332999999999693e+00	4.838000000000000286e-03
6.159999000000000002e+00	4.909000000000000169e-03
6.196665999999999563e+00	4.976000000000000388e-03
6.233333000000000013e+00	5.039000000000000076e-03
6.269999000000000322e+00	5.107000000000000428e-03
6.306665999999999883e+00	5.176000000000000045e-03
6.343332999999999444e+00	5.244000000000000397e-03
6.379998999999999754e+00	5.316000000000000413e-03
6.416665999999999315e+00	5.385000000000000030e-03
6.453333000000000652e+00	5.453999999999999647e-03
6.489999000000000073e+00	5.531999999999999591e-03
6.526666000000000523e+00	5.591999999999999749e-03
6.563333000000000084e+00	5.679000000000000020e-03
6.619998999999999967e+00	5.804000000000000131e-03
6.639998999999999540e+00	5.824000000000000184e-03
6.659999000000000002e+00	5.851000000000000298e-03
6.679998999999999576e+00	5.886999999999999872e-03
6.699999000000000038e+00	5.936000000000000304e-03
6.719998999999999612e+00	5.984999999999999869e-03
6.739999000000000073e+00	6.022999999999999708e-03
6.759998999999999647e+00	6.072000000000000140e-03
6.779999000000000109e+00	6.119000000000000307e-03
6.799999000000000571e+00	6.156000000000000014e-03
6.819999000000000144e+00	6.207999999999999977e-03
6.839999000000000606e+00	6.249000000000000214e-03
6.859999000000000180e+00	6.296000000000000381e-03
6.879999000000000642e+00	6.339000000000000017e-03
6.899999000000000215e+00	6.387000000000000316e-03
6.919998999999999789e+00	6.434999999999999748e-03
6.939998999999999363e+00	6.492000000000000375e-03
6.959998999999999825e+00	6.551999999999999665e-03
6.979998999999999398e+00	6.610000000000000424e-03
6.999998999999999860e+00	6.668000000000000316e-03
7.019998999999999434e+00	6.734999999999999667e-03
7.039998999999999896e+00	6.799000000000000356e-03
7.059999000000000358e+00	6.862000000000000044e-03
7.079998999999999931e+00	6.914000000000000007e-03
7.099999000000000393e+00	6.983999999999999757e-03
7.119998999999999967e+00	7.033000000000000189e-03
7.139999000000000429e+00	7.094999999999999744e-03
7.159999000000000002e+00	7.148999999999999973e-03
7.179999000000000464e+00	7.209000000000000130e-03
7.199999000000000038e+00	7.263999999999999624e-03
7.219999000000000500e+00	7.320000000000000118e-03
7.239998999999999185e+00	7.370999999999999948e-03
7.259998999999999647e+00	7.428999999999999840e-03
7.279999000000000109e+00	7.486999999999999732e-03
7.299998999999999683e+00	7.538000000000000429e-03
7.319999000000000144e+00	7.595000000000000188e-03
7.339998999999999718e+00	7.650999999999999815e-03
7.359999000000000180e+00	7.708999999999999707e-03
7.379998999999999754e+00	7.768999999999999864e-03
7.399999000000000215e+00	7.822000000000000827e-03
7.419998999999999789e+00	7.875999999999999321e-03
7.439999000000000251e+00	7.934000000000000080e-03
7.459998999999999825e+00	7.985000000000000778e-03
7.479999000000000287e+00	8.038000000000000006e-03
7.499998999999999860e+00	8.092000000000000234e-03
7.519999000000000322e+00	8.144999999999999463e-03
7.539999000000000784e+00	8.191999999999999629e-03
7.559999000000000358e+00	8.255999999999999450e-03
7.579998999999999931e+00	8.309000000000000413e-03
7.599998999999999505e+00	8.373000000000000234e-03
7.619998999999999967e+00	8.425999999999999462e-03
7.639998999999999540e+00	8.489000000000000018e-03
7.659999000000000002e+00	8.557999999999999635e-03
7.679998999999999576e+00	8.623000000000000456e-03
7.699999000000000038e+00	8.704999999999999197e-03
7.719998999999999612e+00	8.791000000000000203e-03
7.739999000000000073e+00	8.881999999999999271e-03
7.759998999999999647e+00	8.977999999999999869e-03
7.779999000000000109e+00	9.072000000000000203e-03
7.799999000000000571e+00	9.166000000000000536e-03
7.819998999999999256e+00	9.232000000000000622e-03
7.839999000000000606e+00	9.287000000000000116e-03
7.859998999999999292e+00	9.327000000000000221e-03
7.879999000000000642e+00	9.355000000000000468e-03
7.899998999999999327e+00	9.395999999999999838e-03
7.919999000000000677e+00	9.421999999999999820e-03
7.939998999999999363e+00	9.462999999999999190e-03
7.959999000000000713e+00	9.502000000000000030e-03
7.979998999999999398e+00	9.542000000000000134e-03
7.999999000000000748e+00	9.573999999999999178e-03
8.019999000000000322e+00	9.601999999999999424e-03
8.039999000000001672e+00	9.596999999999999628e-03
8.059998999999999469e+00	9.584999999999999770e-03
8.079998999999999043e+00	9.584999999999999770e-03
8.099999000000000393e+00	9.565000000000000585e-03
8.119998999999999967e+00	9.560000000000000789e-03
8.139998999999999540e+00	9.565000000000000585e-03
8.159998999999999114e+00	9.547999999999999196e-03
8.179999000000000464e+00	9.516999999999999418e-03
8.199999000000000038e+00	9.508000000000000826e-03
8.219998999999999612e+00	9.490000000000000172e-03
8.239998999999999185e+00	9.501000000000000764e-03
8.259999000000000535e+00	9.520999999999999949e-03
8.279999000000000109e+00	9.542000000000000134e-03
8.299999000000001459e+00	9.582999999999999505e-03
8.319998999999999256e+00	9.605000000000000690e-03
8.339999000000000606e+00	9.646000000000000060e-03
8.359999000000000180e+00	9.698999999999999289e-03
8.379999000000001530e+00	9.740999999999999659e-03
8.399998999999999327e+00	9.802999999999999214e-03
8.419998999999998901e+00	9.846999999999999850e-03
8.439999000000000251e+00	9.912000000000000671e-03
8.459998999999999825e+00	9.962999999999999634e-03
8.479998999999999398e+00	1.002699999999999945e-02
8.499998999999998972e+00	1.008700000000000048e-02
8.519999000000000322e+00	1.014699999999999977e-02
8.539998999999999896e+00	1.021000000000000033e-02
8.559999000000001246e+00	1.028899999999999954e-02
8.579998999999999043e+00	1.033399999999999944e-02
8.599999000000000393e+00	1.039600000000000073e-02
8.619998999999999967e+00	1.047999999999999973e-02
8.639999000000001317e+00	1.053699999999999949e-02
8.659998999999999114e+00	1.060900000000000037e-02
8.679999000000000464e+00	1.068099999999999952e-02
8.699999000000000038e+00	1.076500000000000026e-02
8.719999000000001388e+00	1.081700000000000023e-02
8.739998999999999185e+00	1.089299999999999990e-02
8.759998999999998759e+00	1.097799999999999991e-02
8.779999000000000109e+00	1.105700000000000086e-02
8.799998999999999683e+00	1.114899999999999919e-02
8.824999000000000038e+00	1.114500000000000039e-02
8.849999000000000393e+00	1.124900000000000032e-02
8.874998999999998972e+00	1.135700000000000078e-02
8.899999000000001104e+00	1.146400000000000023e-02
8.924998999999999683e+00	1.157500000000000022e-02
8.949999000000000038e+00	1.168800000000000047e-02
8.974999000000000393e+00	1.180199999999999999e-02
8.999998999999998972e+00	1.191500000000000024e-02
9.024999000000001104e+00	1.203300000000000029e-02
9.049998999999999683e+00	1.215499999999999914e-02
9.074999000000000038e+00	1.227299999999999919e-02
9.099998999999998617e+00	1.239700000000000003e-02
9.124999000000000748e+00	1.252099999999999914e-02
9.149999000000001104e+00	1.264200000000000046e-02
9.174998999999999683e+00	1.276599999999999957e-02
9.199999000000000038e+00	1.288500000000000062e-02
9.224998999999998617e+00	1.301199999999999926e-02
9.249999000000000748e+00	1.313399999999999984e-02
9.274999000000001104e+00	1.325100000000000063e-02
9.299998999999999683e+00	1.336399999999999914e-02
9.324999000000000038e+00	1.347899999999999966e-02
9.349998999999998617e+00	1.360699999999999930e-02
9.374999000000000748e+00	1.371099999999999923e-02
9.399998999999999327e+00	1.381899999999999969e-02
9.424998999999999683e+00	1.391700000000000055e-02
9.449999000000000038e+00	1.400599999999999935e-02
9.474999000000000393e+00	1.409400000000000062e-02
9.499999000000000748e+00	1.417900000000000063e-02
9.524998999999999327e+00	1.425000000000000051e-02
9.549998999999999683e+00	1.432199999999999966e-02
9.574999000000000038e+00	1.437599999999999989e-02
9.599999000000000393e+00	1.440699999999999967e-02
9.624999000000000748e+00	1.443599999999999918e-02
9.649998999999999327e+00	1.446000000000000063e-02
9.674998999999999683e+00	1.446799999999999996e-02
9.699999000000000038e+00	1.446199999999999916e-02
9.724999000000000393e+00	1.442900000000000085e-02
9.749999000000000748e+00	1.439900000000000034e-02
9.774998999999999327e+00	1.435299999999999944e-02
9.799998999999999683e+00	1.430200000000000048e-02
9.824999000000000038e+00	1.422700000000000006e-02
9.849999000000000393e+00	1.415399999999999991e-02
9.874999000000000748e+00	1.406699999999999964e-02
9.899998999999999327e+00	1.397100000000000078e-02
9.924998999999999683e+00	1.388200000000000024e-02
9.949999000000000038e+00	1.377899999999999958e-02
9.974999000000000393e+00	1.367299999999999939e-02
9.999999000000000748e+00	1.357300000000000000e-02
1.002499899999999933e+01	1.346999999999999933e-02
1.004999899999999968e+01	1.337400000000000047e-02
1.007499900000000004e+01	1.328200000000000040e-02
1.009999900000000039e+01	1.319299999999999987e-02
1.012499900000000075e+01	1.310200000000000080e-02
1.014999899999999933e+01	1.302200000000000059e-02
1.017499899999999968e+01	1.295600000000000050e-02
1.019999900000000004e+01	1.289000000000000042e-02
1.022499900000000039e+01	1.284099999999999998e-02
1.024999899999999897e+01	1.279100000000000029e-02
1.027499899999999933e+01	1.273700000000000006e-02
1.029999900000000146e+01	1.271300000000000034e-02
1.032499900000000004e+01	1.268099999999999956e-02
1.034999900000000039e+01	1.265699999999999985e-02
1.037499899999999897e+01	1.264599999999999926e-02
1.039999899999999933e+01	1.262399999999999980e-02
1.042499900000000146e+01	1.261499999999999948e-02
1.044999900000000004e+01	1.261699999999999974e-02
1.047499799999999937e+01	1.260400000000000062e-02
1.049999899999999897e+01	1.259900000000000082e-02
1.052499800000000008e+01	1.260599999999999915e-02
1.054999899999999968e+01	1.259799999999999982e-02
1.057499900000000004e+01	1.260000000000000009e-02
1.059999900000000039e+01	1.260700000000000015e-02
1.062499899999999897e+01	1.260799999999999942e-02
1.064999900000000110e+01	1.261299999999999921e-02
1.067499899999999968e+01	1.261600000000000048e-02
1.069999900000000004e+01	1.261199999999999995e-02
1.072499900000000039e+01	1.261299999999999921e-02
1.074999899999999897e+01	1.260499999999999989e-02
1.077499900000000110e+01	1.258899999999999950e-02
1.079999800000000043e+01	1.256299999999999951e-02
1.082499900000000004e+01	1.251700000000000035e-02
1.084999900000000039e+01	1.245699999999999932e-02
1.087499899999999897e+01	1.238399999999999918e-02
1.089999900000000110e+01	1.230000000000000017e-02
1.092499899999999968e+01	1.221200000000000063e-02
1.094999900000000004e+01	1.210600000000000044e-02
1.097499899999999862e+01	1.199199999999999919e-02
1.099999900000000075e+01	1.188200000000000020e-02
1.102499900000000110e+01	1.176199999999999989e-02
1.104999800000000043e+01	1.165099999999999990e-02
1.107499900000000004e+01	1.154499999999999971e-02
1.109999899999999862e+01	1.144099999999999978e-02
1.112499900000000075e+01	1.135199999999999924e-02
1.114999900000000110e+01	1.127399999999999930e-02
1.117499899999999968e+01	1.121100000000000048e-02
1.119999900000000004e+01	1.118000000000000070e-02
1.122499899999999862e+01	1.113950000000000010e-02
1.124999900000000075e+01	1.111799999999999941e-02
1.127499900000000110e+01	1.111299999999999961e-02
1.129999899999999968e+01	1.112750000000000024e-02
1.132499900000000004e+01	1.115200000000000045e-02
1.134999900000000039e+01	1.119400000000000082e-02
1.137499900000000075e+01	1.123850000000000023e-02
1.139999899999999933e+01	1.128350000000000013e-02
1.142499899999999968e+01	1.131350000000000064e-02
1.144999900000000004e+01	1.132000000000000020e-02
1.147499900000000039e+01	1.129149999999999945e-02
1.149999900000000075e+01	1.123449999999999969e-02
1.152499899999999933e+01	1.116200000000000005e-02
1.154999899999999968e+01	1.109249999999999993e-02
1.157499900000000004e+01	1.104549999999999976e-02
1.159999900000000039e+01	1.102299999999999981e-02
1.162499799999999972e+01	1.104199999999999973e-02
1.164999800000000008e+01	1.107400000000000051e-02
1.167499800000000043e+01	1.110700000000000055e-02
1.169999900000000004e+01	1.116600000000000058e-02
1.172499900000000039e+01	1.120499999999999968e-02
1.174999900000000075e+01	1.126500000000000071e-02
1.177499899999999933e+01	1.132299999999999973e-02
1.179999800000000043e+01	1.138800000000000055e-02
1.182499900000000004e+01	1.145700000000000017e-02
1.184999800000000114e+01	1.152399999999999952e-02
1.187499799999999972e+01	1.158000000000000002e-02
1.189999899999999933e+01	1.162299999999999965e-02
1.192499899999999968e+01	1.162799999999999945e-02
1.194999900000000004e+01	1.156000000000000083e-02
1.197499800000000114e+01	1.138899999999999982e-02
1.199999799999999972e+01	1.112199999999999994e-02
1.202499899999999933e+01	1.079699999999999931e-02
1.204999899999999968e+01	1.040499999999999932e-02
1.207499800000000079e+01	9.971000000000000696e-03
1.209999900000000039e+01	9.544999999999999665e-03
1.212499899999999897e+01	9.195999999999999314e-03
1.214999899999999933e+01	8.876000000000000209e-03
1.217499900000000146e+01	8.597999999999999740e-03
1.219999900000000004e+01	8.330999999999999864e-03
1.222499900000000039e+01	8.082000000000000642e-03
1.224999899999999897e+01	7.905000000000000568e-03
1.227499899999999933e+01	7.727000000000000361e-03
1.229999900000000146e+01	7.444000000000000096e-03
1.232499900000000004e+01	7.159000000000000433e-03
1.234999799999999937e+01	6.912999999999999874e-03
1.237499899999999897e+01	6.664999999999999918e-03
1.239999899999999933e+01	6.438000000000000146e-03
1.242499900000000146e+01	6.244000000000000418e-03
1.244999900000000004e+01	6.204999999999999578e-03
1.247499900000000039e+01	6.189000000000000057e-03
1.249999899999999897e+01	6.206999999999999844e-03
1.252499899999999933e+01	6.239999999999999887e-03
1.254999899999999968e+01	6.274000000000000063e-03
1.257499900000000004e+01	6.314000000000000168e-03
1.259999900000000039e+01	6.355000000000000406e-03
1.262499899999999897e+01	6.394999999999999643e-03
1.264999900000000110e+01	6.435999999999999881e-03
1.267499899999999968e+01	6.481999999999999915e-03
1.269999900000000004e+01	6.520999999999999887e-03
1.272499900000000039e+01	6.569000000000000186e-03
1.274999899999999897e+01	6.611999999999999822e-03
1.277499900000000110e+01	6.653000000000000060e-03
1.279999899999999968e+01	6.701999999999999624e-03
1.282499900000000004e+01	6.745000000000000127e-03
1.284999900000000039e+01	6.786000000000000365e-03
1.287499899999999897e+01	6.833999999999999797e-03
1.289999900000000110e+01	6.878999999999999698e-03
1.292499899999999968e+01	6.923000000000000334e-03
1.294999900000000004e+01	6.971999999999999899e-03
1.297499899999999862e+01	7.016999999999999800e-03
1.299999900000000075e+01	7.063999999999999967e-03
1.302499900000000110e+01	7.112000000000000266e-03
1.304999899999999968e+01	7.152999999999999636e-03
1.307499900000000004e+01	7.202000000000000068e-03
1.309999899999999862e+01	7.252999999999999899e-03
1.312499900000000075e+01	7.296000000000000402e-03
1.314999900000000110e+01	7.342999999999999701e-03
1.317499899999999968e+01	7.395999999999999797e-03
1.319999900000000004e+01	7.438000000000000167e-03
1.322499899999999862e+01	7.490000000000000130e-03
1.324999900000000075e+01	7.538000000000000429e-03
1.327499899999999933e+01	7.584999999999999729e-03
1.329999899999999968e+01	7.633000000000000028e-03
1.332499900000000004e+01	7.681000000000000327e-03
1.334999900000000039e+01	7.733000000000000290e-03
1.337499900000000075e+01	7.778000000000000191e-03
1.339999899999999933e+01	7.830999999999999420e-03
1.342499899999999968e+01	7.879000000000000586e-03
1.344999900000000004e+01	7.924000000000000488e-03
1.347499900000000039e+01	7.974000000000000185e-03
1.349999900000000075e+01	8.024999999999999148e-03
1.352499899999999933e+01	8.077000000000000846e-03
1.354999899999999968e+01	8.123999999999999277e-03
1.357499900000000004e+01	8.177999999999999506e-03
1.359999900000000039e+01	8.222999999999999407e-03
1.362499900000000075e+01	8.274000000000000105e-03
1.364999899999999933e+01	8.326000000000000068e-03
1.367499899999999968e+01	8.375000000000000500e-03
1.369999900000000004e+01	8.427000000000000463e-03
1.372499900000000039e+01	8.474000000000000629e-03
1.374999900000000075e+01	8.531000000000000388e-03
1.377499899999999933e+01	8.581000000000000086e-03
1.379999899999999968e+01	8.630000000000000518e-03
1.382499900000000004e+01	8.678999999999999215e-03
1.384999900000000039e+01	8.722999999999999851e-03
1.387499900000000075e+01	8.784999999999999407e-03
1.389999899999999933e+01	8.835000000000000839e-03
1.392499899999999968e+01	8.883000000000000271e-03
1.394999900000000004e+01	8.937999999999999765e-03
1.397499900000000039e+01	8.982999999999999666e-03
1.399999900000000075e+01	9.043999999999999956e-03
1.402499899999999933e+01	9.086000000000000326e-03
1.404999899999999968e+01	9.145999999999999616e-03
1.407499900000000004e+01	9.195999999999999314e-03
1.409999900000000039e+01	9.242999999999999480e-03
1.412499899999999897e+01	9.298000000000000709e-03
1.414999899999999933e+01	9.344999999999999141e-03
1.417499900000000146e+01	9.395000000000000573e-03
1.419999900000000004e+01	9.452000000000000332e-03
1.424999899999999897e+01	9.591000000000000567e-03
1.429999900000000146e+01	9.695000000000000492e-03
1.434999900000000039e+01	9.801000000000000684e-03
1.439999899999999933e+01	9.898000000000000548e-03
1.444999800000000079e+01	1.000799999999999954e-02
1.449999899999999897e+01	1.010800000000000066e-02
1.454999800000000043e+01	1.020599999999999979e-02
1.459999900000000039e+01	1.031800000000000078e-02
1.464999900000000110e+01	1.042399999999999924e-02
1.469999900000000004e+01	1.052900000000000016e-02
1.474999799999999972e+01	1.063000000000000056e-02
1.479999899999999968e+01	1.074100000000000055e-02
1.484999799999999937e+01	1.083300000000000061e-02
1.489999900000000110e+01	1.094999999999999966e-02
1.494999900000000004e+01	1.105100000000000006e-02
1.499999900000000075e+01	1.115099999999999945e-02
1.504999899999999968e+01	1.126599999999999997e-02
1.509999799999999937e+01	1.137699999999999996e-02
1.514999800000000008e+01	1.147699999999999936e-02
1.519999799999999901e+01	1.159199999999999987e-02
1.524999800000000150e+01	1.168899999999999974e-02
1.529999800000000043e+01	1.180299999999999926e-02
1.534999799999999937e+01	1.190699999999999918e-02
1.539999800000000008e+01	1.201699999999999990e-02
1.544999799999999901e+01	1.212700000000000063e-02
1.549999900000000075e+01	1.223899999999999988e-02
1.554999899999999968e+01	1.234200000000000054e-02
1.559999800000000114e+01	1.245300000000000053e-02
1.564999799999999830e+01	1.256400000000000051e-02
1.569999799999999901e+01	1.266300000000000064e-02
1.574999800000000150e+01	1.276099999999999977e-02
1.579999799999999865e+01	1.287199999999999976e-02
1.584999800000000114e+01	1.297700000000000069e-02
1.589999799999999830e+01	1.308299999999999914e-02
1.594999800000000079e+01	1.320499999999999972e-02
1.599999800000000150e+01	1.330899999999999965e-02
1.604999799999999865e+01	1.344099999999999982e-02
1.609999799999999937e+01	1.352700000000000083e-02
1.614999800000000008e+01	1.365199999999999921e-02
1.619999800000000079e+01	1.374500000000000027e-02
1.624999800000000150e+01	1.387999999999999998e-02
1.629999799999999865e+01	1.396599999999999925e-02
1.634999799999999937e+01	1.409000000000000009e-02
1.639999800000000008e+01	1.419800000000000055e-02
1.644999800000000079e+01	1.430799999999999954e-02
1.649999799999999794e+01	1.440800000000000067e-02
1.654999799999999865e+01	1.452499999999999972e-02
1.659999800000000292e+01	1.461299999999999925e-02
1.664999800000000008e+01	1.476000000000000055e-02
1.669999800000000079e+01	1.486200000000000021e-02
1.674999799999999794e+01	1.496600000000000014e-02
1.679999799999999865e+01	1.509899999999999957e-02
1.684999800000000292e+01	1.518199999999999932e-02
1.689999800000000008e+01	1.529999999999999936e-02
1.694999800000000079e+01	1.545299999999999972e-02
1.699999799999999794e+01	1.557799999999999983e-02
1.704999799999999865e+01	1.566400000000000084e-02
1.709999800000000292e+01	1.576699999999999977e-02
1.714999800000000008e+01	1.591300000000000006e-02
1.719999800000000079e+01	1.603699999999999917e-02
1.724999799999999794e+01	1.617499999999999841e-02
1.729999800000000221e+01	1.615350000000000119e-02
1.739999800000000008e+01	1.637500000000000067e-02
1.749999799999999794e+01	1.664300000000000154e-02
1.759999799999999937e+01	1.686949999999999908e-02
1.769999800000000079e+01	1.711499999999999827e-02
1.779999800000000221e+01	1.735149999999999887e-02
1.789999800000000008e+01	1.759099999999999900e-02
1.799999799999999794e+01	1.784849999999999978e-02
1.809999799999999937e+01	1.809749999999999900e-02
1.819999799999999723e+01	1.836199999999999985e-02
1.829999800000000221e+01	1.860550000000000051e-02
1.839999800000000008e+01	1.891299999999999926e-02
1.849999800000000150e+01	1.913899999999999976e-02
1.859999799999999937e+01	1.939950000000000008e-02
1.869999799999999723e+01	1.968299999999999911e-02
1.879999799999999865e+01	1.994800000000000045e-02
1.889999800000000008e+01	2.014700000000000171e-02
1.899999800000000150e+01	2.046550000000000105e-02
1.909999799999999937e+01	2.061800000000000091e-02
1.919999800000000079e+01	2.088800000000000032e-02
1.929999799999999865e+01	2.118000000000000091e-02
1.939999800000000008e+01	2.146199999999999844e-02
1.949999800000000150e+01	2.176000000000000156e-02
1.959999799999999937e+01	2.202899999999999997e-02
1.969999800000000079e+01	2.231500000000000150e-02
1.979999799999999865e+01	2.261700000000000169e-02
1.989999800000000008e+01	2.290299999999999975e-02
1.999999800000000150e+01	2.319799999999999987e-02
2.009999799999999937e+01	2.350400000000000059e-02
2.019999800000000079e+01	2.381600000000000036e-02
2.029999799999999865e+01	2.410899999999999849e-02
2.039999800000000008e+01	2.442300000000000026e-02
2.049999799999999794e+01	2.473300000000000151e-02
2.059999800000000292e+01	2.503999999999999976e-02
2.069999800000000079e+01	2.536899999999999919e-02
2.079999799999999865e+01	2.568700000000000150e-02
2.089999800000000008e+01	2.600799999999999987e-02
2.099999799999999794e+01	2.632500000000000118e-02
2.109999799999999937e+01	2.664400000000000102e-02
2.119999800000000079e+01	2.698599999999999957e-02
2.129999800000000221e+01	2.731300000000000047e-02
2.139999800000000008e+01	2.764399999999999843e-02
2.149999799999999794e+01	2.796999999999999834e-02
2.159999799999999937e+01	2.830799999999999983e-02
2.169999800000000079e+01	2.865200000000000038e-02
2.179999800000000221e+01	2.898500000000000035e-02
2.189999800000000008e+01	2.933600000000000096e-02
2.199999800000000150e+01	2.967099999999999946e-02
2.209999799999999937e+01	3.002600000000000061e-02
2.219999799999999723e+01	3.036000000000000157e-02
2.229999800000000221e+01	3.071000000000000119e-02
2.239999800000000008e+01	3.104700000000000168e-02
2.249999800000000150e+01	3.138300000000000117e-02
2.259999799999999937e+01	3.176299999999999957e-02
2.269999800000000079e+01	3.211300000000000265e-02
2.279999799999999865e+01	3.245800000000000074e-02
2.289999800000000008e+01	3.282100000000000295e-02
2.299999800000000150e+01	3.316100000000000297e-02
2.309999799999999937e+01	3.352700000000000125e-02
2.319999699999999976e+01	3.387799999999999839e-02
2.329999799999999865e+01	3.422900000000000248e-02
2.339999800000000008e+01	3.461399999999999894e-02
2.349999800000000150e+01	3.494599999999999790e-02
2.359999799999999937e+01	3.531499999999999917e-02
2.369999800000000079e+01	3.566899999999999932e-02
2.379999700000000118e+01	3.601100000000000134e-02
2.389999800000000008e+01	3.638199999999999767e-02
2.399999800000000150e+01	3.676700000000000107e-02
2.409999799999999937e+01	3.710499999999999909e-02
2.419999800000000079e+01	3.745699999999999724e-02
2.429999700000000118e+01	3.781600000000000239e-02
2.439999699999999905e+01	3.820799999999999891e-02
2.449999700000000047e+01	3.855900000000000299e-02
2.459999800000000292e+01	3.892199999999999827e-02
2.469999800000000079e+01	3.928299999999999847e-02
2.479999799999999865e+01	3.964100000000000262e-02
2.489999800000000008e+01	4.001400000000000096e-02
2.499999700000000047e+01	4.205199999999999910e-02
2.509999699999999834e+01	4.084800000000000236e-02
2.519999800000000079e+01	4.124400000000000288e-02
2.529999700000000118e+01	4.161150000000000265e-02
2.539999800000000008e+01	4.199800000000000061e-02
2.549999700000000047e+01	4.236750000000000238e-02
2.559999699999999834e+01	4.275999999999999940e-02
2.569999800000000079e+01	4.313399999999999873e-02
2.579999800000000221e+01	4.350400000000000100e-02
2.589999800000000008e+01	4.388999999999999846e-02
2.599999700000000047e+01	4.427650000000000335e-02
2.609999699999999834e+01	4.462850000000000150e-02
2.619999699999999976e+01	4.504350000000000021e-02
2.629999800000000221e+01	4.542050000000000254e-02
2.639999700000000260e+01	4.580599999999999949e-02
2.649999700000000047e+01	4.620599999999999707e-02
2.659999700000000189e+01	4.661799999999999972e-02
2.669999699999999976e+01	4.698549999999999949e-02
2.679999699999999763e+01	4.739299999999999763e-02
2.689999699999999905e+01	4.779950000000000171e-02
2.699999700000000047e+01	4.817099999999999854e-02
2.709999700000000189e+01	4.857600000000000112e-02
2.719999800000000079e+01	4.895250000000000296e-02
2.729999700000000118e+01	4.939849999999999797e-02
2.739999699999999905e+01	4.981599999999999917e-02
2.749999700000000047e+01	5.109899999999999859e-02
2.759999700000000189e+01	5.149549999999999961e-02
2.769999699999999976e+01	5.191699999999999787e-02
2.779999700000000118e+01	5.228250000000000258e-02
2.789999699999999905e+01	5.271950000000000247e-02
2.799999700000000047e+01	5.318099999999999911e-02
2.809999700000000189e+01	5.352099999999999913e-02
2.819999699999999976e+01	5.396600000000000008e-02
2.829999700000000118e+01	5.440799999999999803e-02
2.839999699999999905e+01	5.479599999999999749e-02
2.849999700000000047e+01	5.527649999999999925e-02
2.859999699999999834e+01	5.564249999999999752e-02
2.869999699999999976e+01	5.609100000000000197e-02
2.879999700000000118e+01	5.644949999999999968e-02
2.889999699999999905e+01	5.691949999999999787e-02
2.899999700000000047e+01	5.730099999999999777e-02
2.909999699999999834e+01	5.769900000000000029e-02
2.919999699999999976e+01	5.809700000000000281e-02
2.929999700000000118e+01	5.853850000000000026e-02
2.939999699999999905e+01	5.897150000000000308e-02
2.949999700000000047e+01	5.937749999999999972e-02
2.959999699999999834e+01	5.975300000000000056e-02
2.969999699999999976e+01	6.013750000000000345e-02
2.979999700000000118e+01	6.062549999999999883e-02
2.989999700000000260e+01	6.104550000000000254e-02
2.999999700000000047e+01	6.139950000000000269e-02
3.009999699999999834e+01	6.192000000000000282e-02
3.019999699999999976e+01	6.239399999999999807e-02
3.029999699999999763e+01	6.263199999999999323e-02
3.039999700000000260e+01	6.306699999999999806e-02
3.049999700000000047e+01	6.345800000000000052e-02
3.059999700000000189e+01	6.382300000000000473e-02
3.069999699999999976e+01	6.424599999999999755e-02
3.079999699999999763e+01	6.459399999999999864e-02
3.089999699999999905e+01	6.504799999999999471e-02
3.099999700000000047e+01	6.538199999999999568e-02
3.109999700000000189e+01	6.578699999999999826e-02
3.119999699999999976e+01	6.612899999999999334e-02
3.129999700000000473e+01	6.664100000000000579e-02
3.139999699999999905e+01	6.688299999999999801e-02
3.149999700000000047e+01	6.721499999999999697e-02
3.159999699999999834e+01	6.753299999999999581e-02
3.169999699999999976e+01	6.796699999999999964e-02
3.179999700000000473e+01	6.821800000000000086e-02
3.189999699999999905e+01	6.868200000000000693e-02
3.199999600000000299e+01	6.903399999999999814e-02
3.209999699999999478e+01	6.934300000000000186e-02
3.219999700000000331e+01	6.977700000000000569e-02
3.229999699999999763e+01	6.995600000000000429e-02
3.239999699999999905e+01	7.029699999999999838e-02
3.249999600000000299e+01	7.060400000000000009e-02
3.259999700000000189e+01	7.119200000000000528e-02
3.269999700000000331e+01	7.148799999999999599e-02
3.279999699999999763e+01	7.199500000000000344e-02
3.289999699999999905e+01	7.227699999999999403e-02
3.299999599999999589e+01	7.252200000000000313e-02
3.309999700000000189e+01	7.283499999999999697e-02
3.319999600000000584e+01	7.327699999999999492e-02
3.329999699999999763e+01	7.375400000000000011e-02
3.339999699999999905e+01	7.408099999999999408e-02
3.349999699999999336e+01	7.451599999999999890e-02
3.359999599999999731e+01	7.463699999999999501e-02
3.369999600000000584e+01	7.511199999999999821e-02
3.379999699999999763e+01	7.550700000000000467e-02
3.389999699999999905e+01	7.581899999999999751e-02
3.399999700000000047e+01	7.616499999999999659e-02
3.409999599999999731e+01	7.635699999999999432e-02
3.419999700000000331e+01	7.698099999999999388e-02
3.429999699999999763e+01	7.721600000000000685e-02
3.439999600000000157e+01	7.764400000000000468e-02
3.449999700000000047e+01	7.803699999999999526e-02
3.459999600000000441e+01	7.841099999999999459e-02
3.469999599999999873e+01	7.878999999999999893e-02
3.479999600000000015e+01	7.940700000000000536e-02
3.489999600000000157e+01	7.962299999999999933e-02
3.499999700000000047e+01	8.034299999999999775e-02
3.509999600000000441e+01	8.050699999999999523e-02
3.519999699999999621e+01	8.075599999999999445e-02
3.529999600000000015e+01	8.132799999999999752e-02
3.539999699999999905e+01	8.159199999999999786e-02
3.549999599999999589e+01	8.210900000000000143e-02
3.559999700000000189e+01	8.250899999999999901e-02
3.569999599999999873e+01	8.285900000000000210e-02
3.579999600000000015e+01	8.357799999999999951e-02
3.589999600000000157e+01	8.399800000000000322e-02
3.599999599999999589e+01	8.408599999999999408e-02
3.609999600000000441e+01	8.469999999999999751e-02
3.619999599999999873e+01	8.519400000000000583e-02
3.629999600000000015e+01	8.553900000000000392e-02
3.639999700000000615e+01	8.626999999999999946e-02
3.649999600000000299e+01	8.666300000000000392e-02
3.659999700000000189e+01	8.729099999999999360e-02
3.669999599999999873e+01	8.769399999999999418e-02
3.679999600000000015e+01	8.824400000000000299e-02
3.689999599999999447e+01	8.852300000000000446e-02
3.699999700000000047e+01	8.879499999999999893e-02
3.709999600000000441e+01	8.978700000000000570e-02
3.719999599999999873e+01	8.995799999999999630e-02
3.729999600000000015e+01	9.089899999999999369e-02
3.739999599999999447e+01	9.109299999999999342e-02
3.749999700000000047e+01	9.167799999999999561e-02
3.759999700000000189e+01	9.215099999999999680e-02
3.769999599999999873e+01	9.252299999999999414e-02
3.779999600000000015e+01	9.315400000000000069e-02
3.789999600000000157e+01	9.383700000000000374e-02
3.799999600000000299e+01	9.421300000000000507e-02
3.809999599999999731e+01	9.457200000000000328e-02
3.819999599999999873e+01	9.520399999999999696e-02
3.829999600000000015e+01	9.593799999999999550e-02
3.839999600000000157e+01	9.622999999999999610e-02
3.849999600000000299e+01	9.719899999999999374e-02
3.859999599999999731e+01	9.729400000000000548e-02
3.869999599999999873e+01	9.798500000000000265e-02
3.879999600000000015e+01	9.848400000000000210e-02
3.889999600000000157e+01	9.914800000000000002e-02
3.899999500000000552e+01	9.963099999999999734e-02
3.909999599999999731e+01	9.979399999999999382e-02
3.919999700000000331e+01	1.006039999999999990e-01
3.929999700000000473e+01	1.012470000000000037e-01
3.939999600000000157e+01	1.021589999999999998e-01
3.949999600000000299e+01	1.023529999999999995e-01
3.959999699999999478e+01	1.034830000000000055e-01
3.969999599999999873e+01	1.043489999999999973e-01
3.979999600000000015e+01	1.042519999999999974e-01
3.989999600000000157e+01	1.047860000000000041e-01
3.999999600000000299e+01	1.052229999999999971e-01
4.009999599999999731e+01	1.056760000000000060e-01
4.019999599999999873e+01	1.069220000000000032e-01
4.029999600000000015e+01	1.071720000000000034e-01
4.039999600000000157e+01	1.082629999999999981e-01
4.049999600000000299e+01	1.089760000000000034e-01
4.059999599999999731e+01	1.089360000000000051e-01
4.069999599999999873e+01	1.094379999999999936e-01
4.079999600000000015e+01	1.103139999999999954e-01
4.089999600000000157e+01	1.104229999999999934e-01
4.099999599999999589e+01	1.113490000000000035e-01
4.109999599999999731e+01	1.119870000000000032e-01
4.119999600000000584e+01	1.128490000000000049e-01
4.129999600000000015e+01	1.131080000000000002e-01
4.139999600000000157e+01	1.144259999999999999e-01
4.149999599999999589e+01	1.140599999999999947e-01
4.159999599999999731e+01	1.148990000000000011e-01
4.169999600000000584e+01	1.145520000000000010e-01
4.179999600000000015e+01	1.153239999999999960e-01
4.189999600000000157e+01	1.166729999999999989e-01
4.199999499999999841e+01	1.174599999999999950e-01
4.209999499999999983e+01	1.178850000000000037e-01
4.219999599999999873e+01	1.190839999999999954e-01
4.229999500000000268e+01	1.195559999999999956e-01
4.239999500000000410e+01	1.202330000000000065e-01
4.249999599999999589e+01	1.198800000000000004e-01
4.259999600000000441e+01	1.220190000000000025e-01
4.269999599999999873e+01	1.227639999999999981e-01
4.279999600000000015e+01	1.255020000000000024e-01
4.289999600000000157e+01	1.237970000000000043e-01
4.299999499999999841e+01	1.255000000000000004e-01
4.309999499999999983e+01	1.252359999999999862e-01
4.319999599999999873e+01	1.261279999999999901e-01
4.329999600000000015e+01	1.276130000000000042e-01
4.339999600000000157e+01	1.287729999999999986e-01
4.349999599999999589e+01	1.262659999999999894e-01
4.359999600000000441e+01	1.283380000000000076e-01
4.369999599999999873e+01	1.297939999999999927e-01
4.379999600000000015e+01	1.312520000000000076e-01
4.389999499999999699e+01	1.327689999999999981e-01
4.399999600000000299e+01	1.319940000000000002e-01
4.409999600000000441e+01	1.334079999999999988e-01
4.419999500000000126e+01	1.370139999999999969e-01
4.428006700000000251e+01	1.347389999999999977e-01
4.459862900000000252e+01	1.368570000000000064e-01
4.492180700000000115e+01	1.388880000000000114e-01
4.524970300000000378e+01	1.408530000000000060e-01
4.558242199999999400e+01	1.427839999999999943e-01
4.592006899999999803e+01	1.447199999999999875e-01
4.626275700000000057e+01	1.467080000000000051e-01
4.661059699999999850e+01	1.487980000000000136e-01
4.696370699999999943e+01	1.510450000000000126e-01
4.732220899999999375e+01	1.535070000000000046e-01
4.768622599999999778e+01	1.562399999999999900e-01
4.805588699999999847e+01	1.593009999999999982e-01
4.843132299999999901e+01	1.627429999999999988e-01
4.881267199999999917e+01	1.666159999999999863e-01
4.920007400000000075e+01	1.709630000000000039e-01
4.959367499999999751e+01	1.758230000000000071e-01
4.999362399999999695e+01	1.812229999999999952e-01
5.040007599999999854e+01	1.871819999999999873e-01
5.081319200000000080e+01	1.937059999999999893e-01
5.123313499999999721e+01	2.007889999999999953e-01
5.166007799999999861e+01	2.084090000000000109e-01
5.209419600000000372e+01	2.165279999999999982e-01
5.253567299999999562e+01	2.250919999999999865e-01
5.298469499999999499e+01	2.340270000000000128e-01
5.344146000000000640e+01	2.432360000000000078e-01
5.359999399999999525e+01	2.492590500000000098e-01
5.839999500000000410e+01	3.147076500000000054e-01
6.719999199999999462e+01	4.518732300000000146e-01
7.349999099999999430e+01	5.144844499999999821e-01
8.339999200000001167e+01	6.378305399999999459e-01
8.659999299999999778e+01	6.670833400000000246e-01
9.199999400000000094e+01	6.802050200000000491e-01
9.849999299999998925e+01	7.186068100000000403e-01
1.047999930000000006e+02	7.526820300000000019e-01
1.134999889999999994e+02	7.721122299999999550e-01
1.199999839999999978e+02	8.208823200000000542e-01
1.241999869999999930e+02	8.254117100000000207e-01
1.319999870000000044e+02	8.771630700000000447e-01
1.412999859999999899e+02	8.763495700000000221e-01
1.491999840000000006e+02	9.010470499999999605e-01
1.595999830000000088e+02	8.982948099999999991e-01
1.653999819999999943e+02	8.908572799999999736e-01
1.742999820000000000e+02	8.592299700000000096e-01
1.771202680000000100e+02	8.431389999999999718e-01
