1.880000000000000000e+02	2.950000000000008171e-02	4.351199999999999513e+00
1.920000000000000000e+02	1.525000000000003020e-01	4.650000000000000355e+00
1.950000000000000000e+02	2.177000000000002267e-01	4.833600000000000563e+00
1.990000000000000000e+02	2.219000000000002082e-01	5.022000000000000242e+00
2.030000000000000000e+02	1.604999999999994209e-01	5.150800000000000267e+00
2.070000000000000000e+02	1.967999999999996419e-01	5.377399999999999736e+00
2.120000000000000000e+02	2.004000000000001336e-01	5.575999999999999623e+00
2.160000000000000000e+02	1.694999999999997620e-01	5.744799999999999685e+00
2.210000000000000000e+02	1.029000000000004356e-01	5.881999999999999673e+00
2.260000000000000000e+02	3.469999999999995310e-02	6.020399999999999530e+00
2.310000000000000000e+02	7.080000000000019611e-02	6.265600000000000058e+00
2.370000000000000000e+02	7.200000000000006395e-02	6.479800000000000004e+00
2.430000000000000000e+02	0.000000000000000000e+00	6.624800000000000466e+00
2.490000000000000000e+02	-1.472000000000002196e-01	6.770400000000000418e+00
2.550000000000000000e+02	-2.991999999999994664e-01	6.990599999999999703e+00
2.620000000000000000e+02	-3.779999999999996696e-01	7.139199999999999768e+00
2.690000000000000000e+02	-5.375999999999998558e-01	7.363000000000000433e+00
2.760000000000000000e+02	-6.612999999999984446e-01	7.551599999999999646e+00
2.840000000000000000e+02	-9.039000000000001478e-01	7.696000000000000618e+00
2.920000000000000000e+02	-1.157099999999999795e+00	7.918000000000001037e+00
3.010000000000000000e+02	-1.336499999999999577e+00	8.146800000000000708e+00
3.110000000000000000e+02	-1.602899999999999547e+00	8.370000000000000995e+00
3.200000000000000000e+02	-1.922799999999999176e+00	8.630399999999999849e+00
3.320000000000000000e+02	-2.204799999999999205e+00	8.853600000000000136e+00
3.420000000000000000e+02	-2.505600000000000716e+00	9.163000000000002032e+00
3.540000000000000000e+02	-2.727999999999998870e+00	9.487799999999998235e+00
3.680000000000000000e+02	-3.135999999999999233e+00	9.790199999999998681e+00
3.810000000000000000e+02	-3.442499999999999893e+00	1.025279999999999880e+01
3.970000000000000000e+02	-3.666000000000001258e+00	1.074080000000000013e+01
4.130000000000000000e+02	-3.952399999999999025e+00	1.127999999999999936e+01
4.310000000000000000e+02	-4.166400000000000325e+00	1.194800000000000040e+01
4.510000000000000000e+02	-4.428300000000000125e+00	1.257559999999999967e+01
4.710000000000000000e+02	-4.567499999999999893e+00	1.340279999999999916e+01
4.960000000000000000e+02	-4.797100000000000364e+00	1.413000000000000078e+01
5.210000000000000000e+02	-5.050500000000000433e+00	1.498719999999999963e+01
5.490000000000000000e+02	-5.376800000000000246e+00	1.591740000000000066e+01
5.820000000000000000e+02	-5.663999999999999702e+00	1.694420000000000215e+01
6.170000000000000000e+02	-6.231500000000002260e+00	1.777079999999999771e+01
6.590000000000000000e+02	-6.768899999999999473e+00	1.868799999999999883e+01
7.040000000000000000e+02	-7.423999999999998600e+00	1.980719999999999814e+01
7.560000000000000000e+02	-7.998100000000000875e+00	2.111400000000000077e+01
8.210000000000000000e+02	-8.232000000000002871e+00	2.280980000000000274e+01
8.920000000000000000e+02	-8.651499999999995083e+00	2.482920000000000016e+01
9.840000000000000000e+02	-9.312499999999994671e+00	2.696999999999999886e+01
1.088000000000000000e+03	-9.630900000000002237e+00	2.989799999999999969e+01
1.216000000000000000e+03	-1.035720000000000063e+01	3.299040000000000106e+01
1.393000000000000000e+03	-1.187789999999999502e+01	3.664599999999999369e+01
1.610000000000000000e+03	-1.497970000000000113e+01	4.089959999999999951e+01
1.937000000000000000e+03	-2.027040000000000219e+01	4.629100000000000392e+01
