6.670000000000000000e+02	2.190000000000000002e-01
7.140000000000000000e+02	1.769999999999999907e-01
7.690000000000000000e+02	1.789999999999999925e-01
8.330000000000000000e+02	1.880000000000000004e-01
9.090000000000000000e+02	2.049999999999999878e-01
1.000000000000000000e+03	2.290000000000000091e-01
1.050000000000000000e+03	2.429999999999999938e-01
1.110000000000000000e+03	2.580000000000000071e-01
1.180000000000000000e+03	2.760000000000000231e-01
1.250000000000000000e+03	2.959999999999999853e-01
1.330000000000000000e+03	3.190000000000000058e-01
1.430000000000000000e+03	3.479999999999999760e-01
1.540000000000000000e+03	3.840000000000000080e-01
1.670000000000000000e+03	4.299999999999999933e-01
1.820000000000000000e+03	4.919999999999999929e-01
2.000000000000000000e+03	5.809999999999999609e-01
2.110000000000000000e+03	6.400000000000000133e-01
2.220000000000000000e+03	7.099999999999999645e-01
2.350000000000000000e+03	7.930000000000000382e-01
2.500000000000000000e+03	8.900000000000000133e-01
2.670000000000000000e+03	1.000000000000000000e+00
2.860000000000000000e+03	1.139999999999999902e+00
3.080000000000000000e+03	1.310000000000000053e+00
3.330000000000000000e+03	1.520000000000000018e+00
3.640000000000000000e+03	1.810000000000000053e+00
4.000000000000000000e+03	2.200000000000000178e+00
4.440000000000000000e+03	2.740000000000000213e+00
5.000000000000000000e+03	3.500000000000000000e+00
5.710000000000000000e+03	4.540000000000000036e+00
6.670000000000000000e+03	6.030000000000000249e+00
8.000000000000000000e+03	8.289999999999999147e+00
1.000000000000000000e+04	1.209999999999999964e+01
1.110000000000000000e+04	1.469999999999999929e+01
1.250000000000000000e+04	1.819999999999999929e+01
1.430000000000000000e+04	2.300000000000000000e+01
1.670000000000000000e+04	2.980000000000000071e+01
2.000000000000000000e+04	3.989999999999999858e+01
2.220000000000000000e+04	4.679999999999999716e+01
2.500000000000000000e+04	5.479999999999999716e+01
2.860000000000000000e+04	6.429999999999999716e+01
3.330000000000000000e+04	7.640000000000000568e+01
4.000000000000000000e+04	9.350000000000000000e+01
4.440000000000000000e+04	1.050000000000000000e+02
5.000000000000000000e+04	1.190000000000000000e+02
5.710000000000000000e+04	1.370000000000000000e+02
6.670000000000000000e+04	1.600000000000000000e+02
8.000000000000000000e+04	1.880000000000000000e+02
1.000000000000000000e+05	2.250000000000000000e+02
1.250000000000000000e+05	2.630000000000000000e+02
1.540000000000000000e+05	3.020000000000000000e+02
2.000000000000000000e+05	3.560000000000000000e+02
2.860000000000000000e+05	4.470000000000000000e+02
