 150.00000	   1.20750
 155.00000	   1.30794
 160.00000	   1.31481
 165.00000	   1.28596
 170.00000	   1.33006
 175.00000	   1.36610
 180.00000	   1.39020
 185.00000	   1.40919
 190.00000	   1.44491
 195.00000	   1.39972
 200.00000	   1.40539
 205.00000	   1.46613
 210.00000	   1.56742
 215.00000	   1.79467
 220.00000	   2.04787
 225.00000	   2.17557
 230.00000	   2.23048
 235.00000	   2.25256
 240.00000	   2.29187
 245.00000	   2.31797
 250.00000	   2.37590
 255.00000	   2.50761
 260.00000	   2.71226
 265.00000	   2.85758
 270.00000	   3.04014
 275.00000	   3.18410
 280.00000	   3.31452
 285.00000	   3.39432
 290.00000	   3.52086
 295.00000	   3.62422
 300.00000	   3.64065
 305.00000	   3.64137
 310.00000	   3.60010
 315.00000	   3.56248
 320.00000	   3.53892
 325.00000	   3.49407
 330.00000	   3.44789
 335.00000	   3.39365
 340.00000	   3.33408
 345.00000	   3.25558
 350.00000	   3.18909
 355.00000	   3.13522
 360.00000	   3.08289
 365.00000	   3.03127
 370.00000	   2.98581
 375.00000	   2.94888
 380.00000	   2.91151
 385.00000	   2.87376
 390.00000	   2.84311
 395.00000	   2.81214
 400.00000	   2.78083
 405.00000	   2.76169
 410.00000	   2.74785
 415.00000	   2.73394
 420.00000	   2.71994
 425.00000	   2.70587
 430.00000	   2.69173
 435.00000	   2.67756
 440.00000	   2.66358
 445.00000	   2.64953
 450.00000	   2.63540
 455.00000	   2.62121
 460.00000	   2.60694
 465.00000	   2.59259
 470.00000	   2.57816
 475.00000	   2.56365
 480.00000	   2.55202
 485.00000	   2.54754
 490.00000	   2.54306
 495.00000	   2.53856
 500.00000	   2.53405
 505.00000	   2.52954
 510.00000	   2.52502
 515.00000	   2.52049
 520.00000	   2.51596
 525.00000	   2.51142
 530.00000	   2.50687
 535.00000	   2.50170
 540.00000	   2.49560
 545.00000	   2.48948
 550.00000	   2.48334
 555.00000	   2.47719
 560.00000	   2.47103
 565.00000	   2.46485
 570.00000	   2.45866
 575.00000	   2.45245
 580.00000	   2.44623
 585.00000	   2.43999
 590.00000	   2.43600
 595.00000	   2.43398
 600.00000	   2.43196
 605.00000	   2.42993
 610.00000	   2.42791
 615.00000	   2.42588
 620.00000	   2.42385
 625.00000	   2.42182
 630.00000	   2.41978
 635.00000	   2.41775
 640.00000	   2.41571
 645.00000	   2.41367
 650.00000	   2.41163
 655.00000	   2.40959
 660.00000	   2.40755
 665.00000	   2.40550
 670.00000	   2.40345
 675.00000	   2.40225
 680.00000	   2.40142
 685.00000	   2.40058
 690.00000	   2.39975
 695.00000	   2.39892
 700.00000	   2.39809
 705.00000	   2.39726
 710.00000	   2.39643
 715.00000	   2.39560
 720.00000	   2.39477
 725.00000	   2.39394
 730.00000	   2.39311
 735.00000	   2.39228
 740.00000	   2.39145
 745.00000	   2.39062
 750.00000	   2.38979
 755.00000	   2.38895
 760.00000	   2.38812
 765.00000	   2.38729
 770.00000	   2.38646
 775.00000	   2.38562
 780.00000	   2.38476
 785.00000	   2.38388
 790.00000	   2.38301
 795.00000	   2.38214
 800.00000	   2.38127
 805.00000	   2.38039
 810.00000	   2.37952
 815.00000	   2.37864
 820.00000	   2.37777
 825.00000	   2.37689
 830.00000	   2.37602
 835.00000	   2.37514
 840.00000	   2.37427
 845.00000	   2.37339
 850.00000	   2.37251
 855.00000	   2.37164
 860.00000	   2.37076
 865.00000	   2.36988
 870.00000	   2.36900
 875.00000	   2.36813
 880.00000	   2.36680
 885.00000	   2.36544
 890.00000	   2.36408
 895.00000	   2.36273
 900.00000	   2.36137
 905.00000	   2.36001
 910.00000	   2.35864
 915.00000	   2.35728
 920.00000	   2.35592
 925.00000	   2.35456
 930.00000	   2.35319
 935.00000	   2.35183
 940.00000	   2.35046
 945.00000	   2.34909
 950.00000	   2.34773
 955.00000	   2.34636
 960.00000	   2.34499
 965.00000	   2.34362
 970.00000	   2.34225
 975.00000	   2.34088
 980.00000	   2.33951
 985.00000	   2.33813
 990.00000	   2.33676
 995.00000	   2.33538
1000.00000	   2.33401
