225.45	2.522	0.0269
248	2.406	0.0013
275.56	2.324	0.0013
310	2.262	0.0002
354.29	2.225	0
413.33	2.188	0
496	2.171	0
620	2.164	0
826.67	2.175	0
1240	2.193	0
1377.6	2.192	0
1549.8	2.189	0
1771.1	2.186	0.0001
2066.3	2.181	0.0001
