339.68	0.99
344.4	1
349.25	1.01
354.24	1.01
359.37	1.02
364.66	1.02
370.1	1.02
375.71	1.02
381.49	1.02
387.45	1.02
393.6	1.02
399.95	1.01
406.51	1.01
413.28	1.01
420.29	1.01
427.53	1.01
435.03	1.01
442.8	1.01
450.85	1.02
459.2	1.03
467.86	1.06
476.86	1.09
486.21	1.11
495.94	1.15
506.06	1.19
516.6	1.22
527.59	1.26
539.06	1.3
551.04	1.35
563.56	1.39
576.67	1.44
590.4	1.49
604.8	1.55
619.92	1.62
635.82	1.69
652.55	1.77
670.18	1.86
688.8	1.95
708.48	2.06
729.32	2.19
751.42	2.32
774.9	2.48
799.9	2.67
826.56	2.89
855.06	3.15
885.6	3.4
918.4	3.68
953.72	3.98
991.87	4.33
1033.2	4.71
1078.1	5.14
1127.1	5.76
1180.8	6.4201
1239.8	7.08
1305.1	7.8
1377.6	8.58
1458.6	9.9
1549.8	11.7
1653.1	13.6
