1.009999999999999964e+01	3.369400000000000173e-02
1.040000000000000036e+01	4.925000000000000211e-02
1.069999999999999929e+01	3.372800000000000104e-02
1.100000000000000000e+01	1.579200000000000048e-02
1.129999999999999893e+01	3.142400000000000054e-02
1.159999999999999964e+01	3.342200000000000032e-02
1.190000000000000036e+01	1.969999999999999876e-02
1.230000000000000071e+01	2.160399999999999820e-02
1.269999999999999929e+01	4.303199999999999387e-02
1.310000000000000142e+01	6.026399999999999813e-02
1.359999999999999964e+01	7.573799999999999977e-02
1.359999999999999964e+01	8.139599999999999613e-02
1.400000000000000000e+01	7.432799999999999130e-02
1.400000000000000000e+01	5.831999999999999684e-02
1.450000000000000000e+01	8.588799999999999213e-02
1.450000000000000000e+01	8.181599999999999984e-02
1.510000000000000142e+01	9.934799999999999187e-02
1.569999999999999929e+01	1.070300000000000001e-01
1.629999999999999716e+01	9.174399999999999222e-02
1.700000000000000000e+01	7.995000000000000717e-02
1.780000000000000071e+01	8.518399999999999583e-02
1.859999999999999787e+01	8.509599999999999109e-02
1.950000000000000000e+01	9.670000000000000817e-02
2.050000000000000000e+01	9.700000000000000289e-02
2.160000000000000142e+01	1.027139999999999997e-01
2.289999999999999858e+01	1.210859999999999992e-01
2.419999999999999929e+01	1.264560000000000128e-01
2.580000000000000071e+01	1.290640000000000120e-01
2.759999999999999787e+01	1.579200000000000048e-01
2.960000000000000142e+01	1.724220000000000197e-01
3.200000000000000000e+01	1.951680000000000081e-01
3.479999999999999716e+01	2.494800000000000351e-01
3.810000000000000142e+01	3.238400000000000167e-01
4.210000000000000142e+01	4.125279999999999503e-01
