2.065999999999999943e+02	1.302970328890000085e+00
2.108950831900000082e+02	1.321845042659999914e+00
2.152794584390000239e+02	1.343298321680000074e+00
2.197549820749999867e+02	1.366721757849999941e+00
2.243235490120000009e+02	1.391383122749999979e+00
2.289870935639999914e+02	1.416474775710000022e+00
2.337475902550000058e+02	1.441154422070000107e+00
2.386070546569999919e+02	1.464577071109999906e+00
2.435675442480000186e+02	1.485918388800000045e+00
2.486311592760000053e+02	1.504390481810000013e+00
2.538000436549999677e+02	1.519251754679999955e+00
2.590763858669999991e+02	1.529813112190000046e+00
2.644624198930000034e+02	1.535443627390000065e+00
2.699604261560000396e+02	1.535579930249999947e+00
2.755727324880000424e+02	1.529744866659999980e+00
2.813017151159999685e+02	1.517582034449999950e+00
2.871497996649999891e+02	1.498912845290000018e+00
2.931194621889999894e+02	1.473820525670000103e+00
2.992132302170000457e+02	1.442759137459999952e+00
3.054336838240000134e+02	1.406673262510000022e+00
3.117834567230000289e+02	1.367094964040000082e+00
3.182652373809999631e+02	1.326164098200000030e+00
3.248817701539999803e+02	1.286511378849999998e+00
3.316358564540000202e+02	1.250972932710000096e+00
3.385303559319999636e+02	1.222176822550000042e+00
3.455681876890000126e+02	1.202119492710000070e+00
3.527523315119999552e+02	1.191869428139999965e+00
3.600858291360000294e+02	1.191473140690000099e+00
3.675717855330000248e+02	1.200045328619999907e+00
3.752133702229999699e+02	1.215968197800000095e+00
3.830138186209999844e+02	1.237123251180000105e+00
3.909764334019999978e+02	1.261106830019999903e+00
3.991045859030000429e+02	1.285409417369999918e+00
4.074017175479999651e+02	1.307556350979999893e+00
4.158713413060000335e+02	1.325215143659999928e+00
4.245170431799999733e+02	1.336276670239999964e+00
4.333424837219999972e+02	1.338917577529999958e+00
4.423513995839999779e+02	1.331651106820000097e+00
4.515476051040000129e+02	1.313373488309999892e+00
4.609349939130000280e+02	1.283412756830000001e+00
4.705175405919999889e+02	1.241585146430000064e+00
4.802993023489999587e+02	1.188259356489999918e+00
4.902844207400000300e+02	1.124418933390000097e+00
5.004771234199999412e+02	1.051697515619999912e+00
5.108817259350000199e+02	9.723462590460000277e-01
5.215026335489999383e+02	8.890917604760000259e-01
5.323443431069999860e+02	8.048727832700000029e-01
5.434114449429999922e+02	7.225025263090000260e-01
5.547086248179999757e+02	6.443534374539999776e-01
5.662406659099999615e+02	5.721589892539999944e-01
5.780124508349999815e+02	5.069693729599999976e-01
5.900289637150000317e+02	4.492317454390000186e-01
6.022952922890000309e+02	3.989336681460000089e-01
6.148166300679999949e+02	3.557548202959999739e-01
6.275982785319999948e+02	3.191955208650000264e-01
6.406456493740000724e+02	2.886718573909999863e-01
6.539642667949999577e+02	2.635795116319999964e-01
6.675597698389999550e+02	2.433330257949999909e-01
6.814379147839999860e+02	2.273876521379999960e-01
6.956045775750000075e+02	2.152496578929999904e-01
7.100657563150000442e+02	2.064793781239999959e-01
7.248275738060000322e+02	2.006899537329999983e-01
7.398962801349999836e+02	1.975436822430000072e-01
7.552782553289999896e+02	1.967472085399999959e-01
7.709800120469999456e+02	1.980463156510000045e-01
7.870081983459999719e+02	2.012207710799999993e-01
8.033696004889999358e+02	2.060794883750000084e-01
8.200711458239999274e+02	2.124561389440000059e-01
8.371199057119999907e+02	2.202052706969999940e-01
8.545230985230000442e+02	2.291989415529999963e-01
8.722880926929999532e+02	2.393238467100000100e-01
8.904224098449999474e+02	2.504789020589999748e-01
9.089337279679999710e+02	2.625732378010000034e-01
9.278298846739999135e+02	2.755245532480000148e-01
9.471188805139998976e+02	2.892577841810000105e-01
9.668088823649999313e+02	3.037040364929999847e-01
9.869082268869999552e+02	3.187997435039999772e-01
1.007425424060000068e+03	3.344860085349999901e-01
1.028369160760000113e+03	3.507080988169999913e-01
1.049748304499999904e+03	3.674150611909999808e-01
1.071571907089999968e+03	3.845594342970000135e-01
1.093849208569999973e+03	4.020970358100000031e-01
1.116589641029999939e+03	4.199868068440000268e-01
1.139802832690000059e+03	4.381906987729999869e-01
1.163498611909999909e+03	4.566735904940000257e-01
1.187687011369999937e+03	4.754032265450000017e-01
1.212378272350000088e+03	4.943501685530000134e-01
1.237582849000000124e+03	5.134877541960000125e-01
1.263311412850000124e+03	5.327920593530000026e-01
1.289574857250000150e+03	5.522418602809999744e-01
1.316384302029999844e+03	5.718185936609999631e-01
1.343751098189999993e+03	5.915063131340000391e-01
1.371686832710000090e+03	6.112916415729999775e-01
1.400203333469999961e+03	6.311637188380000429e-01
1.429312674219999963e+03	6.511141451080000309e-01
1.459027179740000065e+03	6.711369201750000402e-01
1.489359431009999980e+03	6.912283792719999820e-01
1.520322270590000016e+03	7.113871261280000358e-01
1.551928807989999996e+03	7.316139640309999859e-01
1.584192425289999846e+03	7.519118256960000135e-01
1.617126782770000091e+03	7.722857027459999468e-01
1.650745824690000063e+03	7.927425755920000094e-01
1.685063785200000211e+03	8.132913444529999980e-01
1.720095194389999961e+03	8.339427621880000085e-01
1.755854884389999825e+03	8.547093695890000120e-01
1.792357995699999947e+03	8.756054336659999660e-01
1.829619983589999947e+03	8.966468894300000381e-01
1.867656624609999881e+03	9.178512855870000209e-01
1.906484023309999884e+03	9.392377344919999871e-01
1.946118619050000007e+03	9.608268666660000346e-01
1.986577192940000032e+03	9.826407901000000500e-01
2.027876874970000017e+03	1.004703054519999972e+00
2.070035151229999883e+03	1.027038620769999966e+00
2.113069871369999873e+03	1.049673835339999917e+00
2.156999256090000017e+03	1.072636410199999890e+00
2.201841904900000372e+03	1.095955407830000006e+00
2.247616803990000335e+03	1.119661231470000073e+00
2.294343334250000225e+03	1.143785620729999897e+00
2.342041279489999852e+03	1.168361652119999983e+00
2.390730834810000033e+03	1.193423744940000031e+00
2.440432615160000296e+03	1.219007671990000041e+00
2.491167664049999985e+03	1.245150575290000061e+00
2.542957462479999776e+03	1.271890986679999891e+00
2.595823938040000030e+03	1.299268853150000069e+00
2.649789474140000038e+03	1.327325566789999911e+00
2.704876919580000049e+03	1.356103999399999926e+00
2.761109598120000101e+03	1.385648541549999946e+00
2.818511318450000090e+03	1.416005146070000054e+00
2.877106384200000321e+03	1.447221375880000105e+00
2.936919604270000036e+03	1.479346456080000038e+00
2.997976303310000276e+03	1.512431330270000096e+00
3.060302332459999889e+03	1.546528721060000056e+00
3.123924080300000242e+03	1.581693194609999908e+00
3.188868484000000080e+03	1.617981229399999998e+00
3.255163040720000026e+03	1.655451288879999927e+00
3.322835819309999806e+03	1.694163898320000028e+00
3.391915472109999882e+03	1.734181725580000055e+00
3.462431247160000112e+03	1.775569665969999988e+00
3.534413000529999863e+03	1.818394931070000053e+00
3.607891208969999752e+03	1.862727141669999975e+00
3.682896982839999964e+03	1.908638424669999889e+00
3.759462079259999882e+03	1.956203514190000048e+00
3.837618915560000005e+03	2.005499856640000189e+00
3.917400582990000203e+03	2.056607720060000144e+00
3.998840860780000185e+03	2.109610307560000120e+00
4.081974230380000336e+03	2.164593875040000004e+00
4.166835890100000142e+03	2.221647853109999904e+00
4.253461769989999993e+03	2.280864973439999943e+00
4.341888547079999626e+03	2.342341399339999963e+00
4.432153660879999734e+03	2.406176860840000042e+00
4.524295329229999879e+03	2.472474794240000051e+00
4.618352564540000458e+03	2.541342486090000019e+00
4.714365190210000037e+03	2.612891221819999998e+00
4.812373857579999822e+03	2.687236438929999860e+00
4.912420063089999530e+03	2.764497884759999913e+00
5.014546165869999641e+03	2.844799779040000143e+00
5.118795405660000142e+03	2.928270981049999833e+00
5.225211921139999504e+03	3.015045161509999794e+00
5.333840768600000047e+03	3.105260979220000106e+00
5.444727941019999889e+03	3.199062262440000026e+00
5.557920387539999865e+03	3.296598194860000053e+00
5.673466033360000438e+03	3.398023506429999951e+00
5.791413799990000371e+03	3.503498668679999817e+00
5.911813626019999901e+03	3.613190094740000191e+00
6.034716488199999731e+03	3.727270343739999880e+00
6.160174423059999754e+03	3.845918329759999921e+00
6.288240548960000524e+03	3.969319534919999892e+00
6.418969088519999787e+03	4.097666226770000364e+00
6.552415391660000751e+03	4.231157679459999876e+00
6.688635958939999909e+03	4.370000398850000245e+00
6.827688465569999607e+03	4.514408351050000157e+00
6.969631785759999730e+03	4.664603194189999691e+00
7.114526017720000709e+03	4.820814513250000211e+00
7.262432509010000103e+03	4.983280057340000013e+00
7.413413882609999746e+03	5.152245979329999948e+00
7.567534063369999785e+03	5.327967077130000284e+00
7.724858305109999492e+03	5.510707036290000360e+00
7.885453218220000053e+03	5.700738673360000064e+00
8.049386797889999798e+03	5.898344179280000432e+00
8.216728452889999971e+03	6.103815362349999774e+00
8.387549034949999623e+03	6.317453889870000339e+00
8.561920868740000515e+03	6.539571527749999724e+00
8.739917782559999978e+03	6.770490377239999802e+00
8.921615139519999502e+03	7.010543107720000222e+00
9.107089869479999834e+03	7.260073184750000408e+00
9.296420501650000006e+03	7.519435092110000163e+00
9.489687197780000133e+03	7.788994546659999685e+00
9.686971786160000192e+03	8.069128704869999780e+00
9.888357796210000743e+03	8.360226359620000380e+00
1.009393049389999942e+04	8.662688125720000798e+00
1.030377691779999986e+04	8.976926612790000704e+00
1.051798591600000145e+04	9.303366583749999918e+00
1.073664818369999921e+04	9.642445097230000428e+00
1.095985630140000103e+04	9.994611632099999809e+00
1.118770477460000075e+04	1.036032819220000079e+01
1.142029007330000059e+04	1.074006938910000031e+01
1.165771067310000035e+04	1.113432250149999980e+01
1.190006709680000131e+04	1.154358750759999985e+01
1.214746195720000105e+04	1.196837709020000062e+01
1.240000000000000000e+04	1.240921661019999966e+01
