1.164000000000000057e+02	8.100000000000000255e-02
1.197999999999999972e+02	1.019999999999999934e-01
1.233999999999999915e+02	1.079999999999999988e-01
1.272000000000000028e+02	1.189999999999999947e-01
1.312000000000000171e+02	1.300000000000000044e-01
1.355000000000000000e+02	1.439999999999999891e-01
1.400999999999999943e+02	1.640000000000000069e-01
1.450000000000000000e+02	1.890000000000000013e-01
1.502999999999999829e+02	2.129999999999999949e-01
1.560000000000000000e+02	2.459999999999999964e-01
1.620999999999999943e+02	2.819999999999999729e-01
1.686999999999999886e+02	3.200000000000000067e-01
1.759000000000000057e+02	3.639999999999999902e-01
1.836999999999999886e+02	4.069999999999999729e-01
1.922000000000000171e+02	4.600000000000000200e-01
2.015999999999999943e+02	5.220000000000000195e-01
2.119000000000000057e+02	5.939999999999999725e-01
2.233999999999999773e+02	6.879999999999999449e-01
2.361999999999999886e+02	7.950000000000000400e-01
2.505000000000000000e+02	9.060000000000000275e-01
2.666000000000000227e+02	1.010000000000000009e+00
2.850000000000000000e+02	1.110000000000000098e+00
3.060999999999999659e+02	1.209999999999999964e+00
3.306000000000000227e+02	1.320000000000000062e+00
3.593999999999999773e+02	1.449999999999999956e+00
3.936000000000000227e+02	1.600000000000000089e+00
4.350000000000000000e+02	1.820000000000000062e+00
4.862000000000000455e+02	2.109999999999999876e+00
5.510000000000000000e+02	2.479999999999999982e+00
6.358000000000000682e+02	2.939999999999999947e+00
7.513999999999999773e+02	3.540000000000000036e+00
9.183999999999999773e+02	4.360000000000000320e+00
1.181000000000000000e+03	5.580000000000000071e+00
1.653000000000000000e+03	7.679999999999999716e+00
2.755000000000000000e+03	1.259999999999999964e+01
8.266000000000000000e+03	3.800000000000000000e+01
