2.637999999999999545e+02	1.606977000000000189e+01
2.651999999999999886e+02	1.660429800000000000e+01
2.666000000000000227e+02	1.718384000000000000e+01
2.681000000000000227e+02	1.794794399999999612e+01
2.695000000000000000e+02	1.868507999999999925e+01
2.710000000000000000e+02	1.965505200000000130e+01
2.725000000000000000e+02	2.050258799999999937e+01
2.740000000000000000e+02	2.186776000000000053e+01
2.755000000000000000e+02	2.299875600000000020e+01
2.771000000000000227e+02	2.458028399999999891e+01
2.786000000000000227e+02	2.591539200000000065e+01
2.801999999999999886e+02	2.750035199999999946e+01
2.818000000000000114e+02	2.944141199999999969e+01
2.833999999999999773e+02	3.140853599999999801e+01
2.850000000000000000e+02	3.332925200000000387e+01
2.866999999999999886e+02	3.538034799999999791e+01
2.883000000000000114e+02	3.779048000000000229e+01
2.900000000000000000e+02	4.008697599999999994e+01
2.916999999999999886e+02	4.238058000000000192e+01
2.935000000000000000e+02	4.394304000000000343e+01
2.952000000000000455e+02	4.494435200000000208e+01
2.970000000000000000e+02	4.509011999999999887e+01
2.988000000000000114e+02	4.469516399999999834e+01
3.005999999999999659e+02	4.391036400000000128e+01
3.023999999999999773e+02	4.296864000000000061e+01
3.043000000000000114e+02	4.196116799999999358e+01
3.060999999999999659e+02	4.089246999999999588e+01
3.080000000000000000e+02	3.951194399999999973e+01
3.100000000000000000e+02	3.860533600000000121e+01
3.119000000000000341e+02	3.770550000000000068e+01
3.139000000000000341e+02	3.688365999999999190e+01
3.159000000000000341e+02	3.602940000000000254e+01
3.179000000000000341e+02	3.535610400000000197e+01
3.200000000000000000e+02	3.464679600000000192e+01
3.220000000000000000e+02	3.416792399999999930e+01
3.241000000000000227e+02	3.367308600000000496e+01
3.262999999999999545e+02	3.323676000000000386e+01
3.284000000000000341e+02	3.265138999999999925e+01
3.306000000000000227e+02	3.230239999999999867e+01
3.328000000000000114e+02	3.212083200000000005e+01
3.351000000000000227e+02	3.167337600000000108e+01
3.373999999999999773e+02	3.152391199999999927e+01
3.396999999999999886e+02	3.130961399999999628e+01
3.420000000000000000e+02	3.110230199999999812e+01
3.443999999999999773e+02	3.098488800000000154e+01
3.468000000000000114e+02	3.088400400000000090e+01
3.493000000000000114e+02	3.096131199999999950e+01
3.516999999999999886e+02	3.098774399999999929e+01
3.541999999999999886e+02	3.117769200000000041e+01
3.568000000000000114e+02	3.138798600000000150e+01
3.593999999999999773e+02	3.172646400000000000e+01
3.620000000000000000e+02	3.206509799999999899e+01
3.647000000000000455e+02	3.234650999999999499e+01
3.673999999999999773e+02	3.240486400000000344e+01
3.700999999999999659e+02	3.172924800000000189e+01
3.729000000000000341e+02	3.023859200000000058e+01
3.756999999999999886e+02	2.749280999999999864e+01
3.785999999999999659e+02	2.389811200000000113e+01
3.815000000000000000e+02	1.962784800000000018e+01
3.844000000000000341e+02	1.622522800000000132e+01
3.875000000000000000e+02	1.308268799999999921e+01
3.905000000000000000e+02	1.044335599999999964e+01
3.936000000000000227e+02	8.554244000000000625e+00
3.966999999999999886e+02	7.307147999999999755e+00
3.998999999999999773e+02	5.924603999999999537e+00
4.031999999999999886e+02	5.008078000000000252e+00
4.065000000000000000e+02	4.359935999999999368e+00
4.098999999999999773e+02	3.659823999999999966e+00
4.133000000000000114e+02	3.199735999999999692e+00
4.168000000000000114e+02	2.762751999999999875e+00
4.203000000000000114e+02	2.401928000000000285e+00
4.238999999999999773e+02	2.189484000000000208e+00
4.275000000000000000e+02	1.930587999999999971e+00
4.312000000000000455e+02	1.691872000000000043e+00
4.350000000000000000e+02	1.420151999999999637e+00
4.389000000000000341e+02	1.361779999999999990e+00
4.428000000000000114e+02	1.209335999999999967e+00
4.467999999999999545e+02	1.069420000000000037e+00
4.509000000000000341e+02	9.619999999999999662e-01
4.550000000000000000e+02	8.476359999999998340e-01
4.591999999999999886e+02	7.729320000000000634e-01
4.635000000000000000e+02	6.816739999999998911e-01
4.678999999999999773e+02	6.291360000000001396e-01
4.723000000000000114e+02	5.592479999999999674e-01
4.768999999999999773e+02	4.728879999999999750e-01
4.815000000000000000e+02	3.878599999999999270e-01
4.862000000000000455e+02	3.578399999999999914e-01
4.910000000000000000e+02	3.549600000000000533e-01
4.959000000000000341e+02	3.171599999999999975e-01
5.009000000000000341e+02	2.711879999999999846e-01
5.061000000000000227e+02	2.432080000000000075e-01
5.112999999999999545e+02	2.156000000000000139e-01
5.165999999999999091e+02	1.885399999999999854e-01
5.220000000000000000e+02	1.532519999999999716e-01
5.275999999999999091e+02	1.269599999999999895e-01
5.332999999999999545e+02	1.094339999999999896e-01
5.391000000000000227e+02	1.004399999999999876e-01
5.450000000000000000e+02	1.081859999999999905e-01
5.510000000000000000e+02	8.278000000000000635e-02
5.572000000000000455e+02	8.236000000000000265e-02
5.636000000000000227e+02	7.212480000000000280e-02
5.700000000000000000e+02	6.526400000000000257e-02
5.767000000000000455e+02	5.683999999999999470e-02
5.835000000000000000e+02	3.232800000000000257e-02
5.904000000000000909e+02	4.827599999999999947e-02
5.975000000000000000e+02	3.207839999999999997e-02
6.047999999999999545e+02	3.991600000000000009e-02
6.122999999999999545e+02	2.384400000000000061e-02
6.198999999999999773e+02	3.165599999999999664e-02
6.278000000000000682e+02	2.364480000000000054e-02
6.358000000000000682e+02	2.355060000000000139e-02
6.441000000000000227e+02	3.128079999999999750e-02
6.525000000000000000e+02	3.119200000000000098e-02
6.612000000000000455e+02	2.329140000000000030e-02
6.702000000000000455e+02	3.095039999999999944e-02
6.793999999999999773e+02	1.542479999999999893e-02
6.887999999999999545e+02	2.309399999999999994e-02
6.985000000000000000e+02	2.299860000000000099e-02
7.085000000000000000e+02	2.293500000000000053e-02
7.187000000000000455e+02	2.287199999999999997e-02
7.292999999999999545e+02	6.084799999999999931e-02
7.401999999999999318e+02	2.273400000000000074e-02
7.513999999999999773e+02	1.588859999999999925e-02
7.630000000000000000e+02	1.508799999999999898e-02
7.748999999999999773e+02	5.192250000000000337e-02
7.872000000000000455e+02	3.000799999999999995e-02
7.999000000000000909e+02	1.496399999999999987e-02
8.130000000000000000e+02	1.268199999999999883e-02
8.266000000000000227e+02	5.581499999999999656e-02
