2.065999999999999943e+02	-5.035567170832919714e-01	8.773491331103066004e-01
2.108950831900000082e+02	-6.245162680189386695e-01	1.071446792717821284e+00
2.152794584390000239e+02	-7.077208175680995694e-01	1.272984103649223764e+00
2.197549820749999867e+02	-7.524754510561355580e-01	1.470060473659643430e+00
2.243235490120000009e+02	-7.622727711501988690e-01	1.650469874961482120e+00
2.289870935639999914e+02	-7.449295899894222694e-01	1.803101864906391238e+00
2.337475902550000058e+02	-7.123875273709225908e-01	1.919204211045516750e+00
2.386070546569999919e+02	-6.805906300882311744e-01	1.993395144774573025e+00
2.435675442480000186e+02	-6.703194609053496622e-01	2.024880687563655357e+00
2.486311592760000053e+02	-7.098819159101431575e-01	2.021409470658444008e+00
2.538000436549999677e+02	-8.361789977707584365e-01	2.012264243346923998e+00
2.590763858669999991e+02	-1.076630545767544689e+00	2.072259116561284475e+00
2.644624198930000034e+02	-1.389049648413969162e+00	2.325841324769683194e+00
2.699604261560000396e+02	-1.593606389722481698e+00	2.865239529585517086e+00
2.755727324880000424e+02	-1.423922326862294696e+00	3.591925526538010338e+00
2.813017151159999685e+02	-7.538603875181315583e-01	4.166942321085370438e+00
2.871497996649999891e+02	2.110424822232812581e-01	4.228185389900490421e+00
2.931194621889999894e+02	1.044417868362343516e+00	3.695642728159558299e+00
2.992132302170000457e+02	1.423927891277129376e+00	2.823067611900281992e+00
3.054336838240000134e+02	1.321468326481175293e+00	1.962904660478837826e+00
3.117834567230000289e+02	9.181598091690778007e-01	1.327516707319804423e+00
3.182652373809999631e+02	4.153397758672500162e-01	9.427222060263128478e-01
3.248817701539999803e+02	-7.032945231107778916e-02	7.368694342839332556e-01
3.316358564540000202e+02	-5.043462044758104668e-01	6.308303800424053254e-01
3.385303559319999636e+02	-8.926790734266543126e-01	5.735566605474231583e-01
3.455681876890000126e+02	-1.250630319867467977e+00	5.400577281485607894e-01
3.527523315119999552e+02	-1.590730762904203566e+00	5.198488323324952365e-01
3.600858291360000294e+02	-1.921097653608021982e+00	5.085952964525598530e-01
3.675717855330000248e+02	-2.246776115339380375e+00	5.041822919581281370e-01
3.752133702229999699e+02	-2.571080096374638302e+00	5.052770749682200524e-01
3.830138186209999844e+02	-2.896395725630058315e+00	5.108813004644662259e-01
3.909764334019999978e+02	-3.224595555304313077e+00	5.201978441344057291e-01
3.991045859030000429e+02	-3.557247258887653363e+00	5.325830544175025327e-01
4.074017175479999651e+02	-3.895723180062182767e+00	5.475204248851296418e-01
4.158713413060000335e+02	-4.241261975814714091e+00	5.646002717532340176e-01
4.245170431799999733e+02	-4.595006146446747763e+00	5.835021822420108917e-01
4.333424837219999972e+02	-4.958026788017930286e+00	6.039796687004002074e-01
4.423513995839999779e+02	-5.331341211145315562e+00	6.258469326443563130e-01
4.515476051040000129e+02	-5.715926349515944693e+00	6.489676534933755958e-01
4.609349939130000280e+02	-6.112729521918029540e+00	6.732456571700753400e-01
4.705175405919999889e+02	-6.522677411427844518e+00	6.986172716106228142e-01
4.802993023489999587e+02	-6.946683758068108006e+00	7.250451525755798876e-01
4.902844207400000300e+02	-7.385656063928401238e+00	7.525133608502793114e-01
5.004771234199999412e+02	-7.840501507710198936e+00	7.810234837947572784e-01
5.108817259350000199e+02	-8.312132206715171279e+00	8.105916149680675309e-01
5.215026335489999383e+02	-8.801469933369018506e+00	8.412460296885837518e-01
5.323443431069999860e+02	-9.309450372881268976e+00	8.730254195575712917e-01
5.434114449429999922e+02	-9.837026997354898938e+00	9.059775724962432220e-01
5.547086248179999757e+02	-1.038517461938502606e+01	9.401584060498779927e-01
5.662406659099999615e+02	-1.095489268384442205e+01	9.756312801584612338e-01
5.780124508349999815e+02	-1.154720834525235418e+01	1.012466530935598907e+00
5.900289637150000317e+02	-1.216317937676086203e+01	1.050741179794324021e+00
6.022952922890000309e+02	-1.280389694703717041e+01	1.090538782544114627e+00
6.148166300679999949e+02	-1.347048829876938569e+01	1.131949391291393825e+00
6.275982785319999948e+02	-1.416411935775447795e+01	1.175069608665347376e+00
6.406456493740000724e+02	-1.488599729704220920e+01	1.220002718681284737e+00
6.539642667949999577e+02	-1.563737307792677989e+01	1.266858882938429520e+00
6.675597698389999550e+02	-1.641954398625528455e+01	1.315755393645811733e+00
6.814379147839999860e+02	-1.723385618075903380e+01	1.366816977482084861e+00
6.956045775750000075e+02	-1.808170726755969326e+01	1.420176146166437947e+00
7.100657563150000442e+02	-1.896454891304109225e+01	1.475973590989155815e+00
7.248275738060000322e+02	-1.988388950729211402e+01	1.534358619759466746e+00
7.398962801349999836e+02	-2.084129688710504880e+01	1.595489635420959340e+00
7.552782553289999896e+02	-2.183840112929491184e+01	1.659534656307193989e+00
7.709800120469999456e+02	-2.287689742059251330e+01	1.726671878681306449e+00
7.870081983459999719e+02	-2.395854901475704679e+01	1.797090282418674301e+00
8.033696004889999358e+02	-2.508519028164791109e+01	1.870990281426054835e+00
8.200711458239999274e+02	-2.625872985803135506e+01	1.948584420464197331e+00
8.371199057119999907e+02	-2.748115390475137332e+01	2.030098120331629286e+00
8.545230985230000442e+02	-2.875452947830899220e+01	2.115770474014487146e+00
8.722880926929999532e+02	-3.008100802291409792e+01	2.205855096088188194e+00
8.904224098449999474e+02	-3.146282899010379452e+01	2.300621028482852992e+00
9.089337279679999710e+02	-3.290232359136999918e+01	2.400353705559236772e+00
9.278298846739999135e+02	-3.440191869174915951e+01	2.505355981992103409e+00
9.471188805139998976e+02	-3.596414084960082391e+01	2.615949226925497584e+00
9.668088823649999313e+02	-3.759162050999680105e+01	2.732474488418128011e+00
9.869082268869999552e+02	-3.928709635907330266e+01	2.855293732334088563e+00
1.007425424060000068e+03	-4.105341984431282754e+01	2.984791159956608819e+00
1.028369160760000113e+03	-4.289355986994908676e+01	3.121374609336530437e+00
1.049748304499999904e+03	-4.481060767329636718e+01	3.265477045155003033e+00
1.071571907089999968e+03	-4.680778189001512146e+01	3.417558142684253841e+00
1.093849208569999973e+03	-4.888843381531437160e+01	3.578105971486683412e+00
1.116589641029999939e+03	-5.105605286964208744e+01	3.747638784917955768e+00
1.139802832690000059e+03	-5.331427227525939827e+01	3.926706922025924307e+00
1.163498611909999909e+03	-5.566687495402870667e+01	4.115894828526400318e+00
1.187687011369999937e+03	-5.811779965206383736e+01	4.315823204469045216e+00
1.212378272350000088e+03	-6.067114730263224232e+01	4.527151285924463586e+00
1.237582849000000124e+03	-6.333118763384020156e+01	4.750579269487777978e+00
1.263311412850000124e+03	-6.610236603043334469e+01	4.986850887751742789e+00
1.289574857250000150e+03	-6.898931065995735423e+01	5.236756145434142695e+00
1.316384302029999844e+03	-7.199683987222741166e+01	5.501134225927688526e+00
1.343751098189999993e+03	-7.512996988063122217e+01	5.780876578533522547e+00
1.371686832710000090e+03	-7.839392273658809529e+01	6.076930197631638109e+00
1.400203333469999961e+03	-8.179413460710478034e+01	6.390301105442109275e+00
1.429312674219999963e+03	-8.533626436418150263e+01	6.722058050672882423e+00
1.459027179740000065e+03	-8.902620249825015719e+01	7.073336436589715781e+00
1.489359431009999980e+03	-9.287008036615017659e+01	7.445342491929485718e+00
1.520322270590000016e+03	-9.687427978297078823e+01	7.839357699911053246e+00
1.551928807989999996e+03	-1.010454429699495762e+02	8.256743500573291428e+00
1.584192425289999846e+03	-1.053904828741336104e+02	8.698946283483826036e+00
1.617126782770000091e+03	-1.099165938538666296e+02	9.167502687437531605e+00
1.650745824690000063e+03	-1.146312627747432202e+02	9.664045227040016783e+00
1.685063785200000211e+03	-1.195422804839268309e+02	1.019030826418341107e+01
1.720095194389999961e+03	-1.246577537180112358e+02	1.074813434656734401e+01
1.755854884389999825e+03	-1.299861174240954824e+02	1.133948093416205438e+01
1.792357995699999947e+03	-1.355361475161993781e+02	1.196642753699494577e+01
1.829619983589999947e+03	-1.413169740935181551e+02	1.263118328929194512e+01
1.867656624609999881e+03	-1.473380951082403953e+02	1.333609498516872627e+01
1.906484023309999884e+03	-1.536093904987486098e+02	1.408365560261867699e+01
1.946118619050000007e+03	-1.601411368225154774e+02	1.487651334623977917e+01
1.986577192940000032e+03	-1.669440223725795249e+02	1.571748123739947367e+01
2.027876874970000017e+03	-1.740291628066734972e+02	1.660954728489573284e+01
2.070035151229999883e+03	-1.814081172752382543e+02	1.755588526850610975e+01
2.113069871369999873e+03	-1.890929051016592268e+02	1.855986617319384280e+01
2.156999256090000017e+03	-1.970960229824154339e+02	1.962507030937248587e+01
2.201841904900000372e+03	-2.054304627301602295e+02	2.075530015908187309e+01
2.247616803990000335e+03	-2.141097295730237420e+02	2.195459399011518187e+01
2.294343334250000225e+03	-2.231478610296626641e+02	2.322724028194665635e+01
2.342041279489999852e+03	-2.325594463288429097e+02	2.457779300768676833e+01
2.390730834810000033e+03	-2.423596464223032285e+02	2.601108782207424142e+01
2.440432615160000296e+03	-2.525642145665501630e+02	2.753225920487591338e+01
2.491167664049999985e+03	-2.631895174820791112e+02	2.914675861260352008e+01
2.542957462479999776e+03	-2.742525571148021299e+02	3.086037369568713018e+01
2.595823938040000030e+03	-2.857709929592327853e+02	3.267924863684676495e+01
2.649789474140000038e+03	-2.977631649807851204e+02	3.460990567383965555e+01
2.704876919580000049e+03	-3.102481171054095626e+02	3.665926786930054249e+01
2.761109598120000101e+03	-3.232456212884582101e+02	3.883468319395011292e+01
2.818511318450000090e+03	-3.367762021497145497e+02	4.114394999312646917e+01
2.877106384200000321e+03	-3.508611621469032116e+02	4.359534390988769559e+01
2.936919604270000036e+03	-3.655226073046055149e+02	4.619764633972923917e+01
2.997976303310000276e+03	-3.807834734551777842e+02	4.896017449363731089e+01
3.060302332459999889e+03	-3.966675529842190144e+02	5.189281315469520450e+01
3.123924080300000242e+03	-4.131995220354764911e+02	5.500604821146391288e+01
3.188868484000000080e+03	-4.304049681936778029e+02	5.831100205613282128e+01
3.255163040720000026e+03	-4.483104185186641075e+02	6.181947093508306068e+01
3.322835819309999806e+03	-4.669433680264122586e+02	6.554396435837003310e+01
3.391915472109999882e+03	-4.863323084307534145e+02	6.949774664601746110e+01
3.462431247160000112e+03	-5.065067571810211575e+02	7.369488072797260259e+01
3.534413000529999863e+03	-5.274972867397314076e+02	7.815027429678983140e+01
3.607891208969999752e+03	-5.493355539768551807e+02	8.287972840957293386e+01
3.682896982839999964e+03	-5.720543296496128960e+02	8.789998865848652088e+01
3.759462079259999882e+03	-5.956875279226555904e+02	9.322879901920430257e+01
3.837618915560000005e+03	-6.202702357309888157e+02	9.888495848024894030e+01
3.917400582990000203e+03	-6.458387420260131648e+02	1.048883805777075082e+02
3.998840860780000185e+03	-6.724305666570083986e+02	1.112601559460151321e+02
4.081974230380000336e+03	-7.000844889158063324e+02	1.180226180051997744e+02
4.166835890100000142e+03	-7.288405754714285649e+02	1.251994118926327673e+02
4.253461769989999993e+03	-7.587402076511757514e+02	1.328155667664385362e+02
4.341888547079999626e+03	-7.898261078944788096e+02	1.408975715932847095e+02
4.432153660879999734e+03	-8.221423651781582294e+02	1.494734545284958358e+02
4.524295329229999879e+03	-8.557344592619155037e+02	1.585728660124468092e+02
4.618352564540000458e+03	-8.906492835657458045e+02	1.682271656826445110e+02
4.714365190210000037e+03	-9.269351664510803630e+02	1.784695132112838962e+02
4.812373857579999822e+03	-9.646418906655866294e+02	1.893349631679392928e+02
4.912420063089999530e+03	-1.003820710776496639e+03	2.008605640018860186e+02
5.014546165869999641e+03	-1.044524368202628239e+03	2.130854612218543593e+02
5.118795405660000142e+03	-1.086807103741264427e+03	2.260510048657738764e+02
5.225211921139999504e+03	-1.130724667138640143e+03	2.398008613082530474e+02
5.333840768600000047e+03	-1.176334323468885032e+03	2.543811294717849592e+02
5.444727941019999889e+03	-1.223694855968493812e+03	2.698404614771429237e+02
5.557920387539999865e+03	-1.272866565008190264e+03	2.862301877514018429e+02
5.673466033360000438e+03	-1.323911262749329808e+03	3.036044466063057712e+02
5.791413799990000371e+03	-1.376892263188747847e+03	3.220203182629351204e+02
5.911813626019999901e+03	-1.431874367112939353e+03	3.415379632826694092e+02
6.034716488199999731e+03	-1.488923841551264786e+03	3.622207653470997570e+02
6.160174423059999754e+03	-1.548108393350780489e+03	3.841354782864384561e+02
6.288240548960000524e+03	-1.609497136264406890e+03	4.073523772276266754e+02
6.418969088519999787e+03	-1.673160551200602413e+03	4.319454137086066794e+02
6.552415391660000751e+03	-1.739170439106996355e+03	4.579923745629748169e+02
6.688635958939999909e+03	-1.807599865955846553e+03	4.855750443265757212e+02
6.827688465569999607e+03	-1.878523099328873059e+03	5.147793708984680734e+02
6.969631785759999730e+03	-1.952015536046380930e+03	5.456956341083115376e+02
7.114526017720000709e+03	-2.028153620429390458e+03	5.784186168348196588e+02
7.262432509010000103e+03	-2.107014752441176825e+03	6.130477782160530751e+02
7.413413882609999746e+03	-2.188677185425033258e+03	6.496874284836736706e+02
7.567534063369999785e+03	-2.273219912707708772e+03	6.884469048477299111e+02
7.724858305109999492e+03	-2.360722542688111389e+03	7.294407478440748491e+02
7.885453218220000053e+03	-2.451265161830668148e+03	7.727888774374204104e+02
8.049386797889999798e+03	-2.544928185149214187e+03	8.186167681488174139e+02
8.216728452889999971e+03	-2.641792193698570827e+03	8.670556223932743478e+02
8.387549034949999623e+03	-2.741937758633210251e+03	9.182425411060667102e+02
8.561920868740000515e+03	-2.845445251558692235e+03	9.723206907353899169e+02
8.739917782559999978e+03	-2.952394640770574370e+03	1.029439465536027910e+03
8.921615139519999502e+03	-3.062865273170346882e+03	1.089754644057559744e+03
9.107089869479999834e+03	-3.176935641682729511e+03	1.153428538645802519e+03
9.296420501650000006e+03	-3.294683138044919360e+03	1.220630136717045616e+03
9.489687197780000133e+03	-3.416183790933361706e+03	1.291535232462763361e+03
9.686971786160000192e+03	-3.541511989669348168e+03	1.366326547576637950e+03
9.888357796210000743e+03	-3.670740193434547109e+03	1.445193839680014207e+03
1.009393049389999942e+04	-3.803938626608216055e+03	1.528333996798027783e+03
1.030377691779999986e+04	-3.941174960451372954e+03	1.615951116455232977e+03
1.051798591600000145e+04	-4.082513981974155286e+03	1.708256567787992935e+03
1.073664818369999921e+04	-4.228017250430440072e+03	1.805469035085170617e+03
1.095985630140000103e+04	-4.377742742715098757e+03	1.907814541256115490e+03
1.118770477460000075e+04	-4.531744488469601492e+03	2.015526449402945900e+03
1.142029007330000059e+04	-4.690072196336604065e+03	2.128845441262986697e+03
1.165771067310000035e+04	-4.852770872744485132e+03	2.248019470656761314e+03
1.190006709680000131e+04	-5.019880434865310235e+03	2.373303690845123128e+03
1.214746195720000105e+04	-5.191435319745992274e+03	2.504960354017061945e+03
1.240000000000000000e+04	-5.367464091292798003e+03	2.643258682009852237e+03
