   1.73771	   0.00013
   1.74018	   0.00013
   1.74267	   0.00014
   1.74520	   0.00014
   1.74768	   0.00014
   1.75019	   0.00014
   1.75268	   0.00014
   1.75520	   0.00014
   1.75766	   0.00014
   1.76021	   0.00014
   1.76269	   0.00014
   1.76515	   0.00014
   1.76770	   0.00014
   1.77021	   0.00014
   1.77267	   0.00014
   1.77520	   0.00014
   1.77771	   0.00014
   1.78016	   0.00014
   1.78270	   0.00015
   1.78519	   0.00015
   1.78769	   0.00015
   1.79021	   0.00015
   1.79271	   0.00015
   1.79521	   0.00015
   1.79768	   0.00015
   1.80018	   0.00015
   1.80269	   0.00015
   1.80517	   0.00015
   1.80771	   0.00015
   1.81016	   0.00015
   1.81271	   0.00015
   1.81522	   0.00016
   1.81769	   0.00016
   1.82020	   0.00016
   1.82271	   0.00016
   1.82516	   0.00016
   1.82768	   0.00016
   1.83019	   0.00016
   1.83270	   0.00016
   1.83522	   0.00016
   1.83769	   0.00016
   1.84020	   0.00016
   1.84265	   0.00016
   1.84517	   0.00016
   1.84770	   0.00016
   1.85019	   0.00016
   1.85269	   0.00017
   1.85521	   0.00017
   1.85771	   0.00017
   1.86019	   0.00017
   1.86269	   0.00017
   1.86521	   0.00017
   1.86769	   0.00017
   1.87018	   0.00017
   1.87270	   0.00017
   1.87517	   0.00017
   1.87769	   0.00017
   1.88022	   0.00017
   1.88266	   0.00018
   1.88521	   0.00018
   1.88771	   0.00018
   1.89017	   0.00018
   1.89269	   0.00018
   1.89521	   0.00018
   1.89769	   0.00018
   1.90021	   0.00018
   1.90268	   0.00018
   1.90518	   0.00018
   1.90772	   0.00018
   1.91019	   0.00018
   1.91270	   0.00019
   1.91518	   0.00019
   1.91768	   0.00019
   1.92019	   0.00019
   1.92270	   0.00019
   1.92519	   0.00019
   1.92768	   0.00019
   1.93016	   0.00019
   1.93271	   0.00019
   1.93517	   0.00019
   1.93771	   0.00020
   1.94022	   0.00020
   1.94267	   0.00020
   1.94519	   0.00019
   1.94769	   0.00020
   1.95018	   0.00020
   1.95271	   0.00020
   1.95521	   0.00020
   1.95767	   0.00020
   1.96020	   0.00020
   1.96271	   0.00020
   1.96520	   0.00021
   1.96768	   0.00020
   1.97022	   0.00021
   1.97272	   0.00021
   1.97517	   0.00021
   1.97772	   0.00021
   1.98018	   0.00021
   1.98270	   0.00021
   1.98521	   0.00021
   1.98767	   0.00021
   1.99020	   0.00021
   1.99274	   0.00022
   1.99516	   0.00022
   1.99770	   0.00021
   2.00021	   0.00022
   2.00267	   0.00022
   2.00517	   0.00022
   2.00769	   0.00021
   2.01019	   0.00022
   2.01271	   0.00022
   2.01520	   0.00022
   2.01770	   0.00022
   2.02019	   0.00022
   2.02271	   0.00022
   2.02520	   0.00023
   2.02770	   0.00023
   2.03022	   0.00023
   2.03269	   0.00023
   2.03520	   0.00023
   2.03771	   0.00023
   2.04020	   0.00023
   2.04270	   0.00024
   2.04522	   0.00023
   2.04769	   0.00024
   2.05021	   0.00024
   2.05269	   0.00024
   2.05521	   0.00024
   2.05773	   0.00024
   2.06020	   0.00024
   2.06270	   0.00024
   2.06521	   0.00024
   2.06768	   0.00024
   2.07023	   0.00024
   2.07270	   0.00024
   2.07520	   0.00024
   2.07772	   0.00024
   2.08019	   0.00025
   2.08271	   0.00025
   2.08520	   0.00025
   2.08771	   0.00025
   2.09022	   0.00025
   2.09269	   0.00025
   2.09519	   0.00026
   2.09768	   0.00026
   2.10021	   0.00026
   2.10271	   0.00025
   2.10520	   0.00026
   2.10772	   0.00026
   2.11021	   0.00026
   2.11269	   0.00026
   2.11519	   0.00026
   2.11770	   0.00027
   2.12020	   0.00026
   2.12269	   0.00026
   2.12519	   0.00026
   2.12771	   0.00027
   2.13021	   0.00027
   2.13270	   0.00027
   2.13518	   0.00027
   2.13767	   0.00027
   2.14022	   0.00027
   2.14268	   0.00027
   2.14518	   0.00028
   2.14771	   0.00027
   2.15022	   0.00028
   2.15267	   0.00027
   2.15521	   0.00028
   2.15768	   0.00028
   2.15976	   0.00027
   2.16501	   0.00027
   2.17010	   0.00028
   2.17518	   0.00028
   2.18021	   0.00028
   2.18522	   0.00029
   2.19024	   0.00029
   2.19528	   0.00029
   2.20024	   0.00029
   2.20526	   0.00029
   2.21029	   0.00030
   2.21525	   0.00030
   2.22027	   0.00030
   2.22527	   0.00030
   2.23026	   0.00031
   2.23529	   0.00031
   2.24030	   0.00032
   2.24526	   0.00032
   2.25027	   0.00033
   2.25530	   0.00034
   2.26026	   0.00035
   2.26528	   0.00035
   2.27027	   0.00036
   2.27526	   0.00037
   2.28027	   0.00037
   2.28526	   0.00037
   2.29026	   0.00037
   2.29530	   0.00036
   2.30029	   0.00035
   2.30526	   0.00035
   2.31027	   0.00035
   2.31529	   0.00035
   2.32028	   0.00033
   2.32528	   0.00031
   2.33029	   0.00032
   2.33526	   0.00032
   2.34030	   0.00032
   2.34529	   0.00032
   2.35025	   0.00033
   2.35528	   0.00033
   2.36027	   0.00033
   2.36529	   0.00033
   2.37028	   0.00034
   2.37526	   0.00034
   2.38028	   0.00034
   2.38528	   0.00034
   2.39027	   0.00035
   2.39526	   0.00035
   2.40027	   0.00035
   2.40530	   0.00036
   2.41025	   0.00036
   2.41527	   0.00036
   2.42027	   0.00036
   2.42531	   0.00036
   2.43028	   0.00037
   2.43529	   0.00037
   2.44028	   0.00037
   2.44528	   0.00038
   2.45027	   0.00038
   2.45528	   0.00038
   2.46025	   0.00038
   2.46530	   0.00039
   2.47028	   0.00039
   2.47527	   0.00039
   2.48029	   0.00040
   2.48528	   0.00040
   2.49030	   0.00040
   2.49529	   0.00040
   2.50026	   0.00041
   2.50528	   0.00041
   2.51030	   0.00042
   2.51526	   0.00042
   2.52029	   0.00042
   2.52528	   0.00042
   2.53029	   0.00043
   2.53529	   0.00043
   2.54027	   0.00043
   2.54527	   0.00043
   2.55029	   0.00044
   2.55527	   0.00044
   2.56027	   0.00044
   2.56529	   0.00045
   2.57028	   0.00045
   2.57530	   0.00045
   2.58026	   0.00046
   2.58530	   0.00046
   2.59029	   0.00046
   2.59531	   0.00047
   2.60030	   0.00047
   2.60527	   0.00047
   2.61029	   0.00048
   2.61530	   0.00048
   2.62029	   0.00048
   2.62528	   0.00049
   2.63030	   0.00049
   2.63527	   0.00049
   2.64028	   0.00050
   2.64530	   0.00050
   2.65027	   0.00050
   2.65531	   0.00051
   2.66028	   0.00051
   2.66527	   0.00051
   2.67028	   0.00051
   2.67530	   0.00052
   2.68029	   0.00052
   2.68525	   0.00053
   2.69030	   0.00053
   2.69529	   0.00053
   2.70031	   0.00054
   2.70528	   0.00054
   2.71030	   0.00054
   2.71526	   0.00055
   2.72031	   0.00055
   2.72527	   0.00055
   2.73029	   0.00056
   2.73528	   0.00056
   2.74029	   0.00056
   2.74528	   0.00056
   2.75027	   0.00057
   2.75527	   0.00058
   2.76031	   0.00058
   2.76530	   0.00058
   2.77026	   0.00058
   2.77528	   0.00059
   2.78030	   0.00059
   2.78529	   0.00060
   2.79028	   0.00060
   2.79530	   0.00061
   2.80029	   0.00061
   2.81046	   0.00064
   2.82047	   0.00065
   2.83049	   0.00066
   2.84051	   0.00066
   2.85049	   0.00067
   2.86050	   0.00068
   2.87048	   0.00069
   2.88046	   0.00069
   2.89048	   0.00070
   2.90043	   0.00071
   2.91054	   0.00071
   2.92052	   0.00072
   2.93047	   0.00073
   2.94051	   0.00074
   2.95053	   0.00075
   2.96051	   0.00076
   2.97049	   0.00077
   2.98041	   0.00078
   2.99052	   0.00079
   3.00053	   0.00080
   3.01051	   0.00080
   3.02046	   0.00081
   3.03051	   0.00082
   3.04055	   0.00083
   3.05050	   0.00084
   3.06048	   0.00085
   3.07043	   0.00085
   3.08054	   0.00086
   3.09049	   0.00087
   3.10041	   0.00088
   3.11052	   0.00089
   3.12048	   0.00090
   3.13052	   0.00091
   3.14050	   0.00091
   3.15045	   0.00093
   3.16050	   0.00094
   3.17054	   0.00094
   3.18046	   0.00096
   3.19051	   0.00097
   3.20049	   0.00098
   3.21050	   0.00099
   3.22051	   0.00100
   3.23050	   0.00101
   3.24048	   0.00103
   3.25049	   0.00104
   3.26054	   0.00105
   3.27052	   0.00106
   3.28050	   0.00108
   3.29045	   0.00109
   3.30049	   0.00110
   3.31054	   0.00112
   3.32049	   0.00113
   3.33047	   0.00114
   3.34052	   0.00115
   3.35056	   0.00117
   3.36048	   0.00118
   3.37052	   0.00119
   3.38044	   0.00120
   3.39055	   0.00122
   3.40050	   0.00123
   3.41048	   0.00124
   3.42050	   0.00125
   3.43052	   0.00127
   3.44053	   0.00128
   3.45051	   0.00128
   3.46049	   0.00130
   3.47045	   0.00132
   3.48052	   0.00133
   3.49056	   0.00134
   3.50048	   0.00135
   3.51050	   0.00136
   3.52054	   0.00137
   3.53052	   0.00139
   3.54047	   0.00140
   3.55052	   0.00141
   3.56053	   0.00143
   3.57051	   0.00144
   3.58050	   0.00145
   3.59051	   0.00147
   3.60048	   0.00148
   3.61054	   0.00150
   3.62054	   0.00150
   3.63056	   0.00152
   3.64048	   0.00153
   3.65049	   0.00154
   3.66054	   0.00156
   3.67049	   0.00157
   3.68053	   0.00158
   3.69048	   0.00160
   3.70056	   0.00161
   3.71052	   0.00162
   3.72047	   0.00164
   3.73052	   0.00165
   3.74049	   0.00167
   3.75060	   0.00168
   3.76050	   0.00169
   3.77051	   0.00171
   3.78052	   0.00173
   3.79056	   0.00175
   3.80057	   0.00176
   3.81050	   0.00178
   3.82054	   0.00180
   3.83046	   0.00181
   3.84057	   0.00184
   3.85055	   0.00185
   3.86050	   0.00187
   3.87054	   0.00189
   3.88052	   0.00192
   3.89050	   0.00193
   3.90052	   0.00194
   3.91047	   0.00196
   3.92058	   0.00198
   3.93056	   0.00198
   3.94051	   0.00200
   3.95053	   0.00201
   3.96054	   0.00203
   3.97058	   0.00203
   3.98049	   0.00204
   3.99048	   0.00205
   4.00049	   0.00206
   4.01051	   0.00206
   4.02053	   0.00208
   4.03054	   0.00210
   4.04052	   0.00212
   4.05054	   0.00214
   4.06059	   0.00218
   4.07050	   0.00221
   4.08046	   0.00226
   4.09053	   0.00232
   4.10054	   0.00239
   4.11051	   0.00246
   4.12050	   0.00255
   4.13052	   0.00259
   4.14054	   0.00266
   4.15051	   0.00275
   4.16056	   0.00274
   4.17053	   0.00276
   4.18055	   0.00276
   4.19054	   0.00277
   4.20049	   0.00274
   4.21053	   0.00276
   4.22053	   0.00265
   4.23059	   0.00266
   4.24054	   0.00262
   4.25054	   0.00252
   4.26053	   0.00253
   4.27056	   0.00249
   4.28056	   0.00248
   4.29052	   0.00247
   4.30053	   0.00250
   4.31050	   0.00253
   4.32058	   0.00250
   4.33051	   0.00243
   4.34049	   0.00241
   4.35054	   0.00227
   4.36051	   0.00227
   4.37058	   0.00222
   4.38057	   0.00216
   4.39052	   0.00212
   4.39952	   0.00221
   4.42029	   0.00225
   4.44050	   0.00228
   4.46062	   0.00233
   4.48067	   0.00237
   4.50071	   0.00241
   4.52069	   0.00246
   4.54074	   0.00250
   4.56075	   0.00255
   4.58078	   0.00259
   4.60074	   0.00264
   4.62074	   0.00268
   4.64077	   0.00273
   4.66076	   0.00277
   4.68075	   0.00281
   4.70070	   0.00285
   4.72078	   0.00289
   4.74071	   0.00292
   4.76077	   0.00296
   4.78074	   0.00300
   4.80079	   0.00303
   4.82076	   0.00307
   4.84075	   0.00311
   4.86077	   0.00315
   4.88071	   0.00319
   4.90082	   0.00323
   4.92077	   0.00327
   4.94079	   0.00331
   4.96074	   0.00335
   4.98079	   0.00339
   5.00075	   0.00343
   5.02070	   0.00346
   5.04081	   0.00350
   5.06072	   0.00353
   5.08080	   0.00356
   5.10070	   0.00359
   5.12077	   0.00361
   5.14077	   0.00363
   5.16080	   0.00365
   5.18072	   0.00367
   5.20079	   0.00369
   5.22076	   0.00371
   5.24073	   0.00373
   5.26077	   0.00376
   5.28078	   0.00379
   5.30076	   0.00381
   5.32073	   0.00386
   5.34076	   0.00390
   5.36078	   0.00394
   5.38077	   0.00399
   5.40078	   0.00404
   5.42078	   0.00410
   5.44074	   0.00417
   5.46077	   0.00424
   5.48083	   0.00432
   5.50073	   0.00438
   5.52084	   0.00446
   5.54080	   0.00454
   5.56078	   0.00461
   5.58075	   0.00469
   5.60077	   0.00476
   5.62078	   0.00482
   5.64072	   0.00489
   5.66078	   0.00495
   5.68078	   0.00500
   5.70079	   0.00505
   5.72075	   0.00510
   5.74080	   0.00514
   5.76079	   0.00520
   5.78083	   0.00526
   5.80076	   0.00534
   5.82083	   0.00544
   5.84079	   0.00556
   5.86075	   0.00573
   5.88077	   0.00593
   5.90081	   0.00619
   5.92081	   0.00651
   5.94073	   0.00691
   5.96086	   0.00737
   5.98076	   0.00789
   6.00079	   0.00846
   6.02081	   0.00902
   6.04076	   0.00951
   6.06079	   0.01001
   6.08075	   0.01036
   6.10081	   0.01069
   6.12078	   0.01088
   6.14084	   0.01099
   6.16083	   0.01104
   6.18085	   0.01108
   6.20073	   0.01107
   6.22080	   0.01102
   6.24080	   0.01095
   6.26078	   0.01089
   6.28080	   0.01072
   6.30081	   0.01047
   6.32079	   0.01008
   6.34080	   0.00964
   6.36081	   0.00909
   6.38075	   0.00865
   6.40084	   0.00828
   6.42083	   0.00805
   6.44084	   0.00820
   6.46081	   0.00812
   6.48077	   0.00805
   6.50082	   0.00767
   6.52078	   0.00668
   6.54084	   0.00551
   6.56077	   0.00387
   6.58083	   0.00220
   6.60080	   0.00117
   6.62082	   0.00077
   6.64078	   0.00069
   6.66084	   0.00067
   6.68080	   0.00067
   6.70084	   0.00068
   6.72089	   0.00070
   6.74076	   0.00070
   6.76083	   0.00069
   6.78084	   0.00070
   6.80081	   0.00072
   6.89023	   0.00066
   6.93024	   0.00068
   6.97023	   0.00068
   7.01023	   0.00070
   7.05025	   0.00072
   7.09024	   0.00073
   7.13024	   0.00074
   7.17024	   0.00075
   7.21022	   0.00077
   7.25024	   0.00079
   7.29023	   0.00079
   7.33023	   0.00081
   7.37023	   0.00082
   7.41027	   0.00082
   7.45025	   0.00084
   7.49027	   0.00086
   7.53025	   0.00088
   7.57026	   0.00088
   7.61027	   0.00090
   7.65028	   0.00092
   7.69028	   0.00094
   7.73026	   0.00094
   7.77028	   0.00096
   7.81027	   0.00098
   7.85029	   0.00099
   7.89025	   0.00099
   7.93027	   0.00101
   7.97029	   0.00103
   8.01025	   0.00105
   8.05029	   0.00106
   8.09027	   0.00108
   8.13027	   0.00110
   8.17030	   0.00111
   8.21028	   0.00113
   8.25027	   0.00115
   8.29026	   0.00117
   8.33025	   0.00118
   8.37029	   0.00119
   8.41027	   0.00121
   8.56428	   0.00130
   8.63628	   0.00133
   8.70828	   0.00135
   8.78032	   0.00138
   8.85228	   0.00141
   8.92428	   0.00144
   8.99629	   0.00147
   9.06828	   0.00150
   9.14028	   0.00153
   9.21233	   0.00157
   9.28428	   0.00159
   9.35631	   0.00162
   9.42831	   0.00167
   9.50034	   0.00170
   9.57229	   0.00172
   9.64430	   0.00176
   9.71633	   0.00179
   9.78835	   0.00185
   9.86036	   0.00187
   9.93233	   0.00191
  10.00434	   0.00194
  10.07634	   0.00198
  10.14834	   0.00200
  10.22035	   0.00206
  10.29235	   0.00210
  10.36435	   0.00214
  10.43635	   0.00218
  10.50835	   0.00221
  10.58036	   0.00225
  10.65236	   0.00231
  10.72436	   0.00236
  10.79636	   0.00238
  10.86837	   0.00243
  10.94037	   0.00247
  11.01237	   0.00254
  11.19838	   0.00260
  11.22498	   0.00263
  11.25048	   0.00263
  11.27588	   0.00266
  11.30098	   0.00268
  11.32628	   0.00270
  11.35138	   0.00271
  11.37628	   0.00273
  11.40138	   0.00275
  11.42649	   0.00277
  11.45119	   0.00279
  11.47629	   0.00281
  11.50149	   0.00283
  11.52629	   0.00284
  11.55149	   0.00286
  11.57649	   0.00288
  11.60149	   0.00291
  11.62619	   0.00292
  11.65149	   0.00294
  11.67639	   0.00296
  11.70139	   0.00298
  11.72630	   0.00300
  11.75150	   0.00302
  11.77630	   0.00304
  11.80140	   0.00306
  11.82640	   0.00308
  11.85150	   0.00311
  11.87640	   0.00312
  11.90130	   0.00315
  11.92650	   0.00316
  11.95120	   0.00319
  11.97650	   0.00321
  12.00151	   0.00322
  12.02661	   0.00325
  12.05131	   0.00326
  12.07651	   0.00330
  12.10141	   0.00332
  12.12641	   0.00334
  12.15151	   0.00336
  12.17661	   0.00339
  12.20141	   0.00341
  12.22631	   0.00343
  12.25141	   0.00345
  12.27632	   0.00347
  12.30132	   0.00349
  12.32632	   0.00350
  12.35152	   0.00354
  12.37642	   0.00355
  12.40162	   0.00357
  12.42652	   0.00360
  12.45142	   0.00362
  12.47632	   0.00364
  12.49872	   0.00365
  12.55042	   0.00368
  12.60123	   0.00374
  12.65173	   0.00379
  12.70173	   0.00382
  12.75193	   0.00387
  12.80193	   0.00391
  12.85193	   0.00397
  12.90204	   0.00402
  12.95194	   0.00404
  13.00194	   0.00412
  13.05204	   0.00416
  13.10194	   0.00421
  13.15204	   0.00426
  13.20195	   0.00431
  13.25185	   0.00435
  13.30195	   0.00439
  13.35205	   0.00445
  13.40215	   0.00449
  13.45195	   0.00454
  13.50206	   0.00458
  13.55206	   0.00465
  13.60206	   0.00469
  13.65216	   0.00473
  13.70186	   0.00479
  13.75197	   0.00483
  13.80217	   0.00488
  13.85197	   0.00494
  13.90217	   0.00499
  13.95197	   0.00505
  14.00197	   0.00510
  14.05208	   0.00515
  14.10198	   0.00519
  14.15198	   0.00526
  14.20188	   0.00531
  14.25198	   0.00537
  14.30208	   0.00539
  14.35198	   0.00545
  14.40209	   0.00550
  14.45199	   0.00556
  14.50199	   0.00562
  14.55219	   0.00569
  14.60209	   0.00574
  14.65210	   0.00580
  14.70210	   0.00586
  14.75190	   0.00594
  14.80210	   0.00598
  14.85200	   0.00603
  14.90200	   0.00607
  14.95201	   0.00612
  15.00191	   0.00618
  15.05191	   0.00621
  15.10191	   0.00629
  15.15201	   0.00637
  15.20211	   0.00645
  15.25202	   0.00648
  15.30202	   0.00655
  15.35212	   0.00661
  15.40202	   0.00668
  15.45222	   0.00673
  15.50192	   0.00678
  15.55213	   0.00683
  15.60213	   0.00695
  15.65213	   0.00702
  15.70213	   0.00706
  15.75193	   0.00713
  15.80213	   0.00718
  15.85214	   0.00724
  15.90204	   0.00732
  15.95214	   0.00737
  16.00194	   0.00744
  16.05194	   0.00749
  16.10214	   0.00758
  16.15205	   0.00770
  16.20205	   0.00770
  16.25195	   0.00776
  16.30205	   0.00787
  16.35225	   0.00794
  16.40215	   0.00801
  16.45216	   0.00810
  16.50206	   0.00816
  16.55206	   0.00820
  16.60226	   0.00821
  16.65206	   0.00839
  16.70196	   0.00835
  16.75207	   0.00847
  16.80207	   0.00860
  16.85227	   0.00868
  16.90197	   0.00868
  16.95197	   0.00876
  17.00207	   0.00881
  17.05208	   0.00885
  17.10228	   0.00903
  17.15218	   0.00905
  17.20208	   0.00919
  17.25228	   0.00926
  17.29598	   0.00917
  17.40009	   0.00939
  17.50199	   0.00952
  17.60299	   0.00970
  17.70320	   0.00990
  17.80370	   0.01004
  17.90430	   0.01022
  18.00421	   0.01041
  18.10381	   0.01057
  18.20421	   0.01080
  18.30402	   0.01097
  18.40392	   0.01118
  18.50453	   0.01136
  18.60413	   0.01157
  18.70423	   0.01178
  18.80413	   0.01198
  18.90404	   0.01221
  19.00414	   0.01240
  19.10424	   0.01260
  19.20415	   0.01290
  19.30425	   0.01309
  19.40415	   0.01331
  19.50466	   0.01355
  19.60386	   0.01376
  19.70416	   0.01401
  19.80427	   0.01430
  19.90347	   0.01449
  20.00408	   0.01477
  20.10438	   0.01502
  20.20448	   0.01529
  20.30399	   0.01553
  20.40409	   0.01582
  20.50389	   0.01607
  20.60380	   0.01635
  20.70410	   0.01663
  20.80430	   0.01693
  20.90411	   0.01718
  21.00421	   0.01748
  21.10411	   0.01774
  21.20402	   0.01804
  21.30412	   0.01835
  21.40422	   0.01863
  21.50393	   0.01894
  21.60403	   0.01924
  21.70483	   0.01955
  21.80394	   0.01985
  21.90414	   0.02019
  22.00424	   0.02048
  22.10405	   0.02081
  22.20415	   0.02115
  22.30405	   0.02146
  22.40396	   0.02176
  22.50406	   0.02209
  22.60396	   0.02241
  22.70407	   0.02277
  22.80347	   0.02307
  22.90427	   0.02345
  23.00438	   0.02376
  23.10378	   0.02409
  23.20418	   0.02440
  23.30399	   0.02474
  23.40409	   0.02511
  23.50429	   0.02544
  23.60430	   0.02570
  23.70400	   0.02613
  23.80430	   0.02651
  23.90451	   0.02682
  24.00361	   0.02720
  24.10371	   0.02761
  24.20452	   0.02794
  24.30402	   0.02835
  24.40432	   0.02864
  24.50443	   0.02899
  24.60453	   0.02940
  24.70444	   0.02988
  24.80404	   0.03012
  24.90464	   0.03048
  25.00425	   0.03082
  25.10465	   0.03120
  25.20475	   0.03159
  25.30436	   0.03195
  25.40426	   0.03232
  25.50436	   0.03266
  25.60396	   0.03306
  25.70457	   0.03347
  25.80427	   0.03387
  25.90438	   0.03425
  26.00448	   0.03462
  26.10458	   0.03502
  26.20419	   0.03542
  26.30409	   0.03580
  26.40439	   0.03621
  26.50409	   0.03662
  26.60440	   0.03703
  26.70430	   0.03744
  26.80460	   0.03785
  26.90431	   0.03828
  27.00391	   0.03868
  27.10402	   0.03905
  27.20392	   0.03947
  27.30432	   0.03990
  27.40462	   0.04032
  27.50453	   0.04072
  27.60413	   0.04113
  27.70474	   0.04161
  27.80414	   0.04202
  27.90424	   0.04246
  28.00485	   0.04290
  28.10445	   0.04338
  28.20435	   0.04387
  28.30466	   0.04431
  28.40436	   0.04486
  28.50426	   0.04534
  28.60407	   0.04590
  28.70447	   0.04640
  28.80477	   0.04688
  28.90418	   0.04730
  29.00458	   0.04786
  29.10438	   0.04833
  29.20409	   0.04893
  29.30439	   0.04938
  29.40429	   0.04999
  29.50420	   0.05042
  29.60470	   0.05097
  29.70410	   0.05154
  29.80451	   0.05214
  29.90461	   0.05271
  30.00471	   0.05343
  30.10462	   0.05426
  30.20402	   0.05504
  30.30462	   0.05559
  30.40443	   0.05602
  30.50453	   0.05657
  30.60463	   0.05721
  30.70414	   0.05796
  30.80444	   0.05862
  30.90474	   0.05922
  31.00425	   0.05974
  31.10405	   0.06035
  31.20465	   0.06090
  31.30426	   0.06153
  31.40446	   0.06219
  31.50496	   0.06295
  31.60417	   0.06356
  31.70477	   0.06414
  31.80467	   0.06466
  31.90448	   0.06533
  32.00438	   0.06584
  32.10449	   0.06660
  32.20489	   0.06723
  32.30449	   0.06790
  32.40459	   0.06859
  32.50470	   0.06937
  32.60480	   0.07025
  32.70451	   0.07097
  32.80481	   0.07168
  32.90421	   0.07246
  33.00431	   0.07323
  33.10512	   0.07391
  33.20452	   0.07469
  33.30462	   0.07529
  33.40503	   0.07602
  33.50423	   0.07681
  33.60403	   0.07775
  33.70464	   0.07849
  33.80434	   0.07891
  33.90485	   0.07957
  34.00495	   0.08039
  34.10485	   0.08138
  34.20476	   0.08228
  34.30436	   0.08330
  34.40496	   0.08403
  34.50417	   0.08469
  34.60497	   0.08560
  34.70457	   0.08631
  34.80468	   0.08737
  34.90458	   0.08819
  35.00468	   0.08953
  35.10439	   0.09058
  35.20469	   0.09156
  35.30459	   0.09223
  35.40450	   0.09364
  35.50480	   0.09450
  35.60490	   0.09523
  35.70431	   0.09537
  35.80441	   0.09596
  35.90461	   0.09709
  36.00392	   0.09739
  36.10382	   0.09869
  36.20412	   0.09955
  36.30493	   0.10186
  36.40413	   0.10225
  36.50423	   0.10496
  36.60464	   0.10505
  36.70454	   0.10562
  36.80484	   0.10514
  36.90505	   0.10625
  37.00495	   0.10856
  37.10485	   0.10868
  37.20496	   0.10993
  37.30436	   0.10982
  37.40456	   0.11225
  37.50517	   0.11326
  37.60497	   0.11522
  37.70487	   0.11557
  37.80498	   0.11620
  37.90468	   0.11665
  38.00458	   0.11830
  38.10469	   0.11878
  38.20479	   0.12022
  38.30459	   0.12058
  38.40480	   0.12155
  38.50540	   0.12390
  38.60450	   0.12477
  38.70471	   0.12565
  38.80471	   0.12688
  38.90441	   0.12849
  39.00472	   0.13040
  39.10482	   0.13093
  39.20472	   0.13164
  39.30483	   0.13223
  39.40473	   0.13213
  39.50483	   0.13284
  39.60474	   0.13432
  39.70504	   0.13630
  39.80495	   0.13792
  39.90455	   0.13864
  40.00505	   0.14034
  40.10475	   0.14068
  40.20486	   0.14297
  40.30456	   0.14235
  40.40447	   0.14454
  40.50457	   0.14496
  40.81687	   0.15098
  43.72232	   0.20127
  46.08672	   0.27969
  49.47106	   0.40313
  53.75834	   0.56019
  58.10196	   0.68180
  62.07382	   0.78693
  67.20227	   0.94190
  70.08816	   1.01643
  74.00250	   1.09570
  81.75506	   1.21370
  92.00311	   1.38050
  97.09827	   1.49577
 102.50346	   1.61950
 109.65379	   1.67822
 116.20393	   1.71780
 121.60410	   1.72560
 124.07138	   1.73131
 133.60451	   1.73910
 140.30474	   1.73990
 140.65510	   1.74071
 161.09620	   1.70251
 171.66384	   1.66555
 183.86492	   1.63052
 190.56644	   1.61291
 192.88651	   1.60659
 195.96662	   1.59512
 199.04672	   1.57862
 202.12683	   1.55833
 205.20693	   1.53886
 208.28703	   1.52260
 211.37714	   1.51262
 214.45724	   1.49595
 217.53734	   1.48730
 220.61745	   1.47521
 223.69756	   1.46590
 226.77766	   1.45768
 229.85776	   1.45092
 232.94787	   1.43944
 236.02797	   1.42901
 239.10808	   1.41986
 242.18818	   1.40992
 245.26828	   1.40022
 248.34839	   1.38766
 251.42849	   1.37298
 254.51859	   1.35489
 257.59870	   1.33285
 260.67880	   1.30792
 263.75891	   1.27980
 266.84901	   1.25084
 269.91911	   1.22237
 273.00922	   1.19830
 276.08933	   1.17684
 279.16943	   1.15751
 282.24953	   1.14065
 285.33964	   1.12457
 288.40974	   1.11052
 291.48984	   1.09682
 294.56995	   1.08150
 297.66005	   1.06687
 300.74016	   1.05302
 303.82026	   1.03927
 306.90037	   1.02649
 309.99047	   1.01429
 313.06057	   1.00192
 316.15067	   0.99017
 319.23078	   0.97845
 322.31088	   0.96683
 325.40099	   0.96516
 328.47110	   0.95501
 331.56120	   0.94516
 334.63130	   0.93514
 337.72140	   0.92559
 340.80151	   0.91709
 343.88161	   0.90894
 346.97172	   0.90107
 350.04182	   0.89407
 353.12193	   0.88761
 356.21203	   0.88087
 359.29213	   0.87374
 362.37224	   0.86427
 365.46234	   0.85190
 368.53244	   0.83681
 371.61255	   0.82208
 374.70265	   0.81065
 377.78276	   0.80203
 380.86286	   0.79515
 383.94297	   0.79001
 387.03307	   0.78421
 390.11318	   0.77893
 393.19328	   0.77388
 396.27339	   0.76903
 399.34348	   0.76517
 402.43359	   0.76144
 405.51370	   0.75764
 408.60380	   0.75298
 411.67390	   0.74815
 414.76401	   0.74376
 417.83411	   0.73789
 420.93422	   0.73334
 424.01432	   0.72948
 427.09442	   0.72587
 430.17452	   0.72175
 433.25463	   0.71848
 436.33473	   0.71470
 439.41484	   0.71114
 442.50495	   0.70701
 445.57504	   0.70328
 448.65515	   0.69954
 451.74526	   0.69546
 454.82536	   0.69201
 457.89547	   0.68839
 460.97557	   0.68466
 464.06567	   0.68095
 467.14577	   0.67719
 470.22589	   0.67316
 473.31599	   0.66897
 476.38609	   0.66521
 479.48619	   0.66112
 482.56630	   0.65697
 485.64641	   0.65298
 488.72651	   0.64902
 491.80662	   0.64523
 494.88672	   0.64138
 497.96682	   0.63753
 501.04693	   0.63399
 504.12702	   0.63019
 507.21714	   0.62636
 510.28723	   0.62240
 513.36734	   0.61878
 516.44744	   0.61506
 519.54755	   0.61076
 522.60765	   0.60751
 525.68775	   0.60365
 528.78787	   0.60007
 531.86796	   0.59623
 534.94807	   0.59240
 538.02818	   0.58857
 541.10827	   0.58513
 544.19837	   0.58161
 547.26847	   0.57799
 550.35858	   0.57434
 553.42869	   0.57111
 556.50879	   0.56762
 559.59889	   0.56397
 562.68899	   0.56034
 565.76911	   0.55705
 568.83920	   0.55359
 571.92932	   0.55035
 575.00942	   0.54660
 578.08951	   0.54339
 581.17962	   0.54046
 584.24974	   0.53650
 587.31984	   0.53360
 590.42994	   0.53031
 593.51004	   0.52697
 596.59015	   0.52380
 599.65024	   0.52037
 602.74037	   0.51724
 605.83047	   0.51412
 608.89055	   0.51114
 611.99067	   0.50783
 615.06076	   0.50453
 618.15086	   0.50162
 621.22097	   0.49840
 624.32109	   0.49550
 627.38119	   0.49178
 630.47131	   0.48872
 633.57139	   0.48571
 636.63150	   0.48187
 639.71160	   0.47866
 642.80172	   0.47633
 645.88180	   0.47345
 648.95193	   0.47042
 652.06202	   0.46733
 655.13213	   0.46474
 658.22223	   0.46213
 661.27235	   0.45905
 664.36243	   0.45641
 667.47255	   0.45383
 670.54265	   0.45117
 673.63274	   0.44845
 676.68285	   0.44586
 679.76295	   0.44323
 682.87306	   0.44051
 685.93315	   0.43790
 689.02329	   0.43450
 692.09337	   0.43257
 695.20348	   0.43052
 698.25357	   0.42697
 701.33368	   0.42503
 704.44380	   0.42212
 707.50391	   0.42015
 710.58399	   0.41766
 713.69410	   0.41553
 716.74419	   0.41223
 719.86431	   0.41004
 722.92440	   0.40737
 726.01453	   0.40514
 729.09462	   0.40292
 732.19472	   0.40063
 735.27482	   0.39743
 738.33495	   0.39612
 741.43506	   0.39338
 744.50517	   0.39224
 747.59526	   0.38873
 750.67538	   0.38742
 753.73548	   0.38401
 756.81555	   0.38219
 759.92565	   0.37993
 763.01577	   0.37717
 766.07588	   0.37604
 769.16598	   0.37246
 772.22608	   0.37102
 775.32620	   0.36789
 778.38630	   0.36601
 781.47642	   0.36373
 784.54648	   0.36252
 787.63662	   0.36160
 790.69672	   0.35745
 793.78680	   0.35640
 796.89692	   0.35435
 799.98701	   0.35333
 803.03713	   0.34920
 806.11720	   0.34829
 809.22733	   0.34716
 812.29742	   0.34451
 815.39753	   0.34141
 818.46764	   0.34266
 821.55774	   0.34307
 824.61784	   0.34080
 827.69795	   0.33991
 830.80806	   0.33574
 833.87814	   0.33282
 836.97828	   0.33166
 840.03838	   0.32813
 843.11847	   0.32623
 846.16855	   0.32197
 849.29867	   0.32304
 852.33876	   0.32111
 855.44890	   0.31955
 858.52898	   0.31751
 861.57910	   0.31572
 864.69921	   0.31511
 867.78928	   0.31376
 870.82940	   0.31317
 873.89951	   0.31062
 876.98961	   0.31235
 880.10971	   0.31116
 883.17985	   0.31008
 886.26990	   0.30517
 889.32003	   0.30529
 892.40015	   0.30425
 895.49024	   0.30162
 898.60036	   0.29904
 901.68043	   0.29844
 904.77058	   0.29601
 907.81067	   0.29323
 910.88075	   0.29435
 913.97086	   0.29489
 917.08100	   0.28815
 920.14107	   0.28339
 923.23119	   0.28398
 926.33126	   0.28269
 929.38137	   0.28190
 932.46153	   0.27998
 935.56160	   0.27935
 938.67169	   0.27758
 941.74180	   0.27524
 944.82190	   0.27517
 947.86199	   0.27355
 950.98211	   0.27155
 954.06226	   0.26654
 958.08484	   0.26812
 982.06923	   0.25803
1011.10859	   0.24594
1050.23987	   0.22997
1078.43415	   0.21962
1110.32293	   0.20973
1137.11377	   0.20261
1163.52324	   0.19461
1183.20956	   0.18728
1201.10573	   0.18197
1221.42787	   0.17512
1245.38876	   0.17179
1276.56542	   0.16343
1313.15275	   0.15607
1338.91302	   0.14991
1366.38464	   0.14482
1392.98434	   0.13740
1425.49535	   0.13062
1453.32558	   0.12298
1494.43237	   0.11439
1544.12035	   0.10419
1591.30385	   0.09491
1644.21264	   0.08645
1698.88058	   0.07902
1746.93291	   0.07372
1785.20480	   0.06981
1837.91018	   0.06497
1883.08101	   0.06171
1940.62203	   0.05758
1997.91587	   0.05358
2054.42630	   0.05029
2101.96390	   0.04765
2156.21891	   0.04513
2199.86138	   0.04400
2429.65006	   0.03554
2543.84366	   0.03270
2663.40426	   0.03008
2788.58426	   0.02768
2919.64774	   0.02547
3056.87116	   0.02343
3200.54417	   0.02155
3350.96972	   0.01983
3508.46526	   0.01824
3673.36317	   0.01679
3850.63517	   0.01578
4027.05014	   0.01578
4210.41786	   0.01926
4415.14349	   0.02320
4508.49328	   0.02440
4628.58165	   0.02075
4853.63988	   0.01926
5061.05172	   0.02101
5307.13810	   0.02349
5550.28205	   0.02532
5834.22438	   0.02830
6036.39982	   0.03245
6097.76692	   0.03853
6135.17623	   0.05149
6173.04738	   0.07167
6211.38991	   0.10420
6250.21109	   0.15627
6289.52028	   0.22800
6309.36104	   0.26107
6319.32843	   0.27272
6329.32769	   0.27930
6339.35800	   0.27995
6349.42144	   0.27452
6369.64221	   0.24847
6410.47259	   0.17352
6451.83081	   0.11404
6493.72547	   0.07728
6536.16881	   0.05514
6579.16922	   0.04135
6622.74059	   0.03236
6673.69436	   0.02553
6711.63571	   0.02203
6756.98534	   0.01897
6802.95085	   0.01674
6849.54641	   0.01509
6896.78504	   0.01387
6944.67861	   0.01297
7000.23626	   0.01226
7042.49097	   0.01189
7092.43853	   0.01162
7143.09839	   0.01149
7194.48801	   0.01150
7246.62156	   0.01162
7299.51661	   0.01186
7353.18952	   0.01222
7407.65715	   0.01269
7468.92605	   0.01336
7519.05094	   0.01402
7576.01391	   0.01491
7633.84561	   0.01597
7692.56798	   0.01723
7752.19981	   0.01872
7812.76387	   0.02050
7874.28219	   0.02262
7936.77599	   0.02517
8000.27020	   0.02825
8090.88815	   0.03373
8183.58245	   0.04113
8285.28397	   0.05226
8377.30883	   0.06640
8467.68592	   0.08609
8554.60885	   0.11350
8643.33367	   0.15522
8731.28019	   0.21885
8810.86964	   0.30643
8849.85705	   0.36314
8889.18911	   0.43039
8928.87235	   0.50702
8968.91278	   0.58839
9009.31329	   0.66482
9049.94069	   0.72172
9091.21614	   0.74434
9111.92506	   0.73960
9132.72854	   0.72419
9153.62723	   0.69922
9174.62179	   0.66655
9216.90115	   0.58715
9259.57199	   0.50279
9302.63907	   0.42449
9337.38352	   0.36948
9372.38777	   0.32179
9392.74147	   0.29741
9434.28090	   0.25445
9470.01681	   0.22378
9506.02375	   0.19773
9542.30628	   0.17556
9578.86758	   0.15662
9615.71012	   0.14038
9652.83567	   0.12638
9686.26540	   0.11547
9727.95425	   0.10372
9765.95484	   0.09451
9804.25347	   0.08643
9842.85212	   0.07930
9881.75667	   0.07299
9920.96999	   0.06739
9960.49577	   0.06239
10000.33775	   0.05791
10101.35126	   0.04857
10204.42460	   0.04129
10418.84191	   0.03078
10582.36709	   0.02540
10734.56261	   0.02165
10869.93710	   0.01903
11000.37161	   0.01698
11186.05811	   0.01463
11374.69401	   0.01277
11547.72982	   0.01140
11696.62477	   0.01041
11848.74028	   0.00955
12000.40491	   0.00881
12255.31345	   0.00777
12523.65302	   0.00690
12781.87170	   0.00621
13000.43904	   0.00572
13331.63019	   0.00511
13624.64017	   0.00466
14000.47283	   0.00418
15000.50669	   0.00328
15498.02343	   0.00297
16000.54040	   0.00270
16531.22830	   0.00247
17000.57412	   0.00230
17586.41406	   0.00211
18000.60789	   0.00200
18505.10509	   0.00188
19000.64160	   0.00177
19525.06950	   0.00167
20000.67550	   0.00159
21538.10759	   0.00138
