2.360000000000000320e+00	9.895402088000000429e-01
3.160000000000000142e+00	9.901343546999998857e-01
4.469999999999999751e+00	9.822793356000000253e-01
6.760000000000000675e+00	9.690470400000000817e-01
1.140000000000000036e+01	8.755628499999998926e-01
1.354999999999999893e+01	7.946187600000000906e-01
1.714000000000000057e+01	7.055389999999999162e-01
2.429999999999999716e+01	7.023479999999999723e-01
2.562999999999999901e+01	7.811000000000000165e-01
3.037999999999999901e+01	5.815600000000000769e-01
3.270000000000000284e+01	4.794650000000000301e-01
3.568000000000000682e+01	3.155749999999999944e-01
3.792999999999999972e+01	2.188070000000000292e-01
4.059000000000000341e+01	1.386450000000000182e-01
4.478000000000000114e+01	5.588000000000009626e-02
4.607000000000000028e+01	-5.280000000000006910e-03
4.895000000000000284e+01	-5.721300000000006936e-02
5.390999999999999659e+01	-2.538399999999999546e-01
5.842999999999999972e+01	-2.957570000000000476e-01
6.162999999999999545e+01	-1.440959999999998908e-01
6.714000000000000057e+01	2.995999999999998664e-01
7.184999999999999432e+01	4.968749999999999556e-01
7.359000000000000341e+01	4.181750000000000744e-01
7.437000000000000455e+01	4.553640000000002130e-01
8.345000000000000284e+01	1.693509999999999183e-01
8.779999999999999716e+01	3.376440000000000552e-01
9.198000000000000398e+01	2.153910000000002212e-01
9.321000000000000796e+01	9.559900000000010056e-02
9.887999999999999545e+01	4.312999999999997947e-01
1.025799999999999983e+02	6.390000000000006786e-02
1.048199999999999932e+02	8.959999999999967990e-02
1.066700000000000017e+02	1.114999999999997105e-01
1.085699999999999932e+02	9.440000000000003944e-02
1.135000000000000000e+02	2.673000000000000931e-01
1.200699999999999932e+02	4.616999999999999993e-01
1.215699999999999932e+02	7.395000000000002682e-01
