312.54	0.285
334.1	0.192
364.98	0.005
386.97	-0.16
404.65	-0.267
420	-0.416
439.97	-0.616
469.99	-0.81
505.03	-1.101
545.95	-1.444
599.83	-1.893
661.95	-2.51
750.06	-3.5
859.81	-5.09
1009.6	-7.05
1175.2	-9.87
1344.7	-13.44
1530.7	-17.88
1689.2	-22.13
1839.5	-26.84
1980.6	-31.13
2119.4	-36.21
2175.2	-38.1
2238	-39.74
