1.880000000000000000e+02	-1.414400000000000324e+00	3.564000000000000501e+00
1.920000000000000000e+02	-1.343999999999999639e+00	3.804799999999999294e+00
1.950000000000000000e+02	-1.267199999999999882e+00	4.050399999999999778e+00
1.990000000000000000e+02	-1.259899999999999576e+00	4.200000000000000178e+00
2.030000000000000000e+02	-1.243199999999999639e+00	4.292600000000000193e+00
2.070000000000000000e+02	-1.139999999999999458e+00	4.427800000000000402e+00
2.120000000000000000e+02	-1.106299999999999395e+00	4.401600000000000179e+00
2.160000000000000000e+02	-1.046499999999999764e+00	4.408800000000000274e+00
2.210000000000000000e+02	-1.013199999999999656e+00	4.382399999999999629e+00
2.260000000000000000e+02	-1.013199999999999656e+00	4.382399999999999629e+00
2.310000000000000000e+02	-1.106299999999999395e+00	4.401600000000000179e+00
2.370000000000000000e+02	-1.268399999999999528e+00	4.472000000000000419e+00
2.430000000000000000e+02	-1.494500000000000162e+00	4.531200000000000117e+00
2.490000000000000000e+02	-1.736000000000000432e+00	4.648200000000000109e+00
2.550000000000000000e+02	-2.060499999999999776e+00	4.813200000000000145e+00
2.620000000000000000e+02	-2.347199999999999953e+00	5.054599999999999760e+00
2.690000000000000000e+02	-2.671999999999999709e+00	5.257799999999999585e+00
2.760000000000000000e+02	-3.018899999999999473e+00	5.642000000000000348e+00
2.840000000000000000e+02	-3.285099999999998577e+00	6.101999999999999424e+00
2.920000000000000000e+02	-3.609599999999999476e+00	6.607999999999999652e+00
3.010000000000000000e+02	-3.949099999999999611e+00	7.133999999999999453e+00
3.110000000000000000e+02	-4.354899999999998883e+00	7.709999999999999076e+00
3.200000000000000000e+02	-4.673099999999999810e+00	8.246000000000000441e+00
3.320000000000000000e+02	-4.915500000000000647e+00	8.822800000000000864e+00
3.420000000000000000e+02	-4.993999999999999773e+00	9.700799999999999201e+00
3.540000000000000000e+02	-4.924500000000000099e+00	1.044680000000000142e+01
3.680000000000000000e+02	-4.800000000000000711e+00	1.101999999999999957e+01
3.810000000000000000e+02	-4.624800000000000466e+00	1.166140000000000043e+01
3.970000000000000000e+02	-4.376100000000000101e+00	1.227200000000000202e+01
4.130000000000000000e+02	-4.300799999999999734e+00	1.275440000000000040e+01
4.310000000000000000e+02	-4.175999999999998380e+00	1.330419999999999803e+01
4.510000000000000000e+02	-4.088700000000000223e+00	1.380160000000000053e+01
4.710000000000000000e+02	-4.227600000000001579e+00	1.438399999999999856e+01
4.960000000000000000e+02	-4.606500000000000483e+00	1.505679999999999907e+01
5.210000000000000000e+02	-4.936399999999999011e+00	1.610399999999999920e+01
5.490000000000000000e+02	-5.313300000000000800e+00	1.742440000000000211e+01
5.820000000000000000e+02	-6.056399999999999118e+00	1.861599999999999966e+01
6.170000000000000000e+02	-6.709500000000002018e+00	1.986479999999999890e+01
6.590000000000000000e+02	-7.128000000000001002e+00	2.119679999999999609e+01
7.040000000000000000e+02	-7.502000000000000668e+00	2.265119999999999933e+01
7.560000000000000000e+02	-7.080099999999998062e+00	2.405999999999999872e+01
8.210000000000000000e+02	-5.775999999999998025e+00	2.574419999999999931e+01
8.920000000000000000e+02	-4.857499999999999929e+00	2.605679999999999907e+01
9.840000000000000000e+02	-4.538400000000001100e+00	2.659900000000000375e+01
1.088000000000000000e+03	-3.910399999999995657e+00	2.813999999999999702e+01
1.216000000000000000e+03	-4.118100000000003647e+00	3.004600000000000293e+01
1.393000000000000000e+03	-5.628000000000001890e+00	3.207580000000000098e+01
1.610000000000000000e+03	-8.473900000000003985e+00	3.468599999999999994e+01
1.937000000000000000e+03	-1.461600000000000499e+01	3.643379999999999797e+01
