1653.1	14.503
1549.8	13.934
1458.6	13.404
1377.6	12.908
1305.1	12.443
1239.8	12.007
1180.8	11.597
1127.1	11.21
1078.1	10.846
1033.2	10.502
991.87	10.176
953.72	9.868
918.4	9.576
885.6	9.299
855.06	9.0359
826.56	8.7859
799.9	8.548
774.9	8.3215
751.42	8.1055
729.32	7.8994
708.48	7.7027
688.8	7.5146
670.18	7.3348
652.55	7.1626
635.82	6.9977
619.92	6.8395
604.8	6.6878
590.4	6.542
576.67	6.402
563.56	6.2675
551.04	6.1379
539.06	6.0133
527.59	5.8932
516.6	5.7774
506.06	5.6657
495.94	5.5579
486.21	5.4538
476.86	5.3532
467.86	5.256
459.2	5.1619
450.85	5.0709
442.8	4.9828
435.03	4.8974
427.53	4.8146
420.29	4.7343
413.28	4.6565
406.51	4.5809
399.95	4.5076
393.6	4.4363
387.45	4.3671
381.49	4.2997
375.71	4.2342
370.1	4.1705
364.66	4.1085
359.37	4.0481
354.24	3.9894
349.25	3.932
344.4	3.8761
339.68	3.8217
335.09	3.7685
330.62	3.7167
326.27	3.6662
322.04	3.6168
317.91	3.5685
313.88	3.5214
309.96	3.4754
306.13	3.4303
302.4	3.3863
298.76	3.3434
295.2	3.3012
291.73	3.26
288.34	3.2197
285.02	3.1802
281.78	3.1416
278.62	3.1037
275.52	3.0666
272.49	3.0303
269.53	2.9946
266.63	2.9597
263.8	2.9254
261.02	2.8918
258.3	2.8588
255.64	2.8265
253.03	2.7947
250.47	2.7636
247.97	2.733
245.51	2.7029
243.11	2.6734
240.75	2.6444
238.43	2.6158
236.16	2.5878
233.93	2.5603
231.75	2.5332
229.6	2.5066
227.49	2.4804
225.43	2.4546
223.39	2.4293
221.4	2.4043
219.44	2.3797
217.52	2.3556
215.62	2.3318
213.77	2.3083
211.94	2.2852
210.14	2.2625
208.38	2.2401
206.64	2.218
204.93	2.1963
203.25	2.1749
201.6	2.1537
199.97	2.1329
198.37	2.1123
196.8	2.0921
195.25	2.0721
193.73	2.0524
192.22	2.0329
190.74	2.0138
