2.520000000000000000e+02	1.211000000000000054e-03
2.540000000000000000e+02	1.170999999999999949e-03
2.560000000000000000e+02	1.131000000000000061e-03
2.580000000000000000e+02	1.093000000000000005e-03
2.600000000000000000e+02	1.054999999999999948e-03
2.620000000000000000e+02	1.018999999999999941e-03
2.640000000000000000e+02	9.829999999999999329e-04
2.660000000000000000e+02	9.489999999999999738e-04
2.680000000000000000e+02	9.150000000000000147e-04
2.700000000000000000e+02	8.819999999999999715e-04
2.720000000000000000e+02	8.499999999999999526e-04
2.740000000000000000e+02	8.189999999999999581e-04
2.760000000000000000e+02	7.889999999999999878e-04
2.780000000000000000e+02	7.590000000000000175e-04
2.800000000000000000e+02	7.299999999999999632e-04
2.820000000000000000e+02	7.020000000000000415e-04
2.840000000000000000e+02	6.750000000000000357e-04
2.860000000000000000e+02	6.489999999999999459e-04
2.880000000000000000e+02	6.229999999999999644e-04
2.900000000000000000e+02	5.980000000000000072e-04
2.920000000000000000e+02	5.739999999999999660e-04
2.940000000000000000e+02	5.500000000000000331e-04
2.960000000000000000e+02	5.270000000000000162e-04
2.980000000000000000e+02	5.050000000000000235e-04
3.000000000000000000e+02	4.829999999999999767e-04
3.020000000000000000e+02	4.620000000000000083e-04
3.040000000000000000e+02	4.409999999999999858e-04
3.060000000000000000e+02	4.209999999999999875e-04
3.080000000000000000e+02	4.020000000000000136e-04
3.100000000000000000e+02	3.829999999999999854e-04
3.120000000000000000e+02	3.649999999999999816e-04
3.140000000000000000e+02	3.480000000000000020e-04
3.160000000000000000e+02	3.310000000000000225e-04
3.180000000000000000e+02	3.139999999999999888e-04
3.200000000000000000e+02	2.979999999999999793e-04
3.220000000000000000e+02	2.829999999999999942e-04
3.240000000000000000e+02	2.680000000000000090e-04
3.260000000000000000e+02	2.530000000000000239e-04
3.280000000000000000e+02	2.400000000000000061e-04
3.300000000000000000e+02	2.259999999999999910e-04
3.320000000000000000e+02	2.130000000000000003e-04
3.340000000000000000e+02	2.000000000000000096e-04
3.360000000000000000e+02	1.879999999999999890e-04
3.380000000000000000e+02	1.769999999999999926e-04
3.400000000000000000e+02	1.659999999999999963e-04
3.420000000000000000e+02	1.550000000000000000e-04
3.440000000000000000e+02	1.440000000000000036e-04
3.460000000000000000e+02	1.350000000000000017e-04
3.480000000000000000e+02	1.250000000000000026e-04
3.500000000000000000e+02	1.160000000000000007e-04
3.520000000000000000e+02	1.069999999999999988e-04
3.540000000000000000e+02	9.899999999999999404e-05
3.560000000000000000e+02	9.100000000000000287e-05
3.580000000000000000e+02	8.299999999999999815e-05
3.600000000000000000e+02	7.600000000000000418e-05
3.620000000000000000e+02	6.899999999999999667e-05
3.640000000000000000e+02	6.299999999999999990e-05
3.660000000000000000e+02	5.700000000000000314e-05
3.680000000000000000e+02	5.099999999999999960e-05
3.700000000000000000e+02	4.500000000000000283e-05
3.720000000000000000e+02	4.000000000000000327e-05
3.740000000000000000e+02	3.600000000000000091e-05
3.760000000000000000e+02	3.100000000000000135e-05
3.780000000000000000e+02	2.699999999999999899e-05
3.800000000000000000e+02	2.300000000000000002e-05
3.820000000000000000e+02	2.000000000000000164e-05
3.840000000000000000e+02	1.599999999999999928e-05
3.860000000000000000e+02	1.399999999999999979e-05
3.880000000000000000e+02	1.099999999999999971e-05
3.900000000000000000e+02	9.000000000000000228e-06
3.920000000000000000e+02	6.999999999999999895e-06
3.940000000000000000e+02	5.000000000000000409e-06
3.960000000000000000e+02	3.000000000000000076e-06
3.980000000000000000e+02	1.999999999999999909e-06
4.000000000000000000e+02	9.999999999999999547e-07
4.020000000000000000e+02	9.999999999999999547e-07
4.040000000000000000e+02	0.000000000000000000e+00
4.060000000000000000e+02	0.000000000000000000e+00
4.080000000000000000e+02	0.000000000000000000e+00
4.100000000000000000e+02	0.000000000000000000e+00
4.120000000000000000e+02	0.000000000000000000e+00
4.140000000000000000e+02	0.000000000000000000e+00
4.160000000000000000e+02	0.000000000000000000e+00
4.180000000000000000e+02	0.000000000000000000e+00
4.200000000000000000e+02	0.000000000000000000e+00
4.220000000000000000e+02	0.000000000000000000e+00
4.240000000000000000e+02	0.000000000000000000e+00
4.260000000000000000e+02	0.000000000000000000e+00
4.280000000000000000e+02	0.000000000000000000e+00
4.300000000000000000e+02	0.000000000000000000e+00
4.320000000000000000e+02	0.000000000000000000e+00
4.340000000000000000e+02	0.000000000000000000e+00
4.360000000000000000e+02	0.000000000000000000e+00
4.380000000000000000e+02	0.000000000000000000e+00
4.400000000000000000e+02	0.000000000000000000e+00
4.420000000000000000e+02	0.000000000000000000e+00
4.440000000000000000e+02	0.000000000000000000e+00
4.460000000000000000e+02	0.000000000000000000e+00
4.480000000000000000e+02	0.000000000000000000e+00
4.500000000000000000e+02	0.000000000000000000e+00
4.520000000000000000e+02	0.000000000000000000e+00
4.540000000000000000e+02	0.000000000000000000e+00
4.560000000000000000e+02	0.000000000000000000e+00
4.580000000000000000e+02	0.000000000000000000e+00
4.600000000000000000e+02	0.000000000000000000e+00
4.620000000000000000e+02	0.000000000000000000e+00
4.640000000000000000e+02	0.000000000000000000e+00
4.660000000000000000e+02	0.000000000000000000e+00
4.680000000000000000e+02	0.000000000000000000e+00
4.700000000000000000e+02	0.000000000000000000e+00
4.720000000000000000e+02	0.000000000000000000e+00
4.740000000000000000e+02	0.000000000000000000e+00
4.760000000000000000e+02	0.000000000000000000e+00
4.780000000000000000e+02	0.000000000000000000e+00
4.800000000000000000e+02	0.000000000000000000e+00
4.820000000000000000e+02	0.000000000000000000e+00
4.840000000000000000e+02	0.000000000000000000e+00
4.860000000000000000e+02	0.000000000000000000e+00
4.880000000000000000e+02	0.000000000000000000e+00
4.900000000000000000e+02	0.000000000000000000e+00
4.920000000000000000e+02	0.000000000000000000e+00
4.940000000000000000e+02	0.000000000000000000e+00
4.960000000000000000e+02	0.000000000000000000e+00
4.980000000000000000e+02	0.000000000000000000e+00
5.000000000000000000e+02	0.000000000000000000e+00
5.020000000000000000e+02	0.000000000000000000e+00
5.040000000000000000e+02	0.000000000000000000e+00
5.060000000000000000e+02	0.000000000000000000e+00
5.080000000000000000e+02	0.000000000000000000e+00
5.100000000000000000e+02	0.000000000000000000e+00
5.120000000000000000e+02	0.000000000000000000e+00
5.140000000000000000e+02	0.000000000000000000e+00
5.160000000000000000e+02	0.000000000000000000e+00
5.180000000000000000e+02	0.000000000000000000e+00
5.200000000000000000e+02	0.000000000000000000e+00
5.220000000000000000e+02	0.000000000000000000e+00
5.240000000000000000e+02	0.000000000000000000e+00
5.260000000000000000e+02	0.000000000000000000e+00
5.280000000000000000e+02	0.000000000000000000e+00
5.300000000000000000e+02	0.000000000000000000e+00
5.320000000000000000e+02	0.000000000000000000e+00
5.340000000000000000e+02	0.000000000000000000e+00
5.360000000000000000e+02	0.000000000000000000e+00
5.380000000000000000e+02	0.000000000000000000e+00
5.400000000000000000e+02	0.000000000000000000e+00
5.420000000000000000e+02	0.000000000000000000e+00
5.440000000000000000e+02	0.000000000000000000e+00
5.460000000000000000e+02	0.000000000000000000e+00
5.480000000000000000e+02	0.000000000000000000e+00
5.500000000000000000e+02	0.000000000000000000e+00
5.520000000000000000e+02	0.000000000000000000e+00
5.540000000000000000e+02	0.000000000000000000e+00
5.560000000000000000e+02	0.000000000000000000e+00
5.580000000000000000e+02	0.000000000000000000e+00
5.600000000000000000e+02	0.000000000000000000e+00
5.620000000000000000e+02	0.000000000000000000e+00
5.640000000000000000e+02	0.000000000000000000e+00
5.660000000000000000e+02	0.000000000000000000e+00
5.680000000000000000e+02	0.000000000000000000e+00
5.700000000000000000e+02	0.000000000000000000e+00
5.720000000000000000e+02	0.000000000000000000e+00
5.740000000000000000e+02	0.000000000000000000e+00
5.760000000000000000e+02	0.000000000000000000e+00
5.780000000000000000e+02	0.000000000000000000e+00
5.800000000000000000e+02	0.000000000000000000e+00
5.820000000000000000e+02	0.000000000000000000e+00
5.840000000000000000e+02	0.000000000000000000e+00
5.860000000000000000e+02	0.000000000000000000e+00
5.880000000000000000e+02	0.000000000000000000e+00
5.900000000000000000e+02	0.000000000000000000e+00
5.920000000000000000e+02	0.000000000000000000e+00
5.940000000000000000e+02	0.000000000000000000e+00
5.960000000000000000e+02	0.000000000000000000e+00
5.980000000000000000e+02	0.000000000000000000e+00
6.000000000000000000e+02	0.000000000000000000e+00
6.020000000000000000e+02	0.000000000000000000e+00
6.040000000000000000e+02	0.000000000000000000e+00
6.060000000000000000e+02	0.000000000000000000e+00
6.080000000000000000e+02	0.000000000000000000e+00
6.100000000000000000e+02	0.000000000000000000e+00
6.120000000000000000e+02	0.000000000000000000e+00
6.140000000000000000e+02	0.000000000000000000e+00
6.160000000000000000e+02	0.000000000000000000e+00
6.180000000000000000e+02	0.000000000000000000e+00
6.200000000000000000e+02	0.000000000000000000e+00
6.220000000000000000e+02	0.000000000000000000e+00
6.240000000000000000e+02	0.000000000000000000e+00
6.260000000000000000e+02	0.000000000000000000e+00
6.280000000000000000e+02	0.000000000000000000e+00
6.300000000000000000e+02	0.000000000000000000e+00
6.320000000000000000e+02	0.000000000000000000e+00
6.340000000000000000e+02	0.000000000000000000e+00
6.360000000000000000e+02	0.000000000000000000e+00
6.380000000000000000e+02	0.000000000000000000e+00
6.400000000000000000e+02	0.000000000000000000e+00
6.420000000000000000e+02	0.000000000000000000e+00
6.440000000000000000e+02	0.000000000000000000e+00
6.460000000000000000e+02	0.000000000000000000e+00
6.480000000000000000e+02	0.000000000000000000e+00
6.500000000000000000e+02	0.000000000000000000e+00
6.520000000000000000e+02	0.000000000000000000e+00
6.540000000000000000e+02	0.000000000000000000e+00
6.560000000000000000e+02	0.000000000000000000e+00
6.580000000000000000e+02	0.000000000000000000e+00
6.600000000000000000e+02	0.000000000000000000e+00
6.620000000000000000e+02	0.000000000000000000e+00
6.640000000000000000e+02	0.000000000000000000e+00
6.660000000000000000e+02	0.000000000000000000e+00
6.680000000000000000e+02	0.000000000000000000e+00
6.700000000000000000e+02	0.000000000000000000e+00
6.720000000000000000e+02	0.000000000000000000e+00
6.740000000000000000e+02	0.000000000000000000e+00
6.760000000000000000e+02	0.000000000000000000e+00
6.780000000000000000e+02	0.000000000000000000e+00
6.800000000000000000e+02	0.000000000000000000e+00
6.820000000000000000e+02	0.000000000000000000e+00
6.840000000000000000e+02	0.000000000000000000e+00
6.860000000000000000e+02	0.000000000000000000e+00
6.880000000000000000e+02	0.000000000000000000e+00
6.900000000000000000e+02	0.000000000000000000e+00
6.920000000000000000e+02	0.000000000000000000e+00
6.940000000000000000e+02	0.000000000000000000e+00
6.960000000000000000e+02	0.000000000000000000e+00
6.980000000000000000e+02	0.000000000000000000e+00
7.000000000000000000e+02	0.000000000000000000e+00
7.020000000000000000e+02	0.000000000000000000e+00
7.040000000000000000e+02	0.000000000000000000e+00
7.060000000000000000e+02	0.000000000000000000e+00
7.080000000000000000e+02	0.000000000000000000e+00
7.100000000000000000e+02	0.000000000000000000e+00
7.120000000000000000e+02	0.000000000000000000e+00
7.140000000000000000e+02	0.000000000000000000e+00
7.160000000000000000e+02	0.000000000000000000e+00
7.180000000000000000e+02	0.000000000000000000e+00
7.200000000000000000e+02	0.000000000000000000e+00
7.220000000000000000e+02	0.000000000000000000e+00
7.240000000000000000e+02	0.000000000000000000e+00
7.260000000000000000e+02	0.000000000000000000e+00
7.280000000000000000e+02	0.000000000000000000e+00
7.300000000000000000e+02	0.000000000000000000e+00
7.320000000000000000e+02	0.000000000000000000e+00
7.340000000000000000e+02	0.000000000000000000e+00
7.360000000000000000e+02	0.000000000000000000e+00
7.380000000000000000e+02	0.000000000000000000e+00
7.400000000000000000e+02	0.000000000000000000e+00
7.420000000000000000e+02	0.000000000000000000e+00
7.440000000000000000e+02	0.000000000000000000e+00
7.460000000000000000e+02	0.000000000000000000e+00
7.480000000000000000e+02	0.000000000000000000e+00
7.500000000000000000e+02	0.000000000000000000e+00
7.520000000000000000e+02	0.000000000000000000e+00
7.540000000000000000e+02	0.000000000000000000e+00
7.560000000000000000e+02	0.000000000000000000e+00
7.580000000000000000e+02	0.000000000000000000e+00
7.600000000000000000e+02	0.000000000000000000e+00
7.620000000000000000e+02	0.000000000000000000e+00
7.640000000000000000e+02	0.000000000000000000e+00
7.660000000000000000e+02	0.000000000000000000e+00
7.680000000000000000e+02	0.000000000000000000e+00
7.700000000000000000e+02	0.000000000000000000e+00
7.720000000000000000e+02	0.000000000000000000e+00
7.740000000000000000e+02	0.000000000000000000e+00
7.760000000000000000e+02	0.000000000000000000e+00
7.780000000000000000e+02	0.000000000000000000e+00
7.800000000000000000e+02	0.000000000000000000e+00
7.820000000000000000e+02	0.000000000000000000e+00
7.840000000000000000e+02	0.000000000000000000e+00
7.860000000000000000e+02	0.000000000000000000e+00
7.880000000000000000e+02	0.000000000000000000e+00
7.900000000000000000e+02	0.000000000000000000e+00
7.920000000000000000e+02	0.000000000000000000e+00
7.940000000000000000e+02	0.000000000000000000e+00
7.960000000000000000e+02	0.000000000000000000e+00
7.980000000000000000e+02	0.000000000000000000e+00
8.000000000000000000e+02	0.000000000000000000e+00
8.020000000000000000e+02	0.000000000000000000e+00
8.040000000000000000e+02	0.000000000000000000e+00
8.060000000000000000e+02	0.000000000000000000e+00
8.080000000000000000e+02	0.000000000000000000e+00
8.100000000000000000e+02	0.000000000000000000e+00
8.120000000000000000e+02	0.000000000000000000e+00
8.140000000000000000e+02	0.000000000000000000e+00
8.160000000000000000e+02	0.000000000000000000e+00
8.180000000000000000e+02	0.000000000000000000e+00
8.200000000000000000e+02	0.000000000000000000e+00
8.220000000000000000e+02	0.000000000000000000e+00
8.240000000000000000e+02	0.000000000000000000e+00
8.260000000000000000e+02	0.000000000000000000e+00
8.280000000000000000e+02	0.000000000000000000e+00
8.300000000000000000e+02	0.000000000000000000e+00
8.320000000000000000e+02	0.000000000000000000e+00
8.340000000000000000e+02	0.000000000000000000e+00
8.360000000000000000e+02	0.000000000000000000e+00
8.380000000000000000e+02	0.000000000000000000e+00
8.400000000000000000e+02	0.000000000000000000e+00
8.420000000000000000e+02	0.000000000000000000e+00
8.440000000000000000e+02	0.000000000000000000e+00
8.460000000000000000e+02	0.000000000000000000e+00
8.480000000000000000e+02	0.000000000000000000e+00
8.500000000000000000e+02	0.000000000000000000e+00
8.520000000000000000e+02	0.000000000000000000e+00
8.540000000000000000e+02	0.000000000000000000e+00
8.560000000000000000e+02	0.000000000000000000e+00
8.580000000000000000e+02	0.000000000000000000e+00
8.600000000000000000e+02	0.000000000000000000e+00
8.620000000000000000e+02	0.000000000000000000e+00
8.640000000000000000e+02	0.000000000000000000e+00
8.660000000000000000e+02	0.000000000000000000e+00
8.680000000000000000e+02	0.000000000000000000e+00
8.700000000000000000e+02	0.000000000000000000e+00
8.720000000000000000e+02	0.000000000000000000e+00
8.740000000000000000e+02	0.000000000000000000e+00
8.760000000000000000e+02	0.000000000000000000e+00
8.780000000000000000e+02	0.000000000000000000e+00
8.800000000000000000e+02	0.000000000000000000e+00
8.820000000000000000e+02	0.000000000000000000e+00
8.840000000000000000e+02	0.000000000000000000e+00
8.860000000000000000e+02	0.000000000000000000e+00
8.880000000000000000e+02	0.000000000000000000e+00
8.900000000000000000e+02	0.000000000000000000e+00
8.920000000000000000e+02	0.000000000000000000e+00
8.940000000000000000e+02	0.000000000000000000e+00
8.960000000000000000e+02	0.000000000000000000e+00
8.980000000000000000e+02	0.000000000000000000e+00
9.000000000000000000e+02	0.000000000000000000e+00
9.020000000000000000e+02	0.000000000000000000e+00
9.040000000000000000e+02	0.000000000000000000e+00
9.060000000000000000e+02	0.000000000000000000e+00
9.080000000000000000e+02	0.000000000000000000e+00
9.100000000000000000e+02	0.000000000000000000e+00
9.120000000000000000e+02	0.000000000000000000e+00
9.140000000000000000e+02	0.000000000000000000e+00
9.160000000000000000e+02	0.000000000000000000e+00
9.180000000000000000e+02	0.000000000000000000e+00
9.200000000000000000e+02	0.000000000000000000e+00
9.220000000000000000e+02	0.000000000000000000e+00
9.240000000000000000e+02	0.000000000000000000e+00
9.260000000000000000e+02	0.000000000000000000e+00
9.280000000000000000e+02	0.000000000000000000e+00
9.300000000000000000e+02	0.000000000000000000e+00
9.320000000000000000e+02	0.000000000000000000e+00
9.340000000000000000e+02	0.000000000000000000e+00
9.360000000000000000e+02	0.000000000000000000e+00
9.380000000000000000e+02	0.000000000000000000e+00
9.400000000000000000e+02	0.000000000000000000e+00
9.420000000000000000e+02	0.000000000000000000e+00
9.440000000000000000e+02	0.000000000000000000e+00
9.460000000000000000e+02	0.000000000000000000e+00
9.480000000000000000e+02	0.000000000000000000e+00
9.500000000000000000e+02	0.000000000000000000e+00
9.520000000000000000e+02	0.000000000000000000e+00
9.540000000000000000e+02	0.000000000000000000e+00
9.560000000000000000e+02	0.000000000000000000e+00
9.580000000000000000e+02	0.000000000000000000e+00
9.600000000000000000e+02	0.000000000000000000e+00
9.620000000000000000e+02	0.000000000000000000e+00
9.640000000000000000e+02	0.000000000000000000e+00
9.660000000000000000e+02	0.000000000000000000e+00
9.680000000000000000e+02	0.000000000000000000e+00
9.700000000000000000e+02	0.000000000000000000e+00
9.720000000000000000e+02	0.000000000000000000e+00
9.740000000000000000e+02	0.000000000000000000e+00
9.760000000000000000e+02	0.000000000000000000e+00
9.780000000000000000e+02	0.000000000000000000e+00
9.800000000000000000e+02	0.000000000000000000e+00
9.820000000000000000e+02	0.000000000000000000e+00
9.840000000000000000e+02	0.000000000000000000e+00
9.860000000000000000e+02	0.000000000000000000e+00
9.880000000000000000e+02	0.000000000000000000e+00
9.900000000000000000e+02	0.000000000000000000e+00
9.920000000000000000e+02	0.000000000000000000e+00
9.940000000000000000e+02	0.000000000000000000e+00
9.960000000000000000e+02	0.000000000000000000e+00
9.980000000000000000e+02	0.000000000000000000e+00
1.000000000000000000e+03	0.000000000000000000e+00
1.002000000000000000e+03	0.000000000000000000e+00
1.004000000000000000e+03	0.000000000000000000e+00
1.006000000000000000e+03	0.000000000000000000e+00
1.008000000000000000e+03	0.000000000000000000e+00
1.010000000000000000e+03	0.000000000000000000e+00
1.012000000000000000e+03	0.000000000000000000e+00
1.014000000000000000e+03	0.000000000000000000e+00
1.016000000000000000e+03	0.000000000000000000e+00
1.018000000000000000e+03	0.000000000000000000e+00
1.020000000000000000e+03	0.000000000000000000e+00
1.022000000000000000e+03	0.000000000000000000e+00
1.024000000000000000e+03	0.000000000000000000e+00
1.026000000000000000e+03	0.000000000000000000e+00
1.028000000000000000e+03	0.000000000000000000e+00
1.030000000000000000e+03	0.000000000000000000e+00
1.032000000000000000e+03	0.000000000000000000e+00
1.034000000000000000e+03	0.000000000000000000e+00
1.036000000000000000e+03	0.000000000000000000e+00
1.038000000000000000e+03	0.000000000000000000e+00
1.040000000000000000e+03	0.000000000000000000e+00
1.042000000000000000e+03	0.000000000000000000e+00
1.044000000000000000e+03	0.000000000000000000e+00
1.046000000000000000e+03	0.000000000000000000e+00
1.048000000000000000e+03	0.000000000000000000e+00
1.050000000000000000e+03	0.000000000000000000e+00
1.052000000000000000e+03	0.000000000000000000e+00
1.054000000000000000e+03	0.000000000000000000e+00
1.056000000000000000e+03	0.000000000000000000e+00
1.058000000000000000e+03	0.000000000000000000e+00
1.060000000000000000e+03	0.000000000000000000e+00
1.062000000000000000e+03	0.000000000000000000e+00
1.064000000000000000e+03	0.000000000000000000e+00
1.066000000000000000e+03	0.000000000000000000e+00
1.068000000000000000e+03	0.000000000000000000e+00
1.070000000000000000e+03	0.000000000000000000e+00
1.072000000000000000e+03	0.000000000000000000e+00
1.074000000000000000e+03	0.000000000000000000e+00
1.076000000000000000e+03	0.000000000000000000e+00
1.078000000000000000e+03	0.000000000000000000e+00
1.080000000000000000e+03	0.000000000000000000e+00
1.082000000000000000e+03	0.000000000000000000e+00
1.084000000000000000e+03	0.000000000000000000e+00
1.086000000000000000e+03	0.000000000000000000e+00
1.088000000000000000e+03	0.000000000000000000e+00
1.090000000000000000e+03	0.000000000000000000e+00
1.092000000000000000e+03	0.000000000000000000e+00
1.094000000000000000e+03	0.000000000000000000e+00
1.096000000000000000e+03	0.000000000000000000e+00
1.098000000000000000e+03	0.000000000000000000e+00
1.100000000000000000e+03	0.000000000000000000e+00
1.102000000000000000e+03	0.000000000000000000e+00
1.104000000000000000e+03	0.000000000000000000e+00
1.106000000000000000e+03	0.000000000000000000e+00
1.108000000000000000e+03	0.000000000000000000e+00
1.110000000000000000e+03	0.000000000000000000e+00
1.112000000000000000e+03	0.000000000000000000e+00
1.114000000000000000e+03	0.000000000000000000e+00
1.116000000000000000e+03	0.000000000000000000e+00
1.118000000000000000e+03	0.000000000000000000e+00
1.120000000000000000e+03	0.000000000000000000e+00
1.122000000000000000e+03	0.000000000000000000e+00
1.124000000000000000e+03	0.000000000000000000e+00
1.126000000000000000e+03	0.000000000000000000e+00
1.128000000000000000e+03	0.000000000000000000e+00
1.130000000000000000e+03	0.000000000000000000e+00
1.132000000000000000e+03	0.000000000000000000e+00
1.134000000000000000e+03	0.000000000000000000e+00
1.136000000000000000e+03	0.000000000000000000e+00
1.138000000000000000e+03	0.000000000000000000e+00
1.140000000000000000e+03	0.000000000000000000e+00
1.142000000000000000e+03	0.000000000000000000e+00
1.144000000000000000e+03	0.000000000000000000e+00
1.146000000000000000e+03	0.000000000000000000e+00
1.148000000000000000e+03	0.000000000000000000e+00
1.150000000000000000e+03	0.000000000000000000e+00
1.152000000000000000e+03	0.000000000000000000e+00
1.154000000000000000e+03	0.000000000000000000e+00
1.156000000000000000e+03	0.000000000000000000e+00
1.158000000000000000e+03	0.000000000000000000e+00
1.160000000000000000e+03	0.000000000000000000e+00
1.162000000000000000e+03	0.000000000000000000e+00
1.164000000000000000e+03	0.000000000000000000e+00
1.166000000000000000e+03	0.000000000000000000e+00
1.168000000000000000e+03	0.000000000000000000e+00
1.170000000000000000e+03	0.000000000000000000e+00
1.172000000000000000e+03	0.000000000000000000e+00
1.174000000000000000e+03	0.000000000000000000e+00
1.176000000000000000e+03	0.000000000000000000e+00
1.178000000000000000e+03	0.000000000000000000e+00
1.180000000000000000e+03	0.000000000000000000e+00
1.182000000000000000e+03	0.000000000000000000e+00
1.184000000000000000e+03	0.000000000000000000e+00
1.186000000000000000e+03	0.000000000000000000e+00
1.188000000000000000e+03	0.000000000000000000e+00
1.190000000000000000e+03	0.000000000000000000e+00
1.192000000000000000e+03	0.000000000000000000e+00
1.194000000000000000e+03	0.000000000000000000e+00
1.196000000000000000e+03	0.000000000000000000e+00
1.198000000000000000e+03	0.000000000000000000e+00
1.200000000000000000e+03	0.000000000000000000e+00
1.202000000000000000e+03	0.000000000000000000e+00
1.204000000000000000e+03	0.000000000000000000e+00
1.206000000000000000e+03	0.000000000000000000e+00
1.208000000000000000e+03	0.000000000000000000e+00
1.210000000000000000e+03	0.000000000000000000e+00
1.212000000000000000e+03	0.000000000000000000e+00
1.214000000000000000e+03	0.000000000000000000e+00
1.216000000000000000e+03	0.000000000000000000e+00
1.218000000000000000e+03	0.000000000000000000e+00
1.220000000000000000e+03	0.000000000000000000e+00
1.222000000000000000e+03	0.000000000000000000e+00
1.224000000000000000e+03	0.000000000000000000e+00
1.226000000000000000e+03	0.000000000000000000e+00
1.228000000000000000e+03	0.000000000000000000e+00
1.230000000000000000e+03	0.000000000000000000e+00
1.232000000000000000e+03	0.000000000000000000e+00
1.234000000000000000e+03	0.000000000000000000e+00
1.236000000000000000e+03	0.000000000000000000e+00
1.238000000000000000e+03	0.000000000000000000e+00
1.240000000000000000e+03	0.000000000000000000e+00
1.242000000000000000e+03	0.000000000000000000e+00
1.244000000000000000e+03	0.000000000000000000e+00
1.246000000000000000e+03	0.000000000000000000e+00
1.248000000000000000e+03	0.000000000000000000e+00
1.250000000000000000e+03	0.000000000000000000e+00
