0.2200	1.007
0.2400	0.995
0.2600	1.091
0.2800	1.178
0.3000	1.271
0.3200	1.360
0.3400	1.452
0.3600	1.550
0.3800	1.636
0.4000	1.734
0.4200	1.836
0.4400	1.935
0.4600	2.034
0.4800	2.134
0.5000	2.245
0.5200	2.356
0.5400	2.470
0.5600	2.593
0.5800	2.731
0.6000	2.857
0.6200	2.968
0.6400	3.078
0.6600	3.179
0.6800	3.274
0.7000	3.364
0.7200	3.448
0.7400	3.526
0.7600	3.595
0.7800	3.660
0.8000	3.724
0.8200	3.760
0.8400	3.801
0.8600	3.830
0.8800	3.856
0.9000	3.888
0.9200	3.931
0.9400	3.970
0.9600	4.016
0.9800	4.061
1.0000	4.098
1.0200	4.138
1.0400	4.179
1.0600	4.226
1.0800	4.275
1.1000	4.319
1.1200	4.365
1.1400	4.402
1.1600	4.443
1.1800	4.475
1.2000	4.510
1.2200	4.515
1.2400	4.539
1.2600	4.558
1.2800	4.581
1.3000	4.603
1.3200	4.627
1.3400	4.649
1.3600	4.680
1.3800	4.697
1.4000	4.704
1.4200	4.734
1.4400	4.754
1.4600	4.777
1.4800	4.800
1.5000	4.819
1.5200	4.846
1.5400	4.846
1.5600	4.878
1.5800	4.896
1.6000	4.914
1.6200	4.933
1.6400	4.950
1.6600	4.958
1.6800	4.970
1.7000	4.983
1.7200	4.997
1.7400	5.003
1.7600	5.016
1.7800	5.027
1.8000	5.030
1.8200	5.025
1.8400	5.047
1.8600	5.055
1.8800	5.050
1.9000	5.097
1.9200	5.126
1.9400	5.162
1.9600	5.174
1.9800	5.194
2.0000	5.183
2.0200	5.209
2.0400	5.207
2.0600	5.212
2.0800	5.210
2.1000	5.217
2.1200	5.223
2.1400	5.241
2.1600	5.240
2.1800	5.236
2.2000	5.241
2.2200	5.239
2.2400	5.239
2.2600	5.231
2.2800	5.224
2.3000	5.221
2.3200	5.212
2.3400	5.205
2.3600	5.212
2.3800	5.204
2.4000	5.200
2.4200	5.196
2.4400	5.203
2.4600	5.195
2.4800	5.209
2.5000	5.207
2.5126	5.189
2.5253	5.176
2.5381	5.165
2.5510	5.153
2.5641	5.142
2.5773	5.131
2.5907	5.120
2.6042	5.110
2.6178	5.101
2.6316	5.092
2.6455	5.087
2.6596	5.080
2.6738	5.075
2.6882	5.070
2.7027	5.064
2.7322	5.052
2.7174	5.058
2.7473	5.045
2.7624	5.038
2.7778	5.030
2.7933	5.022
2.8090	5.013
2.8249	5.002
2.8409	4.993
2.8571	4.983
2.8736	4.974
2.8902	4.964
2.9070	4.954
2.9240	4.943
2.9412	4.930
2.9586	4.921
2.9762	4.909
2.9940	4.898
3.0120	4.888
3.0303	4.880
3.0488	4.869
3.0675	4.860
3.0864	4.850
3.1056	4.839
3.1250	4.831
3.1447	4.821
3.1646	4.811
3.1847	4.802
3.2051	4.793
3.2258	4.784
3.2468	4.774
3.2680	4.766
3.2895	4.758
3.3113	4.749
3.3333	4.744
3.3557	4.739
3.3764	4.733
3.4014	4.728
3.4247	4.720
3.4483	4.715
3.4722	4.710
3.4965	4.701
3.5211	4.697
3.5461	4.693
3.5714	4.686
3.5971	4.680
3.6232	4.674
3.6496	4.669
3.6765	4.664
3.7037	4.657
3.7313	4.654
3.7594	4.651
3.7879	4.647
3.8168	4.639
3.8462	4.636
3.8760	4.633
3.9063	4.630
3.9370	4.628
3.9683	4.628
4.0000	4.630
4.0323	4.630
4.0650	4.627
4.0984	4.629
4.1322	4.634
4.1667	4.634
4.2017	4.642
4.2373	4.646
4.2735	4.654
4.3103	4.656
4.3478	4.663
4.3860	4.670
4.4248	4.677
4.4643	4.684
4.5045	4.697
4.5455	4.705
4.5872	4.711
4.6296	4.718
4.6729	4.723
4.7170	4.726
4.7619	4.733
4.8077	4.740
4.8544	4.748
4.9020	4.758
4.9505	4.772
5.0000	4.788
5.0505	4.804
5.1020	4.825
5.1546	4.837
5.2083	4.856
5.2632	4.873
5.3191	4.889
5.3763	4.910
5.4348	4.929
5.4945	4.961
5.5556	5.001
5.6180	5.024
5.6818	5.051
5.7471	5.089
5.8140	5.115
5.8824	5.151
5.9524	5.183
6.0241	5.230
6.0976	5.271
6.1728	5.310
6.2500	5.360
6.3291	5.410
6.4103	5.470
6.4935	5.532
6.5789	5.595
6.6667	5.661
6.7568	5.732
6.8493	5.802
6.9444	5.887
7.0423	5.952
7.1429	6.035
7.2464	6.127
7.3529	6.213
7.4627	6.309
7.5758	6.383
7.6923	6.456
7.8125	6.550
7.9365	6.632
8.0645	6.720
8.1967	6.819
8.3333	6.924
8.4746	7.018
8.6207	7.115
8.7719	7.218
8.9286	7.317
9.0909	7.455
9.2593	7.584
9.4340	7.721
9.6154	7.864
9.8039	8.025
10.0000	8.201
10.2041	8.370
10.4167	8.546
10.6383	8.732
10.8696	8.937
11.1111	9.136
11.3636	9.369
11.6279	9.595
11.9048	9.831
12.1951	10.079
12.5000	10.335
12.8205	10.619
13.1579	10.911
13.5135	11.205
13.8889	11.515
14.2857	11.814
14.7059	12.166
15.1515	12.516
15.6250	12.929
16.1290	13.352
16.6667	13.803
17.2414	14.266
17.8571	14.769
18.5185	15.347
19.2308	15.920
20.0000	16.515
20.8333	17.198
21.7391	18.038
22.7273	18.944
23.8095	20.031
25.0000	20.688
26.3158	21.445
27.7778	22.327
29.4118	23.283
31.2500	24.459
33.3333	25.820
35.7143	27.455
38.4615	29.442
41.6667	31.972
45.4545	35.375
50.0000	39.980
55.5556	46.731