6.670000000000000000e+02	2.330622400000000205e+00
7.140000000000000000e+02	2.791960899999999857e+00
7.690000000000000000e+02	3.238489700000000138e+00
8.330000000000000000e+02	3.736230500000000010e+00
9.090000000000000000e+02	4.273693200000000303e+00
1.000000000000000000e+03	4.887302799999999614e+00
1.050000000000000000e+03	5.216786800000000390e+00
1.110000000000000000e+03	5.589449199999999784e+00
1.180000000000000000e+03	6.012155800000000383e+00
1.250000000000000000e+03	6.477628100000000444e+00
1.330000000000000000e+03	7.017148699999999906e+00
1.430000000000000000e+03	7.654858199999999613e+00
1.540000000000000000e+03	8.368683799999999451e+00
1.670000000000000000e+03	9.177134399999999914e+00
1.820000000000000000e+03	1.011464800000000075e+01
2.000000000000000000e+03	1.124359499999999912e+01
2.110000000000000000e+03	1.189617400000000025e+01
2.220000000000000000e+03	1.259557200000000066e+01
2.350000000000000000e+03	1.336314400000000013e+01
2.500000000000000000e+03	1.423958000000000013e+01
2.670000000000000000e+03	1.524012399999999978e+01
2.860000000000000000e+03	1.635968199999999939e+01
3.080000000000000000e+03	1.764005699999999877e+01
3.330000000000000000e+03	1.912056300000000064e+01
3.640000000000000000e+03	2.084575399999999945e+01
4.000000000000000000e+03	2.291545599999999894e+01
4.440000000000000000e+03	2.546181899999999843e+01
5.000000000000000000e+03	2.857704000000000022e+01
5.710000000000000000e+03	3.251091699999999918e+01
6.670000000000000000e+03	3.764371899999999727e+01
8.000000000000000000e+03	4.461333199999999977e+01
1.000000000000000000e+04	5.467372100000000046e+01
1.110000000000000000e+04	5.992645900000000125e+01
1.250000000000000000e+04	6.635000300000000095e+01
1.430000000000000000e+04	7.394984499999999628e+01
1.670000000000000000e+04	8.279422999999999888e+01
2.000000000000000000e+04	9.312286600000000192e+01
2.220000000000000000e+04	9.892139199999999732e+01
2.500000000000000000e+04	1.051666900000000027e+02
2.860000000000000000e+04	1.118685700000000054e+02
3.330000000000000000e+04	1.190828800000000030e+02
4.000000000000000000e+04	1.270852799999999974e+02
4.440000000000000000e+04	1.316302799999999991e+02
5.000000000000000000e+04	1.368288499999999885e+02
5.710000000000000000e+04	1.430877399999999966e+02
6.670000000000000000e+04	1.510852399999999989e+02
8.000000000000000000e+04	1.619815000000000111e+02
1.000000000000000000e+05	1.778612799999999936e+02
1.250000000000000000e+05	1.968708499999999901e+02
