1.880000000000000000e+02	1.600000000000000089e+00
1.920000000000000000e+02	1.639999999999999902e+00
1.950000000000000000e+02	1.689999999999999947e+00
1.990000000000000000e+02	1.750000000000000000e+00
2.030000000000000000e+02	1.820000000000000062e+00
2.070000000000000000e+02	1.889999999999999902e+00
2.120000000000000000e+02	1.959999999999999964e+00
2.160000000000000000e+02	2.020000000000000018e+00
2.210000000000000000e+02	2.089999999999999858e+00
2.260000000000000000e+02	2.149999999999999911e+00
2.310000000000000000e+02	2.200000000000000178e+00
2.370000000000000000e+02	2.250000000000000000e+00
2.430000000000000000e+02	2.290000000000000036e+00
2.490000000000000000e+02	2.310000000000000053e+00
2.550000000000000000e+02	2.319999999999999840e+00
2.620000000000000000e+02	2.299999999999999822e+00
2.690000000000000000e+02	2.290000000000000036e+00
2.760000000000000000e+02	2.259999999999999787e+00
2.840000000000000000e+02	2.229999999999999982e+00
2.920000000000000000e+02	2.200000000000000178e+00
3.010000000000000000e+02	2.180000000000000160e+00
3.110000000000000000e+02	2.180000000000000160e+00
3.200000000000000000e+02	2.189999999999999947e+00
3.320000000000000000e+02	2.220000000000000195e+00
3.420000000000000000e+02	2.259999999999999787e+00
3.540000000000000000e+02	2.319999999999999840e+00
3.680000000000000000e+02	2.399999999999999911e+00
3.810000000000000000e+02	2.479999999999999982e+00
3.970000000000000000e+02	2.569999999999999840e+00
4.130000000000000000e+02	2.689999999999999947e+00
4.310000000000000000e+02	2.819999999999999840e+00
4.510000000000000000e+02	2.950000000000000178e+00
4.710000000000000000e+02	3.089999999999999858e+00
4.960000000000000000e+02	3.250000000000000000e+00
5.210000000000000000e+02	3.419999999999999929e+00
5.490000000000000000e+02	3.609999999999999876e+00
5.820000000000000000e+02	3.799999999999999822e+00
6.170000000000000000e+02	4.019999999999999574e+00
6.590000000000000000e+02	4.259999999999999787e+00
7.040000000000000000e+02	4.500000000000000000e+00
7.560000000000000000e+02	4.730000000000000426e+00
8.210000000000000000e+02	4.969999999999999751e+00
8.920000000000000000e+02	5.230000000000000426e+00
9.840000000000000000e+02	5.549999999999999822e+00
1.088000000000000000e+03	5.929999999999999716e+00
1.216000000000000000e+03	6.429999999999999716e+00
1.393000000000000000e+03	7.080000000000000071e+00
1.610000000000000000e+03	7.959999999999999964e+00
1.937000000000000000e+03	9.089999999999999858e+00
