2.065999999999999943e+02	-4.513087999999999766e+00
2.101000000000000227e+02	-4.879304999999999559e+00
2.137999999999999829e+02	-5.171903999999999613e+00
2.175000000000000000e+02	-5.588474999999999859e+00
2.214000000000000057e+02	-6.104423999999999850e+00
2.253999999999999773e+02	-6.707406999999999897e+00
2.295999999999999943e+02	-7.435341000000001088e+00
2.339000000000000057e+02	-8.348023999999998779e+00
2.384000000000000057e+02	-9.581455000000000055e+00
2.431000000000000227e+02	-1.115482100000000010e+01
2.480000000000000000e+02	-1.151252699999999507e+01
2.530000000000000000e+02	-8.026108999999998161e+00
2.582999999999999545e+02	-3.043935999999998643e+00
2.637999999999999545e+02	1.029299999999999216e+00
2.695000000000000000e+02	4.162800000000000722e+00
2.755000000000000000e+02	6.791007999999997935e+00
2.818000000000000114e+02	9.551255999999996860e+00
2.883000000000000114e+02	1.040812100000000129e+01
2.952000000000000455e+02	1.023533899999999974e+01
3.023999999999999773e+02	9.753903000000001100e+00
3.100000000000000000e+02	9.280801000000000300e+00
3.179000000000000341e+02	8.892227999999999355e+00
3.262999999999999545e+02	8.612719999999999487e+00
3.351000000000000227e+02	8.416463999999999501e+00
3.443999999999999773e+02	8.353799999999999670e+00
3.541999999999999886e+02	8.415792000000001494e+00
3.647000000000000455e+02	8.621439999999999770e+00
3.756999999999999886e+02	9.082437000000000538e+00
3.875000000000000000e+02	1.027290000000000347e+01
3.998999999999999773e+02	1.451781300000000385e+01
4.133000000000000114e+02	1.653637700000000521e+01
4.275000000000000000e+02	2.256086299999999767e+01
4.428000000000000114e+02	2.360959999999999681e+01
4.591999999999999886e+02	2.154921999999999827e+01
4.768999999999999773e+02	1.988754300000000086e+01
4.959000000000000341e+02	1.858040800000000203e+01
5.165999999999999091e+02	1.754438400000000087e+01
5.391000000000000227e+02	1.670759999999999934e+01
5.636000000000000227e+02	1.602799299999999860e+01
5.904000000000000909e+02	1.546599999999999930e+01
6.198999999999999773e+02	1.499436300000000166e+01
6.525000000000000000e+02	1.460623500000000163e+01
6.887999999999999545e+02	1.430342400000000147e+01
7.292999999999999545e+02	1.399001999999999946e+01
7.748999999999999773e+02	1.368171900000000107e+01
8.266000000000000227e+02	1.343315600000000032e+01
