   1.20000	 -70.51282
   1.30000	 -60.66992
   1.40000	 -55.57049
   1.50000	 -50.81039
   1.60000	 -46.04645
   1.70000	 -42.14696
   1.80000	 -37.63298
   1.90000	 -34.12549
   2.00000	 -30.55643
   2.10000	 -28.48658
   2.20000	 -25.97272
   2.30000	 -23.65687
   2.40000	 -21.90723
   2.50000	 -20.64892
   2.60000	 -19.86295
   2.70000	 -19.10809
   2.80000	 -18.58660
   2.90000	 -18.25183
   3.00000	 -17.91707
   3.10000	 -17.19333
   3.20000	 -16.20775
   3.30000	 -15.31298
   3.40000	 -14.28361
   3.50000	 -13.05323
   3.60000	 -11.96000
   3.70000	 -11.02806
   3.80000	 -10.35717
   3.90000	  -9.68629
   4.00000	  -9.08596
   4.10000	  -8.49907
   4.20000	  -7.97166
   4.30000	  -7.51465
   4.40000	  -7.02967
   4.50000	  -6.47078
   4.60000	  -6.72800
   4.70000	  -6.43415
   4.80000	  -6.01083
   4.90000	  -5.68467
   5.00000	  -5.38761
   5.10000	  -5.10640
   5.20000	  -4.89648
   5.30000	  -4.70378
   5.40000	  -4.51809
   5.50000	  -4.35455
   5.60000	  -4.20724
   5.70000	  -4.06035
   5.80000	  -3.90937
   5.90000	  -3.78528
   6.00000	  -3.66632
   6.10000	  -3.50995
   6.20000	  -3.33750
   6.30000	  -3.21853
   6.40000	  -3.09956
   6.50000	  -2.95248
   6.60000	  -2.81012
   6.70000	  -2.66931
   6.80000	  -2.50577
   6.90000	  -2.35366
   7.00000	  -2.21273
   7.10000	  -2.06660
   7.20000	  -1.91562
   7.30000	  -1.78599
   7.40000	  -1.67526
   7.50000	  -1.55176
   7.60000	  -1.41754
   7.70000	  -1.28666
   7.80000	  -1.17342
   7.90000	  -1.06017
   8.00000	  -0.94692
   8.10000	  -0.83778
   8.20000	  -0.72872
   8.30000	  -0.63467
   8.40000	  -0.55079
   8.50000	  -0.46333
   8.60000	  -0.36266
   8.70000	  -0.26272
   8.80000	  -0.18723
   8.90000	  -0.10510
   9.00000	  -0.01450
   9.10000	   0.07152
   9.20000	   0.15205
   9.30000	   0.22485
   9.40000	   0.28888
   9.50000	   0.34900
   9.60000	   0.39928
   9.70000	   0.44957
   9.80000	   0.49561
   9.90000	   0.53749
  10.00000	   0.57806
  10.10000	   0.60944
  10.20000	   0.64082
  10.30000	   0.67219
  10.40000	   0.68732
  10.50000	   0.70158
  10.60000	   0.71583
  10.70000	   0.73009
  10.80000	   0.73305
  10.90000	   0.73288
  11.00000	   0.73271
  11.10000	   0.73255
  11.20000	   0.73440
  11.30000	   0.73904
  11.40000	   0.74368
  11.50000	   0.74832
  11.60000	   0.75296
  11.70000	   0.75760
  11.80000	   0.76224
  11.90000	   0.76688
  12.00000	   0.77152
