2.065999999999999943e+02	1.252233208240000062e+00
2.108950831900000082e+02	1.288605016670000047e+00
2.152794584390000239e+02	1.320539863470000075e+00
2.197549820749999867e+02	1.348883362490000071e+00
2.243235490120000009e+02	1.374628428899999921e+00
2.289870935639999914e+02	1.398826114150000022e+00
2.337475902550000058e+02	1.422485501029999932e+00
2.386070546569999919e+02	1.446475620389999994e+00
2.435675442480000186e+02	1.471443128790000054e+00
2.486311592760000053e+02	1.497756688940000025e+00
2.538000436549999677e+02	1.525483411119999966e+00
2.590763858669999991e+02	1.554396291159999999e+00
2.644624198930000034e+02	1.584006393219999920e+00
2.699604261560000396e+02	1.613610811700000092e+00
2.755727324880000424e+02	1.642347330890000068e+00
2.813017151159999685e+02	1.669248583309999923e+00
2.871497996649999891e+02	1.693291661309999974e+00
2.931194621889999894e+02	1.713443059959999903e+00
2.992132302170000457e+02	1.728703166060000074e+00
3.054336838240000134e+02	1.738158645569999994e+00
3.117834567230000289e+02	1.741053694969999954e+00
3.182652373809999631e+02	1.736890010039999988e+00
3.248817701539999803e+02	1.725557794930000055e+00
3.316358564540000202e+02	1.707484079519999920e+00
3.385303559319999636e+02	1.683760509879999923e+00
3.455681876890000126e+02	1.656186961089999965e+00
3.527523315119999552e+02	1.627155638739999910e+00
3.600858291360000294e+02	1.599326336300000095e+00
3.675717855330000248e+02	1.575120819749999956e+00
3.752133702229999699e+02	1.556166254859999931e+00
3.830138186209999844e+02	1.542873298800000015e+00
3.909764334019999978e+02	1.534288029879999904e+00
3.991045859030000429e+02	1.528235639200000051e+00
4.074017175479999651e+02	1.521666027770000040e+00
4.158713413060000335e+02	1.511076210839999989e+00
4.245170431799999733e+02	1.492912260630000043e+00
4.333424837219999972e+02	1.463903817879999902e+00
4.423513995839999779e+02	1.421328741279999974e+00
4.515476051040000129e+02	1.363237223410000087e+00
4.609349939130000280e+02	1.288685306439999900e+00
4.705175405919999889e+02	1.198031281590000052e+00
4.802993023489999587e+02	1.093305619699999953e+00
4.902844207400000300e+02	9.785231658499999874e-01
5.004771234199999412e+02	8.595750635259999939e-01
5.108817259350000199e+02	7.432888820630000337e-01
5.215026335489999383e+02	6.357906560079999991e-01
5.323443431069999860e+02	5.410933500589999445e-01
5.434114449429999922e+02	4.607391554240000131e-01
5.547086248179999757e+02	3.943739182339999760e-01
5.662406659099999615e+02	3.405930248219999901e-01
5.780124508349999815e+02	2.976056028160000144e-01
5.900289637150000317e+02	2.636210571789999735e-01
6.022952922890000309e+02	2.370280090530000050e-01
6.148166300679999949e+02	2.164538352900000073e-01
6.275982785319999948e+02	2.007654747529999950e-01
6.406456493740000724e+02	1.890453416479999926e-01
6.539642667949999577e+02	1.805592808410000083e-01
6.675597698389999550e+02	1.747243908040000127e-01
6.814379147839999860e+02	1.710799793739999908e-01
6.956045775750000075e+02	1.692627284019999900e-01
7.100657563150000442e+02	1.689861321230000102e-01
7.248275738060000322e+02	1.700238371910000046e-01
7.398962801349999836e+02	1.721963537819999890e-01
7.552782553289999896e+02	1.753605822609999865e-01
7.709800120469999456e+02	1.794016370129999927e-01
7.870081983459999719e+02	1.842265120350000118e-01
8.033696004889999358e+02	1.897592030159999943e-01
8.200711458239999274e+02	1.959369686849999903e-01
8.371199057119999907e+02	2.027074753879999913e-01
8.545230985230000442e+02	2.100266215999999908e-01
8.722880926929999532e+02	2.178568829849999999e-01
8.904224098449999474e+02	2.261660543800000089e-01
9.089337279679999710e+02	2.349262935779999895e-01
9.278298846739999135e+02	2.441133941960000053e-01
9.471188805139998976e+02	2.537062323379999929e-01
9.668088823649999313e+02	2.636863450979999857e-01
9.869082268869999552e+02	2.740376091530000169e-01
1.007425424060000068e+03	2.847459954530000004e-01
1.028369160760000113e+03	2.957993818140000064e-01
1.049748304499999904e+03	3.071874096569999768e-01
1.071571907089999968e+03	3.189013744309999732e-01
1.093849208569999973e+03	3.309341417819999798e-01
1.116589641029999939e+03	3.432800833879999791e-01
1.139802832690000059e+03	3.559350278380000177e-01
1.163498611909999909e+03	3.688962230219999805e-01
1.187687011369999937e+03	3.821623073150000049e-01
1.212378272350000088e+03	3.957332874910000076e-01
1.237582849000000124e+03	4.096105218109999946e-01
1.263311412850000124e+03	4.237967070800000013e-01
1.289574857250000150e+03	4.382958688010000214e-01
1.316384302029999844e+03	4.531133537620000151e-01
1.343751098189999993e+03	4.682558246030000260e-01
1.371686832710000090e+03	4.837312560099999992e-01
1.400203333469999961e+03	4.995489323489999967e-01
1.429312674219999963e+03	5.157194465940000416e-01
1.459027179740000065e+03	5.322547004969999662e-01
1.489359431009999980e+03	5.491679059849999822e-01
1.520322270590000016e+03	5.664735878240000355e-01
1.551928807989999996e+03	5.841875875969999576e-01
1.584192425289999846e+03	6.023270690900000002e-01
1.617126782770000091e+03	6.209105251669999603e-01
1.650745824690000063e+03	6.399577862430000375e-01
1.685063785200000211e+03	6.594900304709999661e-01
1.720095194389999961e+03	6.795297957370000086e-01
1.755854884389999825e+03	7.001009935880000423e-01
1.792357995699999947e+03	7.212289251979999705e-01
1.829619983589999947e+03	7.429402994610000421e-01
1.867656624609999881e+03	7.652632533409999827e-01
1.906484023309999884e+03	7.882273745340000470e-01
1.946118619050000007e+03	8.118637265700000549e-01
1.986577192940000032e+03	8.362048764039999860e-01
2.027876874970000017e+03	8.612849245970000123e-01
2.070035151229999883e+03	8.871395381479999509e-01
2.113069871369999873e+03	9.138059860370000287e-01
2.156999256090000017e+03	9.413231775529999901e-01
2.201841904900000372e+03	9.697317034529999713e-01
2.247616803990000335e+03	9.990738800030000144e-01
2.294343334250000225e+03	1.029393795949999912e+00
2.342041279489999852e+03	1.060737362490000057e+00
2.390730834810000033e+03	1.093152366160000000e+00
2.440432615160000296e+03	1.126688524940000047e+00
2.491167664049999985e+03	1.161397547239999994e+00
2.542957462479999776e+03	1.197333194140000057e+00
2.595823938040000030e+03	1.234551344690000052e+00
2.649789474140000038e+03	1.273110064359999960e+00
2.704876919580000049e+03	1.313069676710000078e+00
2.761109598120000101e+03	1.354492838200000104e+00
2.818511318450000090e+03	1.397444616200000045e+00
2.877106384200000321e+03	1.441992570240000049e+00
2.936919604270000036e+03	1.488206836450000070e+00
2.997976303310000276e+03	1.536160215180000010e+00
3.060302332459999889e+03	1.585928261919999915e+00
3.123924080300000242e+03	1.637589381319999982e+00
3.188868484000000080e+03	1.691224924449999945e+00
3.255163040720000026e+03	1.746919289200000058e+00
3.322835819309999806e+03	1.804760023839999894e+00
3.391915472109999882e+03	1.864837933640000056e+00
3.462431247160000112e+03	1.927247190629999940e+00
3.534413000529999863e+03	1.992085446219999945e+00
3.607891208969999752e+03	2.059453946910000166e+00
3.682896982839999964e+03	2.129457652790000211e+00
3.759462079259999882e+03	2.202205358780000122e+00
3.837618915560000005e+03	2.277809818630000205e+00
3.917400582990000203e+03	2.356387871439999948e+00
3.998840860780000185e+03	2.438060570539999805e+00
4.081974230380000336e+03	2.522953314760000065e+00
4.166835890100000142e+03	2.611195981699999891e+00
4.253461769989999993e+03	2.702923062990000069e+00
4.341888547079999626e+03	2.798273801140000128e+00
4.432153660879999734e+03	2.897392327950000013e+00
4.524295329229999879e+03	3.000427804040000090e+00
4.618352564540000458e+03	3.107534559329999890e+00
4.714365190210000037e+03	3.218872233999999999e+00
4.812373857579999822e+03	3.334605919769999982e+00
4.912420063089999530e+03	3.454906300919999840e+00
5.014546165869999641e+03	3.579949794770000082e+00
5.118795405660000142e+03	3.709918691009999936e+00
5.225211921139999504e+03	3.845001289579999870e+00
5.333840768600000047e+03	3.985392036269999938e+00
5.444727941019999889e+03	4.131291655780000127e+00
5.557920387539999865e+03	4.282907281289999979e+00
5.673466033360000438e+03	4.440452580089999657e+00
5.791413799990000371e+03	4.604147874409999730e+00
5.911813626019999901e+03	4.774220256679999608e+00
6.034716488199999731e+03	4.950903698460000335e+00
6.160174423059999754e+03	5.134439152019999675e+00
6.288240548960000524e+03	5.325074643789999840e+00
6.418969088519999787e+03	5.523065358480000242e+00
6.552415391660000751e+03	5.728673713030000059e+00
6.688635958939999909e+03	5.942169419139999853e+00
6.827688465569999607e+03	6.163829533240000380e+00
6.969631785759999730e+03	6.393938492750000258e+00
7.114526017720000709e+03	6.632788137330000389e+00
7.262432509010000103e+03	6.880677713789999927e+00
7.413413882609999746e+03	7.137913863299999662e+00
7.567534063369999785e+03	7.404810589660000275e+00
7.724858305109999492e+03	7.681689206909999790e+00
7.885453218220000053e+03	7.968878265179999865e+00
8.049386797889999798e+03	8.266713453010000379e+00
8.216728452889999971e+03	8.575537474789999948e+00
8.387549034949999623e+03	8.895699901900000484e+00
8.561920868740000515e+03	9.227556995860000555e+00
8.739917782559999978e+03	9.571471502290000544e+00
8.921615139519999502e+03	9.927812413999999919e+00
9.107089869479999834e+03	1.029695470200000074e+01
9.296420501650000006e+03	1.067927901320000039e+01
9.489687197780000133e+03	1.107517133310000013e+01
9.686971786160000192e+03	1.148502261289999993e+01
9.888357796210000743e+03	1.190922835980000016e+01
1.009393049389999942e+04	1.234818818940000007e+01
1.030377691779999986e+04	1.280230533980000018e+01
1.051798591600000145e+04	1.327198614679999977e+01
1.073664818369999921e+04	1.375763947909999985e+01
1.095985630140000103e+04	1.425967613519999944e+01
1.118770477460000075e+04	1.477850819999999921e+01
1.142029007330000059e+04	1.531454836280000009e+01
1.165771067310000035e+04	1.586820919770000060e+01
1.190006709680000131e+04	1.643990240589999985e+01
1.214746195720000105e+04	1.703003802250000120e+01
1.240000000000000000e+04	1.763902358980000074e+01
