0.10323249783923938	0.011949931312848605
0.5150907519446841	0.001768666903249283
0.9594641313742436	0.007640765116068593
1.3929991356957645	0.00788895323395522
1.8265341400172863	0.006523918585585875
2.270907519446845	0.005124758071012536
2.7152808988764043	0.0021123747901832246
3.1488159031979253	0.02010601333684292
3.5931892826274847	0.32925223532587466
3.885825410544512	1.0140657427931359
4.070077787381158	1.7385140063004947
4.200138288677614	2.444964937985624
4.319360414866033	3.1715615060229148
4.416905790838375	3.9023669308926703
4.5144511668107175	4.636721445848181
4.601158167675022	5.349815546155369
4.677026793431288	6.079801950236105
4.742057044079516	6.790893999725686
4.817925669835782	7.514077981142057
4.88295592048401	8.234338513353173
4.9479861711322375	8.943951775307024
5.013016421780467	9.674859577775406
5.088885047536733	10.408395071941897
5.143076923076922	11.111831552111884
5.208107173725152	11.82499390415149
5.294814174589455	12.577127995401987
5.359844425237684	13.272544897012816
5.446551426101987	13.989188087405758
5.554935177182369	14.734155746752327
5.706672428694901	15.463269503682856
6.031823681936041	15.558578172881372
6.194399308556612	14.83388290310431
6.302783059636992	14.103020601790872
6.4003284356093335	13.38283969660091
6.4761970613656	12.666571890736268
6.552065687121866	11.941431359657239
6.617095937770095	11.231408587308877
6.6929645635263615	10.496508058494019
6.768833189282628	9.775803890022184
6.833863439930855	9.058682937502311
6.92057044079516	8.334395553078512
7.007277441659463	7.6172063488262225
7.093984442523768	6.903566234659687
7.191529818496111	6.2034968399556725
7.35410544511668	5.44457820149454
7.625064822817631	4.7493709302047105
8.058599827139153	4.407293247323814
8.437942955920484	3.818724432813953
8.719740708729473	3.098160559569866
9.00153846153846	2.369709819468543
9.380881590319792	1.7963232236588595
9.814416594641314	1.684936396352068
10.258789974070872	1.6561124488112
10.692324978392394	1.4305094496537336
11.136698357821952	1.1785767935401417
11.581071737251513	1.0308583281264632
12.014606741573033	0.9036619177103979
