0.07407206160376045	4.583388191401276
0.40031481003281666	4.614666246257174
1.379007882163756	4.730776743104574
1.6903594886830966	4.799852913814023
2.6834864516927457	5.167757614444097
2.9946883768916814	5.331631954743871
3.9574034565853617	6.1738792348878615
4.253343879566564	6.610113219453096
4.932775177820763	8.393511965576439
5.109844885866793	8.968464660019817
5.507461491436099	10.762591994215967
5.714138468934107	11.372790889672588
6.2939008598653965	10.527021951540519
6.3886153140871125	9.249066112992274
6.453122182408637	9.88160756179435
6.564555040290146	8.191359367925353
6.62480900179114	7.603550791828821
6.758265336040339	5.741879924638253
6.82436585773264	5.2085532648342365
6.952849749858351	3.3650096001975953
7.01797297889122	2.824417729567621
7.198820842220539	1.0065387445942875
7.273851698008969	0.45328888008607393
7.94193974642931	0.02748742735358789
8.234161748009875	0.47040702558084035
8.59401098166959	0.3524092283597433
8.816748901631634	0.18393632356012546
8.981057509444977	-0.5523392615960994
9.145069797374678	-1.1009455871101714
9.489013045864201	-2.8867258102488798
9.63823789686466	-3.4632138408769535
10.36582941584878	-4.001512942804457
10.587398045484385	-3.4294353075276724
11.207532814780677	-1.6646019292613374
11.488664524795144	-1.2427748260647178
12.421932931201766	-0.5374846513825169
12.748242117814819	-0.5482841130549616
13.071208117639923	-0.5291227039114368
13.40078623659998	-0.5228552238093478
13.727462787289223	-0.7663186004032063
14.05385013647167	-0.8266210226972284
14.276264658802813	-0.7902754279250708
