150	1.4563	9.6512
151	1.7406	9.9223
152	2.1073	10.175
153	2.4926	10.337
154	2.9334	10.496
155	3.3852	10.611
156	3.8631	10.624
157	4.3385	10.636
158	4.8106	10.648
159	5.2618	10.63
160	5.7014	10.504
161	6.1385	10.378
162	6.5751	10.252
163	6.9491	10.055
164	7.3168	9.8129
165	7.6977	9.5424
166	8.0541	9.176
167	8.3592	8.8589
168	8.6634	8.5757
169	8.9644	8.2563
170	9.2655	7.9373
171	9.4397	7.6266
172	9.5988	7.2631
173	9.758	6.8925
174	9.9171	6.5234
175	9.9672	6.1717
176	10.014	5.8396
177	10.062	5.5067
178	10.109	5.185
179	10.156	4.8748
180	10.204	4.5794
181	10.232	4.2883
182	10.177	4.005
183	10.122	3.729
184	10.067	3.4645
185	10.012	3.1956
186	9.9576	2.928
187	9.9028	2.6863
188	9.8479	2.4648
189	9.77	2.2566
190	9.6648	2.0824
191	9.5596	1.9196
192	9.4545	1.7719
193	9.3493	1.6449
194	9.2442	1.5178
195	9.1358	1.3923
196	9.0213	1.2708
197	8.9068	1.1494
198	8.7922	1.0377
199	8.6777	0.95665
200	8.5646	0.8756
201	8.4554	0.79455
202	8.3462	0.71349
203	8.237	0.63255
204	8.1278	0.55799
205	8.0186	0.48342
206	7.9138	0.40886
207	7.8094	0.33429
208	7.7051	0.26811
209	7.6008	0.23933
210	7.4964	0.21054
211	7.3921	0.18176
212	7.3079	0.15297
213	7.2319	0.12418
214	7.1559	0.095399
215	7.0799	0.066613
216	7.0039	0.046449
217	6.9279	0.042381
218	6.8518	0.038314
219	6.7758	0.034246
220	6.7246	0.030178
221	6.6734	0.026111
222	6.6222	0.022043
223	6.5709	0.017976
224	6.5197	0.013908
225	6.4685	0.0099415
226	6.4173	0.011136
227	6.3661	0.012331
228	6.3149	0.013526
229	6.2637	0.014721
230	6.216	0.015915
231	6.1826	0.01711
232	6.1492	0.018305
233	6.1158	0.0195
234	6.0824	0.020695
235	6.049	0.021889
236	6.0156	0.021649
237	5.9822	0.021147
238	5.9488	0.020645
239	5.9154	0.020143
240	5.8819	0.019641
241	5.8485	0.019139
242	5.8151	0.018637
243	5.7817	0.018135
244	5.7501	0.017633
245	5.7279	0.017131
246	5.7057	0.016629
247	5.6835	0.01672
248	5.6613	0.017054
249	5.6391	0.017388
250	5.6169	0.017722
251	5.5947	0.018056
252	5.5725	0.01839
253	5.5503	0.018724
254	5.5281	0.019057
255	5.5059	0.019391
256	5.4837	0.019725
257	5.4615	0.020059
258	5.4394	0.020393
259	5.4172	0.020602
260	5.395	0.020665
261	5.3764	0.020729
262	5.3618	0.020793
263	5.3472	0.020857
264	5.3327	0.02092
265	5.3181	0.020984
266	5.3036	0.021048
267	5.289	0.021112
268	5.2744	0.021176
269	5.2599	0.021239
270	5.2453	0.021303
271	5.2308	0.021367
272	5.2162	0.021431
273	5.2016	0.022699
274	5.1871	0.024045
275	5.1725	0.025392
276	5.158	0.026738
277	5.1434	0.028085
278	5.1288	0.029431
279	5.1143	0.030777
280	5.1011	0.032124
281	5.0908	0.03347
282	5.0804	0.034817
283	5.0701	0.036163
284	5.0598	0.037509
285	5.0494	0.038856
286	5.0391	0.040202
287	5.0288	0.041549
288	5.0184	0.042323
289	5.0081	0.043047
290	4.9978	0.043772
291	4.9874	0.044497
292	4.9771	0.045221
293	4.9668	0.045946
294	4.9564	0.04667
295	4.9461	0.047395
296	4.9358	0.04812
297	4.9254	0.048844
298	4.9151	0.049569
299	4.9048	0.050294
300	4.8944	0.051018
301	4.8841	0.051743
302	4.8742	0.052468
303	4.8672	0.053192
304	4.8602	0.053805
305	4.8532	0.053765
306	4.8462	0.053725
307	4.8392	0.053685
308	4.8322	0.053646
309	4.8252	0.053606
310	4.8182	0.053566
311	4.8112	0.053526
312	4.8042	0.053486
313	4.7972	0.053446
314	4.7902	0.053407
315	4.7832	0.053367
316	4.7762	0.053327
317	4.7692	0.053287
318	4.7621	0.053247
319	4.7551	0.053208
320	4.7481	0.053168
321	4.7411	0.053128
322	4.7341	0.053088
323	4.7271	0.05316
324	4.7201	0.053502
325	4.7131	0.053845
326	4.7061	0.054187
327	4.6991	0.05453
328	4.6923	0.054873
329	4.6875	0.055215
330	4.6826	0.055558
331	4.6778	0.055901
332	4.6729	0.056243
333	4.6681	0.056586
334	4.6632	0.056929
335	4.6584	0.057271
336	4.6535	0.057614
337	4.6487	0.057956
338	4.6438	0.058299
339	4.639	0.058642
340	4.6341	0.058984
341	4.6293	0.059327
342	4.6244	0.05967
343	4.6196	0.060012
344	4.6147	0.060355
345	4.6099	0.06072
346	4.605	0.061086
347	4.6002	0.061452
348	4.5953	0.061819
349	4.5905	0.062185
350	4.5856	0.062551
351	4.5808	0.062917
352	4.5759	0.063284
353	4.5711	0.06365
354	4.5662	0.064016
355	4.5614	0.064383
356	4.5565	0.064749
357	4.5517	0.065115
358	4.5468	0.065481
359	4.5422	0.065848
360	4.5389	0.066214
361	4.5355	0.06658
362	4.5322	0.066947
363	4.5288	0.067313
364	4.5255	0.067679
365	4.5221	0.068045
366	4.5187	0.068412
367	4.5154	0.068778
368	4.512	0.069144
369	4.5087	0.069256
370	4.5053	0.069172
371	4.502	0.069088
372	4.4986	0.069004
373	4.4953	0.06892
374	4.4919	0.068836
375	4.4886	0.068751
376	4.4852	0.068667
377	4.4819	0.068583
378	4.4785	0.068499
379	4.4752	0.068415
380	4.4718	0.068331
381	4.4685	0.068246
382	4.4651	0.068162
383	4.4618	0.068078
384	4.4584	0.067994
385	4.4551	0.06791
386	4.4517	0.067826
387	4.4484	0.067742
388	4.445	0.067657
389	4.4416	0.067573
390	4.4383	0.067489
391	4.4349	0.067405
392	4.4316	0.067321
393	4.4282	0.067237
394	4.4249	0.067153
395	4.4215	0.067068
396	4.4182	0.066984
397	4.4157	0.066766
398	4.4135	0.066398
399	4.4112	0.06603
400	4.409	0.065662
401	4.4068	0.065295
402	4.4045	0.064927
403	4.4023	0.064559
404	4.4001	0.064191
405	4.3978	0.063823
406	4.3956	0.063455
407	4.3933	0.063087
408	4.3911	0.062719
409	4.3889	0.062351
410	4.3866	0.061983
411	4.3844	0.061615
412	4.3822	0.061247
413	4.3799	0.060879
414	4.3777	0.060511
415	4.3755	0.060143
416	4.3732	0.059775
417	4.371	0.059407
418	4.3688	0.059039
419	4.3665	0.058671
420	4.3643	0.058303
421	4.362	0.057936
422	4.3598	0.057568
423	4.3576	0.0572
424	4.3553	0.056832
425	4.3531	0.056464
426	4.3509	0.056096
427	4.3486	0.055728
428	4.3464	0.05536
429	4.3442	0.054992
430	4.3419	0.055006
431	4.3397	0.055153
432	4.3374	0.055301
433	4.3352	0.055449
434	4.333	0.055596
435	4.3307	0.055744
436	4.3285	0.055892
437	4.3263	0.056039
438	4.324	0.056187
439	4.3218	0.056335
440	4.3196	0.056482
441	4.3173	0.05663
442	4.3151	0.056777
443	4.3133	0.056925
444	4.3117	0.057073
445	4.3101	0.05722
446	4.3085	0.057368
447	4.3069	0.057516
448	4.3053	0.057663
449	4.3037	0.057811
450	4.3021	0.057959
451	4.3005	0.058106
452	4.2989	0.058254
453	4.2973	0.058402
454	4.2957	0.058549
455	4.2941	0.058697
456	4.2925	0.058845
457	4.2909	0.058992
458	4.2893	0.05914
459	4.2877	0.059287
460	4.2861	0.059435
461	4.2845	0.059583
462	4.2829	0.05973
463	4.2813	0.059878
464	4.2797	0.060026
465	4.2781	0.060173
466	4.2765	0.060321
467	4.2749	0.060469
468	4.2733	0.060609
469	4.2717	0.060698
470	4.2701	0.060786
471	4.2685	0.060874
472	4.2669	0.060963
473	4.2653	0.061051
474	4.2637	0.06114
475	4.2621	0.061228
476	4.2605	0.061316
477	4.2589	0.061405
478	4.2573	0.061493
479	4.2557	0.061581
480	4.2541	0.06167
481	4.2525	0.061758
482	4.2509	0.061847
483	4.2493	0.061935
484	4.2477	0.062023
485	4.2461	0.062112
486	4.2445	0.0622
487	4.2429	0.062289
488	4.2413	0.062377
489	4.2397	0.062465
490	4.2381	0.062554
491	4.2365	0.062642
492	4.2349	0.062731
493	4.2333	0.062819
494	4.2317	0.062907
495	4.2301	0.062996
496	4.2285	0.063084
497	4.2269	0.063173
498	4.2253	0.063261
499	4.2237	0.063349
500	4.2221	0.063438
501	4.2208	0.063526
502	4.2199	0.063615
503	4.219	0.063703
504	4.2181	0.063791
505	4.2172	0.06388
506	4.2163	0.063968
507	4.2154	0.064057
508	4.2145	0.064145
509	4.2136	0.064233
510	4.2127	0.064322
511	4.2118	0.06441
512	4.2109	0.064499
513	4.21	0.064587
514	4.2091	0.064675
515	4.2082	0.064577
516	4.2073	0.06445
517	4.2064	0.064322
518	4.2055	0.064194
519	4.2046	0.064066
520	4.2037	0.063939
521	4.2028	0.063811
522	4.2019	0.063683
523	4.201	0.063556
524	4.2001	0.063428
525	4.1992	0.0633
526	4.1983	0.063173
527	4.1974	0.063045
528	4.1965	0.062917
529	4.1956	0.062789
530	4.1947	0.062662
531	4.1938	0.062534
532	4.1929	0.062406
533	4.192	0.062279
534	4.1911	0.062151
535	4.1902	0.062023
536	4.1893	0.061895
537	4.1884	0.061768
538	4.1875	0.06164
539	4.1866	0.061512
540	4.1857	0.061385
541	4.1848	0.061257
542	4.1839	0.061129
543	4.183	0.061001
544	4.1821	0.060874
545	4.1812	0.060746
546	4.1803	0.060618
547	4.1794	0.060491
548	4.1785	0.060363
549	4.1776	0.060235
550	4.1767	0.060108
551	4.1758	0.05998
552	4.1749	0.059852
553	4.174	0.059724
554	4.1731	0.059597
555	4.1722	0.059469
556	4.1713	0.059341
557	4.1704	0.059214
558	4.1695	0.059086
559	4.1686	0.058958
560	4.1677	0.05883
561	4.1668	0.058703
562	4.1659	0.058575
563	4.165	0.058447
564	4.164	0.05832
565	4.1631	0.058192
566	4.1622	0.058064
567	4.1613	0.057936
568	4.1604	0.057809
569	4.1595	0.057681
570	4.1586	0.057553
571	4.1577	0.057479
572	4.1568	0.057468
573	4.1559	0.057458
574	4.155	0.057447
575	4.1541	0.057436
576	4.1532	0.057426
577	4.1525	0.057415
578	4.1518	0.057404
579	4.1511	0.057394
580	4.1505	0.057383
581	4.1498	0.057372
582	4.1491	0.057361
583	4.1485	0.057351
584	4.1478	0.05734
585	4.1472	0.057329
586	4.1465	0.057319
587	4.1458	0.057308
588	4.1452	0.057297
589	4.1445	0.057287
590	4.1438	0.057276
591	4.1432	0.057265
592	4.1425	0.057255
593	4.1418	0.057244
594	4.1412	0.057233
595	4.1405	0.057223
596	4.1399	0.057212
597	4.1392	0.057201
598	4.1385	0.057191
599	4.1379	0.05718
600	4.1372	0.057169
601	4.1365	0.057159
602	4.1359	0.057148
603	4.1352	0.057137
604	4.1345	0.057127
605	4.1339	0.057116
606	4.1332	0.057105
607	4.1325	0.057095
608	4.1319	0.057084
609	4.1312	0.057073
610	4.1306	0.057062
611	4.1299	0.057052
612	4.1292	0.057041
613	4.1286	0.05703
614	4.1279	0.05702
615	4.1272	0.057009
616	4.1266	0.056998
617	4.1259	0.056988
618	4.1252	0.056977
619	4.1246	0.056966
620	4.1239	0.056956
621	4.1233	0.056945
622	4.1226	0.056934
623	4.1219	0.056924
624	4.1213	0.056913
625	4.1206	0.056902
626	4.1199	0.056892
627	4.1193	0.056881
628	4.1186	0.05687
629	4.1179	0.05686
630	4.1173	0.056849
631	4.1166	0.056838
632	4.1159	0.056828
633	4.1153	0.056817
634	4.1146	0.056806
635	4.114	0.056796
636	4.1133	0.056785
637	4.1126	0.056774
638	4.112	0.056764
639	4.1113	0.056753
640	4.1106	0.056742
641	4.11	0.056698
642	4.1093	0.056457
643	4.1086	0.056216
644	4.108	0.055974
645	4.1073	0.055733
646	4.1067	0.055492
647	4.106	0.055251
648	4.1053	0.05501
649	4.1047	0.054769
650	4.104	0.054527
651	4.1033	0.054286
652	4.1027	0.054045
653	4.102	0.053804
654	4.1013	0.053563
655	4.1007	0.053322
656	4.1	0.05308
657	4.0994	0.052839
658	4.0987	0.052598
659	4.098	0.052357
660	4.0974	0.052116
661	4.0967	0.051875
662	4.096	0.051633
663	4.0954	0.051392
664	4.0947	0.051151
665	4.094	0.05091
666	4.0934	0.050669
667	4.0927	0.050428
668	4.092	0.050186
669	4.0914	0.049945
670	4.0907	0.049704
671	4.0901	0.049463
672	4.0894	0.049222
673	4.0887	0.048981
674	4.0881	0.048739
675	4.0874	0.048498
676	4.0867	0.048257
677	4.0861	0.048016
678	4.0854	0.047775
679	4.0847	0.047534
680	4.0843	0.047292
681	4.0841	0.047051
682	4.0838	0.04681
683	4.0836	0.046569
684	4.0833	0.046328
685	4.0831	0.046087
686	4.0828	0.045845
687	4.0826	0.045604
688	4.0823	0.045363
689	4.0821	0.045122
690	4.0819	0.044881
691	4.0816	0.04464
692	4.0814	0.044398
693	4.0811	0.044157
694	4.0809	0.043916
695	4.0806	0.043675
696	4.0804	0.043434
697	4.0801	0.043193
698	4.0799	0.042951
699	4.0797	0.04271
700	4.0794	0.042469
701	4.0792	0.042228
702	4.0789	0.041987
703	4.0787	0.041746
704	4.0784	0.041504
705	4.0782	0.041263
706	4.0779	0.041022
707	4.0777	0.040781
708	4.0774	0.04054
709	4.0772	0.040299
710	4.077	0.040057
711	4.0767	0.039816
712	4.0765	0.039575
713	4.0762	0.039334
714	4.076	0.039093
715	4.0757	0.038852
716	4.0755	0.03861
717	4.0752	0.038369
718	4.075	0.038128
719	4.0748	0.037887
720	4.0745	0.037646
721	4.0743	0.037405
722	4.074	0.037163
723	4.0738	0.036922
724	4.0735	0.036681
725	4.0733	0.03644
726	4.073	0.036199
727	4.0728	0.035958
728	4.0725	0.035716
729	4.0723	0.035475
730	4.0721	0.035234
731	4.0718	0.035019
732	4.0716	0.035134
733	4.0713	0.035249
734	4.0711	0.035364
735	4.0708	0.035479
736	4.0706	0.035595
737	4.0703	0.03571
738	4.0701	0.035825
739	4.0699	0.03594
740	4.0696	0.036055
741	4.0694	0.03617
742	4.0691	0.036286
743	4.0689	0.036401
744	4.0686	0.036516
745	4.0684	0.036631
746	4.0681	0.036746
747	4.0679	0.036862
748	4.0676	0.036977
749	4.0674	0.037092
750	4.0672	0.037207
751	4.0669	0.037322
752	4.0667	0.037437
753	4.0664	0.037553
754	4.0662	0.037668
755	4.0659	0.037783
756	4.0657	0.037898
757	4.0654	0.038013
758	4.0652	0.038129
759	4.065	0.038244
760	4.0647	0.038359
761	4.0645	0.038474
762	4.0642	0.038589
763	4.064	0.038704
764	4.0637	0.03882
765	4.0635	0.038935
766	4.0632	0.03905
767	4.063	0.039165
768	4.0628	0.03928
769	4.0625	0.039396
770	4.0623	0.039511
771	4.062	0.039626
772	4.0618	0.039741
773	4.0615	0.039856
774	4.0613	0.039971
775	4.061	0.040087
776	4.0608	0.040202
777	4.0605	0.040317
778	4.0603	0.040432
779	4.0601	0.040547
780	4.0598	0.040663
781	4.0596	0.040778
782	4.0593	0.040893
783	4.0591	0.041008
784	4.0588	0.041123
785	4.0586	0.041238
786	4.0583	0.041354
787	4.0581	0.041469
788	4.0579	0.041584
789	4.0576	0.041699
790	4.0574	0.041814
791	4.0571	0.04193
792	4.0569	0.042045
793	4.0566	0.04216
794	4.0564	0.042275
795	4.0561	0.04239
796	4.0559	0.042505
797	4.0556	0.042621
798	4.0554	0.042736
799	4.0552	0.042851
800	4.0549	0.042966
801	4.0547	0.043081
802	4.0544	0.043197
803	4.0542	0.043312
804	4.0539	0.043427
805	4.0537	0.043542
806	4.0534	0.043657
807	4.0532	0.043772
808	4.053	0.043888
809	4.0527	0.044003
810	4.0525	0.044118
811	4.0522	0.044233
812	4.052	0.044348
813	4.0517	0.044464
814	4.0515	0.044579
815	4.0512	0.044694
816	4.051	0.044809
817	4.0507	0.044924
818	4.0505	0.045039
819	4.0503	0.045155
820	4.05	0.04527
821	4.0498	0.045385
822	4.0495	0.0455
823	4.0493	0.045615
824	4.049	0.045731
825	4.0488	0.045846
826	4.0485	0.045961
827	4.0483	0.046076
828	4.0481	0.046191
829	4.048	0.046306
830	4.0478	0.046422
831	4.0476	0.046537
832	4.0475	0.046652
833	4.0473	0.046767
834	4.0472	0.046882
835	4.047	0.046998
836	4.0468	0.047113
837	4.0467	0.047228
838	4.0465	0.047343
839	4.0464	0.047458
840	4.0462	0.047573
841	4.0461	0.047689
842	4.0459	0.047804
843	4.0457	0.047919
844	4.0456	0.048034
845	4.0454	0.048149
846	4.0453	0.048265
847	4.0451	0.04838
848	4.045	0.048495
849	4.0448	0.04861
850	4.0446	0.048725
851	4.0445	0.04874
852	4.0443	0.048667
853	4.0442	0.048595
854	4.044	0.048522
855	4.0439	0.04845
856	4.0437	0.048378
857	4.0435	0.048305
858	4.0434	0.048233
859	4.0432	0.04816
860	4.0431	0.048088
861	4.0429	0.048015
862	4.0428	0.047943
863	4.0426	0.047871
864	4.0424	0.047798
865	4.0423	0.047726
866	4.0421	0.047653
867	4.042	0.047581
868	4.0418	0.047508
869	4.0417	0.047436
870	4.0415	0.047364
871	4.0413	0.047291
872	4.0412	0.047219
873	4.041	0.047146
874	4.0409	0.047074
875	4.0407	0.047001
876	4.0406	0.046929
877	4.0404	0.046857
878	4.0402	0.046784
879	4.0401	0.046712
880	4.0399	0.046639
881	4.0398	0.046567
882	4.0396	0.046494
883	4.0395	0.046422
884	4.0393	0.04635
885	4.0391	0.046277
886	4.039	0.046205
887	4.0388	0.046132
888	4.0387	0.04606
889	4.0385	0.045987
890	4.0384	0.045915
891	4.0382	0.045843
892	4.038	0.04577
893	4.0379	0.045698
894	4.0377	0.045625
895	4.0376	0.045553
896	4.0374	0.04548
897	4.0372	0.045408
898	4.0371	0.045336
899	4.0369	0.045263
900	4.0368	0.045191
901	4.0366	0.045118
902	4.0365	0.045046
903	4.0363	0.044973
904	4.0361	0.044901
905	4.036	0.044829
906	4.0358	0.044756
907	4.0357	0.044684
908	4.0355	0.044611
909	4.0354	0.044539
910	4.0352	0.044466
911	4.035	0.044394
912	4.0349	0.044321
913	4.0347	0.044249
914	4.0346	0.044177
915	4.0344	0.044104
916	4.0343	0.044032
917	4.0341	0.043959
918	4.0339	0.043887
919	4.0338	0.043814
920	4.0336	0.043742
921	4.0335	0.04367
922	4.0333	0.043597
923	4.0332	0.043525
924	4.033	0.043452
925	4.0328	0.04338
926	4.0327	0.043307
927	4.0325	0.043235
928	4.0324	0.043163
929	4.0322	0.04309
930	4.0321	0.043018
931	4.0319	0.042945
932	4.0317	0.042873
933	4.0316	0.0428
934	4.0314	0.042728
935	4.0313	0.042656
936	4.0311	0.042583
937	4.031	0.042511
938	4.0308	0.042438
939	4.0306	0.042366
940	4.0305	0.042293
941	4.0303	0.042221
942	4.0302	0.042149
943	4.03	0.042076
944	4.0299	0.042004
945	4.0297	0.041931
946	4.0295	0.041859
947	4.0294	0.041786
948	4.0292	0.041714
949	4.0291	0.041642
950	4.0289	0.041569
951	4.0288	0.041497
952	4.0286	0.041424
953	4.0284	0.041352
954	4.0283	0.041279
955	4.0281	0.041207
956	4.028	0.041135
957	4.0278	0.041062
958	4.0277	0.04099
959	4.0275	0.040917
960	4.0273	0.040845
961	4.0272	0.040772
962	4.027	0.0407
963	4.0269	0.040628
964	4.0267	0.040555
965	4.0265	0.040483
966	4.0264	0.04041
967	4.0262	0.040338
968	4.0261	0.040265
969	4.0259	0.040193
970	4.0258	0.040121
971	4.0256	0.040048
972	4.0254	0.039976
973	4.0253	0.039903
974	4.0251	0.039831
975	4.025	0.039758
976	4.0248	0.039686
977	4.0247	0.039614
978	4.0245	0.039541
979	4.0243	0.039469
980	4.0242	0.039396
981	4.024	0.039324
982	4.0239	0.039251
983	4.0237	0.039179
984	4.0236	0.039107
985	4.0234	0.039034
986	4.0232	0.038962
987	4.0231	0.038889
988	4.0229	0.038817
989	4.0228	0.038744
990	4.0226	0.038672
991	4.0225	0.0386
992	4.0223	0.038527
993	4.0221	0.038455
994	4.022	0.038382
995	4.0218	0.03831
996	4.0217	0.038237
997	4.0215	0.038165
998	4.0214	0.038093
999	4.0212	0.03802
1000	4.021	0.037948
1001	4.0209	0.037875
1002	4.0207	0.037803
1003	4.0206	0.03773
1004	4.0204	0.037658
1005	4.0203	0.037586
1006	4.0201	0.037513
1007	4.0199	0.037441
1008	4.0198	0.037368
1009	4.0196	0.037296
1010	4.0195	0.037223
1011	4.0193	0.037151
1012	4.0192	0.037079
1013	4.019	0.037006
1014	4.0188	0.036934
1015	4.0187	0.036861
1016	4.0185	0.036789
1017	4.0184	0.036758
1018	4.0182	0.036847
1019	4.0181	0.036935
1020	4.0179	0.037023
1021	4.0177	0.037112
1022	4.0176	0.0372
1023	4.0174	0.037289
1024	4.0173	0.037377
1025	4.0171	0.037465
1026	4.0169	0.037554
1027	4.0168	0.037642
1028	4.0166	0.03773
1029	4.0165	0.037819
1030	4.0163	0.037907
1031	4.0162	0.037995
1032	4.016	0.038084
1033	4.0158	0.038172
1034	4.0157	0.038261
1035	4.0155	0.038349
1036	4.0154	0.038437
1037	4.0152	0.038526
1038	4.0151	0.038614
1039	4.0149	0.038702
1040	4.0147	0.038791
1041	4.0146	0.038879
1042	4.0144	0.038967
1043	4.0143	0.039056
1044	4.0141	0.039144
1045	4.014	0.039233
1046	4.0138	0.039321
1047	4.0136	0.039409
1048	4.0135	0.039498
1049	4.0133	0.039586
1050	4.0132	0.039674
1051	4.013	0.039763
1052	4.0129	0.039851
1053	4.0127	0.039939
1054	4.0125	0.040028
1055	4.0124	0.040116
1056	4.0122	0.040205
1057	4.0121	0.040293
1058	4.012	0.040381
1059	4.0119	0.04047
1060	4.0119	0.040558
1061	4.0119	0.040646
1062	4.0118	0.040735
1063	4.0118	0.040823
1064	4.0118	0.040911
1065	4.0117	0.041
1066	4.0117	0.041088
1067	4.0117	0.041177
1068	4.0116	0.041265
1069	4.0116	0.041353
1070	4.0116	0.041442
1071	4.0115	0.04153
1072	4.0115	0.041618
1073	4.0115	0.041707
1074	4.0114	0.041795
1075	4.0114	0.041883
1076	4.0114	0.041972
1077	4.0113	0.04206
1078	4.0113	0.042149
1079	4.0112	0.042237
1080	4.0112	0.042325
1081	4.0112	0.042414
1082	4.0111	0.042502
1083	4.0111	0.04259
1084	4.0111	0.042679
1085	4.011	0.042767
1086	4.011	0.042855
1087	4.011	0.042944
1088	4.0109	0.043032
1089	4.0109	0.043121
1090	4.0109	0.043209
1091	4.0108	0.043297
1092	4.0108	0.043386
1093	4.0108	0.043474
1094	4.0107	0.043562
1095	4.0107	0.043651
1096	4.0107	0.043739
1097	4.0106	0.043827
1098	4.0106	0.043916
1099	4.0106	0.044004
1100	4.0105	0.044093
1101	4.0105	0.044181
1102	4.0105	0.044269
1103	4.0104	0.044358
1104	4.0104	0.044446
1105	4.0104	0.044534
1106	4.0103	0.044623
1107	4.0103	0.044711
1108	4.0103	0.044799
1109	4.0102	0.044888
1110	4.0102	0.044976
1111	4.0102	0.045065
1112	4.0101	0.045153
1113	4.0101	0.045241
1114	4.01	0.04533
1115	4.01	0.045418
1116	4.01	0.045506
1117	4.0099	0.045595
1118	4.0099	0.045683
1119	4.0099	0.045771
1120	4.0098	0.04586
1121	4.0098	0.045948
1122	4.0098	0.046037
1123	4.0097	0.046125
1124	4.0097	0.046213
1125	4.0097	0.046302
1126	4.0096	0.04639
1127	4.0096	0.046478
1128	4.0096	0.046567
1129	4.0095	0.046655
1130	4.0095	0.046743
1131	4.0095	0.046832
1132	4.0094	0.04692
1133	4.0094	0.047009
1134	4.0094	0.047097
1135	4.0093	0.047185
1136	4.0093	0.047274
1137	4.0093	0.047362
1138	4.0092	0.04745
1139	4.0092	0.047539
1140	4.0092	0.047627
1141	4.0091	0.047715
1142	4.0091	0.047804
1143	4.0091	0.047892
1144	4.009	0.047981
1145	4.009	0.048069
1146	4.009	0.048157
1147	4.0089	0.048246
1148	4.0089	0.048334
1149	4.0089	0.048422
1150	4.0088	0.048511
1151	4.0088	0.048599
1152	4.0087	0.048687
1153	4.0087	0.048776
1154	4.0087	0.048864
1155	4.0086	0.048953
1156	4.0086	0.049041
1157	4.0086	0.049129
1158	4.0085	0.049218
1159	4.0085	0.049306
1160	4.0085	0.049394
1161	4.0084	0.049483
1162	4.0084	0.049571
1163	4.0084	0.049659
1164	4.0083	0.049748
1165	4.0083	0.049836
1166	4.0083	0.049925
1167	4.0082	0.050013
1168	4.0082	0.050101
1169	4.0082	0.05019
1170	4.0081	0.050278
1171	4.0081	0.050366
1172	4.0081	0.050455
1173	4.008	0.050543
1174	4.008	0.050631
1175	4.008	0.05072
1176	4.0079	0.050808
1177	4.0079	0.050897
1178	4.0079	0.050985
1179	4.0078	0.051073
1180	4.0078	0.051162
1181	4.0078	0.05125
1182	4.0077	0.051338
1183	4.0077	0.051427
1184	4.0077	0.051515
1185	4.0076	0.051603
1186	4.0076	0.051692
1187	4.0076	0.05178
1188	4.0075	0.051869
1189	4.0075	0.051957
1190	4.0074	0.052045
1191	4.0074	0.052134
1192	4.0074	0.052222
1193	4.0073	0.05231
1194	4.0073	0.052399
1195	4.0073	0.052487
1196	4.0072	0.052575
1197	4.0072	0.052664
1198	4.0072	0.052752
1199	4.0071	0.052841
1200	4.0071	0.052929
1201	4.0071	0.053017
1202	4.007	0.053106
1203	4.007	0.053194
1204	4.007	0.053282
1205	4.0069	0.053371
1206	4.0069	0.053459
1207	4.0069	0.053547
1208	4.0068	0.053636
1209	4.0068	0.053724
1210	4.0068	0.053813
1211	4.0067	0.053901
1212	4.0067	0.053989
1213	4.0067	0.054078
1214	4.0066	0.054166
1215	4.0066	0.054254
1216	4.0066	0.054343
1217	4.0065	0.054431
1218	4.0065	0.054519
1219	4.0065	0.054608
1220	4.0064	0.054696
1221	4.0064	0.054785
1222	4.0064	0.054873
1223	4.0063	0.054961
1224	4.0063	0.05505
1225	4.0063	0.055138
1226	4.0062	0.055226
1227	4.0062	0.055315
1228	4.0061	0.055403
1229	4.0061	0.055491
1230	4.0061	0.05558
1231	4.006	0.055668
1232	4.006	0.055757
1233	4.006	0.055845
1234	4.0059	0.055933
1235	4.0059	0.056022
1236	4.0059	0.05611
1237	4.0058	0.056198
1238	4.0058	0.056287
1239	4.0058	0.056375
1240	4.0057	0.056463
1241	4.0057	0.056552
1242	4.0057	0.05664
1243	4.0056	0.056729
1244	4.0056	0.056817
1245	4.0056	0.056905
1246	4.0055	0.056994
1247	4.0055	0.057082
1248	4.0055	0.05717
1249	4.0054	0.057259
1250	4.0054	0.057347
1251	4.0054	0.057435
1252	4.0053	0.057524
1253	4.0053	0.057612
1254	4.0053	0.057701
1255	4.0052	0.057789
1256	4.0052	0.057877
1257	4.0052	0.057966
1258	4.0051	0.058054
1259	4.0051	0.058142
1260	4.0051	0.058231
1261	4.005	0.058319
1262	4.005	0.058407
1263	4.005	0.058496
1264	4.0049	0.058563
1265	4.0049	0.058521
1266	4.0048	0.05848
1267	4.0048	0.058438
1268	4.0048	0.058396
1269	4.0047	0.058355
1270	4.0047	0.058313
1271	4.0047	0.058271
1272	4.0046	0.05823
1273	4.0046	0.058188
1274	4.0046	0.058147
1275	4.0045	0.058105
1276	4.0045	0.058063
1277	4.0045	0.058022
1278	4.0044	0.05798
1279	4.0044	0.057939
1280	4.0044	0.057897
1281	4.0043	0.057855
1282	4.0043	0.057814
1283	4.0043	0.057772
1284	4.0042	0.057731
1285	4.0042	0.057689
1286	4.0042	0.057647
1287	4.0041	0.057606
1288	4.0041	0.057564
1289	4.0041	0.057523
1290	4.004	0.057481
1291	4.004	0.057439
1292	4.004	0.057398
1293	4.0039	0.057356
1294	4.0039	0.057314
1295	4.0039	0.057273
1296	4.0038	0.057231
1297	4.0038	0.05719
1298	4.0038	0.057148
1299	4.0037	0.057106
1300	4.0037	0.057065
1301	4.0037	0.057023
1302	4.0036	0.056982
1303	4.0036	0.05694
1304	4.0035	0.056898
1305	4.0035	0.056857
1306	4.0035	0.056815
1307	4.0034	0.056774
1308	4.0034	0.056732
1309	4.0034	0.05669
1310	4.0033	0.056649
1311	4.0033	0.056607
1312	4.0033	0.056566
1313	4.0032	0.056524
1314	4.0032	0.056482
1315	4.0032	0.056441
1316	4.0031	0.056399
1317	4.0031	0.056357
1318	4.0031	0.056316
1319	4.003	0.056274
1320	4.003	0.056233
1321	4.003	0.056191
1322	4.0029	0.056149
1323	4.0029	0.056108
1324	4.0029	0.056066
1325	4.0028	0.056025
1326	4.0028	0.055983
1327	4.0028	0.055941
1328	4.0027	0.0559
1329	4.0027	0.055858
1330	4.0027	0.055817
1331	4.0026	0.055775
1332	4.0026	0.055733
1333	4.0026	0.055692
1334	4.0025	0.05565
1335	4.0025	0.055609
1336	4.0025	0.055567
1337	4.0024	0.055525
1338	4.0024	0.055484
1339	4.0024	0.055442
1340	4.0023	0.0554
1341	4.0023	0.055359
1342	4.0022	0.055317
1343	4.0022	0.055276
1344	4.0022	0.055234
1345	4.0021	0.055192
1346	4.0021	0.055151
1347	4.0021	0.055109
1348	4.002	0.055068
1349	4.002	0.055026
1350	4.002	0.054984
1351	4.0019	0.054943
1352	4.0019	0.054901
1353	4.0019	0.05486
1354	4.0018	0.054818
1355	4.0018	0.054776
1356	4.0018	0.054735
1357	4.0017	0.054693
1358	4.0017	0.054652
1359	4.0017	0.05461
1360	4.0016	0.054568
1361	4.0016	0.054527
1362	4.0016	0.054485
1363	4.0015	0.054443
1364	4.0015	0.054402
1365	4.0015	0.05436
1366	4.0014	0.054319
1367	4.0014	0.054277
1368	4.0014	0.054235
1369	4.0013	0.054194
1370	4.0013	0.054152
1371	4.0013	0.054111
1372	4.0012	0.054069
1373	4.0012	0.054027
1374	4.0012	0.053986
1375	4.0011	0.053944
1376	4.0011	0.053903
1377	4.0011	0.053861
1378	4.001	0.053819
1379	4.001	0.053778
1380	4.0009	0.053736
1381	4.0009	0.053695
1382	4.0009	0.053653
1383	4.0008	0.053611
1384	4.0008	0.05357
1385	4.0008	0.053528
1386	4.0007	0.053486
1387	4.0007	0.053445
1388	4.0007	0.053403
1389	4.0006	0.053362
1390	4.0006	0.05332
1391	4.0006	0.053278
1392	4.0005	0.053237
1393	4.0005	0.053195
1394	4.0005	0.053154
1395	4.0004	0.053112
1396	4.0004	0.05307
1397	4.0004	0.053029
1398	4.0003	0.052987
1399	4.0003	0.052946
1400	4.0003	0.052904
1401	4.0002	0.052862
1402	4.0002	0.052821
1403	4.0002	0.052779
1404	4.0001	0.052738
1405	4.0001	0.052696
1406	4.0001	0.052654
1407	4	0.052613
1408	4	0.052571
1409	4	0.052529
1410	3.9999	0.052488
1411	3.9999	0.052446
1412	3.9999	0.052405
1413	3.9998	0.052363
1414	3.9998	0.052321
1415	3.9998	0.05228
1416	3.9997	0.052238
1417	3.9997	0.052197
1418	3.9996	0.052155
1419	3.9996	0.052113
1420	3.9996	0.052072
1421	3.9995	0.05203
1422	3.9995	0.051989
1423	3.9995	0.051947
1424	3.9994	0.051905
1425	3.9994	0.051864
1426	3.9994	0.051822
1427	3.9993	0.051781
1428	3.9993	0.051739
1429	3.9993	0.051697
1430	3.9992	0.051656
1431	3.9992	0.051614
1432	3.9992	0.051572
1433	3.9991	0.051531
1434	3.9991	0.051489
1435	3.9991	0.051448
1436	3.999	0.051406
1437	3.999	0.051364
1438	3.999	0.051323
1439	3.9989	0.051281
1440	3.9989	0.05124
1441	3.9989	0.051198
1442	3.9988	0.051156
1443	3.9988	0.051115
1444	3.9988	0.051073
1445	3.9987	0.051032
1446	3.9987	0.05099
1447	3.9987	0.050948
1448	3.9986	0.050907
1449	3.9986	0.050865
1450	3.9986	0.050824
1451	3.9985	0.050782
1452	3.9985	0.05074
1453	3.9985	0.050699
1454	3.9984	0.050657
1455	3.9984	0.050615
1456	3.9983	0.050574
1457	3.9983	0.050532
1458	3.9983	0.050491
1459	3.9982	0.050449
1460	3.9982	0.050407
1461	3.9982	0.050366
1462	3.9981	0.050324
1463	3.9981	0.050283
1464	3.9981	0.050241
1465	3.998	0.050199
1466	3.998	0.050158
1467	3.9979	0.050116
1468	3.9979	0.050075
1469	3.9978	0.050033
1470	3.9978	0.049991
1471	3.9977	0.04995
1472	3.9976	0.049908
1473	3.9976	0.049867
1474	3.9975	0.049825
1475	3.9975	0.049783
1476	3.9974	0.049742
1477	3.9973	0.0497
1478	3.9973	0.049658
1479	3.9972	0.049617
1480	3.9972	0.049575
1481	3.9971	0.049534
1482	3.9971	0.049492
1483	3.997	0.04945
1484	3.9969	0.049409
1485	3.9969	0.049367
1486	3.9968	0.049326
1487	3.9968	0.049284
1488	3.9967	0.049242
1489	3.9966	0.049201
1490	3.9966	0.049159
1491	3.9965	0.049118
1492	3.9965	0.049076
1493	3.9964	0.049034
1494	3.9964	0.048993
1495	3.9963	0.048951
1496	3.9962	0.04891
1497	3.9962	0.048868
1498	3.9961	0.048826
1499	3.9961	0.048785
1500	3.996	0.048743
1501	3.9959	0.048701
1502	3.9959	0.04866
1503	3.9958	0.048618
1504	3.9958	0.048577
1505	3.9957	0.048535
1506	3.9957	0.048493
1507	3.9956	0.048452
1508	3.9955	0.04841
1509	3.9955	0.048369
1510	3.9954	0.048327
1511	3.9954	0.048285
1512	3.9953	0.048244
1513	3.9953	0.048202
1514	3.9952	0.048161
1515	3.9951	0.048119
1516	3.9951	0.048077
1517	3.995	0.048036
1518	3.995	0.047994
1519	3.9949	0.047953
1520	3.9948	0.047911
1521	3.9948	0.047869
1522	3.9947	0.047828
1523	3.9947	0.047786
1524	3.9946	0.047744
1525	3.9946	0.047703
1526	3.9945	0.047661
1527	3.9944	0.04762
1528	3.9944	0.047578
1529	3.9943	0.047536
1530	3.9943	0.047495
1531	3.9942	0.047453
1532	3.9941	0.047412
1533	3.9941	0.04737
1534	3.994	0.047328
1535	3.994	0.047287
1536	3.9939	0.047245
1537	3.9939	0.047204
1538	3.9938	0.047162
1539	3.9937	0.04712
1540	3.9937	0.047079
1541	3.9936	0.047037
1542	3.9936	0.046996
1543	3.9935	0.046954
1544	3.9934	0.046912
1545	3.9934	0.046871
1546	3.9933	0.046829
1547	3.9933	0.046787
1548	3.9932	0.046746
1549	3.9932	0.046704
1550	3.9931	0.046663
1551	3.993	0.046621
1552	3.993	0.046579
1553	3.9929	0.046538
1554	3.9929	0.046496
1555	3.9928	0.046455
1556	3.9927	0.046413
1557	3.9927	0.046371
1558	3.9926	0.04633
1559	3.9926	0.046288
1560	3.9925	0.046247
1561	3.9925	0.046205
1562	3.9924	0.046163
1563	3.9923	0.046122
1564	3.9923	0.04608
1565	3.9922	0.046039
1566	3.9922	0.045997
1567	3.9921	0.045955
1568	3.992	0.045914
1569	3.992	0.045872
1570	3.9919	0.04583
1571	3.9919	0.045789
1572	3.9918	0.045747
1573	3.9918	0.045706
1574	3.9917	0.045664
1575	3.9916	0.045622
1576	3.9916	0.045581
1577	3.9915	0.045539
1578	3.9915	0.045498
1579	3.9914	0.045456
1580	3.9913	0.045414
1581	3.9913	0.045373
1582	3.9912	0.045331
1583	3.9912	0.04529
1584	3.9911	0.045248
1585	3.9911	0.045206
1586	3.991	0.045165
1587	3.9909	0.045123
1588	3.9909	0.045082
1589	3.9908	0.04504
1590	3.9908	0.044998
1591	3.9907	0.044957
1592	3.9906	0.044915
1593	3.9906	0.044873
1594	3.9905	0.044832
1595	3.9905	0.04479
1596	3.9904	0.044749
1597	3.9904	0.044707
1598	3.9903	0.044665
1599	3.9902	0.044624
1600	3.9902	0.044582
1601	3.9901	0.044541
1602	3.9901	0.044499
1603	3.99	0.044457
1604	3.9899	0.044416
1605	3.9899	0.044374
1606	3.9898	0.044333
1607	3.9898	0.044291
1608	3.9897	0.044249
1609	3.9897	0.044208
1610	3.9896	0.044166
1611	3.9895	0.044125
1612	3.9895	0.044083
1613	3.9894	0.044041
1614	3.9894	0.044
1615	3.9893	0.043958
1616	3.9892	0.043916
1617	3.9892	0.043875
1618	3.9891	0.043833
1619	3.9891	0.043792
1620	3.989	0.04375
1621	3.989	0.043708
1622	3.9889	0.043667
1623	3.9888	0.043625
1624	3.9888	0.043584
1625	3.9887	0.043542
1626	3.9887	0.0435
1627	3.9886	0.043459
1628	3.9886	0.043417
1629	3.9885	0.043376
1630	3.9884	0.043334
1631	3.9884	0.043292
1632	3.9883	0.043251
1633	3.9883	0.043209
1634	3.9882	0.043168
1635	3.9881	0.043126
1636	3.9881	0.043084
1637	3.988	0.043043
1638	3.988	0.043001
1639	3.9879	0.042959
1640	3.9879	0.042918
1641	3.9878	0.042876
1642	3.9877	0.042835
1643	3.9877	0.042793
1644	3.9876	0.042751
1645	3.9876	0.04271
1646	3.9875	0.042668
1647	3.9874	0.042627
1648	3.9874	0.042585
1649	3.9873	0.042543
1650	3.9873	0.042502
1651	3.9872	0.04246
1652	3.9872	0.042419
1653	3.9871	0.042377
1654	3.987	0.042335
1655	3.987	0.042294
1656	3.9869	0.042252
1657	3.9869	0.042211
1658	3.9868	0.042169
1659	3.9867	0.042127
1660	3.9867	0.042086
1661	3.9866	0.042044
1662	3.9866	0.042002
1663	3.9865	0.041961
1664	3.9865	0.041919
1665	3.9864	0.041878
1666	3.9863	0.041836
1667	3.9863	0.041794
1668	3.9862	0.041753
1669	3.9862	0.041711
1670	3.9861	0.041695
1671	3.986	0.041714
1672	3.986	0.041734
1673	3.9859	0.041753
1674	3.9859	0.041773
1675	3.9858	0.041792
1676	3.9858	0.041811
1677	3.9857	0.041831
1678	3.9856	0.04185
1679	3.9856	0.04187
1680	3.9855	0.041889
1681	3.9855	0.041909
1682	3.9854	0.041928
1683	3.9853	0.041948
1684	3.9853	0.041967
1685	3.9852	0.041987
1686	3.9852	0.042006
1687	3.9851	0.042026
1688	3.9851	0.042045
1689	3.985	0.042065
1690	3.9849	0.042084
1691	3.9849	0.042104
1692	3.9848	0.042123
1693	3.9848	0.042143
1694	3.9847	0.042162
1695	3.9846	0.042182
1696	3.9846	0.042201
1697	3.9845	0.042221
1698	3.9845	0.04224
1699	3.9844	0.04226
1700	3.9844	0.042279
1701	3.9843	0.042299
1702	3.9842	0.042318
1703	3.9842	0.042338
1704	3.9841	0.042357
1705	3.9841	0.042376
1706	3.984	0.042396
1707	3.9839	0.042415
1708	3.9839	0.042435
1709	3.9838	0.042454
1710	3.9838	0.042474
1711	3.9837	0.042493
1712	3.9837	0.042513
1713	3.9836	0.042532
1714	3.9835	0.042552
1715	3.9835	0.042571
1716	3.9834	0.042591
1717	3.9834	0.04261
1718	3.9833	0.04263
1719	3.9832	0.042649
1720	3.9832	0.042669
1721	3.9831	0.042688
1722	3.9831	0.042708
1723	3.983	0.042727
1724	3.983	0.042747
1725	3.9829	0.042766
1726	3.9828	0.042786
1727	3.9828	0.042805
1728	3.9827	0.042825
1729	3.9827	0.042844
1730	3.9826	0.042864
1731	3.9825	0.042883
1732	3.9825	0.042903
1733	3.9824	0.042922
1734	3.9824	0.042941
1735	3.9823	0.042961
1736	3.9823	0.04298
1737	3.9822	0.043
1738	3.9821	0.043019
1739	3.9821	0.043039
1740	3.982	0.043058
1741	3.982	0.043078
1742	3.9819	0.043097
1743	3.9819	0.043117
1744	3.9818	0.043136
1745	3.9817	0.043156
1746	3.9817	0.043175
1747	3.9816	0.043195
1748	3.9816	0.043214
1749	3.9815	0.043234
1750	3.9814	0.043253
1751	3.9814	0.043273
1752	3.9813	0.043292
1753	3.9813	0.043312
1754	3.9812	0.043331
1755	3.9812	0.043351
1756	3.9811	0.04337
1757	3.981	0.04339
1758	3.981	0.043409
1759	3.9809	0.043429
1760	3.9809	0.043448
1761	3.9808	0.043468
1762	3.9807	0.043487
1763	3.9807	0.043506
1764	3.9806	0.043526
1765	3.9806	0.043545
1766	3.9805	0.043565
1767	3.9805	0.043584
1768	3.9804	0.043604
1769	3.9803	0.043623
1770	3.9803	0.043643
1771	3.9802	0.043662
1772	3.9802	0.043682
1773	3.9801	0.043701
1774	3.98	0.043721
1775	3.98	0.04374
1776	3.9799	0.04376
1777	3.9799	0.043779
1778	3.9798	0.043799
1779	3.9798	0.043818
1780	3.9797	0.043838
1781	3.9796	0.043857
1782	3.9796	0.043877
1783	3.9795	0.043896
1784	3.9795	0.043916
1785	3.9794	0.043935
1786	3.9793	0.043955
1787	3.9793	0.043974
1788	3.9792	0.043994
1789	3.9792	0.044013
1790	3.9791	0.044033
1791	3.9791	0.044052
1792	3.979	0.044071
1793	3.9789	0.044091
1794	3.9789	0.04411
1795	3.9788	0.04413
1796	3.9788	0.044149
1797	3.9787	0.044169
1798	3.9786	0.044188
1799	3.9786	0.044208
1800	3.9785	0.044227
