2.360000000000000320e+00	5.225327999999999570e-03
3.160000000000000142e+00	7.143675200000000440e-03
4.469999999999999751e+00	1.421863300000000135e-02
6.760000000000000675e+00	1.802659199999999753e-02
1.140000000000000036e+01	4.774016000000000370e-02
1.354999999999999893e+01	4.660716000000000164e-02
2.429999999999999716e+01	3.562100000000000266e-01
2.562999999999999901e+01	3.189219999999999833e-01
3.037999999999999901e+01	3.451680000000000303e-01
3.270000000000000284e+01	2.531339999999999701e-01
3.568000000000000682e+01	2.810500000000000220e-01
3.792999999999999972e+01	3.125279999999999725e-01
4.059000000000000341e+01	3.416399999999999992e-01
4.478000000000000114e+01	4.616640000000000743e-01
4.607000000000000028e+01	5.370300000000000074e-01
4.895000000000000284e+01	7.314840000000000231e-01
5.390999999999999659e+01	1.136555999999999900e+00
5.842999999999999972e+01	1.219914000000000165e+00
6.162999999999999545e+01	1.513768000000000002e+00
6.714000000000000057e+01	1.982573999999999836e+00
7.184999999999999432e+01	1.999557999999999947e+00
7.359000000000000341e+01	2.043467999999999840e+00
7.437000000000000455e+01	1.933840000000000003e+00
8.345000000000000284e+01	1.880012000000000016e+00
8.779999999999999716e+01	1.885499999999999954e+00
9.198000000000000398e+01	2.038847999999999772e+00
9.321000000000000796e+01	1.943486000000000047e+00
9.887999999999999545e+01	2.222220000000000084e+00
1.025799999999999983e+02	2.339064000000000032e+00
1.048199999999999932e+02	2.262831999999999955e+00
1.066700000000000017e+02	2.412243999999999833e+00
1.085699999999999932e+02	2.172000000000000153e+00
1.135000000000000000e+02	2.481780000000000097e+00
1.200699999999999932e+02	2.216460000000000097e+00
1.215699999999999932e+02	2.452520000000000255e+00
