3.099599999999999866e+01	6.663759999999999684e-01
3.102699999999999747e+01	6.665649999999999631e-01
3.105799999999999983e+01	6.667659999999999698e-01
3.108899999999999864e+01	6.669789999999999885e-01
3.111999999999999744e+01	6.672029999999999905e-01
3.115100000000000335e+01	6.674369999999999470e-01
3.118299999999999983e+01	6.676809999999999690e-01
3.121399999999999864e+01	6.679329999999999989e-01
3.124499999999999744e+01	6.681930000000000369e-01
3.127700000000000102e+01	6.684609999999999719e-01
3.130800000000000338e+01	6.687349999999999683e-01
3.133999999999999986e+01	6.690150000000000263e-01
3.137100000000000222e+01	6.692989999999999773e-01
3.140299999999999869e+01	6.695879999999999610e-01
3.143499999999999872e+01	6.698800000000000310e-01
3.146700000000000230e+01	6.701749999999999652e-01
3.149899999999999878e+01	6.704719999999999569e-01
3.153000000000000114e+01	6.707689999999999486e-01
3.156200000000000117e+01	6.710669999999999691e-01
3.159499999999999886e+01	6.713649999999999896e-01
3.162700000000000244e+01	6.716619999999999813e-01
3.165899999999999892e+01	6.719570000000000265e-01
3.169099999999999540e+01	6.722489999999999855e-01
3.172300000000000253e+01	6.725379999999999692e-01
3.175600000000000023e+01	6.728239999999999776e-01
3.178799999999999670e+01	6.731040000000000356e-01
3.182100000000000151e+01	6.733799999999999786e-01
3.185399999999999920e+01	6.736499999999999710e-01
3.188599999999999923e+01	6.739129999999999843e-01
3.191900000000000404e+01	6.741690000000000182e-01
3.195200000000000173e+01	6.744179999999999620e-01
3.198499999999999943e+01	6.746590000000000087e-01
3.201800000000000068e+01	6.748910000000000187e-01
3.205100000000000193e+01	6.751139999999999919e-01
3.208400000000000318e+01	6.753270000000000106e-01
3.211699999999999733e+01	6.755299999999999638e-01
3.214999999999999858e+01	6.757220000000000448e-01
3.218299999999999983e+01	6.759039999999999493e-01
3.221700000000000585e+01	6.760739999999999528e-01
3.225000000000000000e+01	6.762320000000000553e-01
3.228399999999999892e+01	6.763780000000000348e-01
3.231700000000000017e+01	6.765120000000000022e-01
3.235099999999999909e+01	6.766330000000000400e-01
3.238400000000000034e+01	6.767400000000000082e-01
3.241799999999999926e+01	6.768349999999999644e-01
3.245199999999999818e+01	6.769150000000000444e-01
3.248600000000000421e+01	6.769819999999999727e-01
3.252000000000000313e+01	6.770340000000000247e-01
3.255400000000000205e+01	6.770720000000000072e-01
3.258800000000000097e+01	6.770950000000000024e-01
3.262199999999999989e+01	6.771040000000000392e-01
3.265699999999999648e+01	6.770969999999999489e-01
3.269099999999999540e+01	6.770760000000000112e-01
3.272499999999999432e+01	6.770389999999999464e-01
3.275999999999999801e+01	6.769870000000000054e-01
3.279399999999999693e+01	6.769199999999999662e-01
3.282899999999999352e+01	6.768370000000000219e-01
3.286399999999999721e+01	6.767379999999999507e-01
3.289799999999999613e+01	6.766240000000000032e-01
3.293299999999999983e+01	6.764930000000000110e-01
3.296799999999999642e+01	6.763470000000000315e-01
3.300300000000000011e+01	6.761859999999999538e-01
3.303799999999999670e+01	6.760080000000000533e-01
3.307300000000000040e+01	6.758150000000000546e-01
3.310900000000000176e+01	6.756050000000000111e-01
3.314399999999999835e+01	6.753799999999999804e-01
3.317900000000000205e+01	6.751390000000000446e-01
3.321500000000000341e+01	6.748819999999999819e-01
3.325000000000000000e+01	6.746100000000000430e-01
3.328600000000000136e+01	6.743209999999999482e-01
3.332199999999999562e+01	6.740169999999999773e-01
3.335699999999999932e+01	6.736969999999999903e-01
3.339300000000000068e+01	6.733620000000000161e-01
3.342900000000000205e+01	6.730110000000000259e-01
3.346500000000000341e+01	6.726450000000000484e-01
3.350100000000000477e+01	6.722630000000000550e-01
3.353699999999999903e+01	6.718650000000000455e-01
3.357300000000000040e+01	6.714529999999999665e-01
3.360999999999999943e+01	6.710249999999999826e-01
3.364600000000000080e+01	6.705820000000000114e-01
3.368299999999999983e+01	6.701240000000000530e-01
3.371900000000000119e+01	6.696509999999999962e-01
3.375600000000000023e+01	6.691639999999999810e-01
3.379200000000000159e+01	6.686609999999999498e-01
3.382900000000000063e+01	6.681439999999999602e-01
3.386599999999999966e+01	6.676119999999999832e-01
3.390300000000000580e+01	6.670660000000000478e-01
3.393999999999999773e+01	6.665050000000000141e-01
3.397699999999999676e+01	6.659300000000000219e-01
3.401400000000000290e+01	6.653400000000000425e-01
3.405099999999999483e+01	6.647370000000000223e-01
3.408899999999999864e+01	6.641190000000000149e-01
3.412599999999999767e+01	6.634879999999999667e-01
3.416400000000000148e+01	6.628420000000000423e-01
3.420100000000000051e+01	6.621829999999999661e-01
3.423899999999999721e+01	6.615100000000000424e-01
3.427700000000000102e+01	6.608239999999999670e-01
3.431499999999999773e+01	6.601240000000000441e-01
3.435200000000000387e+01	6.594100000000000517e-01
3.438999999999999346e+01	6.586840000000000472e-01
3.442900000000000205e+01	6.579439999999999733e-01
3.446699999999999875e+01	6.571909999999999696e-01
3.450500000000000256e+01	6.564250000000000362e-01
3.454299999999999926e+01	6.556450000000000333e-01
3.458200000000000074e+01	6.548530000000000184e-01
3.461999999999999744e+01	6.540489999999999915e-01
3.465899999999999892e+01	6.532310000000000061e-01
3.469800000000000040e+01	6.524010000000000087e-01
3.473600000000000421e+01	6.515579999999999705e-01
3.477499999999999858e+01	6.507020000000000026e-01
3.481400000000000006e+01	6.498340000000000227e-01
3.485300000000000153e+01	6.489540000000000308e-01
3.489199999999999591e+01	6.480620000000000269e-01
3.493099999999999739e+01	6.471569999999999823e-01
3.497100000000000364e+01	6.462400000000000366e-01
3.500999999999999801e+01	6.453109999999999680e-01
3.504999999999999716e+01	6.443699999999999983e-01
3.508899999999999864e+01	6.434159999999999879e-01
3.512899999999999778e+01	6.424509999999999943e-01
3.516899999999999693e+01	6.414739999999999887e-01
3.520800000000000551e+01	6.404849999999999710e-01
3.524800000000000466e+01	6.394849999999999701e-01
3.528799999999999670e+01	6.384720000000000395e-01
3.532799999999999585e+01	6.374480000000000146e-01
3.536899999999999977e+01	6.364119999999999777e-01
3.540900000000000603e+01	6.353649999999999576e-01
3.544899999999999807e+01	6.343060000000000365e-01
3.549000000000000199e+01	6.332360000000000211e-01
3.553000000000000114e+01	6.321539999999999937e-01
3.557099999999999795e+01	6.310599999999999543e-01
3.561199999999999477e+01	6.299559999999999604e-01
3.565299999999999869e+01	6.288390000000000368e-01
3.569300000000000495e+01	6.277120000000000477e-01
3.573400000000000176e+01	6.265730000000000466e-01
3.577600000000000335e+01	6.254229999999999512e-01
3.581700000000000017e+01	6.242609999999999548e-01
3.585800000000000409e+01	6.230879999999999752e-01
3.589999999999999858e+01	6.219050000000000411e-01
3.594100000000000250e+01	6.207089999999999552e-01
3.598300000000000409e+01	6.195030000000000259e-01
3.602400000000000091e+01	6.182860000000000023e-01
3.606600000000000250e+01	6.170569999999999666e-01
3.610800000000000409e+01	6.158169999999999478e-01
3.614999999999999858e+01	6.145659999999999457e-01
3.619200000000000017e+01	6.133039999999999603e-01
3.623400000000000176e+01	6.120309999999999917e-01
3.627699999999999392e+01	6.107470000000000399e-01
3.631899999999999551e+01	6.094519999999999937e-01
3.636099999999999710e+01	6.081450000000000466e-01
3.640399999999999636e+01	6.068280000000000340e-01
3.644700000000000273e+01	6.054990000000000094e-01
3.648899999999999721e+01	6.041600000000000303e-01
3.653200000000000358e+01	6.028090000000000392e-01
3.657500000000000284e+01	6.014479999999999826e-01
3.661799999999999500e+01	6.000750000000000250e-01
3.666199999999999903e+01	5.986909999999999732e-01
3.670499999999999829e+01	5.972969999999999668e-01
3.674800000000000466e+01	5.958909999999999485e-01
3.679200000000000159e+01	5.944739999999999469e-01
3.683500000000000085e+01	5.930469999999999908e-01
3.687900000000000489e+01	5.916080000000000227e-01
3.692299999999999471e+01	5.901579999999999604e-01
3.696699999999999875e+01	5.886970000000000258e-01
3.701100000000000279e+01	5.872260000000000257e-01
3.705499999999999972e+01	5.857430000000000136e-01
3.709899999999999665e+01	5.842490000000000183e-01
3.714300000000000068e+01	5.827440000000000397e-01
3.718800000000000239e+01	5.812279999999999669e-01
3.723199999999999932e+01	5.797010000000000218e-01
3.727700000000000102e+01	5.781629999999999825e-01
3.732200000000000273e+01	5.766139999999999599e-01
3.736699999999999733e+01	5.750549999999999828e-01
3.741199999999999903e+01	5.734839999999999938e-01
3.745700000000000074e+01	5.719020000000000215e-01
3.750200000000000244e+01	5.703089999999999549e-01
3.754699999999999704e+01	5.687050000000000161e-01
3.759199999999999875e+01	5.670899999999999830e-01
3.763799999999999812e+01	5.654639999999999667e-01
3.768400000000000460e+01	5.638279999999999959e-01
3.772899999999999920e+01	5.621800000000000130e-01
3.777500000000000568e+01	5.605219999999999647e-01
3.782099999999999795e+01	5.588520000000000154e-01
3.786699999999999733e+01	5.571720000000000006e-01
3.791300000000000381e+01	5.554810000000000025e-01
3.796000000000000085e+01	5.537790000000000212e-01
3.800600000000000023e+01	5.520659999999999457e-01
3.805299999999999727e+01	5.503419999999999979e-01
3.809900000000000375e+01	5.486079999999999846e-01
3.814600000000000080e+01	5.468629999999999880e-01
3.819299999999999784e+01	5.451080000000000370e-01
3.824000000000000199e+01	5.433419999999999916e-01
3.828699999999999903e+01	5.415649999999999631e-01
3.833400000000000318e+01	5.397779999999999800e-01
3.838100000000000023e+01	5.379800000000000137e-01
3.842899999999999494e+01	5.361719999999999819e-01
3.847600000000000620e+01	5.343539999999999957e-01
3.852400000000000091e+01	5.325260000000000549e-01
3.857200000000000273e+01	5.306870000000000198e-01
3.862000000000000455e+01	5.288389999999999480e-01
3.866799999999999926e+01	5.269800000000000040e-01
3.871600000000000108e+01	5.251120000000000232e-01
3.876400000000000290e+01	5.232339999999999769e-01
3.881300000000000239e+01	5.213459999999999761e-01
3.886099999999999710e+01	5.194490000000000496e-01
3.890999999999999659e+01	5.175429999999999753e-01
3.895900000000000318e+01	5.156269999999999465e-01
3.900699999999999790e+01	5.137030000000000207e-01
3.905599999999999739e+01	5.117690000000000294e-01
3.910600000000000165e+01	5.098270000000000302e-01
3.915500000000000114e+01	5.078759999999999941e-01
3.920400000000000063e+01	5.059169999999999501e-01
3.925399999999999778e+01	5.039500000000000091e-01
3.930299999999999727e+01	5.019749999999999490e-01
3.935300000000000153e+01	4.999930000000000208e-01
3.940299999999999869e+01	4.980029999999999735e-01
3.945300000000000296e+01	4.960049999999999737e-01
3.950300000000000011e+01	4.940010000000000234e-01
3.955299999999999727e+01	4.919910000000000116e-01
3.960399999999999920e+01	4.899740000000000206e-01
3.965400000000000347e+01	4.879510000000000236e-01
3.970499999999999829e+01	4.859220000000000206e-01
3.975600000000000023e+01	4.838879999999999848e-01
3.980700000000000216e+01	4.818490000000000273e-01
3.985799999999999699e+01	4.798060000000000103e-01
3.990899999999999892e+01	4.777589999999999892e-01
3.996000000000000085e+01	4.757069999999999910e-01
4.001200000000000045e+01	4.736529999999999907e-01
4.006300000000000239e+01	4.715960000000000152e-01
4.011499999999999488e+01	4.695360000000000089e-01
4.016700000000000159e+01	4.674740000000000006e-01
4.021900000000000119e+01	4.654119999999999924e-01
4.027100000000000080e+01	4.633479999999999821e-01
4.032300000000000040e+01	4.612840000000000273e-01
4.037500000000000000e+01	4.592209999999999903e-01
4.042799999999999727e+01	4.571580000000000088e-01
4.048000000000000398e+01	4.550969999999999738e-01
4.053300000000000125e+01	4.530379999999999963e-01
4.058599999999999852e+01	4.509819999999999940e-01
4.063900000000000290e+01	4.489299999999999957e-01
4.069200000000000017e+01	4.468820000000000014e-01
4.074599999999999511e+01	4.448389999999999844e-01
4.079899999999999949e+01	4.428019999999999734e-01
4.085300000000000153e+01	4.407710000000000239e-01
4.090699999999999648e+01	4.387480000000000269e-01
4.096000000000000085e+01	4.367329999999999823e-01
4.101400000000000290e+01	4.347260000000000013e-01
4.106900000000000261e+01	4.327300000000000035e-01
4.112299999999999756e+01	4.307440000000000158e-01
4.117699999999999960e+01	4.287699999999999845e-01
4.123199999999999932e+01	4.268080000000000207e-01
4.128699999999999903e+01	4.248589999999999867e-01
4.134199999999999875e+01	4.229249999999999954e-01
4.139700000000000557e+01	4.210050000000000181e-01
4.145200000000000529e+01	4.191019999999999746e-01
4.150700000000000500e+01	4.172159999999999758e-01
4.156300000000000239e+01	4.153470000000000217e-01
4.161800000000000210e+01	4.134979999999999767e-01
4.167399999999999949e+01	4.116679999999999784e-01
4.173000000000000398e+01	4.098589999999999733e-01
4.178599999999999426e+01	4.080719999999999903e-01
4.184199999999999875e+01	4.063069999999999737e-01
4.189900000000000091e+01	4.045659999999999812e-01
4.195499999999999829e+01	4.028490000000000126e-01
4.201200000000000045e+01	4.011580000000000146e-01
4.206900000000000261e+01	3.994929999999999870e-01
4.212599999999999767e+01	3.978539999999999854e-01
4.218299999999999983e+01	3.962439999999999851e-01
4.224000000000000199e+01	3.946620000000000128e-01
4.229800000000000182e+01	3.931100000000000150e-01
4.235499999999999687e+01	3.915879999999999916e-01
4.241299999999999670e+01	3.900970000000000271e-01
4.247100000000000364e+01	3.886379999999999835e-01
4.252899999999999636e+01	3.872110000000000274e-01
4.258800000000000097e+01	3.858170000000000210e-01
4.264600000000000080e+01	3.844569999999999932e-01
4.270499999999999829e+01	3.831309999999999993e-01
4.276300000000000523e+01	3.818400000000000127e-01
4.282199999999999562e+01	3.805839999999999779e-01
4.288100000000000023e+01	3.793639999999999790e-01
4.294100000000000250e+01	3.781800000000000161e-01
4.300000000000000000e+01	3.770319999999999783e-01
4.305899999999999750e+01	3.759210000000000051e-01
4.311899999999999977e+01	3.748480000000000145e-01
4.317900000000000205e+01	3.738119999999999776e-01
4.323899999999999721e+01	3.728130000000000055e-01
4.329899999999999949e+01	3.718520000000000159e-01
4.335999999999999943e+01	3.709299999999999820e-01
4.342000000000000171e+01	3.700450000000000128e-01
4.348100000000000165e+01	3.691989999999999994e-01
4.354199999999999449e+01	3.683910000000000240e-01
4.360300000000000153e+01	3.676209999999999756e-01
4.366400000000000148e+01	3.668890000000000207e-01
4.372599999999999909e+01	3.661949999999999927e-01
4.378699999999999903e+01	3.655390000000000028e-01
4.384899999999999665e+01	3.649209999999999954e-01
4.391100000000000136e+01	3.643410000000000259e-01
4.397299999999999898e+01	3.637980000000000103e-01
4.403499999999999659e+01	3.632929999999999771e-01
4.409799999999999898e+01	3.628239999999999799e-01
4.415999999999999659e+01	3.623919999999999919e-01
4.422299999999999898e+01	3.619959999999999845e-01
4.428600000000000136e+01	3.616360000000000130e-01
4.434899999999999665e+01	3.613120000000000220e-01
4.441300000000000381e+01	3.610240000000000116e-01
4.447599999999999909e+01	3.607699999999999796e-01
4.454000000000000625e+01	3.605499999999999816e-01
4.460399999999999920e+01	3.603649999999999909e-01
4.466799999999999926e+01	3.602119999999999767e-01
4.473199999999999932e+01	3.600929999999999964e-01
4.479699999999999704e+01	3.600070000000000214e-01
4.486099999999999710e+01	3.599519999999999942e-01
4.492600000000000193e+01	3.599289999999999989e-01
4.499099999999999966e+01	3.599359999999999782e-01
4.505599999999999739e+01	3.599740000000000162e-01
4.512199999999999989e+01	3.600419999999999732e-01
4.518699999999999761e+01	3.601380000000000137e-01
4.525300000000000011e+01	3.602639999999999731e-01
4.531899999999999551e+01	3.604169999999999874e-01
4.538500000000000512e+01	3.605970000000000009e-01
4.545199999999999818e+01	3.608040000000000136e-01
4.551800000000000068e+01	3.610360000000000236e-01
4.558500000000000085e+01	3.612940000000000040e-01
4.565200000000000102e+01	3.615769999999999817e-01
4.571900000000000119e+01	3.618830000000000102e-01
4.578600000000000136e+01	3.622130000000000072e-01
4.585399999999999920e+01	3.625650000000000261e-01
4.592199999999999704e+01	3.629379999999999828e-01
4.598900000000000432e+01	3.633330000000000171e-01
4.605799999999999983e+01	3.637480000000000158e-01
4.612599999999999767e+01	3.641829999999999790e-01
4.619399999999999551e+01	3.646360000000000157e-01
4.626299999999999812e+01	3.651070000000000149e-01
4.633200000000000074e+01	3.655959999999999765e-01
4.640099999999999625e+01	3.661010000000000097e-01
4.647099999999999653e+01	3.666220000000000034e-01
4.653999999999999915e+01	3.671579999999999844e-01
4.660999999999999943e+01	3.677079999999999793e-01
4.667999999999999972e+01	3.682719999999999883e-01
4.675000000000000000e+01	3.688480000000000092e-01
4.682099999999999795e+01	3.694359999999999866e-01
4.689100000000000534e+01	3.700350000000000028e-01
4.696199999999999619e+01	3.706439999999999735e-01
4.703300000000000125e+01	3.712630000000000097e-01
4.710399999999999920e+01	3.718899999999999983e-01
4.717600000000000193e+01	3.725260000000000238e-01
4.724799999999999756e+01	3.731679999999999997e-01
4.731900000000000261e+01	3.738170000000000104e-01
4.739199999999999591e+01	3.744720000000000271e-01
4.746399999999999864e+01	3.751320000000000210e-01
4.753700000000000614e+01	3.757949999999999902e-01
4.760900000000000176e+01	3.764620000000000188e-01
4.768200000000000216e+01	3.771320000000000228e-01
4.775600000000000023e+01	3.778039999999999732e-01
4.782900000000000063e+01	3.784770000000000079e-01
4.790299999999999869e+01	3.791510000000000158e-01
4.797699999999999676e+01	3.798250000000000237e-01
4.805100000000000193e+01	3.804980000000000029e-01
4.812500000000000000e+01	3.811700000000000088e-01
4.820000000000000284e+01	3.818400000000000127e-01
4.827499999999999858e+01	3.825069999999999859e-01
4.834999999999999432e+01	3.831720000000000126e-01
4.842500000000000426e+01	3.838329999999999798e-01
4.850100000000000477e+01	3.844899999999999984e-01
4.857600000000000051e+01	3.851430000000000131e-01
4.865200000000000102e+01	3.857909999999999950e-01
4.872899999999999920e+01	3.864339999999999997e-01
4.880499999999999972e+01	3.870709999999999984e-01
4.888200000000000500e+01	3.877030000000000198e-01
4.895900000000000318e+01	3.883280000000000065e-01
4.903600000000000136e+01	3.889469999999999872e-01
4.911399999999999721e+01	3.895600000000000174e-01
4.919099999999999540e+01	3.901660000000000128e-01
4.926899999999999835e+01	3.907649999999999735e-01
4.934700000000000131e+01	3.913570000000000104e-01
4.942599999999999483e+01	3.919420000000000126e-01
4.950500000000000256e+01	3.925210000000000088e-01
4.958400000000000318e+01	3.930930000000000257e-01
4.966299999999999670e+01	3.936580000000000079e-01
4.974200000000000443e+01	3.942169999999999841e-01
4.982199999999999562e+01	3.947689999999999810e-01
4.990200000000000102e+01	3.953160000000000007e-01
4.998199999999999932e+01	3.958570000000000144e-01
5.006300000000000239e+01	3.963920000000000221e-01
5.014300000000000068e+01	3.969230000000000258e-01
5.022399999999999665e+01	3.974489999999999967e-01
5.030599999999999739e+01	3.979710000000000192e-01
5.038700000000000045e+01	3.984889999999999821e-01
5.046900000000000119e+01	3.990049999999999986e-01
5.055100000000000193e+01	3.995179999999999843e-01
5.063299999999999557e+01	4.000299999999999967e-01
5.071599999999999397e+01	4.005400000000000071e-01
5.079899999999999949e+01	4.010500000000000176e-01
5.088199999999999790e+01	4.015610000000000013e-01
5.096500000000000341e+01	4.020719999999999850e-01
5.104899999999999949e+01	4.025850000000000262e-01
5.113299999999999557e+01	4.031009999999999871e-01
5.121699999999999875e+01	4.036199999999999788e-01
5.130199999999999960e+01	4.041440000000000032e-01
5.138700000000000045e+01	4.046730000000000049e-01
5.147199999999999420e+01	4.052080000000000126e-01
5.155700000000000216e+01	4.057490000000000263e-01
5.164300000000000068e+01	4.062979999999999925e-01
5.172899999999999920e+01	4.068559999999999954e-01
5.181499999999999773e+01	4.074240000000000084e-01
5.190100000000000335e+01	4.080010000000000026e-01
5.198799999999999955e+01	4.085900000000000087e-01
5.207500000000000284e+01	4.091910000000000269e-01
5.216199999999999903e+01	4.098049999999999748e-01
5.225000000000000000e+01	4.104329999999999923e-01
5.233800000000000097e+01	4.110750000000000237e-01
5.242600000000000193e+01	4.117330000000000156e-01
5.251500000000000057e+01	4.124070000000000236e-01
5.260399999999999920e+01	4.130980000000000207e-01
5.269299999999999784e+01	4.138069999999999804e-01
5.278200000000000358e+01	4.145340000000000136e-01
5.287199999999999989e+01	4.152799999999999825e-01
5.296200000000000330e+01	4.160460000000000269e-01
5.305300000000000438e+01	4.168330000000000091e-01
5.314300000000000068e+01	4.176400000000000112e-01
5.323399999999999466e+01	4.184700000000000086e-01
5.332600000000000051e+01	4.193219999999999725e-01
5.341700000000000159e+01	4.201960000000000139e-01
5.350900000000000034e+01	4.210940000000000238e-01
5.360100000000000620e+01	4.220160000000000022e-01
5.369399999999999551e+01	4.229609999999999759e-01
5.378699999999999903e+01	4.239319999999999755e-01
5.387999999999999545e+01	4.249269999999999992e-01
5.397400000000000375e+01	4.259479999999999933e-01
5.406799999999999784e+01	4.269939999999999847e-01
5.416199999999999903e+01	4.280660000000000021e-01
5.425600000000000023e+01	4.291639999999999899e-01
5.435099999999999909e+01	4.302889999999999771e-01
5.444599999999999795e+01	4.314399999999999902e-01
5.454200000000000159e+01	4.326169999999999738e-01
5.463799999999999812e+01	4.338219999999999854e-01
5.473399999999999466e+01	4.350530000000000230e-01
5.482999999999999829e+01	4.363110000000000044e-01
5.492699999999999960e+01	4.375959999999999850e-01
5.502400000000000091e+01	4.389080000000000203e-01
5.512199999999999989e+01	4.402469999999999994e-01
5.521999999999999886e+01	4.416120000000000045e-01
5.531799999999999784e+01	4.430049999999999821e-01
5.541700000000000159e+01	4.444239999999999857e-01
5.551600000000000534e+01	4.458690000000000153e-01
5.561499999999999488e+01	4.473409999999999886e-01
5.571500000000000341e+01	4.488389999999999880e-01
5.581499999999999773e+01	4.503630000000000133e-01
5.591499999999999915e+01	4.519130000000000091e-01
5.601600000000000534e+01	4.534880000000000022e-01
5.611699999999999733e+01	4.550890000000000213e-01
5.621799999999999642e+01	4.567149999999999821e-01
5.632000000000000028e+01	4.583650000000000224e-01
5.642300000000000182e+01	4.600409999999999777e-01
5.652499999999999858e+01	4.617399999999999838e-01
5.662800000000000011e+01	4.634630000000000138e-01
5.673099999999999454e+01	4.652100000000000124e-01
5.683499999999999375e+01	4.669800000000000062e-01
5.693900000000000006e+01	4.687729999999999952e-01
5.704399999999999693e+01	4.705880000000000063e-01
5.714900000000000091e+01	4.724260000000000126e-01
5.725399999999999778e+01	4.742850000000000121e-01
5.735900000000000176e+01	4.761659999999999782e-01
5.746500000000000341e+01	4.780679999999999930e-01
5.757199999999999562e+01	4.799910000000000010e-01
5.767900000000000205e+01	4.819330000000000003e-01
5.778599999999999426e+01	4.838959999999999928e-01
5.789300000000000068e+01	4.858779999999999766e-01
5.800099999999999767e+01	4.878790000000000071e-01
5.810999999999999943e+01	4.898980000000000001e-01
5.821900000000000119e+01	4.919359999999999844e-01
5.832799999999999585e+01	4.939910000000000134e-01
5.843799999999999528e+01	4.960640000000000049e-01
5.854800000000000182e+01	4.981539999999999857e-01
5.865800000000000125e+01	5.002600000000000380e-01
5.876899999999999835e+01	5.023830000000000240e-01
5.888000000000000256e+01	5.045209999999999972e-01
5.899200000000000443e+01	5.066739999999999577e-01
5.910399999999999920e+01	5.088420000000000165e-01
5.921699999999999875e+01	5.110249999999999515e-01
5.932999999999999829e+01	5.132219999999999560e-01
5.944300000000000495e+01	5.154320000000000013e-01
5.955700000000000216e+01	5.176560000000000050e-01
5.967099999999999937e+01	5.198920000000000208e-01
5.978600000000000136e+01	5.221409999999999663e-01
5.990100000000000335e+01	5.244020000000000348e-01
6.001700000000000301e+01	5.266750000000000043e-01
6.013299999999999557e+01	5.289589999999999570e-01
6.025000000000000000e+01	5.312540000000000040e-01
6.036699999999999733e+01	5.335600000000000342e-01
6.048400000000000176e+01	5.358749999999999902e-01
6.060200000000000387e+01	5.382010000000000405e-01
6.072000000000000597e+01	5.405360000000000165e-01
6.083899999999999864e+01	5.428809999999999469e-01
6.095799999999999841e+01	5.452339999999999964e-01
6.107800000000000296e+01	5.475959999999999717e-01
6.119800000000000040e+01	5.499659999999999549e-01
6.131899999999999551e+01	5.523449999999999749e-01
6.144000000000000483e+01	5.547299999999999454e-01
6.156199999999999761e+01	5.571239999999999526e-01
6.168400000000000460e+01	5.595240000000000213e-01
6.180700000000000216e+01	5.619309999999999583e-01
6.192999999999999972e+01	5.643449999999999855e-01
6.205299999999999727e+01	5.667649999999999633e-01
6.217799999999999727e+01	5.691910000000000025e-01
6.230200000000000671e+01	5.716229999999999922e-01
6.242700000000000671e+01	5.740600000000000147e-01
6.255299999999999727e+01	5.765029999999999877e-01
6.267900000000000205e+01	5.789520000000000222e-01
6.280599999999999739e+01	5.814049999999999496e-01
6.293299999999999983e+01	5.838640000000000496e-01
6.306000000000000227e+01	5.863270000000000426e-01
6.318899999999999295e+01	5.887949999999999573e-01
6.331700000000000017e+01	5.912669999999999870e-01
6.344600000000000506e+01	5.937440000000000495e-01
6.357599999999999341e+01	5.962250000000000050e-01
6.370599999999999596e+01	5.987099999999999644e-01
6.383700000000000330e+01	6.011999999999999567e-01
6.396900000000000119e+01	6.036939999999999529e-01
6.410000000000000853e+01	6.061919999999999531e-01
6.423300000000000409e+01	6.086939999999999573e-01
6.436599999999999966e+01	6.111999999999999655e-01
6.449899999999999523e+01	6.137099999999999778e-01
6.463400000000000034e+01	6.162239999999999940e-01
6.476800000000000068e+01	6.187430000000000430e-01
6.490300000000000580e+01	6.212659999999999849e-01
6.503900000000000148e+01	6.237939999999999596e-01
6.517600000000000193e+01	6.263260000000000494e-01
6.531199999999999761e+01	6.288620000000000321e-01
6.544999999999998863e+01	6.314039999999999653e-01
6.558799999999999386e+01	6.339510000000000423e-01
6.572699999999998965e+01	6.365030000000000410e-01
6.586599999999999966e+01	6.390609999999999902e-01
6.600600000000000023e+01	6.416239999999999721e-01
6.614600000000000080e+01	6.441940000000000444e-01
6.628699999999999193e+01	6.467709999999999848e-01
6.642900000000000205e+01	6.493539999999999868e-01
6.657100000000001216e+01	6.519439999999999680e-01
6.671399999999999864e+01	6.545419999999999572e-01
6.685699999999999932e+01	6.571489999999999831e-01
6.700200000000000955e+01	6.597640000000000171e-01
6.714600000000000080e+01	6.623879999999999768e-01
6.729200000000000159e+01	6.650220000000000020e-01
6.743800000000000239e+01	6.676659999999999817e-01
6.758400000000000318e+01	6.703219999999999734e-01
6.773099999999999454e+01	6.729899999999999771e-01
6.787899999999999068e+01	6.756699999999999928e-01
6.802800000000000580e+01	6.783630000000000493e-01
6.817700000000000671e+01	6.810709999999999820e-01
6.832699999999999818e+01	6.837950000000000417e-01
6.847699999999998965e+01	6.865339999999999776e-01
6.862800000000000011e+01	6.892909999999999870e-01
6.877999999999998693e+01	6.920659999999999590e-01
6.893299999999999272e+01	6.948600000000000332e-01
6.908599999999999852e+01	6.976759999999999629e-01
6.923999999999999488e+01	7.005139999999999700e-01
6.939399999999999125e+01	7.033749999999999725e-01
6.954999999999999716e+01	7.062619999999999454e-01
6.970600000000000307e+01	7.091749999999999998e-01
6.986199999999999477e+01	7.121159999999999712e-01
7.001999999999999602e+01	7.150879999999999459e-01
7.017799999999999727e+01	7.180919999999999526e-01
7.033599999999999852e+01	7.211300000000000487e-01
7.049600000000000932e+01	7.242039999999999589e-01
7.065599999999999170e+01	7.273169999999999913e-01
7.081700000000000728e+01	7.304709999999999814e-01
7.097899999999999920e+01	7.336679999999999868e-01
7.114099999999999113e+01	7.369109999999999827e-01
7.130400000000000205e+01	7.402030000000000554e-01
7.146800000000000352e+01	7.435469999999999580e-01
7.163299999999999557e+01	7.469459999999999988e-01
7.179800000000000182e+01	7.504039999999999599e-01
7.196500000000000341e+01	7.539240000000000386e-01
7.213100000000000023e+01	7.575100000000000167e-01
7.229900000000000659e+01	7.611660000000000093e-01
7.246800000000000352e+01	7.648960000000000203e-01
7.263699999999998624e+01	7.687040000000000539e-01
7.280700000000000216e+01	7.725969999999999782e-01
7.297799999999999443e+01	7.765779999999999905e-01
7.315000000000000568e+01	7.806530000000000413e-01
7.332200000000000273e+01	7.848289999999999988e-01
7.349600000000000932e+01	7.891099999999999781e-01
7.367000000000000171e+01	7.935029999999999584e-01
7.384499999999999886e+01	7.980159999999999476e-01
7.402100000000000080e+01	8.026560000000000361e-01
7.419700000000000273e+01	8.074299999999999811e-01
7.437500000000000000e+01	8.123460000000000125e-01
7.455299999999999727e+01	8.174150000000000027e-01
7.473200000000001353e+01	8.226430000000000131e-01
7.491200000000000614e+01	8.280429999999999735e-01
7.509299999999998931e+01	8.336240000000000316e-01
7.527499999999999147e+01	8.393969999999999487e-01
7.545799999999999841e+01	8.453749999999999876e-01
7.564100000000000534e+01	8.515700000000000491e-01
7.582600000000000762e+01	8.579959999999999809e-01
7.601099999999999568e+01	8.646669999999999634e-01
7.619800000000000750e+01	8.715979999999999839e-01
7.638499999999999091e+01	8.788059999999999761e-01
7.657300000000000750e+01	8.863079999999999847e-01
7.676200000000000045e+01	8.941219999999999724e-01
7.695200000000001239e+01	9.022689999999999877e-01
7.714300000000000068e+01	9.107690000000000508e-01
7.733500000000000796e+01	9.196440000000000170e-01
7.752800000000000580e+01	9.289190000000000502e-01
7.772199999999999420e+01	9.386179999999999524e-01
7.791599999999999682e+01	9.487679999999999447e-01
7.811199999999999477e+01	9.593970000000000553e-01
7.830899999999999750e+01	9.705369999999999830e-01
7.850699999999999079e+01	9.822180000000000355e-01
7.870499999999999829e+01	9.944749999999999979e-01
7.890500000000000114e+01	1.007344999999999935e+00
7.910599999999999454e+01	1.020863999999999994e+00
7.930800000000000693e+01	1.035072999999999910e+00
7.950999999999999091e+01	1.050014999999999921e+00
7.971399999999999864e+01	1.065733999999999959e+00
7.991899999999999693e+01	1.082276999999999934e+00
8.012500000000000000e+01	1.099693000000000032e+00
8.033199999999999363e+01	1.118031999999999915e+00
8.054000000000000625e+01	1.137347000000000108e+00
8.075000000000000000e+01	1.157691999999999943e+00
8.096000000000000796e+01	1.179124000000000061e+00
8.117099999999999227e+01	1.201699000000000073e+00
8.138400000000000034e+01	1.225473999999999952e+00
8.159700000000000841e+01	1.250505999999999895e+00
8.181199999999999761e+01	1.276850000000000041e+00
8.202800000000000580e+01	1.304561000000000082e+00
8.224500000000000455e+01	1.333687999999999985e+00
8.246299999999999386e+01	1.364276999999999962e+00
8.268200000000000216e+01	1.396365999999999996e+00
8.290300000000000580e+01	1.429985000000000062e+00
8.312500000000000000e+01	1.465152999999999928e+00
8.334700000000000841e+01	1.501873999999999931e+00
8.357100000000001216e+01	1.540135999999999949e+00
8.379699999999999704e+01	1.579908000000000090e+00
8.402299999999999613e+01	1.621134000000000075e+00
8.425100000000000477e+01	1.663734000000000046e+00
8.448000000000000398e+01	1.707597000000000032e+00
8.470999999999999375e+01	1.752579000000000109e+00
8.494100000000000250e+01	1.798502999999999963e+00
8.517400000000000659e+01	1.845156000000000018e+00
8.540800000000000125e+01	1.892290000000000028e+00
8.564300000000000068e+01	1.939619999999999900e+00
8.587999999999999545e+01	1.986831999999999931e+00
8.611799999999999500e+01	2.033583000000000141e+00
8.635699999999999932e+01	2.079508999999999830e+00
8.659799999999999898e+01	2.124233999999999956e+00
8.683899999999999864e+01	2.167375999999999969e+00
8.708299999999999841e+01	2.208556999999999881e+00
8.732699999999999818e+01	2.247412000000000187e+00
8.757299999999999329e+01	2.283596000000000181e+00
8.782099999999999795e+01	2.316787999999999847e+00
8.806899999999998840e+01	2.346693000000000140e+00
8.831999999999999318e+01	2.373041999999999874e+00
8.857099999999999795e+01	2.395589000000000190e+00
8.882399999999999807e+01	2.414118999999999904e+00
8.907900000000000773e+01	2.428500000000000103e+00
8.933499999999999375e+01	2.438874000000000208e+00
8.959199999999999875e+01	2.446321000000000190e+00
8.985099999999999909e+01	2.454959000000000113e+00
9.011199999999999477e+01	2.475162000000000084e+00
9.037399999999999523e+01	2.514244000000000145e+00
9.063700000000000045e+01	2.553843999999999781e+00
9.090200000000000102e+01	2.577932999999999808e+00
9.116899999999999693e+01	2.592293000000000180e+00
9.143699999999999761e+01	2.606097999999999804e+00
9.170599999999998886e+01	2.625560999999999812e+00
9.197800000000000864e+01	2.649021999999999988e+00
9.225100000000000477e+01	2.657751000000000197e+00
9.252499999999999147e+01	2.640845999999999805e+00
9.280099999999998772e+01	2.614660999999999902e+00
9.307899999999999352e+01	2.590742999999999796e+00
9.335899999999999466e+01	2.570339999999999847e+00
9.364000000000000057e+01	2.552274000000000154e+00
9.392300000000000182e+01	2.535581000000000085e+00
9.420699999999999363e+01	2.519728999999999886e+00
9.449399999999999977e+01	2.504439000000000082e+00
9.478200000000001069e+01	2.489565999999999946e+00
9.507200000000000273e+01	2.475026999999999866e+00
9.536299999999999955e+01	2.460773999999999795e+00
9.565700000000001069e+01	2.446778999999999815e+00
9.595199999999999818e+01	2.433027000000000051e+00
9.624899999999999523e+01	2.419507999999999992e+00
9.654800000000000182e+01	2.406216000000000133e+00
9.684900000000000375e+01	2.393149999999999888e+00
9.715099999999999625e+01	2.380307999999999868e+00
9.745600000000000307e+01	2.367687999999999793e+00
9.776200000000000045e+01	2.355291999999999941e+00
9.807100000000001216e+01	2.343116999999999894e+00
9.838100000000000023e+01	2.331161999999999956e+00
9.869299999999999784e+01	2.319425999999999988e+00
9.900799999999999557e+01	2.307906000000000013e+00
9.932399999999999807e+01	2.296599000000000057e+00
9.964199999999999591e+01	2.285502999999999840e+00
9.996299999999999386e+01	2.274612999999999996e+00
1.002849999999999966e+02	2.263924999999999965e+00
1.006099999999999994e+02	2.253433999999999937e+00
1.009359999999999928e+02	2.243136999999999937e+00
1.012650000000000006e+02	2.233026000000000177e+00
1.015960000000000036e+02	2.223098999999999936e+00
1.019290000000000020e+02	2.213347999999999871e+00
1.022639999999999958e+02	2.203768000000000171e+00
1.026020000000000039e+02	2.194352999999999998e+00
1.029420000000000073e+02	2.185096999999999845e+00
1.032840000000000060e+02	2.175994999999999902e+00
1.036280000000000001e+02	2.167041000000000217e+00
1.039749999999999943e+02	2.158227999999999813e+00
1.043229999999999933e+02	2.149550000000000072e+00
1.046749999999999972e+02	2.141001999999999850e+00
1.050279999999999916e+02	2.132578000000000085e+00
1.053840000000000003e+02	2.124271999999999938e+00
1.057430000000000092e+02	2.116077999999999903e+00
1.061039999999999992e+02	2.107991000000000170e+00
1.064670000000000130e+02	2.100004000000000204e+00
1.068329999999999984e+02	2.092112999999999889e+00
1.072010000000000076e+02	2.084312999999999860e+00
1.075720000000000027e+02	2.076595999999999886e+00
1.079459999999999980e+02	2.068960000000000132e+00
1.083220000000000027e+02	2.061396999999999924e+00
1.087000000000000028e+02	2.053904999999999870e+00
1.090819999999999936e+02	2.046476000000000184e+00
1.094659999999999940e+02	2.039108000000000143e+00
1.098530000000000086e+02	2.031794000000000100e+00
1.102420000000000044e+02	2.024531000000000081e+00
1.106349999999999909e+02	2.017313999999999830e+00
1.110300000000000011e+02	2.010139000000000120e+00
1.114279999999999973e+02	2.003000999999999809e+00
1.118280000000000030e+02	1.995895999999999892e+00
1.122319999999999993e+02	1.988820000000000032e+00
1.126390000000000100e+02	1.981770000000000032e+00
1.130480000000000018e+02	1.974739999999999940e+00
1.134610000000000127e+02	1.967727999999999922e+00
1.138770000000000095e+02	1.960728999999999944e+00
1.142949999999999875e+02	1.953740999999999950e+00
1.147169999999999987e+02	1.946757999999999988e+00
1.151419999999999959e+02	1.939778999999999920e+00
1.155700000000000074e+02	1.932798999999999934e+00
1.160010000000000048e+02	1.925813999999999915e+00
1.164350000000000023e+02	1.918822999999999945e+00
1.168730000000000047e+02	1.911820999999999993e+00
1.173140000000000072e+02	1.904805000000000081e+00
1.177590000000000003e+02	1.897772000000000014e+00
1.182060000000000031e+02	1.890719999999999956e+00
1.186569999999999965e+02	1.883644000000000096e+00
1.191119999999999948e+02	1.876541999999999932e+00
1.195699999999999932e+02	1.869410999999999934e+00
1.200319999999999965e+02	1.862246999999999986e+00
1.204969999999999999e+02	1.855048999999999948e+00
1.209660000000000082e+02	1.847812999999999928e+00
1.214380000000000024e+02	1.840535999999999950e+00
1.219149999999999920e+02	1.833215999999999957e+00
1.223950000000000102e+02	1.825849000000000055e+00
1.228780000000000001e+02	1.818432000000000048e+00
1.233659999999999997e+02	1.810964000000000018e+00
1.238569999999999993e+02	1.803439999999999932e+00
1.243530000000000086e+02	1.795857999999999954e+00
1.248520000000000039e+02	1.788216000000000028e+00
1.253559999999999945e+02	1.780510000000000037e+00
1.258629999999999995e+02	1.772737999999999925e+00
1.263749999999999858e+02	1.764896000000000020e+00
1.268900000000000006e+02	1.756980999999999904e+00
1.274110000000000014e+02	1.748992000000000102e+00
1.279349999999999881e+02	1.740923999999999916e+00
1.284629999999999939e+02	1.732774999999999954e+00
1.289960000000000093e+02	1.724541000000000102e+00
1.295340000000000202e+02	1.716218999999999939e+00
1.300759999999999934e+02	1.707807000000000075e+00
1.306219999999999857e+02	1.699300999999999950e+00
1.311740000000000066e+02	1.690696999999999894e+00
1.317290000000000134e+02	1.681993000000000071e+00
1.322899999999999920e+02	1.673184000000000005e+00
1.328549999999999898e+02	1.664268000000000081e+00
1.334249999999999829e+02	1.655240000000000045e+00
1.340000000000000000e+02	1.646098000000000061e+00
1.345810000000000173e+02	1.636835999999999958e+00
1.351659999999999968e+02	1.627450999999999981e+00
1.357560000000000002e+02	1.617939999999999934e+00
1.363509999999999991e+02	1.608298000000000005e+00
1.369519999999999982e+02	1.598519999999999941e+00
1.375580000000000211e+02	1.588603999999999905e+00
1.381689999999999827e+02	1.578543000000000029e+00
1.387860000000000014e+02	1.568332999999999977e+00
1.394080000000000155e+02	1.557970000000000077e+00
1.400360000000000014e+02	1.547449000000000074e+00
1.406699999999999875e+02	1.536764999999999937e+00
1.413089999999999975e+02	1.525913000000000075e+00
1.419540000000000077e+02	1.514887000000000095e+00
1.426060000000000230e+02	1.503681000000000045e+00
1.432630000000000052e+02	1.492291000000000034e+00
1.439259999999999877e+02	1.480711000000000110e+00
1.445949999999999989e+02	1.468935000000000102e+00
1.452710000000000150e+02	1.456957000000000058e+00
1.459530000000000030e+02	1.444770000000000110e+00
1.466409999999999911e+02	1.432369999999999921e+00
1.473359999999999843e+02	1.419748999999999928e+00
1.480380000000000109e+02	1.406900999999999957e+00
1.487459999999999809e+02	1.393820000000000059e+00
1.494610000000000127e+02	1.380500000000000060e+00
1.501830000000000211e+02	1.366934000000000093e+00
1.509119999999999777e+02	1.353118000000000043e+00
1.516490000000000009e+02	1.339043999999999901e+00
1.523919999999999959e+02	1.324707000000000079e+00
1.531430000000000007e+02	1.310102000000000100e+00
1.539010000000000105e+02	1.295223999999999931e+00
1.546659999999999968e+02	1.280070999999999959e+00
1.554399999999999977e+02	1.264637000000000011e+00
1.562210000000000036e+02	1.248922000000000088e+00
1.570100000000000193e+02	1.232925000000000049e+00
1.578070000000000164e+02	1.216647000000000034e+00
1.586119999999999948e+02	1.200090000000000101e+00
1.594250000000000114e+02	1.183260999999999896e+00
1.602470000000000141e+02	1.166166999999999954e+00
1.610769999999999982e+02	1.148821000000000092e+00
1.619159999999999968e+02	1.131237000000000048e+00
1.627639999999999816e+02	1.113437000000000010e+00
1.636199999999999761e+02	1.095447000000000060e+00
1.644859999999999900e+02	1.077299000000000007e+00
1.653610000000000184e+02	1.059031999999999973e+00
1.662450000000000045e+02	1.040693000000000090e+00
1.671390000000000100e+02	1.022339000000000109e+00
1.680420000000000016e+02	1.004035000000000011e+00
1.689549999999999841e+02	9.858540000000000081e-01
1.698789999999999907e+02	9.678809999999999913e-01
1.708119999999999834e+02	9.502070000000000238e-01
1.717560000000000002e+02	9.329319999999999835e-01
1.727100000000000080e+02	9.161620000000000319e-01
1.736749999999999829e+02	9.000040000000000262e-01
1.746500000000000057e+02	8.845680000000000209e-01
1.756370000000000005e+02	8.699590000000000378e-01
1.766349999999999909e+02	8.562760000000000371e-01
1.776440000000000055e+02	8.436080000000000245e-01
1.786649999999999920e+02	8.320309999999999651e-01
1.796980000000000075e+02	8.216080000000000050e-01
1.807420000000000186e+02	8.123850000000000238e-01
1.817989999999999782e+02	8.043949999999999712e-01
1.828689999999999998e+02	7.976520000000000277e-01
1.839509999999999934e+02	7.921620000000000328e-01
1.850459999999999923e+02	7.879159999999999497e-01
1.861530000000000200e+02	7.848950000000000093e-01
1.872750000000000057e+02	7.830759999999999943e-01
1.884099999999999966e+02	7.824280000000000124e-01
1.895589999999999975e+02	7.829169999999999741e-01
1.907210000000000036e+02	7.845060000000000366e-01
1.918989999999999725e+02	7.871599999999999708e-01
1.930910000000000082e+02	7.908420000000000449e-01
1.942969999999999970e+02	7.955160000000000009e-01
1.955190000000000055e+02	8.011500000000000288e-01
1.967569999999999766e+02	8.077140000000000430e-01
1.980099999999999909e+02	8.151789999999999869e-01
1.992790000000000248e+02	8.235219999999999763e-01
2.005649999999999977e+02	8.327229999999999910e-01
2.018669999999999902e+02	8.427649999999999864e-01
2.031860000000000070e+02	8.536380000000000079e-01
2.045230000000000246e+02	8.653330000000000188e-01
2.058770000000000095e+02	8.778489999999999904e-01
2.072500000000000000e+02	8.911890000000000089e-01
2.086399999999999864e+02	9.053620000000000001e-01
2.100499999999999829e+02	9.203810000000000047e-01
2.114790000000000134e+02	9.362669999999999604e-01
2.129269999999999925e+02	9.530459999999999487e-01
2.143960000000000150e+02	9.707500000000000018e-01
2.158839999999999861e+02	9.894169999999999909e-01
2.173940000000000055e+02	1.009093000000000018e+00
2.189250000000000114e+02	1.029827000000000048e+00
2.204770000000000039e+02	1.051679000000000030e+00
2.220519999999999925e+02	1.074711999999999890e+00
2.236499999999999773e+02	1.098996000000000084e+00
2.252700000000000102e+02	1.124608000000000052e+00
2.269140000000000157e+02	1.151629000000000014e+00
2.285829999999999984e+02	1.180147999999999975e+00
2.302760000000000105e+02	1.210255000000000081e+00
2.319939999999999998e+02	1.242046999999999901e+00
2.337379999999999995e+02	1.275622000000000034e+00
2.355089999999999861e+02	1.311082000000000081e+00
2.373069999999999879e+02	1.348524999999999974e+00
2.391320000000000050e+02	1.388050999999999924e+00
2.409860000000000184e+02	1.429751999999999912e+00
2.428679999999999950e+02	1.473713000000000051e+00
2.447800000000000011e+02	1.520007000000000108e+00
2.467229999999999848e+02	1.568689000000000000e+00
2.486970000000000027e+02	1.619793000000000038e+00
2.507019999999999698e+02	1.673324000000000034e+00
2.527400000000000091e+02	1.729249000000000036e+00
2.548119999999999834e+02	1.787492999999999999e+00
2.569170000000000300e+02	1.847928000000000015e+00
2.590579999999999927e+02	1.910368000000000066e+00
2.612350000000000136e+02	1.974556999999999896e+00
2.634490000000000123e+02	2.040169000000000121e+00
2.656999999999999886e+02	2.106799000000000088e+00
2.679900000000000091e+02	2.173967999999999900e+00
2.703209999999999695e+02	2.241125999999999951e+00
2.726920000000000073e+02	2.307662999999999798e+00
2.751049999999999613e+02	2.372921999999999976e+00
2.775609999999999786e+02	2.436224999999999863e+00
2.800609999999999786e+02	2.496891999999999889e+00
2.826069999999999709e+02	2.554272999999999794e+00
2.851989999999999554e+02	2.607775999999999872e+00
2.878399999999999750e+02	2.656892000000000031e+00
2.905300000000000296e+02	2.701213000000000086e+00
2.932699999999999818e+02	2.740454000000000168e+00
2.960630000000000450e+02	2.774451000000000001e+00
2.989100000000000250e+02	2.803169000000000022e+00
3.018120000000000118e+02	2.826684999999999892e+00
3.047699999999999818e+02	2.845181000000000182e+00
3.077869999999999777e+02	2.858922000000000185e+00
3.108650000000000091e+02	2.868240000000000123e+00
3.140049999999999955e+02	2.873512999999999984e+00
3.172090000000000032e+02	2.875147000000000119e+00
3.204790000000000418e+02	2.873558000000000057e+00
3.238170000000000073e+02	2.869164000000000048e+00
3.272249999999999659e+02	2.862368000000000023e+00
3.307060000000000173e+02	2.853556999999999899e+00
3.342609999999999673e+02	2.843093000000000092e+00
3.378940000000000055e+02	2.831307999999999936e+00
3.416069999999999709e+02	2.818509999999999849e+00
3.454019999999999868e+02	2.804974000000000078e+00
3.492830000000000155e+02	2.790950000000000042e+00
3.532509999999999764e+02	2.776660999999999824e+00
3.573109999999999786e+02	2.762303000000000175e+00
3.614660000000000082e+02	2.748051999999999939e+00
3.657179999999999609e+02	2.734062999999999910e+00
3.700709999999999695e+02	2.720470000000000166e+00
3.745289999999999964e+02	2.707393000000000161e+00
3.790960000000000036e+02	2.694936000000000220e+00
3.837760000000000105e+02	2.683190000000000186e+00
3.885729999999999791e+02	2.672232999999999858e+00
3.934909999999999854e+02	2.662134000000000000e+00
3.985349999999999682e+02	2.652953000000000117e+00
4.037100000000000364e+02	2.644737999999999811e+00
4.090210000000000150e+02	2.637535000000000185e+00
4.144739999999999895e+02	2.631378000000000217e+00
4.200749999999999886e+02	2.626298999999999939e+00
4.258279999999999745e+02	2.622320000000000206e+00
4.317420000000000186e+02	2.619460999999999817e+00
4.378220000000000027e+02	2.617735999999999841e+00
4.440760000000000218e+02	2.617154000000000202e+00
4.505109999999999673e+02	2.617719999999999825e+00
4.571349999999999909e+02	2.619432999999999900e+00
4.639569999999999936e+02	2.622290000000000010e+00
4.709859999999999900e+02	2.626281999999999783e+00
4.782309999999999945e+02	2.631396000000000068e+00
4.857019999999999982e+02	2.637614000000000125e+00
4.934100000000000250e+02	2.644916999999999963e+00
5.013680000000000518e+02	2.653275999999999968e+00
5.095849999999999795e+02	2.662662999999999780e+00
5.180769999999999982e+02	2.673041000000000000e+00
5.268569999999999709e+02	2.684372000000000202e+00
5.359390000000000782e+02	2.696610000000000174e+00
5.453400000000000318e+02	2.709709000000000145e+00
5.550769999999999982e+02	2.723615000000000119e+00
5.651680000000000064e+02	2.738271000000000122e+00
5.756320000000000618e+02	2.753619000000000039e+00
5.864909999999999854e+02	2.769594999999999807e+00
5.977679999999999154e+02	2.786134999999999806e+00
6.094869999999999663e+02	2.803174999999999972e+00
6.216739999999999782e+02	2.820647000000000126e+00
6.343590000000000373e+02	2.838490000000000180e+00
6.475720000000000027e+02	2.856641000000000208e+00
6.613480000000000700e+02	2.875046000000000213e+00
6.757220000000000937e+02	2.893654000000000170e+00
6.907350000000000136e+02	2.912422999999999984e+00
7.064299999999999500e+02	2.931322000000000205e+00
7.228560000000001082e+02	2.950330999999999815e+00
7.400629999999999882e+02	2.969443000000000055e+00
7.581090000000000373e+02	2.988665000000000127e+00
7.770579999999999927e+02	3.008018999999999998e+00
7.969770000000000891e+02	3.027547999999999906e+00
8.179459999999999127e+02	3.047306999999999988e+00
8.400470000000000255e+02	3.067372999999999905e+00
8.633759999999999764e+02	3.087838999999999778e+00
8.880369999999999209e+02	3.108817999999999859e+00
9.141490000000000009e+02	3.130440999999999807e+00
9.418429999999999609e+02	3.152857000000000021e+00
9.712669999999999391e+02	3.176235000000000142e+00
1.002588999999999942e+03	3.200762000000000107e+00
1.035998999999999796e+03	3.226643999999999846e+00
1.071711999999999989e+03	3.254108000000000001e+00
1.109974999999999909e+03	3.283403999999999989e+00
1.151070999999999913e+03	3.314805999999999919e+00
1.195327999999999975e+03	3.348613999999999979e+00
1.243123999999999796e+03	3.385161000000000087e+00
1.294901000000000067e+03	3.424818000000000140e+00
1.351178999999999860e+03	3.467998000000000136e+00
1.412570999999999913e+03	3.515171000000000046e+00
1.479807000000000016e+03	3.566870000000000207e+00
1.553763999999999896e+03	3.623711999999999822e+00
1.635502999999999929e+03	3.686415999999999915e+00
1.726317999999999984e+03	3.755828999999999862e+00
1.827812999999999874e+03	3.832965999999999873e+00
1.941986999999999853e+03	3.919054000000000038e+00
2.071374000000000251e+03	4.015600000000000058e+00
2.219234000000000378e+03	4.124483999999999817e+00
2.389825999999999567e+03	4.248090000000000366e+00
2.588829000000000178e+03	4.389497999999999678e+00
2.823983999999999924e+03	4.552772000000000041e+00
3.106128000000000156e+03	4.743411000000000044e+00
3.450907000000000153e+03	4.969066999999999901e+00
3.881784000000000106e+03	5.240765999999999813e+00
4.435610999999999876e+03	5.575083000000000233e+00
5.173768000000000029e+03	5.998306999999999611e+00
6.206657000000000153e+03	6.555132000000000403e+00
7.754827999999999520e+03	7.329081999999999653e+00
1.033201599999999962e+04	8.498953000000000202e+00
