 275.55556	   1.72448
 276.55556	   1.71063
 277.55556	   1.69675
 278.55556	   1.68284
 279.55556	   1.66891
 280.55556	   1.65495
 281.55556	   1.64096
 282.55556	   1.62695
 283.55556	   1.61292
 284.55556	   1.59887
 285.55556	   1.58481
 286.55556	   1.57073
 287.55556	   1.55664
 288.55556	   1.54254
 289.55556	   1.52844
 290.55556	   1.51433
 291.55556	   1.50023
 292.55556	   1.48612
 293.55556	   1.47202
 294.55556	   1.45793
 295.55556	   1.44386
 296.55556	   1.42980
 297.55556	   1.41576
 298.55556	   1.40174
 299.55556	   1.38775
 300.55556	   1.37379
 301.55556	   1.35987
 302.55556	   1.34599
 303.55556	   1.33215
 304.55556	   1.31836
 305.55556	   1.30462
 306.55556	   1.29093
 307.55556	   1.27731
 308.55556	   1.26375
 309.55556	   1.25026
 310.55556	   1.23684
 311.55556	   1.22350
 312.55556	   1.21024
 313.55556	   1.19707
 314.55556	   1.18398
 315.55556	   1.17099
 316.55556	   1.15809
 317.55556	   1.14530
 318.55556	   1.13260
 319.55556	   1.12002
 320.55556	   1.10754
 321.55556	   1.09518
 322.55556	   1.08294
 323.55556	   1.07081
 324.55556	   1.05881
 325.55556	   1.04693
 326.55556	   1.03514
 327.55556	   1.02338
 328.55556	   1.01176
 329.55556	   1.00026
 330.55556	   0.98889
 331.55556	   0.97766
 332.55556	   0.96656
 333.55556	   0.95560
 334.55556	   0.94477
 335.55556	   0.93408
 336.55556	   0.92353
 337.55556	   0.91311
 338.55556	   0.90283
 339.55556	   0.89276
 340.55556	   0.88620
 341.55556	   0.87977
 342.55556	   0.87347
 343.55556	   0.86730
 344.55556	   0.86125
 345.55556	   0.85689
 346.55556	   0.85322
 347.55556	   0.84960
 348.55556	   0.84604
 349.55556	   0.84253
 350.55556	   0.83907
 351.55556	   0.83566
 352.55556	   0.83230
 353.55556	   0.82899
 354.55556	   0.82573
 355.55556	   0.82252
 356.55556	   0.81935
 357.55556	   0.81623
 358.55556	   0.81316
 359.55556	   0.81012
 360.55556	   0.80714
 361.55556	   0.80419
 362.55556	   0.80129
 363.55556	   0.79843
 364.55556	   0.79561
 365.55556	   0.79283
 366.55556	   0.79009
 367.55556	   0.78790
 368.55556	   0.78871
 369.55556	   0.78954
 370.55556	   0.79039
 371.55556	   0.79124
 372.55556	   0.79211
 373.55556	   0.79299
 374.55556	   0.79389
 375.55556	   0.79479
 376.55556	   0.79570
 377.55556	   0.79931
 378.55556	   0.80606
 379.55556	   0.81275
 380.55556	   0.81939
 381.55556	   0.82598
 382.55556	   0.83039
 383.55556	   0.83270
 384.55556	   0.83358
 385.55556	   0.83449
 386.55556	   0.83543
 387.55556	   0.83639
 388.55556	   0.83738
 389.55556	   0.83840
 390.55556	   0.83944
 391.55556	   0.84051
 392.55556	   0.84160
 393.55556	   0.84271
 394.55556	   0.84383
 395.55556	   0.84498
 396.55556	   0.84615
 397.55556	   0.79956
 398.55556	   0.81305
 399.55556	   0.82636
 400.55556	   0.83951
 401.55556	   0.85251
 402.55556	   0.86534
 403.55556	   0.87802
 404.55556	   0.89056
 405.55556	   0.90295
 406.55556	   0.91521
 407.55556	   0.92733
 408.55556	   0.93933
 409.55556	   0.95119
 410.55556	   0.96294
 411.55556	   0.97456
 412.55556	   0.96744
 413.55556	   0.84571
 414.55556	   0.85395
 415.55556	   0.86212
 416.55556	   0.87022
 417.55556	   0.87825
 418.55556	   0.88801
 419.55556	   0.90102
 420.55556	   0.91369
 421.55556	   0.92559
 422.55556	   0.93736
 423.55556	   0.94901
 424.55556	   0.96054
 425.55556	   0.97195
 426.55556	   0.98325
 427.55556	   0.99444
 428.55556	   1.00553
 429.55556	   1.01651
 430.55556	   1.02738
 431.55556	   1.03816
 432.55556	   1.04885
 433.55556	   1.05943
 434.55556	   0.99238
 435.55556	   0.99734
 436.55556	   1.00881
 437.55556	   1.02018
 438.55556	   1.03144
 439.55556	   1.04260
 440.55556	   1.05366
 441.55556	   1.06463
 442.55556	   1.07551
 443.55556	   1.08751
 444.55556	   1.10081
 445.55556	   1.11402
 446.55556	   1.11825
 447.55556	   1.12068
 448.55556	   1.12310
 449.55556	   1.12552
 450.55556	   1.12794
 451.55556	   1.13035
 452.55556	   1.13275
 453.55556	   1.13515
 454.55556	   1.13754
 455.55556	   1.13993
 456.55556	   1.14232
 457.55556	   1.14469
 458.55556	   1.14707
 459.55556	   1.14944
 460.55556	   1.15180
 461.55556	   1.15416
 462.55556	   1.15652
 463.55556	   1.15887
 464.55556	   1.16121
 465.55556	   1.16355
 466.55556	   1.16589
 467.55556	   1.16822
 468.55556	   1.17055
 469.55556	   1.17287
 470.55556	   1.17879
 471.55556	   1.18494
 472.55556	   1.19107
 473.55556	   1.19718
 474.55556	   1.20326
 475.55556	   1.20933
 476.55556	   1.21537
 477.55556	   1.22139
 478.55556	   1.22738
 479.55556	   1.23336
 480.55556	   1.23931
 481.55556	   1.24525
 482.55556	   1.24976
 483.55556	   1.25342
 484.55556	   1.25706
 485.55556	   1.26070
 486.55556	   1.26432
 487.55556	   1.26794
 488.55556	   1.27154
 489.55556	   1.27514
 490.55556	   1.27873
 491.55556	   1.28231
 492.55556	   1.28595
 493.55556	   1.28995
 494.55556	   1.29393
 495.55556	   1.29791
 496.55556	   1.30188
 497.55556	   1.30585
 498.55556	   1.30980
 499.55556	   1.31374
 500.55556	   1.31767
 501.55556	   1.32863
 502.55556	   1.34924
 503.55556	   1.36971
 504.55556	   1.39003
 505.55556	   1.41020
 506.55556	   1.43023
 507.55556	   1.44871
 508.55556	   1.45361
 509.55556	   1.45849
 510.55556	   1.46336
 511.55556	   1.46822
 512.55556	   1.47307
 513.55556	   1.47791
 514.55556	   1.48273
 515.55556	   1.48755
 516.55556	   1.49235
 517.55556	   1.49714
 518.55556	   1.50191
 519.55556	   1.50668
 520.55556	   1.51143
 521.55556	   1.51618
 522.55556	   1.52091
 523.55556	   1.52563
 524.55556	   1.53034
 525.55556	   1.53504
 526.55556	   1.53972
 527.55556	   1.54440
 528.55556	   1.54794
 529.55556	   1.55135
 530.55556	   1.55475
 531.55556	   1.55814
 532.55556	   1.56153
 533.55556	   1.56490
 534.55556	   1.56828
 535.55556	   1.57164
 536.55556	   1.57501
 537.55556	   1.57836
 538.55556	   1.58171
 539.55556	   1.58505
 540.55556	   1.58839
 541.55556	   1.59172
 542.55556	   1.59504
 543.55556	   1.59836
 544.55556	   1.60167
 545.55556	   1.60498
 546.55556	   1.60828
 547.55556	   1.61112
 548.55556	   1.61306
 549.55556	   1.61500
 550.55556	   1.61694
 551.55556	   1.61888
 552.55556	   1.62081
 553.55556	   1.62275
 554.55556	   1.62468
 555.55556	   1.62661
 556.55556	   1.62961
 557.55556	   1.63330
 558.55556	   1.63699
 559.55556	   1.64067
 560.55556	   1.64434
 561.55556	   1.64801
 562.55556	   1.65166
 563.55556	   1.65531
 564.55556	   1.65895
 565.55556	   1.66258
 566.55556	   1.66621
 567.55556	   1.66982
 568.55556	   1.67343
 569.55556	   1.67703
 570.55556	   1.68062
 571.55556	   1.68421
 572.55556	   1.68779
 573.55556	   1.69136
 574.55556	   1.69492
 575.55556	   1.69847
 576.55556	   1.70202
 577.55556	   1.70556
 578.55556	   1.70820
 579.55556	   1.70983
 580.55556	   1.71145
 581.55556	   1.71307
 582.55556	   1.71469
 583.55556	   1.71632
 584.55556	   1.71790
 585.55556	   1.71701
 586.55556	   1.71614
 587.55556	   1.71529
 588.55556	   1.71446
 589.55556	   1.71364
 590.55556	   1.71285
 591.55556	   1.71207
 592.55556	   1.71131
 593.55556	   1.71057
 594.55556	   1.70984
 595.55556	   1.70914
 596.55556	   1.70845
 597.55556	   1.70777
 598.55556	   1.70712
 599.55556	   1.70648
 600.55556	   1.70585
 601.55556	   1.70525
 602.55556	   1.70465
 603.55556	   1.70408
 604.55556	   1.70352
 605.55556	   1.70297
 606.55556	   1.70244
 607.55556	   1.70192
 608.55556	   1.70204
 609.55556	   1.70423
 610.55556	   1.70797
 611.55556	   1.71169
 612.55556	   1.71541
 613.55556	   1.71913
 614.55556	   1.72283
 615.55556	   1.72653
 616.55556	   1.73021
 617.55556	   1.73389
 618.55556	   1.73757
 619.55556	   1.74123
 620.55556	   1.74489
 621.55556	   1.74854
 622.55556	   1.75218
 623.55556	   1.75581
 624.55556	   1.75944
 625.55556	   1.76306
 626.55556	   1.76667
 627.55556	   1.77028
 628.55556	   1.77387
 629.55556	   1.77746
 630.55556	   1.78105
 631.55556	   1.78462
 632.55556	   1.78819
 633.55556	   1.79409
 634.55556	   1.80916
 635.55556	   1.82415
 636.55556	   1.83905
 637.55556	   1.85388
 638.55556	   1.86863
 639.55556	   1.88330
 640.55556	   1.89789
 641.55556	   1.91146
 642.55556	   1.91783
 643.55556	   1.92418
 644.55556	   1.93051
 645.55556	   1.93682
 646.55556	   1.94311
 647.55556	   1.94939
 648.55556	   1.95565
 649.55556	   1.96188
 650.55556	   1.96885
 651.55556	   1.97585
 652.55556	   1.98282
 653.55556	   1.98978
 654.55556	   1.99672
 655.55556	   2.00364
 656.55556	   2.01054
 657.55556	   2.01742
 658.55556	   2.02825
 659.55556	   2.04822
 660.55556	   2.06809
 661.55556	   2.08784
 662.55556	   2.10748
 663.55556	   2.12701
 664.55556	   2.14644
 665.55556	   2.16576
 666.55556	   2.18497
 667.55556	   2.19122
 668.55556	   2.19671
 669.55556	   2.20220
 670.55556	   2.20767
 671.55556	   2.21313
 672.55556	   2.21858
 673.55556	   2.22402
 674.55556	   2.22944
 675.55556	   2.23486
 676.55556	   2.24026
 677.55556	   2.24565
 678.55556	   2.25103
 679.55556	   2.25640
 680.55556	   2.26176
 681.55556	   2.26711
 682.55556	   2.27244
 683.55556	   2.27777
 684.55556	   2.28308
 685.55556	   2.28839
 686.55556	   2.29368
 687.55556	   2.29896
 688.55556	   2.30423
 689.55556	   2.30949
 690.55556	   2.31474
 691.55556	   2.31998
 692.55556	   2.32521
 693.55556	   2.33198
 694.55556	   2.34073
 695.55556	   2.34947
 696.55556	   2.35817
 697.55556	   2.36686
 698.55556	   2.37552
 699.55556	   2.38415
 700.55556	   2.39276
 701.55556	   2.40135
 702.55556	   2.40991
 703.55556	   2.41837
 704.55556	   2.42668
 705.55556	   2.43498
 706.55556	   2.44325
 707.55556	   2.45150
 708.55556	   2.45973
 709.55556	   2.46793
 710.55556	   2.47611
 711.55556	   2.48471
 712.55556	   2.49434
 713.55556	   2.50394
 714.55556	   2.51351
 715.55556	   2.52305
 716.55556	   2.53257
 717.55556	   2.54206
 718.55556	   2.55152
 719.55556	   2.56095
 720.55556	   2.57036
 721.55556	   2.57973
 722.55556	   2.58908
 723.55556	   2.59841
 724.55556	   2.60771
 725.55556	   2.61698
 726.55556	   2.62622
 727.55556	   2.63544
 728.55556	   2.64464
 729.55556	   2.65381
 730.55556	   2.65929
 731.55556	   2.66315
 732.55556	   2.66701
 733.55556	   2.67086
 734.55556	   2.67471
 735.55556	   2.67855
 736.55556	   2.68239
 737.55556	   2.68622
 738.55556	   2.69004
 739.55556	   2.69386
 740.55556	   2.69768
 741.55556	   2.70149
 742.55556	   2.70529
 743.55556	   2.70909
 744.55556	   2.71289
 745.55556	   2.71668
 746.55556	   2.72046
 747.55556	   2.72424
 748.55556	   2.72801
 749.55556	   2.73178
 750.55556	   2.73554
 751.55556	   2.74018
 752.55556	   2.74578
 753.55556	   2.75137
 754.55556	   2.75696
 755.55556	   2.76254
 756.55556	   2.76811
 757.55556	   2.77368
 758.55556	   2.77924
 759.55556	   2.79443
 760.55556	   2.81720
 761.55556	   2.83987
 762.55556	   2.86243
 763.55556	   2.88489
 764.55556	   2.90725
 765.55556	   2.92951
 766.55556	   2.95167
 767.55556	   2.97374
 768.55556	   2.99570
 769.55556	   3.00527
 770.55556	   3.01338
 771.55556	   3.02148
 772.55556	   3.02957
 773.55556	   3.03765
 774.55556	   3.04571
 775.55556	   3.05376
 776.55556	   3.06179
 777.55556	   3.06982
 778.55556	   3.07783
 779.55556	   3.08582
 780.55556	   3.09381
 781.55556	   3.10178
 782.55556	   3.10974
 783.55556	   3.11768
 784.55556	   3.12562
 785.55556	   3.13354
 786.55556	   3.14145
 787.55556	   3.14934
 788.55556	   3.15723
 789.55556	   3.16510
 790.55556	   3.17296
 791.55556	   3.18080
 792.55556	   3.18864
 793.55556	   3.19646
 794.55556	   3.20427
 795.55556	   3.21206
 796.55556	   3.21985
 797.55556	   3.22762
 798.55556	   3.23538
 799.55556	   3.24259
 800.55556	   3.24866
 801.55556	   3.25472
 802.55556	   3.26078
 803.55556	   3.26683
 804.55556	   3.27287
 805.55556	   3.27890
 806.55556	   3.28493
 807.55556	   3.29095
 808.55556	   3.29696
 809.55556	   3.30296
 810.55556	   3.30896
 811.55556	   3.31495
 812.55556	   3.32093
 813.55556	   3.32691
 814.55556	   3.33288
 815.55556	   3.33884
 816.55556	   3.34479
 817.55556	   3.35074
 818.55556	   3.35668
 819.55556	   3.36262
 820.55556	   3.36854
 821.55556	   3.37446
 822.55556	   3.38038
 823.55556	   3.38628
 824.55556	   3.39218
 825.55556	   3.39807
 826.55556	   3.40396
 827.55556	   3.40984
 828.55556	   3.41571
 829.55556	   3.42157
 830.55556	   3.42743
 831.55556	   3.43573
 832.55556	   3.44741
 833.55556	   3.45906
 834.55556	   3.47068
 835.55556	   3.48228
 836.55556	   3.49386
 837.55556	   3.50540
 838.55556	   3.51692
 839.55556	   3.52842
 840.55556	   3.53988
 841.55556	   3.55133
 842.55556	   3.56274
 843.55556	   3.57413
 844.55556	   3.58550
 845.55556	   3.59684
 846.55556	   3.60844
 847.55556	   3.62009
 848.55556	   3.63171
 849.55556	   3.64331
 850.55556	   3.65489
 851.55556	   3.66644
 852.55556	   3.67796
 853.55556	   3.68656
 854.55556	   3.69365
 855.55556	   3.70074
 856.55556	   3.70781
 857.55556	   3.71488
 858.55556	   3.72193
 859.55556	   3.72898
 860.55556	   3.73602
 861.55556	   3.74305
 862.55556	   3.75007
 863.55556	   3.75708
 864.55556	   3.76408
 865.55556	   3.77108
 866.55556	   3.77806
 867.55556	   3.78504
 868.55556	   3.79201
 869.55556	   3.79897
 870.55556	   3.80592
 871.55556	   3.81287
 872.55556	   3.81980
 873.55556	   3.82673
 874.55556	   3.83365
 875.55556	   3.84056
 876.55556	   3.84746
 877.55556	   3.85435
 878.55556	   3.86123
 879.55556	   3.86811
 880.55556	   3.87498
 881.55556	   3.88184
 882.55556	   3.88869
 883.55556	   3.89553
 884.55556	   3.90237
 885.55556	   3.90920
 886.55556	   3.91601
 887.55556	   3.92266
 888.55556	   3.92920
 889.55556	   3.93573
 890.55556	   3.94226
 891.55556	   3.94878
 892.55556	   3.95529
 893.55556	   3.96180
 894.55556	   3.96830
 895.55556	   3.97479
 896.55556	   3.98127
 897.55556	   3.98775
 898.55556	   3.99422
 899.55556	   4.00068
 900.55556	   4.00713
 901.55556	   4.01358
 902.55556	   4.02002
 903.55556	   4.02645
 904.55556	   4.03288
 905.55556	   4.03929
 906.55556	   4.04571
 907.55556	   4.05211
 908.55556	   4.05851
 909.55556	   4.06490
 910.55556	   4.07128
 911.55556	   4.07765
 912.55556	   4.08402
 913.55556	   4.09038
 914.55556	   4.09674
 915.55556	   4.10309
 916.55556	   4.10943
 917.55556	   4.11576
 918.55556	   4.12209
 919.55556	   4.12841
 920.55556	   4.13472
 921.55556	   4.14103
 922.55556	   4.14751
 923.55556	   4.15456
 924.55556	   4.16161
 925.55556	   4.16865
 926.55556	   4.17568
 927.55556	   4.18271
 928.55556	   4.18972
 929.55556	   4.19673
 930.55556	   4.20372
 931.55556	   4.21071
 932.55556	   4.21769
 933.55556	   4.22466
 934.55556	   4.23163
 935.55556	   4.23858
 936.55556	   4.24553
 937.55556	   4.25247
 938.55556	   4.25940
 939.55556	   4.26632
 940.55556	   4.27341
 941.55556	   4.28060
 942.55556	   4.28778
 943.55556	   4.29496
 944.55556	   4.30212
 945.55556	   4.30928
 946.55556	   4.31643
 947.55556	   4.32357
 948.55556	   4.33070
 949.55556	   4.33782
 950.55556	   4.34494
 951.55556	   4.35205
 952.55556	   4.35914
 953.55556	   4.36624
 954.55556	   4.37332
 955.55556	   4.38039
 956.55556	   4.38746
 957.55556	   4.39452
 958.55556	   4.40157
 959.55556	   4.40815
 960.55556	   4.41415
 961.55556	   4.42014
 962.55556	   4.42613
 963.55556	   4.43211
 964.55556	   4.43809
 965.55556	   4.44406
 966.55556	   4.45002
 967.55556	   4.45598
 968.55556	   4.46194
 969.55556	   4.46789
 970.55556	   4.47383
 971.55556	   4.47977
 972.55556	   4.48570
 973.55556	   4.49163
 974.55556	   4.49755
 975.55556	   4.50346
 976.55556	   4.50938
 977.55556	   4.51528
 978.55556	   4.52118
 979.55556	   4.52707
 980.55556	   4.53296
 981.55556	   4.53885
 982.55556	   4.54473
 983.55556	   4.55060
 984.55556	   4.55647
 985.55556	   4.56233
 986.55556	   4.56819
 987.55556	   4.57404
 988.55556	   4.57988
 989.55556	   4.58572
 990.55556	   4.59156
 991.55556	   4.59739
 992.55556	   4.60322
 993.55556	   4.60904
 994.55556	   4.61485
 995.55556	   4.62066
 996.55556	   4.62646
 997.55556	   4.63226
 998.55556	   4.63806
 999.55556	   4.64385
1000.55556	   4.64963
1001.55556	   4.65541
1002.55556	   4.66118
1003.55556	   4.66695
1004.55556	   4.67271
1005.55556	   4.67847
1006.55556	   4.68422
1007.55556	   4.68997
1008.55556	   4.69571
1009.55556	   4.70145
1010.55556	   4.70718
1011.55556	   4.73326
1012.55556	   4.75950
1013.55556	   4.78562
1014.55556	   4.81162
1015.55556	   4.83750
1016.55556	   4.86327
1017.55556	   4.88893
1018.55556	   4.91447
1019.55556	   4.93990
1020.55556	   4.96522
1021.55556	   4.99044
1022.55556	   5.01554
1023.55556	   5.03735
1024.55556	   5.04228
1025.55556	   5.04722
1026.55556	   5.05215
1027.55556	   5.05707
1028.55556	   5.06200
1029.55556	   5.06692
1030.55556	   5.07183
1031.55556	   5.07675
1032.55556	   5.08166
1033.55556	   5.08656
1034.55556	   5.09146
1035.55556	   5.09636
1036.55556	   5.10126
1037.55556	   5.10615
1038.55556	   5.11104
1039.55556	   5.11592
1040.55556	   5.12080
1041.55556	   5.12568
1042.55556	   5.13056
1043.55556	   5.13543
1044.55556	   5.14030
1045.55556	   5.14644
1046.55556	   5.15258
1047.55556	   5.15872
1048.55556	   5.16485
1049.55556	   5.17098
1050.55556	   5.17711
1051.55556	   5.18323
1052.55556	   5.18936
1053.55556	   5.19547
1054.55556	   5.20159
1055.55556	   5.20770
1056.55556	   5.21380
1057.55556	   5.21991
1058.55556	   5.22601
1059.55556	   5.23210
1060.55556	   5.23820
1061.55556	   5.24429
1062.55556	   5.25037
1063.55556	   5.25646
1064.55556	   5.26254
1065.55556	   5.26861
1066.55556	   5.27469
1067.55556	   5.28076
1068.55556	   5.28682
1069.55556	   5.29288
1070.55556	   5.29894
1071.55556	   5.30500
1072.55556	   5.31105
1073.55556	   5.31710
1074.55556	   5.32314
1075.55556	   5.32919
1076.55556	   5.33522
1077.55556	   5.34126
1078.55556	   5.34729
1079.55556	   5.35332
1080.55556	   5.35934
1081.55556	   5.36537
1082.55556	   5.37138
1083.55556	   5.37740
1084.55556	   5.38341
1085.55556	   5.38942
1086.55556	   5.39542
1087.55556	   5.40142
1088.55556	   5.40742
1089.55556	   5.41341
1090.55556	   5.41940
1091.55556	   5.42539
1092.55556	   5.43138
1093.55556	   5.44115
1094.55556	   5.45121
1095.55556	   5.46126
1096.55556	   5.47130
1097.55556	   5.48133
1098.55556	   5.49134
1099.55556	   5.50134
1100.55556	   5.51132
1101.55556	   5.52125
1102.55556	   5.53111
1103.55556	   5.54096
1104.55556	   5.55080
1105.55556	   5.56062
1106.55556	   5.57043
1107.55556	   5.58023
1108.55556	   5.59001
1109.55556	   5.59978
1110.55556	   5.60954
1111.55556	   5.61928
1112.55556	   5.62902
1113.55556	   5.63874
1114.55556	   5.64845
1115.55556	   5.65814
1116.55556	   5.66782
1117.55556	   5.67749
1118.55556	   5.68715
1119.55556	   5.69680
1120.55556	   5.70643
1121.55556	   5.71605
1122.55556	   5.72566
1123.55556	   5.73526
1124.55556	   5.74484
1125.55556	   5.75442
1126.55556	   5.76398
1127.55556	   5.77352
1128.55556	   5.78306
1129.55556	   5.79258
1130.55556	   5.80210
1131.55556	   5.81160
1132.55556	   5.82109
1133.55556	   5.83056
1134.55556	   5.84003
1135.55556	   5.84948
1136.55556	   5.85760
1137.55556	   5.86423
1138.55556	   5.87085
1139.55556	   5.87747
1140.55556	   5.88408
1141.55556	   5.89069
1142.55556	   5.89729
1143.55556	   5.90389
1144.55556	   5.91049
1145.55556	   5.91707
1146.55556	   5.92366
1147.55556	   5.93024
1148.55556	   5.93681
1149.55556	   5.94338
1150.55556	   5.94994
1151.55556	   5.95650
1152.55556	   5.96306
1153.55556	   5.96961
1154.55556	   5.97615
1155.55556	   5.98269
1156.55556	   5.98923
1157.55556	   5.99576
1158.55556	   6.00228
1159.55556	   6.00880
1160.55556	   6.01532
1161.55556	   6.02201
1162.55556	   6.02876
1163.55556	   6.03551
1164.55556	   6.04225
1165.55556	   6.04899
1166.55556	   6.05572
1167.55556	   6.06245
1168.55556	   6.06917
1169.55556	   6.07589
1170.55556	   6.08261
1171.55556	   6.08931
1172.55556	   6.09602
1173.55556	   6.10272
1174.55556	   6.10941
1175.55556	   6.11610
1176.55556	   6.12279
1177.55556	   6.12947
1178.55556	   6.13615
1179.55556	   6.14282
1180.55556	   6.14948
1181.55556	   6.15615
1182.55556	   6.16280
1183.55556	   6.16945
1184.55556	   6.17610
1185.55556	   6.18275
1186.55556	   6.18938
1187.55556	   6.19602
1188.55556	   6.20265
1189.55556	   6.20927
1190.55556	   6.21589
1191.55556	   6.22251
1192.55556	   6.22912
1193.55556	   6.23572
1194.55556	   6.24232
1195.55556	   6.24892
1196.55556	   6.25551
1197.55556	   6.26216
1198.55556	   6.26889
1199.55556	   6.27560
1200.55556	   6.28231
1201.55556	   6.28902
1202.55556	   6.29572
1203.55556	   6.30242
1204.55556	   6.30911
1205.55556	   6.31580
1206.55556	   6.32248
1207.55556	   6.32916
1208.55556	   6.33583
1209.55556	   6.34250
1210.55556	   6.34917
1211.55556	   6.35583
1212.55556	   6.36248
1213.55556	   6.36913
1214.55556	   6.37577
1215.55556	   6.38241
1216.55556	   6.38905
1217.55556	   6.39568
1218.55556	   6.40231
1219.55556	   6.40893
1220.55556	   6.41554
1221.55556	   6.42215
1222.55556	   6.42876
1223.55556	   6.43536
1224.55556	   6.44371
1225.55556	   6.45248
1226.55556	   6.46124
1227.55556	   6.46999
1228.55556	   6.47874
1229.55556	   6.48748
1230.55556	   6.49622
1231.55556	   6.50496
1232.55556	   6.51369
1233.55556	   6.52242
1234.55556	   6.53114
1235.55556	   6.53985
1236.55556	   6.54857
1237.55556	   6.55727
1238.55556	   6.56598
1239.55556	   6.57468
